<?xml version="1.0" encoding="utf-8"?>
<COLLADA xmlns="http://www.collada.org/2005/11/COLLADASchema" version="1.4.1">
  <asset>
    <contributor>
      <author>Duion</author>
      <authoring_tool>Blender 2.65.0 r53189</authoring_tool>
    </contributor>
    <created>2013-06-11T18:58:25</created>
    <modified>2013-06-11T18:58:25</modified>
    <unit name="meter" meter="1"/>
    <up_axis>Z_UP</up_axis>
  </asset>
  <library_lights>
    <light id="Hemi-light" name="Hemi">
      <technique_common>
        <ambient>
          <color>1 1 1</color>
        </ambient>
      </technique_common>
      <extra>
        <technique profile="blender">
          <adapt_thresh>0.000999987</adapt_thresh>
          <area_shape>0</area_shape>
          <area_size>0.1</area_size>
          <area_sizey>0.1</area_sizey>
          <area_sizez>0.1</area_sizez>
          <atm_distance_factor>1</atm_distance_factor>
          <atm_extinction_factor>1</atm_extinction_factor>
          <atm_turbidity>2</atm_turbidity>
          <att1>0</att1>
          <att2>1</att2>
          <backscattered_light>1</backscattered_light>
          <bias>1</bias>
          <blue>1</blue>
          <buffers>1</buffers>
          <bufflag>0</bufflag>
          <bufsize>512</bufsize>
          <buftype>2</buftype>
          <clipend>40</clipend>
          <clipsta>0.5</clipsta>
          <compressthresh>0.04999995</compressthresh>
          <dist sid="blender_dist">25</dist>
          <energy sid="blender_energy">1</energy>
          <falloff_type>2</falloff_type>
          <filtertype>0</filtertype>
          <flag>0</flag>
          <gamma sid="blender_gamma">1</gamma>
          <green>1</green>
          <halo_intensity sid="blnder_halo_intensity">1</halo_intensity>
          <horizon_brightness>1</horizon_brightness>
          <mode>1</mode>
          <ray_samp>1</ray_samp>
          <ray_samp_method>1</ray_samp_method>
          <ray_samp_type>0</ray_samp_type>
          <ray_sampy>1</ray_sampy>
          <ray_sampz>1</ray_sampz>
          <red>1</red>
          <samp>3</samp>
          <shadhalostep>0</shadhalostep>
          <shadow_b sid="blender_shadow_b">0</shadow_b>
          <shadow_g sid="blender_shadow_g">0</shadow_g>
          <shadow_r sid="blender_shadow_r">0</shadow_r>
          <shadspotsize>45</shadspotsize>
          <sky_colorspace>2</sky_colorspace>
          <sky_exposure>1</sky_exposure>
          <skyblendfac>1</skyblendfac>
          <skyblendtype>1</skyblendtype>
          <soft>3</soft>
          <spotblend>0.15</spotblend>
          <spotsize>45</spotsize>
          <spread>1</spread>
          <sun_brightness>1</sun_brightness>
          <sun_effect_type>0</sun_effect_type>
          <sun_intensity>1</sun_intensity>
          <sun_size>1</sun_size>
          <type>3</type>
        </technique>
      </extra>
    </light>
  </library_lights>
  <library_images/>
  <library_effects>
    <effect id="reed_sf-effect">
      <profile_COMMON>
        <technique sid="common">
          <phong>
            <emission>
              <color sid="emission">0 0 0 1</color>
            </emission>
            <ambient>
              <color sid="ambient">0 0 0 1</color>
            </ambient>
            <diffuse>
              <color sid="diffuse">0.64 0.64 0.64 1</color>
            </diffuse>
            <specular>
              <color sid="specular">0.5 0.5 0.5 1</color>
            </specular>
            <shininess>
              <float sid="shininess">50</float>
            </shininess>
            <transparency>
              <float sid="transparency">0</float>
            </transparency>
            <index_of_refraction>
              <float sid="index_of_refraction">1</float>
            </index_of_refraction>
          </phong>
        </technique>
        <extra>
          <technique profile="GOOGLEEARTH">
            <double_sided>1</double_sided>
          </technique>
        </extra>
      </profile_COMMON>
      <extra><technique profile="MAX3D"><double_sided>1</double_sided></technique></extra>
    </effect>
  </library_effects>
  <library_materials>
    <material id="reed_sf-material" name="reed_sf">
      <instance_effect url="#reed_sf-effect"/>
    </material>
  </library_materials>
  <library_geometries>
    <geometry id="reed_sf8-mesh" name="reed_sf8">
      <mesh>
        <source id="reed_sf8-mesh-positions">
          <float_array id="reed_sf8-mesh-positions-array" count="168">-0.6069561 -0.8105524 -0.2689601 0.7758589 0.6340528 -0.2383239 -0.9156008 -0.5502325 2.89835 0.4549105 0.881519 2.928714 0.492337 -0.8312235 -0.3027642 -0.7325139 0.7465422 -0.2008088 1.505673 -0.3483257 2.968344 0.2060456 1.325762 3.076524 0.01267075 0.7315897 0.1558626 -0.2483019 -0.8622426 -0.8601006 -0.6491075 -0.03546965 2.815153 -0.9627974 -1.951262 1.593961 -1.125009 -0.05779379 -0.26896 0.9943304 -0.008421182 -0.2383238 -1.045105 0.01827818 3.579234 1.035247 0.07276624 3.616256 -0.2751072 0.9062177 -0.2689598 0.09439307 -0.9704262 -0.2383236 0.05413073 1.042067 3.144213 0.5064666 -0.871692 3.439865 -0.74487 -1.919809 1.753871 1.304191 -1.312286 2.420343 -0.6222722 -0.3035058 -0.5978689 1.112776 0.04006105 0.613997 1.093278 -0.1242057 -0.3658067 -0.9536494 -0.7328299 -0.4141369 0.962305 -0.4726372 3.137251 -1.267496 -1.163284 2.874645 -0.5864545 0.1924145 -0.2565364 1.075576 -0.6204965 -0.07432854 -0.928367 -0.3807744 2.635548 1.191877 -1.53358 2.146434 -1.731707 0.6306253 2.393013 -0.370343 -0.6032668 2.838026 -0.9440082 0.6757618 -0.2870643 0.377312 -0.5152497 -0.1208452 0.4819515 0.3295465 -0.2610022 -1.113423 -0.5205004 -0.3679806 -0.1223179 1.157256 1.857028 -1.815089 0.2553144 1.743518 -0.3737447 0.7756044 -0.4628784 -0.4447382 -0.7717415 -0.2370088 -0.1755132 1.142717 2.539702 -0.2608476 -0.7171989 2.811198 1.399469 1.481088 1.942238 -0.15068 0.1792279 2.822237 1.060716 0.7752773 -0.3152416 -0.3752055 -0.7158954 -0.003014624 0.6798766 -0.8659119 -0.2574816 -0.3738774 0.7805709 -0.5147126 1.636439 -0.2992902 2.322211 0.4876618 1.528219 1.868966 1.241324 -0.0183658 -0.35111 -0.6939226 0.119956 -0.2287337 1.901728 -0.1020416 2.262196 -0.3899206 0.1974292 3.328336</float_array>
          <technique_common>
            <accessor source="#reed_sf8-mesh-positions-array" count="56" stride="3">
              <param name="X" type="float"/>
              <param name="Y" type="float"/>
              <param name="Z" type="float"/>
            </accessor>
          </technique_common>
        </source>
        <source id="reed_sf8-mesh-normals">
          <float_array id="reed_sf8-mesh-normals-array" count="168">-0.7152623 0.6873379 -0.126194 -0.7152623 0.6873379 -0.126194 -0.7152623 0.6873379 -0.126194 -0.7152623 0.6873379 -0.126194 -0.7391888 -0.5943174 0.3167211 -0.7391888 -0.5943174 0.3167211 -0.7391888 -0.5943174 0.3167211 -0.7391888 -0.5943174 0.3167211 0.9520859 -0.2592547 0.1621448 0.9520859 -0.2592547 0.1621448 0.9520859 -0.2592547 0.1621448 0.9520859 -0.2592547 0.1621448 -0.02438426 0.9994812 -0.02002012 -0.02438426 0.9994812 -0.02002012 -0.02438426 0.9994812 -0.02002012 -0.02438426 0.9994812 -0.02002012 0.9734184 0.2016968 -0.1084017 0.9734184 0.2016968 -0.1084017 0.9734184 0.2016968 -0.1084017 0.9734184 0.2016968 -0.1084017 0.4433729 -0.7259743 -0.5256508 0.4433729 -0.7259743 -0.5256508 0.4433729 -0.7259743 -0.5256508 0.4433729 -0.7259743 -0.5256508 0.2954497 -0.9511094 -0.0896939 0.2954497 -0.9511094 -0.0896939 0.2954497 -0.9511094 -0.0896939 0.2954497 -0.9511094 -0.0896939 0.4614093 0.8462477 0.266335 0.4614093 0.8462477 0.266335 0.4614093 0.8462477 0.266335 0.4614093 0.8462477 0.266335 -0.6340831 -0.7494431 -0.1903134 -0.6340831 -0.7494431 -0.1903134 -0.6340831 -0.7494431 -0.1903134 -0.6340831 -0.7494431 -0.1903134 0.4017761 -0.8082217 0.4304636 0.4017761 -0.8082217 0.4304636 0.4017761 -0.8082217 0.4304636 0.4017761 -0.8082217 0.4304636 0.996765 -0.05435341 -0.05914485 0.996765 -0.05435341 -0.05914485 0.996765 -0.05435341 -0.05914485 0.996765 -0.05435341 -0.05914485 -0.705649 0.6944487 -0.1405072 -0.705649 0.6944487 -0.1405072 -0.705649 0.6944487 -0.1405072 -0.705649 0.6944487 -0.1405072 -0.806299 -0.4276254 0.4085818 -0.806299 -0.4276254 0.4085818 -0.806299 -0.4276254 0.4085818 -0.806299 -0.4276254 0.4085818 -0.09897148 -0.9949644 0.01446574 -0.09897148 -0.9949644 0.01446574 -0.09897148 -0.9949644 0.01446574 -0.09897148 -0.9949644 0.01446574</float_array>
          <technique_common>
            <accessor source="#reed_sf8-mesh-normals-array" count="56" stride="3">
              <param name="X" type="float"/>
              <param name="Y" type="float"/>
              <param name="Z" type="float"/>
            </accessor>
          </technique_common>
        </source>
        <source id="reed_sf8-mesh-map-0">
          <float_array id="reed_sf8-mesh-map-0-array" count="112">0.9980266 0 0.00197339 0 0.00197339 1 0.9980266 1 0.9980266 1 0.00197339 1 0.00197339 0 0.9980266 0 0.9980266 1 0.00197339 1 0.00197339 0 0.9980266 0 0.00197339 1 0.9980266 1 0.9980266 0 0.00197339 0 0.00197339 1 0.9980266 1 0.9980266 0 0.00197339 0 0.00197339 1 0.9980266 1 0.9980266 0 0.00197339 0 0.9980266 1 0.00197339 1 0.00197339 0 0.9980266 0 0.9980266 1 0.00197339 1 0.00197339 0 0.9980266 0 0.00197339 1 0.9980266 1 0.9980266 0 0.00197339 0 0.9980266 1 0.00197339 1 0.00197339 0 0.9980266 0 0.9980266 1 0.00197339 1 0.00197339 0 0.9980266 0 0.00197339 1 0.9980266 1 0.9980266 0 0.00197339 0 0.9980266 1 0.00197339 1 0.00197339 0 0.9980266 0 0.9980266 1 0.00197339 1 0.00197339 0 0.9980266 0</float_array>
          <technique_common>
            <accessor source="#reed_sf8-mesh-map-0-array" count="56" stride="2">
              <param name="S" type="float"/>
              <param name="T" type="float"/>
            </accessor>
          </technique_common>
        </source>
        <source id="reed_sf8-mesh-colors">
          <float_array id="reed_sf8-mesh-colors-array" count="168">0 0.5725491 0 0 0.6588236 0 1 0.7843137 1 1 0.7215687 1 1 0.4313725 1 1 0.4313725 1 0 0.2980392 0 0 0.4117647 0 1 0.2235294 1 1 0.2392157 1 0 0.2941176 0 0 0.2823529 0 1 0.7843137 1 1 0.7215687 1 0 0.5725491 0 0 0.6588236 0 1 0.7843137 1 1 0.7215687 1 0 0.5725491 0 0 0.6588236 0 1 0.7843137 1 1 0.7215687 1 0 0.5725491 0 0 0.6588236 0 1 0.4313725 1 1 0.4313725 1 0 0.2980392 0 0 0.4117647 0 1 0.2235294 1 1 0.2392157 1 0 0.2941176 0 0 0.2823529 0 1 0.7843137 1 1 0.7215687 1 0 0.5725491 0 0 0.6588236 0 1 0.4313725 1 1 0.4313725 1 0 0.2980392 0 0 0.4117647 0 1 0.2235294 1 1 0.2392157 1 0 0.2941176 0 0 0.2823529 0 1 0.7843137 1 1 0.7215687 1 0 0.5725491 0 0 0.6588236 0 1 0.4313725 1 1 0.4313725 1 0 0.2980392 0 0 0.4117647 0 1 0.2235294 1 1 0.2392157 1 0 0.2941176 0 0 0.2823529 0</float_array>
          <technique_common>
            <accessor source="#reed_sf8-mesh-colors-array" count="56" stride="3">
              <param name="R" type="float"/>
              <param name="G" type="float"/>
              <param name="B" type="float"/>
            </accessor>
          </technique_common>
        </source>
        <vertices id="reed_sf8-mesh-vertices">
          <input semantic="POSITION" source="#reed_sf8-mesh-positions"/>
        </vertices>
        <polylist material="reed_sf-material" count="14">
          <input semantic="VERTEX" source="#reed_sf8-mesh-vertices" offset="0"/>
          <input semantic="NORMAL" source="#reed_sf8-mesh-normals" offset="1"/>
          <input semantic="TEXCOORD" source="#reed_sf8-mesh-map-0" offset="2" set="0"/>
          <input semantic="COLOR" source="#reed_sf8-mesh-colors" offset="3"/>
          <vcount>4 4 4 4 4 4 4 4 4 4 4 4 4 4 </vcount>
          <p>1 0 0 0 0 1 1 1 2 2 2 2 3 3 3 3 6 4 4 4 7 5 5 5 5 6 6 6 4 7 7 7 10 8 8 8 11 9 9 9 9 10 10 10 8 11 11 11 14 12 12 12 15 13 13 13 13 14 14 14 12 15 15 15 18 16 16 16 19 17 17 17 17 18 18 18 16 19 19 19 21 20 20 20 20 21 21 21 22 22 22 22 23 23 23 23 26 24 24 24 27 25 25 25 25 26 26 26 24 27 27 27 30 28 28 28 31 29 29 29 29 30 30 30 28 31 31 31 33 32 32 32 32 33 33 33 34 34 34 34 35 35 35 35 38 36 36 36 39 37 37 37 37 38 38 38 36 39 39 39 42 40 40 40 43 41 41 41 41 42 42 42 40 43 43 43 45 44 44 44 44 45 45 45 46 46 46 46 47 47 47 47 50 48 48 48 51 49 49 49 49 50 50 50 48 51 51 51 54 52 52 52 55 53 53 53 53 54 54 54 52 55 55 55</p>
        </polylist>
      </mesh>
      <extra><technique profile="MAYA"><double_sided>1</double_sided></technique></extra>
    </geometry>
  </library_geometries>
  <library_visual_scenes>
    <visual_scene id="Scene" name="Scene">
      <node id="base01" name="base01" type="NODE">
        <translate sid="location">0 0 0</translate>
        <rotate sid="rotationZ">0 0 1 0</rotate>
        <rotate sid="rotationY">0 1 0 0</rotate>
        <rotate sid="rotationX">1 0 0 0</rotate>
        <scale sid="scale">1 1 1</scale>
        <node id="detail8" name="detail8" type="NODE">
          <translate sid="location">0 0 0</translate>
          <rotate sid="rotationZ">0 0 1 0</rotate>
          <rotate sid="rotationY">0 1 0 0</rotate>
          <rotate sid="rotationX">1 0 0 0</rotate>
          <scale sid="scale">1 1 1</scale>
        </node>
        <node id="start01" name="start01" type="NODE">
          <translate sid="location">0 0 0</translate>
          <rotate sid="rotationZ">0 0 1 0</rotate>
          <rotate sid="rotationY">0 1 0 0</rotate>
          <rotate sid="rotationX">1 0 0 0</rotate>
          <scale sid="scale">1 1 1</scale>
          <node id="reed_sf8" name="reed_sf8" type="NODE">
            <translate sid="location">0 0 -0.2242563</translate>
            <rotate sid="rotationZ">0 0 1 0</rotate>
            <rotate sid="rotationY">0 1 0 0</rotate>
            <rotate sid="rotationX">1 0 0 0</rotate>
            <scale sid="scale">0.5115774 0.5690854 0.447519</scale>
            <instance_geometry url="#reed_sf8-mesh">
              <bind_material>
                <technique_common>
                  <instance_material symbol="reed_sf-material" target="#reed_sf-material">
                    <bind_vertex_input semantic="UVMap" input_semantic="TEXCOORD" input_set="0"/>
                  </instance_material>
                </technique_common>
              </bind_material>
            </instance_geometry>
          </node>
        </node>
        <node id="nulldetail0" name="nulldetail0" type="NODE">
          <translate sid="location">0 0 0</translate>
          <rotate sid="rotationZ">0 0 1 0</rotate>
          <rotate sid="rotationY">0 1 0 0</rotate>
          <rotate sid="rotationX">1 0 0 0</rotate>
          <scale sid="scale">1 1 1</scale>
        </node>
      </node>
      <node id="Hemi" name="Hemi" type="NODE">
        <translate sid="location">-4.722846 -2.243675 -1.201029</translate>
        <rotate sid="rotationZ">0 0 1 0</rotate>
        <rotate sid="rotationY">0 1 0 0</rotate>
        <rotate sid="rotationX">1 0 0 0</rotate>
        <scale sid="scale">1 1 1</scale>
        <instance_light url="#Hemi-light"/>
      </node>
    </visual_scene>
  </library_visual_scenes>
  <scene>
    <instance_visual_scene url="#Scene"/>
  </scene>
</COLLADA>