<?xml version="1.0" encoding="utf-8"?>
<COLLADA xmlns="http://www.collada.org/2005/11/COLLADASchema" version="1.4.1">
  <asset>
    <contributor>
      <author>Duion</author>
      <authoring_tool>Blender 2.65.0 r53189</authoring_tool>
    </contributor>
    <created>2013-06-11T17:52:07</created>
    <modified>2013-06-11T17:52:07</modified>
    <unit name="meter" meter="1"/>
    <up_axis>Z_UP</up_axis>
  </asset>
  <library_lights>
    <light id="Hemi-light" name="Hemi">
      <technique_common>
        <ambient>
          <color>1 1 1</color>
        </ambient>
      </technique_common>
      <extra>
        <technique profile="blender">
          <adapt_thresh>0.000999987</adapt_thresh>
          <area_shape>0</area_shape>
          <area_size>1</area_size>
          <area_sizey>1</area_sizey>
          <area_sizez>1</area_sizez>
          <atm_distance_factor>1</atm_distance_factor>
          <atm_extinction_factor>1</atm_extinction_factor>
          <atm_turbidity>2</atm_turbidity>
          <att1>0</att1>
          <att2>1</att2>
          <backscattered_light>1</backscattered_light>
          <bias>1</bias>
          <blue>1</blue>
          <buffers>1</buffers>
          <bufflag>0</bufflag>
          <bufsize>512</bufsize>
          <buftype>2</buftype>
          <clipend>40</clipend>
          <clipsta>0.5</clipsta>
          <compressthresh>0.04999995</compressthresh>
          <dist sid="blender_dist">25</dist>
          <energy sid="blender_energy">1</energy>
          <falloff_type>2</falloff_type>
          <filtertype>0</filtertype>
          <flag>0</flag>
          <gamma sid="blender_gamma">1</gamma>
          <green>1</green>
          <halo_intensity sid="blnder_halo_intensity">1</halo_intensity>
          <horizon_brightness>1</horizon_brightness>
          <mode>1</mode>
          <ray_samp>1</ray_samp>
          <ray_samp_method>1</ray_samp_method>
          <ray_samp_type>0</ray_samp_type>
          <ray_sampy>1</ray_sampy>
          <ray_sampz>1</ray_sampz>
          <red>1</red>
          <samp>3</samp>
          <shadhalostep>0</shadhalostep>
          <shadow_b sid="blender_shadow_b">0</shadow_b>
          <shadow_g sid="blender_shadow_g">0</shadow_g>
          <shadow_r sid="blender_shadow_r">0</shadow_r>
          <shadspotsize>45</shadspotsize>
          <sky_colorspace>2</sky_colorspace>
          <sky_exposure>1</sky_exposure>
          <skyblendfac>1</skyblendfac>
          <skyblendtype>1</skyblendtype>
          <soft>3</soft>
          <spotblend>0.15</spotblend>
          <spotsize>45</spotsize>
          <spread>1</spread>
          <sun_brightness>1</sun_brightness>
          <sun_effect_type>0</sun_effect_type>
          <sun_intensity>1</sun_intensity>
          <sun_size>1</sun_size>
          <type>3</type>
        </technique>
      </extra>
    </light>
  </library_lights>
  <library_images/>
  <library_effects>
    <effect id="boulder_granite_grey_01-effect">
      <profile_COMMON>
        <technique sid="common">
          <phong>
            <emission>
              <color sid="emission">0 0 0 1</color>
            </emission>
            <ambient>
              <color sid="ambient">0 0 0 1</color>
            </ambient>
            <diffuse>
              <color sid="diffuse">0.8 0.8 0.8 1</color>
            </diffuse>
            <specular>
              <color sid="specular">0.5 0.5 0.5 1</color>
            </specular>
            <shininess>
              <float sid="shininess">50</float>
            </shininess>
            <index_of_refraction>
              <float sid="index_of_refraction">1</float>
            </index_of_refraction>
          </phong>
        </technique>
        <extra>
          <technique profile="GOOGLEEARTH">
            <double_sided>1</double_sided>
          </technique>
        </extra>
      </profile_COMMON>
      <extra><technique profile="MAX3D"><double_sided>1</double_sided></technique></extra>
    </effect>
  </library_effects>
  <library_materials>
    <material id="boulder_granite_grey_01-material" name="boulder_granite_grey_01">
      <instance_effect url="#boulder_granite_grey_01-effect"/>
    </material>
  </library_materials>
  <library_geometries>
    <geometry id="bouldercubic128-mesh" name="bouldercubic128">
      <mesh>
        <source id="bouldercubic128-mesh-positions">
          <float_array id="bouldercubic128-mesh-positions-array" count="336">0.7687048 0.08627712 -0.7202692 0.02375233 -0.7869346 0.8280163 0.5390607 -0.3729707 0.2796972 -0.2297733 0.7320337 -0.2352554 -0.8273752 -0.123286 -0.4491434 0.1031326 -0.9663023 0.07010328 -0.1971565 0.391777 -0.4349997 0.01914381 0.7669113 0.6243103 -0.484931 -0.3949632 0.101932 -0.6259346 0.02307039 -0.6418541 -0.6973821 -0.3611226 -0.4357817 0.547375 -0.02669489 0.5434787 0.3222361 0.1778405 0.9382496 0.6209559 -0.3625677 0.04210972 0.752873 0.4000337 -0.2760391 -0.7766611 -0.1610953 0.1444305 -0.56825 0.3240496 0.4177982 -0.109492 -0.05906778 -0.9382666 0.2648282 0.5416238 -0.06169527 -0.1423021 -0.8132148 0.7133924 -0.4341477 -0.7229004 -0.4910964 0.6166232 -0.139393 -0.7939684 -0.3639131 -0.6170783 -0.01373636 0.2497856 0.3766894 -0.6967037 -0.1236134 0.2578914 -0.6623184 -0.4821808 -0.2810832 0.821094 0.5686321 -0.342094 -0.5045495 -0.2659682 -0.8962342 -0.4398539 0.04631942 -0.7917637 -0.4680555 0.8131519 0.2976652 -0.05606657 0.5372419 0.3320907 0.6869472 0.2624222 -0.4346446 -0.7232156 -0.0564168 0.7613302 0.1843547 0.3145392 0.5809634 0.7415587 0.06661909 0.3958967 -0.6684177 0.8671278 0.2265157 -0.3814591 -0.5862467 0.4981073 0.03328895 -0.5631007 -0.3648798 0.3609858 -0.2130943 -0.3378771 -0.8190897 -0.09226667 -0.9434242 0.1584494 -0.2515407 -0.1342465 0.847211 -0.6232998 -0.4146131 -0.231628 -0.7051939 0.3435016 -0.2575538 -0.2427512 0.1531686 0.8018857 0.3036785 0.6605485 0.3352475 0.3666031 -0.2421464 0.8028082 -0.6862761 0.218868 0.08882409 -0.02247494 0.7027214 -0.2169304 0.5274007 0.4946498 -0.2489786 0.4478899 0.5412958 0.1325246 -0.3703474 -0.6468254 -0.6511563 0.341045 -0.7554272 -0.1576248 0.7270712 0.3258966 -0.5871863 0.4758563 -0.4120954 0.5190175 -0.2051273 -0.5430386 0.9251633 0.7166331 0.2237362 0.2244918 0.4576251 -0.6637235 0.3149665 0.1210941 -0.919965 0.5052259 0.09840214 0.02053058 0.9810153 0.6051768 0.4720048 -0.06942707 0.1686833 -0.1393802 -0.9746325 -0.3473181 0.1977558 -0.6028853 -0.447133 -0.3645876 -0.691467 0.2879835 -0.5930953 -0.3891397 0.3072302 -0.6593295 0.681712 0.0707767 0.4509553 0.919079 -0.4410752 0.468247 0.6227133 -0.4444215 0.6903104 0.2096676 0.5859954 0.4150378 0.2305804 0.2609768 -0.8540504 0.2176232 -0.518086 0.592943 -0.1782191 -0.8551855 -0.09867852 -0.2495878 0.7161697 -0.2896243 -0.295502 0.5553703 0.2358159 -0.7693909 -0.2386404 0.7985813 0.4361451 -0.603449 -0.3271926 0.6658244 0.5890585 -0.5895449 -0.005847156 0.8168455 0.03154003 -0.1884005 -0.63473 -0.2128413 -0.5628527 0.1782363 0.5457415 -0.6137406 -0.4379255 -0.1110308 -0.8066028 -0.4227194 -0.5403801 0.5267993 0.3898094 -0.4604308 -0.4527353 0.3985973 -0.7351377 0.08148038 0.002315282 -0.5501033 -0.8053445 -0.3567623 0.1040809 -0.7254312 -0.2343348 -0.7739149 0.4392545 -0.08748388 -0.9358797 -0.2324523 -0.546164 0.05877357 0.6916719 0.4027626 0.6169582 0.5088474 0.6203818 0.3383833 0.474962 -0.3108775 0.4390583 0.7845872 -0.8039212 0.0910331 -0.4618374 0.5994942 -0.5040034 -0.2292158 0.3110343 -0.2261691 -0.9554429 -0.3168814 0.822289 -0.03465551 0.6084363 -0.1287176 0.1748601 -0.3783215 -0.5339572 0.1944317 0.4482431 0.4718156 -0.6196959 -0.2033964 -0.8631977 -0.583373 0.1611639 -0.4265328 0.9363257 -0.2736439 0.6258243 0.720113 0.822689 -0.110933 -0.53434 0.3343494 0.5666859 -0.4276911 -0.5472956 0.2699749 -0.4658694 -0.0116598 0.6592424 0.8287315 0.02407342 0.1732004 -0.8125 -0.7472326 -0.05723804 0.4684733 0.5431734 -0.01923924 -0.8969376 -0.3336906 -0.7648868 -0.2527497 0.03290623 0.6502964 -0.4359288 -0.01585036 -0.3451759 0.9909088</float_array>
          <technique_common>
            <accessor source="#bouldercubic128-mesh-positions-array" count="112" stride="3">
              <param name="X" type="float"/>
              <param name="Y" type="float"/>
              <param name="Z" type="float"/>
            </accessor>
          </technique_common>
        </source>
        <source id="bouldercubic128-mesh-normals">
          <float_array id="bouldercubic128-mesh-normals-array" count="336">0.4079715 0.9038362 -0.128727 0.3057954 0.9479354 -0.08871728 0.1203039 0.9526048 0.2793359 -0.9400311 0.08349859 0.330668 -0.663564 0.2236396 0.713889 -0.875576 0.3946043 0.278634 -0.8659322 0.4855189 0.1199377 -0.6273995 0.6685385 -0.3992126 -0.8118534 0.5422834 -0.2162236 -0.3523057 0.1773735 0.9189123 -0.3763847 0.06979578 0.9237953 -0.7954039 0.4216132 0.435316 0.3279214 0.9363994 -0.1247596 -0.06295967 0.734489 -0.6756493 -0.1180151 0.8383435 -0.5321512 -0.3317057 0.577929 -0.7455977 -0.37669 0.608417 -0.6985077 -0.751854 0.6377758 0.1670888 -7.01926e-4 0.295053 0.9554735 0.4939421 0.09576708 0.8641621 0.5146642 0.6371349 0.573687 -0.3417768 0.6527909 -0.6760155 -0.817713 0.3704947 -0.4405041 -0.570513 0.2662129 -0.7769402 0.8126164 -0.5361492 0.2283089 0.9048128 -0.2485122 0.3456832 0.7107151 -0.4937285 0.5010834 0.2717673 -0.9234291 0.2708517 0.6195563 -0.4968413 -0.607654 0.556505 -0.7329936 -0.3911557 0.5210731 -0.7132481 -0.4687643 -0.3654897 0.6229743 -0.6915494 -0.31077 0.7263711 -0.6129643 -0.3834345 0.6813563 -0.6234321 0.9398785 0.08670306 0.3302713 0.9278542 -0.2422254 0.2834864 0.9427473 -0.2405774 0.230842 -0.561449 -0.03683578 0.8266854 -0.1502121 0.5479599 -0.8228706 -0.233314 0.1665395 -0.9580065 -0.6507462 -0.2773522 -0.7067782 -0.5147557 0.01355022 -0.8572039 -0.5822321 -0.2927336 -0.7584765 0.8256478 0.2260811 0.5168615 0.7683645 -0.2024903 0.6070742 0.9448836 -0.1908017 0.2659383 0.8614155 -0.5068209 0.03253269 0.507889 -0.7420576 -0.4374218 0.5941954 -0.6401258 -0.4869533 -0.514481 0.2101199 0.8313242 -0.05114901 0.6627094 0.7471237 0.3526719 0.9328288 -0.07342749 0.3128452 0.9419233 -0.1219214 0.7355877 0.6656087 0.1257362 0.6121402 0.7759026 0.1524094 0.9132054 0.2981048 0.277749 0.9033784 0.3551134 0.2403027 0.4543901 0.8881497 0.06839197 0.4631184 0.8797876 -0.1068758 -0.8753624 -0.2148808 -0.4330271 -0.814539 -0.5046541 -0.2859889 -0.9896848 -0.1260414 0.0678426 -0.5186316 -0.4418165 -0.731956 -0.3146153 -0.3064364 -0.8983734 0.6167181 -0.785699 0.04797506 0.01086455 0.4922636 -0.8703574 0.6273385 -0.7786493 -0.01058989 -0.4439527 -0.8924223 -0.08038574 -0.07486188 -0.8080081 -0.5843379 -0.05337685 -0.9889828 -0.1379436 -0.03988766 0.05169832 -0.9978637 -0.2681051 0.9475997 -0.1735282 -0.747734 -0.6329539 -0.2005371 0.3166906 0.9484848 0.007324397 0.6395764 0.7669607 -0.05142366 -0.303476 0.9269387 0.2205572 -0.533372 0.6126286 0.5832087 0.4176458 -0.2747276 0.8660542 0.1310159 -0.6933195 0.7085788 0.558916 -0.7656484 -0.3183386 0.2714622 -0.9597156 -0.0720542 0.2841273 -0.3847469 -0.8781701 0.4924467 -0.7604602 -0.4232307 0.3935667 0.08832055 -0.9150364 0.7707145 0.118717 -0.6259957 0.7571032 -0.5952941 -0.2690512 0.9122898 -0.1861629 0.3647267 0.6295358 0.627308 -0.458388 0.9649648 0.244026 -0.09631639 0.88464 -0.4005249 -0.2385632 0.8718528 -0.4896695 -0.00866723 -0.4605548 -0.7971435 0.3903623 -0.3708915 -0.3414106 0.8636128 -0.8326365 -0.3815424 0.4013489 -0.08441418 -0.08243048 0.9930112 -0.7537156 -0.6571245 0.006012141 -0.7005829 -0.710532 -0.06546217 -0.7132481 -0.690878 0.117954 -0.08175909 0.06042665 0.9948118 -0.7054048 -0.6752526 0.2153386 -0.7445601 -0.6640828 0.06759846 -0.4327219 -0.8983123 0.07596057 -0.9256569 0.3379009 0.1700796 -0.9450057 -0.3037202 0.1210669 -0.75515 -0.6259346 0.1946775 0.2961516 0.7748955 -0.5583667 0.274514 0.5055696 -0.8179266 -0.1969969 0.7817621 -0.5916013 0.9559313 -0.176397 0.2346568 -0.831721 -0.5549181 0.01629686 -0.7937254 -0.5693228 0.2140873 0.1057772 -0.5626698 -0.8198493</float_array>
          <technique_common>
            <accessor source="#bouldercubic128-mesh-normals-array" count="112" stride="3">
              <param name="X" type="float"/>
              <param name="Y" type="float"/>
              <param name="Z" type="float"/>
            </accessor>
          </technique_common>
        </source>
        <source id="bouldercubic128-mesh-map-0">
          <float_array id="bouldercubic128-mesh-map-0-array" count="1320">0.5378251 0.4489468 0.1743401 0.2998726 0.2432036 0.7112913 0.1636778 0.5683873 0.2894381 0.7491175 0.5288817 0.5235871 0.6938808 0.1595107 0.7771027 -0.02211648 0.5662372 -0.1042778 -0.2636417 0.1856076 0.01403975 0.02760928 0.01035732 0.2641733 0.6448342 0.7079696 0.5288817 0.5235871 0.2894381 0.7491175 0.5413598 -0.2607634 0.4043569 -0.4232623 0.2757712 -0.2617601 0.7419198 -0.4232623 0.6043196 -0.4604471 0.564422 -0.2316496 0.8778566 0.318817 0.6938808 0.1595107 0.5288817 0.5235871 0.313431 0.5647666 0.5393269 0.3088172 0.5428959 0.6660259 -0.2438602 0.3737443 -0.2410371 0.6732723 0.06231516 0.4605914 -0.4917237 0.2195191 -0.2438602 0.3737443 -0.3268246 0.1545825 -0.3481922 0.410447 -0.1409059 0.6075953 -0.3606956 0.7438493 -0.5974712 0.6052454 -0.3481922 0.410447 -0.3606956 0.7438493 0.8044365 -0.581076 0.7402765 -0.3051043 0.457301 -0.5297253 -0.10038 -0.4941882 -0.05755251 -0.4007534 0.1441883 -0.4530436 0.4588856 0.3418349 0.1400981 0.2937635 0.2657217 -0.04154914 -0.2636417 0.1856076 -0.2042572 -0.1239161 0.01403975 0.02760928 0.247305 0.2901088 0.1632389 0.0852276 -0.10038 0.2352552 0.044721 -0.3463171 0.1521481 -0.5970865 -0.08885687 -0.4856316 0.5594369 0.745207 0.4126477 0.989862 0.006813585 0.8674228 -0.07117396 0.4041927 -0.3481922 0.410447 -0.2888153 0.1110573 0.457301 -0.5297253 0.5734975 -0.259918 0.4830187 -0.2017205 -0.05207526 0.5340517 0.313431 0.5647666 0.2386342 0.7399001 0.4609817 0.07954907 0.2148544 -0.06670767 0.1743401 0.2998726 0.6041712 0.3483588 0.8113555 0.5991291 0.5437029 0.5641131 0.750642 0.3483588 0.9807721 0.09198224 0.784349 0.06850862 -0.2438602 -0.2838982 0.06231516 -0.2316496 -0.05755251 -0.4007534 0.5594369 0.745207 0.8113555 0.5991291 0.7698563 0.7838177 0.750642 0.3483588 0.784349 0.06850862 0.6400687 0.235467 0.1293522 -0.2535368 -0.07291859 -0.2355159 0.1379458 -0.08849865 -0.09674102 -0.4649952 -0.1439951 -0.1926874 0.0473597 -0.1668409 0.3430219 0.6052454 0.4676943 0.3207449 0.664826 0.410447 -0.3242383 -0.0591095 -0.5148255 0.02552163 -0.3268246 0.1545825 0.3114953 0.5004891 0.4576693 0.4688876 0.247305 0.2901088 0.4676943 0.3207449 0.6042035 0.209406 0.664826 0.410447 0.044721 -0.3463171 0.258413 -0.4473873 0.1521481 -0.5970865 0.006800889 -0.2634914 0.05707049 -0.3972893 0.1549497 -0.0646221 0.0473597 -0.1668409 0.1632389 0.0852276 0.3899664 0.004949688 -0.0564962 0.08574593 0.1743401 0.2998726 0.2148544 -0.06670767 0.3114953 0.5004891 0.4043569 0.6380893 0.4576693 0.4688876 0.2432036 0.7112913 0.5428959 0.7838177 0.5921882 0.5991291 -0.07291859 -0.2355159 -0.3611646 -0.4403128 -0.4143408 -0.3121834 0.7146862 -0.09458231 0.9429346 -0.08539855 0.5413598 -0.2607634 0.2432036 0.7112913 0.0379135 0.5345443 -0.02224373 0.7858933 0.5234376 -0.4645262 0.3910225 -0.2619095 0.2522644 -0.584448 0.5603659 5.60872e-4 0.3143593 0.1904151 0.1549497 -0.0646221 0.457301 -0.5297253 0.5118442 -0.735386 0.8044365 -0.581076 0.3430219 0.6052454 0.5234376 0.7438493 0.2522644 0.8844199 0.3143593 0.1904151 0.4676943 0.3207449 0.3430219 0.6052454 0.5603659 5.60872e-4 0.1549497 -0.0646221 0.2664998 -0.270189 0.7331289 0.123239 0.9366927 0.2104831 0.8044365 0.02400618 0.05707049 -0.3972893 0.006800889 -0.2634914 -0.1453861 -0.3121834 0.5603659 5.60872e-4 0.7978113 -0.05855488 0.7854966 0.1110573 0.2021531 0.6326624 0.006813585 0.8674228 -0.1409059 0.6075953 0.3143137 -0.5150327 0.5381483 -0.3919221 0.4576006 -0.1955342 0.6448342 0.7079696 0.8778566 0.318817 0.5288817 0.5235871 0.7402765 -0.3051043 0.9920402 -0.347923 0.8832178 -0.1510519 0.2386342 0.8866291 0.2432036 0.7112913 -0.02224373 0.7858933 0.7402765 -0.3051043 0.7978113 -0.05855488 0.5734975 -0.259918 0.06231516 -0.2316496 0.3114953 -0.4604471 0.1441883 -0.4530436 0.7771027 -0.02211648 0.8778566 0.318817 0.9933925 0.08574593 0.5428959 0.7838177 0.2432036 0.7112913 0.2386342 0.8866291 -0.5085126 0.8001989 -0.2638073 0.9780602 -0.04179066 0.7455815 -0.2438602 0.3737443 -0.3905026 0.4624066 -0.2410371 0.6732723 0.502479 0.09198224 0.4588856 0.3418349 0.2657217 -0.04154914 0.0553379 -0.3676378 0.234244 -0.1881728 0.01403975 0.02760928 -0.1404737 0.6331899 -0.2496212 0.4538119 -0.1744286 0.2108029 0.5428959 0.6660259 0.5393269 0.3088172 0.7452264 0.4556063 0.2657217 -0.04154914 0.1400981 0.2937635 -0.03080773 -0.1510519 0.5118442 -0.05392181 0.3899664 0.004949688 0.7331289 0.123239 -0.3242383 -0.0591095 -0.4012376 -0.1767491 -0.5148255 0.02552163 0.3531996 0.1667329 0.313431 0.5647666 0.01035732 0.2641733 0.502479 0.09198224 0.6041712 0.3483588 0.4588856 0.3418349 0.1549497 -0.0646221 -0.06027185 -0.09599196 0.006800889 -0.2634914 0.04556715 0.5604768 0.1716387 0.2690716 0.1338307 0.8001989 0.6938808 0.1595107 0.4562901 0.2138893 0.5288817 0.5235871 0.5437029 0.5641131 0.4588856 0.3418349 0.6041712 0.3483588 -0.479164 0.2562199 -0.3236883 -0.08289378 -0.1744286 0.2108029 0.4043569 -0.4232623 0.5413598 -0.2607634 0.626207 -0.4268189 0.4588856 0.3418349 0.5437029 0.5641131 0.2021531 0.6326624 0.247305 0.2901088 0.4576693 0.4688876 0.7712253 0.3600498 0.1549497 -0.0646221 0.3143593 0.1904151 0.1716387 0.2690716 0.4830187 -0.2017205 0.5734975 -0.259918 0.7978113 -0.05855488 0.06231516 0.4605914 0.03295218 0.8106929 0.2757712 0.7276485 -0.10038 0.2352552 -0.157239 0.04831761 -0.3268246 0.1545825 0.1293522 -0.2535368 0.3233497 -0.2833951 0.258413 -0.4473873 0.4562901 0.2138893 0.6938808 0.1595107 0.5662372 -0.1042778 0.2894381 0.7491175 0.6378822 0.8329631 0.6448342 0.7079696 0.1400981 0.2937635 -0.07117396 0.4041927 -0.07582008 0.1919371 0.7854966 0.1110573 0.6042035 0.209406 0.5603659 5.60872e-4 -0.216898 0.2858092 -0.4656916 0.5604768 -0.2372462 0.6331899 0.05707049 -0.3972893 0.2664998 -0.270189 0.1549497 -0.0646221 0.0553379 -0.3676378 0.1338307 -0.6123431 0.2522644 -0.584448 0.1549497 -0.0646221 0.1716387 0.2690716 -0.06027185 -0.09599196 0.3430219 0.6052454 0.1338307 0.8001989 0.1716387 0.2690716 0.5378251 0.4489468 0.2432036 0.7112913 0.5921882 0.5991291 -0.434768 -0.09599196 -0.1169372 -0.08289378 -0.4143408 -0.3121834 -0.4012376 -0.1767491 -0.1439951 -0.1926874 -0.09674102 -0.4649952 -0.09772843 0.2108029 -0.216898 0.2858092 -0.2372462 0.6331899 -0.0564962 0.08574593 0.0379135 0.5345443 0.1743401 0.2998726 -0.2093766 -0.05855488 -0.03080773 -0.1510519 -0.07582008 0.1919371 0.7146862 -0.09458231 0.784349 0.06850862 0.9429346 -0.08539855 -0.1409059 0.6075953 0.006813585 0.8674228 -0.3606956 0.7438493 0.6938808 0.1595107 0.8778566 0.318817 0.7771027 -0.02211648 0.4576693 0.4688876 0.4043569 0.6380893 0.626207 0.5699243 -0.07117396 0.4041927 -0.1409059 0.6075953 -0.3481922 0.410447 0.6400687 0.235467 0.4609817 0.07954907 0.5378251 0.4489468 -0.02008557 0.8707025 0.2894381 0.7491175 -0.04179066 0.7455815 -0.2978321 0.1023567 -0.09772843 0.2108029 -0.1169372 -0.08289378 0.1306671 -0.347923 0.4576006 -0.1955342 0.2657217 -0.04154914 0.7402765 -0.3051043 0.5734975 -0.259918 0.457301 -0.5297253 0.4609817 0.07954907 0.784349 0.06850862 0.7146862 -0.09458231 0.05707049 -0.3972893 -0.1453861 -0.3121834 -0.09674102 -0.4403128 0.0379135 0.5345443 -0.0564962 0.08574593 -0.1499667 0.318817 0.1400981 0.2937635 0.2021531 0.6326624 -0.1409059 0.6075953 0.1379458 -0.08849865 0.1111702 0.2562199 0.4562901 0.2138893 0.5603659 5.60872e-4 0.4830187 -0.2017205 0.7978113 -0.05855488 0.006813585 0.8674228 0.2021531 0.6326624 0.5594369 0.745207 0.5288817 0.5235871 0.4562901 0.2138893 0.1636778 0.5683873 -0.03080773 -0.1510519 0.1306671 -0.347923 0.2657217 -0.04154914 0.5381483 -0.3919221 0.5890763 -0.08539855 0.4576006 -0.1955342 0.784349 0.06850862 0.9807721 0.09198224 0.9429346 -0.08539855 0.3910225 -0.2619095 0.5537245 -0.09701693 0.5393269 0.3088172 0.5437029 0.5641131 0.5594369 0.745207 0.2021531 0.6326624 0.3233497 -0.2833951 0.1293522 -0.2535368 0.1379458 -0.08849865 0.3899664 0.004949688 0.2456724 -0.3627887 0.0473597 -0.1668409 -0.07582008 0.1919371 -0.2888153 0.1110573 -0.2093766 -0.05855488 0.1306671 -0.347923 0.3143137 -0.5150327 0.4576006 -0.1955342 0.784349 0.06850862 0.4609817 0.07954907 0.6400687 0.235467 0.8044365 -0.581076 0.9920402 -0.347923 0.7402765 -0.3051043 0.247305 0.2901088 0.7712253 0.3600498 0.3899664 0.004949688 -0.2978321 0.1023567 -0.4656916 0.5604768 -0.216898 0.2858092 0.5603659 5.60872e-4 0.6042035 0.209406 0.3143593 0.1904151 -0.08708322 0.4538119 -0.2372462 0.6331899 -0.04179066 0.7455815 0.0553379 -0.3676378 0.2522644 -0.584448 0.3910225 -0.2619095 0.8113555 0.5991291 0.6041712 0.3483588 0.7179664 0.235467 -0.2372462 0.6331899 -0.5085126 0.8001989 -0.04179066 0.7455815 0.06231516 0.4605914 -0.2410371 0.6732723 0.03295218 0.8106929 0.2664998 -0.270189 0.05707049 -0.3972893 0.2456724 -0.5899143 0.502479 0.09198224 0.2657217 -0.04154914 0.4576006 -0.1955342 0.1636778 0.5683873 -0.04179066 0.7455815 0.2894381 0.7491175 0.05707049 -0.6505514 -0.09674102 -0.4649952 0.2456724 -0.3627887 0.3531996 0.1667329 0.234244 -0.1881728 0.3910225 -0.2619095 0.2757712 -0.2617601 0.2148544 -0.06670767 0.5413598 -0.2607634 0.3430219 0.6052454 0.2522644 0.8844199 0.1338307 0.8001989 0.06231516 -0.2316496 0.1441883 -0.4530436 -0.05755251 -0.4007534 0.4562901 0.2138893 0.5662372 -0.1042778 0.1379458 -0.08849865 -0.4656916 0.5604768 -0.2978321 0.1023567 -0.6218509 0.2690716 0.3143593 0.1904151 0.3430219 0.6052454 0.1716387 0.2690716 0.626207 0.5699243 0.7712253 0.3600498 0.4576693 0.4688876 0.03295218 -0.06182169 -0.2410371 -0.02211648 -0.0564962 0.08574593 0.626207 0.5699243 0.8906387 0.4343177 0.7712253 0.3600498 0.9744845 0.5345443 0.6448342 0.7079696 0.7886226 0.7858933 0.4588856 0.3418349 0.2021531 0.6326624 0.1400981 0.2937635 0.4609817 0.07954907 0.1743401 0.2998726 0.5378251 0.4489468 0.3910225 -0.2619095 0.5393269 0.3088172 0.3531996 0.1667329 0.5118442 -0.05392181 0.2456724 -0.3627887 0.3899664 0.004949688 0.1400981 0.2937635 -0.07582008 0.1919371 -0.03080773 -0.1510519 -0.479164 0.2562199 -0.2496212 0.4538119 -0.3238281 0.7455815 -0.05755251 -0.4007534 -0.10038 -0.4941882 -0.3268246 -0.4473873 -0.07582008 0.1919371 -0.07117396 0.4041927 -0.2888153 0.1110573 0.502479 0.09198224 0.4576006 -0.1955342 0.5890763 -0.08539855 -0.2978321 0.1023567 -0.1169372 -0.08289378 -0.434768 -0.09599196 -0.07291859 -0.2355159 -0.4143408 -0.3121834 -0.1169372 -0.08289378 0.06231516 0.4605914 0.2757712 0.7276485 0.4043569 0.6380893 0.1379458 -0.08849865 -0.1169372 -0.08289378 0.1111702 0.2562199 0.5413598 -0.2607634 0.4609817 0.07954907 0.7146862 -0.09458231 0.0379135 0.5345443 0.2432036 0.7112913 0.1743401 0.2998726 0.1400981 0.2937635 -0.1409059 0.6075953 -0.07117396 0.4041927 0.9744845 0.5345443 0.8778566 0.318817 0.6448342 0.7079696 0.3531996 0.1667329 0.5393269 0.3088172 0.313431 0.5647666 -0.479164 0.2562199 -0.1744286 0.2108029 -0.2496212 0.4538119 0.5118442 -0.735386 0.457301 -0.5297253 0.2456724 -0.5899143 0.3531996 0.1667329 0.01403975 0.02760928 0.234244 -0.1881728 0.3233497 -0.2833951 0.1379458 -0.08849865 0.5662372 -0.1042778 0.8113555 0.5991291 0.5594369 0.745207 0.5437029 0.5641131 0.3143593 0.1904151 0.6042035 0.209406 0.4676943 0.3207449 -0.3606956 0.7438493 0.006813585 0.8674228 -0.1580789 0.9752779 -0.434768 -0.09599196 -0.6218509 0.2690716 -0.2978321 0.1023567 0.01035732 0.2641733 0.313431 0.5647666 -0.05207526 0.5340517 0.1278367 -0.581076 0.3143137 -0.5150327 0.1306671 -0.347923 0.1111702 0.2562199 -0.04179066 0.7455815 0.1636778 0.5683873 0.3114953 0.5004891 0.247305 0.2901088 0.1441883 0.3664391 0.0473597 -0.1668409 -0.1439951 -0.1926874 -0.157239 0.04831761 0.313431 0.5647666 0.5428959 0.6660259 0.2386342 0.7399001 0.6448342 0.7079696 0.6378822 0.8329631 0.7886226 0.7858933 -0.10038 -0.4941882 0.1441883 -0.4530436 0.247305 -0.5892217 -0.4012376 -0.1767491 -0.3242383 -0.0591095 -0.1439951 -0.1926874 0.457301 -0.5297253 0.2664998 -0.270189 0.2456724 -0.5899143 0.9429346 -0.08539855 0.8906387 -0.3919221 0.626207 -0.4268189 0.8044365 0.02400618 0.5118442 -0.05392181 0.7331289 0.123239 0.3899664 0.004949688 0.1632389 0.0852276 0.247305 0.2901088 -0.05207526 0.5340517 -0.2636417 0.1856076 0.01035732 0.2641733 0.01403975 0.02760928 -0.2042572 -0.1239161 0.0553379 -0.3676378 0.3910225 -0.2619095 0.234244 -0.1881728 0.0553379 -0.3676378 0.5413598 -0.2607634 0.2148544 -0.06670767 0.4609817 0.07954907 0.3899664 0.004949688 0.7712253 0.3600498 0.7331289 0.123239 -0.05207526 0.5340517 0.2386342 0.7399001 -0.02224373 0.6847921 -0.05755251 0.3092539 -0.3268246 0.1545825 -0.2438602 0.3737443 0.1632389 0.0852276 0.0473597 -0.1668409 -0.157239 0.04831761 0.03295218 -0.06182169 0.2148544 -0.06670767 0.2757712 -0.2617601 -0.1169372 -0.08289378 0.1379458 -0.08849865 -0.07291859 -0.2355159 0.1111702 0.2562199 0.1636778 0.5683873 0.4562901 0.2138893 -0.4656916 0.5604768 -0.5085126 0.8001989 -0.2372462 0.6331899 0.5378251 0.4489468 0.5921882 0.5991291 0.6400687 0.235467 -0.2827753 -0.2017205 -0.4864569 -0.270189 -0.1399651 -0.5297253 0.7712253 0.3600498 0.9366927 0.2104831 0.7331289 0.123239 0.01035732 0.2641733 0.01403975 0.02760928 0.3531996 0.1667329 0.03295218 -0.06182169 -0.0564962 0.08574593 0.2148544 -0.06670767 0.9366927 0.2104831 0.7712253 0.3600498 0.8906387 0.4343177 0.1632389 0.0852276 -0.157239 0.04831761 -0.10038 0.2352552 0.664826 0.410447 0.6042035 0.209406 0.7854966 0.1110573 0.0553379 -0.3676378 -0.2042572 -0.1239161 -0.3238281 -0.1456212 -0.2438602 0.3737443 -0.4917237 0.2195191 -0.3905026 0.4624066 0.626207 -0.4268189 0.5413598 -0.2607634 0.9429346 -0.08539855 -0.216898 0.2858092 -0.09772843 0.2108029 -0.2978321 0.1023567 -0.03080773 -0.1510519 -0.2093766 -0.05855488 -0.06652164 -0.3051043 0.0473597 -0.1668409 0.2456724 -0.3627887 -0.09674102 -0.4649952 -0.2827753 -0.2017205 -0.4308112 5.60872e-4 -0.4864569 -0.270189 -0.5686265 -0.2634914 -0.434768 -0.09599196 -0.4143408 -0.3121834</float_array>
          <technique_common>
            <accessor source="#bouldercubic128-mesh-map-0-array" count="660" stride="2">
              <param name="S" type="float"/>
              <param name="T" type="float"/>
            </accessor>
          </technique_common>
        </source>
        <vertices id="bouldercubic128-mesh-vertices">
          <input semantic="POSITION" source="#bouldercubic128-mesh-positions"/>
        </vertices>
        <polylist material="boulder_granite_grey_01-material" count="220">
          <input semantic="VERTEX" source="#bouldercubic128-mesh-vertices" offset="0"/>
          <input semantic="NORMAL" source="#bouldercubic128-mesh-normals" offset="1"/>
          <input semantic="TEXCOORD" source="#bouldercubic128-mesh-map-0" offset="2" set="0"/>
          <vcount>3 3 3 3 3 3 3 3 3 3 3 3 3 3 3 3 3 3 3 3 3 3 3 3 3 3 3 3 3 3 3 3 3 3 3 3 3 3 3 3 3 3 3 3 3 3 3 3 3 3 3 3 3 3 3 3 3 3 3 3 3 3 3 3 3 3 3 3 3 3 3 3 3 3 3 3 3 3 3 3 3 3 3 3 3 3 3 3 3 3 3 3 3 3 3 3 3 3 3 3 3 3 3 3 3 3 3 3 3 3 3 3 3 3 3 3 3 3 3 3 3 3 3 3 3 3 3 3 3 3 3 3 3 3 3 3 3 3 3 3 3 3 3 3 3 3 3 3 3 3 3 3 3 3 3 3 3 3 3 3 3 3 3 3 3 3 3 3 3 3 3 3 3 3 3 3 3 3 3 3 3 3 3 3 3 3 3 3 3 3 3 3 3 3 3 3 3 3 3 3 3 3 3 3 3 3 3 3 3 3 3 3 3 3 3 3 3 3 3 3 </vcount>
          <p>44 0 0 32 1 1 7 2 2 107 3 3 88 4 4 16 5 5 36 6 6 70 7 7 42 8 8 88 4 9 40 9 10 43 10 11 66 11 12 16 5 13 88 4 14 103 12 15 79 13 16 110 14 17 79 13 18 34 15 19 6 16 20 67 17 21 36 6 22 16 5 23 65 18 24 12 19 25 33 20 26 104 21 27 70 7 28 6 16 29 92 22 30 104 21 31 9 23 32 56 24 33 53 25 34 64 26 35 57 27 36 56 24 37 64 26 38 21 28 39 26 29 40 31 30 41 85 31 42 61 32 43 24 33 44 55 34 45 96 35 46 77 36 47 88 4 48 25 37 49 40 9 50 106 38 51 17 39 52 85 31 53 78 40 54 80 41 55 62 42 56 30 43 57 12 19 58 45 44 59 2 45 60 56 24 61 76 46 62 31 30 63 82 47 64 63 48 65 91 49 66 65 18 67 105 50 68 18 51 69 47 52 70 32 1 71 68 53 72 89 54 73 90 55 74 68 53 75 29 56 76 59 57 77 104 21 78 6 16 79 61 32 80 30 43 81 89 54 82 33 20 83 68 53 84 59 57 85 49 58 86 4 59 87 10 60 88 71 61 89 50 62 90 62 42 91 38 63 92 57 27 93 69 64 94 56 24 95 78 40 96 4 59 97 9 23 98 34 15 99 23 65 100 106 38 101 69 64 102 83 66 103 56 24 104 78 40 105 9 23 106 80 41 107 27 67 108 99 68 109 87 69 110 38 63 111 17 39 112 60 70 113 95 71 114 32 1 115 47 52 116 34 15 117 79 13 118 23 65 119 7 2 120 33 20 121 89 54 122 10 60 123 50 62 124 20 72 125 48 73 126 14 74 127 103 12 128 7 2 129 74 75 130 101 76 131 64 26 132 100 77 133 1 78 134 51 79 135 5 80 136 87 69 137 31 30 138 94 81 139 21 28 140 57 27 141 64 26 142 1 78 143 5 80 144 69 64 145 57 27 146 51 79 147 87 69 148 28 82 149 108 83 150 0 84 151 21 28 152 99 68 153 27 67 154 20 72 155 51 79 156 93 85 157 76 46 158 11 86 159 45 44 160 53 25 161 0 84 162 52 87 163 35 88 164 66 11 165 67 17 166 16 5 167 26 29 168 102 89 169 72 90 170 105 50 171 7 2 172 101 76 173 26 29 174 93 85 175 82 47 176 6 16 177 34 15 178 24 33 179 70 7 180 67 17 181 95 71 182 33 20 183 7 2 184 105 50 185 19 91 186 54 92 187 75 93 188 104 21 189 42 8 190 70 7 191 29 56 192 55 34 193 77 36 194 54 92 195 111 94 196 40 9 197 81 95 198 37 96 199 8 97 200 33 20 201 12 19 202 30 43 203 77 36 204 96 35 205 72 90 206 94 81 207 60 70 208 108 83 209 78 40 210 10 60 211 4 59 212 58 98 213 65 18 214 43 10 215 29 56 216 68 53 217 55 34 218 87 69 219 109 99 220 27 67 221 86 100 222 39 101 223 19 91 224 36 6 225 46 102 226 16 5 227 90 55 228 55 34 229 68 53 230 15 103 231 41 104 232 8 97 233 79 13 234 103 12 235 98 105 236 55 34 237 90 55 238 11 86 239 106 38 240 23 65 241 73 106 242 87 69 243 5 80 244 39 101 245 63 48 246 82 47 247 93 85 248 6 16 249 3 107 250 110 14 251 85 31 252 80 41 253 9 23 254 4 59 255 92 22 256 9 23 257 46 102 258 36 6 259 42 8 260 88 4 261 91 49 262 66 11 263 96 35 264 2 45 265 13 108 266 76 46 267 83 66 268 51 79 269 97 109 270 86 100 271 81 95 272 99 68 273 28 82 274 87 69 275 54 92 276 19 91 277 1 78 278 87 69 279 39 101 280 109 99 281 57 27 282 19 91 283 39 101 284 44 0 285 7 2 286 89 54 287 109 99 288 41 104 289 20 72 290 10 60 291 62 42 292 50 62 293 8 97 294 97 109 295 81 95 296 95 71 297 74 75 298 32 1 299 93 85 300 72 90 301 13 108 302 48 73 303 59 57 304 14 74 305 53 25 306 45 44 307 64 26 308 36 6 309 67 17 310 70 7 311 23 65 312 79 13 313 98 105 314 2 45 315 53 25 316 56 24 317 49 58 318 18 51 319 44 0 320 25 37 321 88 4 322 75 93 323 22 110 324 8 97 325 41 104 326 102 89 327 35 88 328 77 36 329 26 29 330 82 47 331 31 30 332 18 51 333 59 57 334 48 73 335 99 68 336 20 72 337 50 62 338 74 75 339 95 71 340 67 17 341 96 35 342 11 86 343 53 25 344 71 61 345 15 103 346 46 102 347 51 79 348 63 48 349 93 85 350 45 44 351 11 86 352 30 43 353 16 5 354 46 102 355 107 3 356 72 90 357 102 89 358 77 36 359 52 87 360 14 74 361 35 88 362 59 57 363 29 56 364 14 74 365 100 77 366 45 44 367 12 19 368 90 55 369 30 43 370 11 86 371 92 22 372 4 59 373 71 61 374 60 70 375 84 111 376 38 63 377 13 108 378 76 46 379 93 85 380 102 89 381 0 84 382 35 88 383 59 57 384 18 51 385 49 58 386 21 28 387 102 89 388 26 29 389 106 38 390 73 106 391 60 70 392 22 110 393 86 100 394 97 109 395 51 79 396 83 66 397 5 80 398 37 96 399 81 95 400 75 93 401 54 92 402 1 78 403 100 77 404 89 54 405 68 53 406 49 58 407 81 95 408 19 91 409 75 93 410 6 16 411 70 7 412 3 107 413 28 82 414 99 68 415 84 111 416 29 56 417 77 36 418 35 88 419 107 3 420 75 93 421 88 4 422 99 68 423 50 62 424 84 111 425 58 98 426 111 94 427 100 77 428 110 14 429 47 52 430 103 12 431 57 27 432 1 78 433 19 91 434 6 16 435 24 33 436 61 32 437 46 102 438 42 8 439 71 61 440 86 100 441 22 110 442 39 101 443 5 80 444 57 27 445 39 101 446 98 105 447 73 106 448 23 65 449 3 107 450 70 7 451 95 71 452 98 105 453 52 87 454 73 106 455 74 75 456 66 11 457 101 76 458 55 34 459 11 86 460 96 35 461 18 51 462 32 1 463 44 0 464 100 77 465 12 19 466 58 98 467 94 81 468 84 111 469 60 70 470 96 35 471 13 108 472 72 90 473 15 103 474 37 96 475 75 93 476 61 32 477 85 31 478 9 23 479 13 108 480 2 45 481 76 46 482 29 56 483 35 88 484 14 74 485 22 110 486 41 104 487 109 99 488 10 60 489 20 72 490 41 104 491 6 16 492 110 14 493 79 13 494 71 61 495 41 104 496 15 103 497 103 12 498 18 51 499 48 73 500 74 75 501 7 2 502 32 1 503 96 35 504 53 25 505 2 45 506 74 75 507 67 17 508 66 11 509 58 98 510 12 19 511 65 18 512 15 103 513 8 97 514 37 96 515 94 81 516 31 30 517 84 111 518 58 98 519 40 9 520 111 94 521 92 22 522 71 61 523 42 8 524 89 54 525 30 43 526 90 55 527 5 80 528 83 66 529 69 64 530 64 26 531 45 44 532 100 77 533 109 99 534 39 101 535 22 110 536 43 10 537 65 18 538 91 49 539 21 28 540 0 84 541 102 89 542 15 103 543 75 93 544 107 3 545 34 15 546 106 38 547 24 33 548 38 63 549 62 42 550 80 41 551 65 18 552 33 20 553 105 50 554 66 11 555 91 49 556 101 76 557 85 31 558 24 33 559 106 38 560 10 60 561 78 40 562 62 42 563 31 30 564 28 82 565 84 111 566 14 74 567 52 87 568 98 105 569 21 28 570 94 81 571 108 83 572 60 70 573 17 39 574 106 38 575 91 49 576 88 4 577 43 10 578 40 9 579 25 37 580 54 92 581 100 77 582 111 94 583 54 92 584 103 12 585 47 52 586 18 51 587 60 70 588 73 106 589 108 83 590 91 49 591 105 50 592 101 76 593 61 32 594 9 23 595 104 21 596 17 39 597 38 63 598 80 41 599 3 107 600 47 52 601 110 14 602 41 104 603 71 61 604 10 60 605 15 103 606 107 3 607 46 102 608 86 100 609 19 91 610 81 95 611 44 0 612 89 54 613 49 58 614 63 48 615 28 82 616 31 30 617 73 106 618 0 84 619 108 83 620 43 10 621 40 9 622 58 98 623 3 107 624 95 71 625 47 52 626 0 84 627 73 106 628 52 87 629 17 39 630 80 41 631 85 31 632 56 24 633 83 66 634 76 46 635 54 92 636 25 37 637 75 93 638 104 21 639 92 22 640 42 8 641 98 105 642 103 12 643 14 74 644 97 109 645 8 97 646 22 110 647 72 90 648 93 85 649 26 29 650 38 63 651 84 111 652 50 62 653 63 48 654 51 79 655 28 82 656 27 67 657 109 99 658 20 72 659</p>
        </polylist>
      </mesh>
      <extra><technique profile="MAYA"><double_sided>1</double_sided></technique></extra>
    </geometry>
    <geometry id="bouldercubic64-mesh" name="bouldercubic64">
      <mesh>
        <source id="bouldercubic64-mesh-positions">
          <float_array id="bouldercubic64-mesh-positions-array" count="114">0.6761321 0.07272458 -0.831241 0.02375233 -0.7869346 0.8280163 -0.03504145 0.6929693 -0.3591687 -0.8617005 -0.149564 -0.3762245 0.1298437 -0.9644546 0.308031 -0.1756888 0.3749428 -0.4773694 -0.1318633 0.803761 0.5694411 -0.4571718 -0.4219521 0.1076399 -0.7792716 0.07590776 -0.5209431 0.389012 -0.5552791 0.6638799 0.3222361 0.1778405 0.9382496 0.6755406 -0.3497256 -0.2111182 0.8290283 0.3692132 -0.2891196 -0.7668437 -0.1290934 0.408806 -0.3459461 0.5613416 0.7277579 -0.3054808 -0.06603872 -0.8961434 0.5472441 0.4698755 0.08278375 -0.1774784 -0.8140615 0.6674153 -0.3300988 -0.8441562 -0.5502293 0.8120476 -0.102052 -0.6133932 -0.1345198 -0.9522092 -0.1600441 0.1737529 0.544193 -0.605527 -0.5886259 -0.1108068 0.704329 0.5980772 -0.4282714 -0.2912663 -0.1715995 -0.8563811 -0.6038798 0.8059633 0.2488546 0.0199235 0.5085223 0.4280797 0.7206864 0.2962437 -0.2291303 -0.9833725 -0.3049529 0.8233202 -0.02544575 -0.4656719 0.6651148 0.2133007 -0.6124493 -0.3307255 0.644472 -0.2116048 -0.5219326 0.9329105 -0.6456777 0.4588211 -0.2213279 0.3973392 0.6352287 0.4488555 0.5809941 -0.6214314 -0.03758466 0.6485237 0.3767579 -0.6321785 0.07017695 -0.3174033 1.002527 -0.001219689 0.620696 0.8664804</float_array>
          <technique_common>
            <accessor source="#bouldercubic64-mesh-positions-array" count="38" stride="3">
              <param name="X" type="float"/>
              <param name="Y" type="float"/>
              <param name="Z" type="float"/>
            </accessor>
          </technique_common>
        </source>
        <source id="bouldercubic64-mesh-normals">
          <float_array id="bouldercubic64-mesh-normals-array" count="114">0.5478988 0.828486 0.1156651 -0.2464064 0.9497665 -0.1927549 -0.1012909 0.9479049 0.3019196 -0.9639882 -0.14185 0.2248298 -0.68746 0.09527873 0.7199317 -0.6287423 0.4543901 0.6310007 0.01541179 0.5999634 0.7998597 0.4704428 0.07443463 0.8792688 0.7472763 0.4014099 0.5294961 0.2706992 -0.9545885 0.1242103 0.8108158 -0.5832698 -0.04837179 0.7629017 -0.4162725 0.4946135 0.8813135 -0.3283181 -0.3397321 0.6703391 -0.6485794 -0.3604846 0.2339243 -0.2372814 -0.9428389 0.5439009 0.8387402 0.02581864 -0.03482156 0.8784448 -0.4765465 0.9446395 0.1991637 0.2607196 0.8338878 0.5493942 -0.05215609 -0.9525743 -0.2248604 -0.2048707 -0.7604602 0.315012 -0.5677969 -0.38493 0.1433759 -0.91171 -0.5611438 -0.7196264 -0.408887 0.04266482 -0.7691275 -0.6376232 -0.2132939 -0.9758294 -0.04730367 0.1475265 -0.1152684 0.9822993 0.151799 -0.7170019 0.6802881 0.557268 0.1704459 -0.8126164 0.5002289 0.6805627 -0.5352947 0.9128086 -0.407239 0.02984708 -0.7470932 0.5967895 -0.2926115 -0.7893002 0.5821711 0.1949827 -0.5131077 -0.7968078 0.3189795 -0.399823 -0.2955412 0.8676107 -0.8140507 -0.4328135 0.3871883 -0.750206 -0.6545305 0.09360027 -0.02264469 0.7575915 -0.6523026 -0.413068 0.5976745 -0.6871243</float_array>
          <technique_common>
            <accessor source="#bouldercubic64-mesh-normals-array" count="38" stride="3">
              <param name="X" type="float"/>
              <param name="Y" type="float"/>
              <param name="Z" type="float"/>
            </accessor>
          </technique_common>
        </source>
        <source id="bouldercubic64-mesh-map-0">
          <float_array id="bouldercubic64-mesh-map-0-array" count="432">0.5769288 0.5569738 -0.04672163 0.09481292 0.1425786 0.624657 0.1513563 0.4951339 0.1618713 0.7992274 0.7110015 0.7591928 0.2544032 0.7029778 0.5393269 0.3088172 0.6791637 0.5243102 -0.5974712 0.6052454 -0.3001278 0.1877194 -0.2409472 0.7378334 0.9539626 -0.3952457 0.7677337 -0.1390752 0.4940086 -0.7208711 0.6250289 0.7219973 0.4126477 0.989862 -0.2409472 0.7378334 0.659583 0.2574925 0.2187955 -0.1433353 -0.04672163 0.09481292 0.6805754 0.2725612 0.8113555 0.5991291 0.6250289 0.7219973 0.659583 0.2574925 0.9807721 0.09198224 0.8977361 -0.04808473 0.044721 -0.3463171 0.258413 -0.4473873 0.1523694 -0.5971888 -0.04090732 -0.3159036 0.07279175 -0.3877483 0.1243579 0.01193314 0.1425786 0.624657 0.5428959 0.7838177 0.5769288 0.5569738 0.5234376 -0.4645262 0.2920927 -0.1592354 0.2522644 -0.584448 0.7230089 0.1573838 0.3453829 0.3956324 0.1243579 0.01193314 0.3453829 0.3956324 0.5234376 0.7438493 0.2522644 0.8844199 0.7230089 0.1573838 0.1243579 0.01193314 0.07279175 -0.3877483 0.3143137 -0.5150327 0.5381483 -0.3919221 0.5318435 -0.1333418 0.7677337 -0.1390752 0.9539626 -0.3952456 0.8832178 -0.1510519 0.2386342 0.8866291 0.1425786 0.624657 -0.02224373 0.7858933 0.6297606 -0.06514692 0.8627996 0.3057789 0.9933925 0.08574593 0.5428959 0.7838177 0.1425786 0.624657 0.2386342 0.8866291 -0.5005643 0.7557027 -0.2638073 0.9780602 -0.05071812 0.7330272 0.2920927 -0.1592354 0.2544032 0.7029778 -0.2412762 0.05743604 0.8627996 0.3057789 0.6297606 -0.06514692 0.7110015 0.7591928 0.6250289 0.7219973 0.4749804 0.1448659 0.6805754 0.2725612 -0.479164 0.2562199 -0.3236883 -0.08289378 -0.1744286 0.2108029 0.4043569 -0.4232623 0.2187955 -0.1433353 0.8093087 -0.4026551 0.4749804 0.1448659 0.6250289 0.7219973 -0.2409472 0.7378334 0.4040158 0.6371948 0.8220453 0.1906816 -2.50398e-4 0.06267642 -0.1197112 0.224639 -0.5005643 0.7557027 -0.05071812 0.7330272 0.05337721 -0.3488727 0.1338307 -0.6123431 0.2522644 -0.584448 0.3453829 0.3956324 0.1174476 0.7557027 0.1243579 0.01193314 -0.5842179 0.2211111 -0.08148413 -0.2058173 -0.4937639 -0.3159036 -0.3968417 -0.170033 -2.50399e-4 0.06267642 -0.09674102 -0.4649952 -0.5842179 0.2211111 -0.1197112 0.224639 -0.08148413 -0.2058173 0.1300926 -0.3952456 0.5318435 -0.1333418 0.4749804 0.1448659 0.1425786 0.624657 -0.04672163 0.09481292 -0.1499667 0.318817 0.1096024 -0.2160478 0.1513563 0.4951339 0.6297606 -0.06514692 0.7110015 0.7591928 0.6297606 -0.06514692 0.1513563 0.4951339 -0.02889627 -0.04660922 0.1300926 -0.3952456 0.4749804 0.1448659 0.2920927 -0.1592354 0.5537245 -0.09701693 0.5393269 0.3088172 -0.02889627 -0.04660922 -0.3001278 0.1877194 -0.1664523 -0.1326369 0.1300926 -0.3952456 0.3143137 -0.5150327 0.5318435 -0.1333418 -2.50398e-4 0.06267642 0.8220453 0.1906816 0.4722743 -0.07354825 -0.5842179 0.2211111 -0.5005643 0.7557027 -0.1197112 0.224639 0.05337721 -0.3488727 0.2522644 -0.584448 0.2920927 -0.1592354 0.06231516 0.4605914 -0.3424542 0.5215604 0.1100271 0.7843332 0.1513563 0.4951339 -0.04179066 0.7455815 0.1618713 0.7992274 0.05707049 -0.6505514 -0.09674102 -0.4649952 0.4722743 -0.07354825 0.3453829 0.3956324 0.2522644 0.8844199 0.1174476 0.7557027 0.8093087 0.4760256 0.8220453 0.1906816 0.4040158 0.6371948 0.2187955 -0.1433353 -0.2410371 -0.02211648 -0.04672163 0.09481292 0.4749804 0.1448659 -0.2409472 0.7378334 -0.02889627 -0.04660922 0.659583 0.2574925 -0.04672163 0.09481292 0.5769288 0.5569738 0.06231516 0.4605914 0.1100271 0.7843332 0.4043569 0.6380893 0.2187955 -0.1433353 0.659583 0.2574925 0.8977361 -0.04808473 -0.02889627 -0.04660922 -0.2409472 0.7378334 -0.3001278 0.1877194 0.9744845 0.5345443 0.8627996 0.3057789 0.7110015 0.7591928 0.2920927 -0.1592354 0.5393269 0.3088172 0.2544032 0.7029778 -0.479164 0.2562199 -0.1744286 0.2108029 -0.3145676 0.7330272 0.3099443 -0.3172491 0.1096024 -0.2160478 0.6297606 -0.06514692 -0.2412762 0.05743604 0.2544032 0.7029778 -0.02974164 0.6469048 0.4040158 0.6371948 -2.50398e-4 0.06267642 0.1004383 0.3820641 -0.3010101 -0.4527226 0.08261132 -0.3797934 0.247305 -0.5892217 0.4722743 -0.07354825 0.8220453 0.1906816 0.8044365 0.02400618 -0.05755251 0.3092539 -0.4576824 0.2061138 -0.3424542 0.5215604 -0.2827753 -0.2017205 -0.4864569 -0.270189 -0.1399651 -0.5297253 -0.2412762 0.05743604 0.05337721 -0.3488727 0.2920927 -0.1592354 0.05337721 -0.3488727 -0.2412762 0.05743604 -0.3238281 -0.1456212 0.8093087 -0.4026551 0.2187955 -0.1433353 0.8977361 -0.04808473 -2.50398e-4 0.06267642 0.4722743 -0.07354825 -0.09674102 -0.4649952 -0.2827753 -0.2017205 -0.4308112 5.60872e-4 -0.4864569 -0.270189</float_array>
          <technique_common>
            <accessor source="#bouldercubic64-mesh-map-0-array" count="216" stride="2">
              <param name="S" type="float"/>
              <param name="T" type="float"/>
            </accessor>
          </technique_common>
        </source>
        <vertices id="bouldercubic64-mesh-vertices">
          <input semantic="POSITION" source="#bouldercubic64-mesh-positions"/>
        </vertices>
        <polylist material="boulder_granite_grey_01-material" count="72">
          <input semantic="VERTEX" source="#bouldercubic64-mesh-vertices" offset="0"/>
          <input semantic="NORMAL" source="#bouldercubic64-mesh-normals" offset="1"/>
          <input semantic="TEXCOORD" source="#bouldercubic64-mesh-map-0" offset="2" set="0"/>
          <vcount>3 3 3 3 3 3 3 3 3 3 3 3 3 3 3 3 3 3 3 3 3 3 3 3 3 3 3 3 3 3 3 3 3 3 3 3 3 3 3 3 3 3 3 3 3 3 3 3 3 3 3 3 3 3 3 3 3 3 3 3 3 3 3 3 3 3 3 3 3 3 3 3 </vcount>
          <p>33 0 0 28 1 1 6 2 2 13 3 3 22 4 4 14 5 5 37 6 6 10 7 7 26 8 8 4 9 9 34 10 10 9 11 11 19 12 12 23 13 13 27 14 14 26 8 15 10 7 16 9 11 17 16 15 18 2 16 19 28 1 20 16 15 21 33 0 22 26 8 23 16 15 24 25 17 25 12 18 26 3 19 27 8 20 28 15 21 29 18 22 30 24 23 31 20 24 32 6 2 33 26 8 34 33 0 35 9 11 36 36 25 37 1 26 38 34 10 39 4 9 40 20 24 41 4 9 42 9 11 43 1 26 44 34 10 45 20 24 46 24 23 47 0 27 48 35 28 49 12 18 50 23 13 51 19 12 52 11 29 53 37 6 54 6 2 55 14 5 56 32 30 57 29 31 58 28 1 59 26 8 60 6 2 61 37 6 62 17 32 63 31 33 64 30 34 65 36 25 66 37 6 67 22 4 68 29 31 69 32 30 70 14 5 71 26 8 72 25 17 73 16 15 74 13 3 75 3 19 76 7 35 77 21 36 78 2 16 79 35 28 80 25 17 81 26 8 82 9 11 83 21 36 84 0 27 85 15 21 86 7 35 87 17 32 88 30 34 89 31 33 90 17 32 91 1 26 92 4 9 93 17 32 94 20 24 95 20 24 96 3 19 97 18 22 98 3 19 99 15 21 100 18 22 101 20 24 102 7 35 103 3 19 104 19 12 105 12 18 106 25 17 107 6 2 108 28 1 109 29 31 110 3 19 111 13 3 112 32 30 113 14 5 114 32 30 115 13 3 116 11 29 117 19 12 118 25 17 119 36 25 120 9 11 121 10 7 122 11 29 123 34 10 124 23 13 125 19 12 126 0 27 127 12 18 128 15 21 129 0 27 130 27 14 131 20 24 132 17 32 133 7 35 134 31 33 135 1 26 136 36 25 137 5 37 138 32 30 139 2 16 140 13 3 141 30 34 142 22 4 143 24 23 144 18 22 145 27 14 146 4 9 147 1 26 148 17 32 149 35 28 150 0 27 151 21 36 152 2 16 153 32 30 154 28 1 155 25 17 156 9 11 157 11 29 158 16 15 159 28 1 160 33 0 161 5 37 162 2 16 163 21 36 164 2 16 165 16 15 166 12 18 167 11 29 168 9 11 169 34 10 170 6 2 171 29 31 172 14 5 173 36 25 174 10 7 175 37 6 176 13 3 177 7 35 178 30 34 179 8 20 180 3 19 181 32 30 182 22 4 183 37 6 184 14 5 185 21 36 186 15 21 187 5 37 188 8 20 189 5 37 190 15 21 191 27 14 192 0 27 193 19 12 194 5 37 195 8 20 196 32 30 197 23 13 198 24 23 199 27 14 200 22 4 201 31 33 202 36 25 203 31 33 204 22 4 205 30 34 206 35 28 207 2 16 208 12 18 209 15 21 210 27 14 211 18 22 212 23 13 213 34 10 214 24 23 215</p>
        </polylist>
      </mesh>
      <extra><technique profile="MAYA"><double_sided>1</double_sided></technique></extra>
    </geometry>
    <geometry id="bouldercubic8-mesh" name="bouldercubic8">
      <mesh>
        <source id="bouldercubic8-mesh-positions">
          <float_array id="bouldercubic8-mesh-positions-array" count="48">0.80583 0.1268454 -0.7672262 0.005516111 -0.916773 0.6886668 -0.8749792 -0.05821484 -0.4616978 0.178539 0.579603 -0.5462772 -0.6901382 -0.168401 0.6175395 0.389012 -0.5552791 0.6638799 0.4609494 0.4072557 0.8249106 0.8609552 0.3221763 -0.2236936 -0.1754999 0.7187279 0.7912889 -0.3054808 -0.06603872 -0.8961434 0.400971 0.58946 0.3759573 -0.2528468 -0.9057072 -0.5510112 0.2962437 -0.2291303 -0.9833725 -0.4258798 0.8026891 -0.02462923 -0.08158475 -0.5450602 0.9898405 0.5730776 -0.5997768 -0.05308747</float_array>
          <technique_common>
            <accessor source="#bouldercubic8-mesh-positions-array" count="16" stride="3">
              <param name="X" type="float"/>
              <param name="Y" type="float"/>
              <param name="Z" type="float"/>
            </accessor>
          </technique_common>
        </source>
        <source id="bouldercubic8-mesh-normals">
          <float_array id="bouldercubic8-mesh-normals-array" count="48">0.4630268 0.8800318 0.1053193 -0.459975 0.8766747 -0.1406903 -0.2378307 0.7371746 0.6324351 -0.01617479 -0.9019441 0.4315012 0.767571 -0.638844 -0.05182039 0.7520371 -0.4107486 0.5154271 0.7509384 0.1452986 -0.6441542 0.2691733 -0.2161015 -0.9385052 0.07556378 0.8258309 -0.5587939 0.6124455 0.3632008 0.7021088 -0.1149327 -0.3527634 0.9286172 -0.2481459 -0.8678548 -0.430372 -0.86639 -0.1275674 0.4827418 0.9122593 0.4095278 -0.003936886 -0.3859981 0.1642811 -0.9077426 -0.9264809 0.03765982 -0.374401</float_array>
          <technique_common>
            <accessor source="#bouldercubic8-mesh-normals-array" count="16" stride="3">
              <param name="X" type="float"/>
              <param name="Y" type="float"/>
              <param name="Z" type="float"/>
            </accessor>
          </technique_common>
        </source>
        <source id="bouldercubic8-mesh-map-0">
          <float_array id="bouldercubic8-mesh-map-0-array" count="168">0.5925756 0.5002804 -0.109832 0.05683624 0.206059 0.7977869 -0.5974712 0.6052454 -0.2822827 0.1655946 -0.2409472 0.7378334 0.9539626 -0.3952457 0.8373301 -0.146293 0.4940086 -0.7208711 0.5925757 0.5002804 0.3758643 -0.38028 -0.109832 0.05683624 0.206059 0.7977869 0.5428959 0.7838177 0.5925756 0.5002804 0.5234376 -0.4645262 0.1212929 -0.2949199 0.2036594 -0.5958961 0.7230089 0.1573838 0.2342465 0.7220196 0.03044766 -0.3408291 -0.5005643 0.7557027 -0.2638073 0.9780602 -0.07264113 0.5714836 0.1212929 -0.2949199 0.1880728 0.6898882 -0.3053131 -0.1000789 0.5710753 0.7900459 0.5189073 -0.07005017 0.7865982 0.5373082 0.5189073 -0.07005017 0.5710753 0.7900459 -0.2409472 0.7378334 0.3614198 0.6629739 0.8115082 0.2334661 -2.50398e-4 0.06267642 -0.3968417 -0.170033 -2.50399e-4 0.06267642 -0.006427943 -0.5739477 -0.497983 -0.290855 -0.07264113 0.5714835 -0.08148413 -0.2058173 0.1908648 -0.257097 0.0507465 0.6742087 0.7208999 0.07991856 0.9129773 0.586986 0.7208999 0.07991856 0.0507465 0.6742087 -0.2822827 0.1655946 0.3294575 -0.4305476 0.5189073 -0.07005017 0.1212929 -0.2949199 0.5537245 -0.09701693 0.6436395 0.4695661 -2.50398e-4 0.06267642 0.8115082 0.2334661 0.4722743 -0.07354825 -0.497983 -0.290855 -0.5005643 0.7557027 -0.07264113 0.5714835 0.5189073 -0.07005017 -0.2409472 0.7378334 -0.2822827 0.1655946 0.3758643 -0.38028 0.5925757 0.5002804 0.9166266 -0.01621985 0.1212929 -0.2949199 0.6436395 0.4695661 0.1880728 0.6898882 -0.3010101 -0.4527226 0.08261132 -0.3797934 0.247305 -0.5892217 -0.05755251 0.3092539 -0.4576824 0.2061138 -0.3424542 0.5215604 -0.4186134 -0.01610666 -0.4864569 -0.270189 -0.1399651 -0.5297253 0.8093087 -0.4026551 0.3758643 -0.38028 0.9166266 -0.01621985 -2.50398e-4 0.06267642 0.4722743 -0.07354825 -0.006427943 -0.5739477</float_array>
          <technique_common>
            <accessor source="#bouldercubic8-mesh-map-0-array" count="84" stride="2">
              <param name="S" type="float"/>
              <param name="T" type="float"/>
            </accessor>
          </technique_common>
        </source>
        <vertices id="bouldercubic8-mesh-vertices">
          <input semantic="POSITION" source="#bouldercubic8-mesh-positions"/>
        </vertices>
        <polylist material="boulder_granite_grey_01-material" count="28">
          <input semantic="VERTEX" source="#bouldercubic8-mesh-vertices" offset="0"/>
          <input semantic="NORMAL" source="#bouldercubic8-mesh-normals" offset="1"/>
          <input semantic="TEXCOORD" source="#bouldercubic8-mesh-map-0" offset="2" set="0"/>
          <vcount>3 3 3 3 3 3 3 3 3 3 3 3 3 3 3 3 3 3 3 3 3 3 3 3 3 3 3 3 </vcount>
          <p>10 0 0 13 1 1 8 2 2 1 3 3 15 4 4 5 5 5 0 6 6 15 4 7 12 7 8 10 0 9 3 8 10 13 1 11 8 2 12 6 9 13 10 0 14 5 5 15 14 10 16 1 3 17 15 4 18 1 3 19 11 11 20 1 3 21 14 10 22 4 12 23 14 10 24 8 2 25 4 12 26 6 9 27 7 13 28 10 0 29 7 13 30 6 9 31 5 5 32 3 8 33 0 6 34 9 14 35 2 15 36 9 14 37 11 11 38 11 11 39 4 12 40 2 15 41 2 15 42 4 12 43 13 1 44 8 2 45 13 1 46 4 12 47 15 4 48 0 6 49 7 13 50 14 10 51 5 5 52 6 9 53 9 14 54 0 6 55 12 7 56 11 11 57 1 3 58 4 12 59 7 13 60 5 5 61 15 4 62 3 8 63 10 0 64 7 13 65 14 10 66 6 9 67 8 2 68 2 15 69 3 8 70 9 14 71 3 8 72 2 15 73 13 1 74 15 4 75 11 11 76 12 7 77 0 6 78 3 8 79 7 13 80 9 14 81 12 7 82 11 11 83</p>
        </polylist>
      </mesh>
      <extra><technique profile="MAYA"><double_sided>1</double_sided></technique></extra>
    </geometry>
    <geometry id="collisionmesh-1-mesh" name="collisionmesh-1">
      <mesh>
        <source id="collisionmesh-1-mesh-positions">
          <float_array id="collisionmesh-1-mesh-positions-array" count="336">0.7687048 0.08627712 -0.7202692 0.02375233 -0.7869346 0.8280163 0.5390607 -0.3729707 0.2796972 -0.2297733 0.7320337 -0.2352554 -0.8273752 -0.123286 -0.4491434 0.1031326 -0.9663023 0.07010328 -0.1971565 0.391777 -0.4349997 0.01914381 0.7669113 0.6243103 -0.484931 -0.3949632 0.101932 -0.6259346 0.02307039 -0.6418541 -0.6973821 -0.3611226 -0.4357817 0.547375 -0.02669489 0.5434787 0.3222361 0.1778405 0.9382496 0.6209559 -0.3625677 0.04210972 0.752873 0.4000337 -0.2760391 -0.7766611 -0.1610953 0.1444305 -0.56825 0.3240496 0.4177982 -0.109492 -0.05906778 -0.9382666 0.2648282 0.5416238 -0.06169527 -0.1423021 -0.8132148 0.7133924 -0.4341477 -0.7229004 -0.4910964 0.6166232 -0.139393 -0.7939684 -0.3639131 -0.6170783 -0.01373636 0.2497856 0.3766894 -0.6967037 -0.1236134 0.2578914 -0.6623184 -0.4821808 -0.2810832 0.821094 0.5686321 -0.342094 -0.5045495 -0.2659682 -0.8962342 -0.4398539 0.04631942 -0.7917637 -0.4680555 0.8131519 0.2976652 -0.05606657 0.5372419 0.3320907 0.6869472 0.2624222 -0.4346446 -0.7232156 -0.0564168 0.7613302 0.1843547 0.3145392 0.5809634 0.7415587 0.06661909 0.3958967 -0.6684177 0.8671278 0.2265157 -0.3814591 -0.5862467 0.4981073 0.03328895 -0.5631007 -0.3648798 0.3609858 -0.2130943 -0.3378771 -0.8190897 -0.09226667 -0.9434242 0.1584494 -0.2515407 -0.1342465 0.847211 -0.6232998 -0.4146131 -0.231628 -0.7051939 0.3435016 -0.2575538 -0.2427512 0.1531686 0.8018857 0.3036785 0.6605485 0.3352475 0.3666031 -0.2421464 0.8028082 -0.6862761 0.218868 0.08882409 -0.02247494 0.7027214 -0.2169304 0.5274007 0.4946498 -0.2489786 0.4478899 0.5412958 0.1325246 -0.3703474 -0.6468254 -0.6511563 0.341045 -0.7554272 -0.1576248 0.7270712 0.3258966 -0.5871863 0.4758563 -0.4120954 0.5190175 -0.2051273 -0.5430386 0.9251633 0.7166331 0.2237362 0.2244918 0.4576251 -0.6637235 0.3149665 0.1210941 -0.919965 0.5052259 0.09840214 0.02053058 0.9810153 0.6051768 0.4720048 -0.06942707 0.1686833 -0.1393802 -0.9746325 -0.3473181 0.1977558 -0.6028853 -0.447133 -0.3645876 -0.691467 0.2879835 -0.5930953 -0.3891397 0.3072302 -0.6593295 0.681712 0.0707767 0.4509553 0.919079 -0.4410752 0.468247 0.6227133 -0.4444215 0.6903104 0.2096676 0.5859954 0.4150378 0.2305804 0.2609768 -0.8540504 0.2176232 -0.518086 0.592943 -0.1782191 -0.8551855 -0.09867852 -0.2495878 0.7161697 -0.2896243 -0.295502 0.5553703 0.2358159 -0.7693909 -0.2386404 0.7985813 0.4361451 -0.603449 -0.3271926 0.6658244 0.5890585 -0.5895449 -0.005847156 0.8168455 0.03154003 -0.1884005 -0.63473 -0.2128413 -0.5628527 0.1782363 0.5457415 -0.6137406 -0.4379255 -0.1110308 -0.8066028 -0.4227194 -0.5403801 0.5267993 0.3898094 -0.4604308 -0.4527353 0.3985973 -0.7351377 0.08148038 0.002315282 -0.5501033 -0.8053445 -0.3567623 0.1040809 -0.7254312 -0.2343348 -0.7739149 0.4392545 -0.08748388 -0.9358797 -0.2324523 -0.546164 0.05877357 0.6916719 0.4027626 0.6169582 0.5088474 0.6203818 0.3383833 0.474962 -0.3108775 0.4390583 0.7845872 -0.8039212 0.0910331 -0.4618374 0.5994942 -0.5040034 -0.2292158 0.3110343 -0.2261691 -0.9554429 -0.3168814 0.822289 -0.03465551 0.6084363 -0.1287176 0.1748601 -0.3783215 -0.5339572 0.1944317 0.4482431 0.4718156 -0.6196959 -0.2033964 -0.8631977 -0.583373 0.1611639 -0.4265328 0.9363257 -0.2736439 0.6258243 0.720113 0.822689 -0.110933 -0.53434 0.3343494 0.5666859 -0.4276911 -0.5472956 0.2699749 -0.4658694 -0.0116598 0.6592424 0.8287315 0.02407342 0.1732004 -0.8125 -0.7472326 -0.05723804 0.4684733 0.5431734 -0.01923924 -0.8969376 -0.3336906 -0.7648868 -0.2527497 0.03290623 0.6502964 -0.4359288 -0.01585036 -0.3451759 0.9909088</float_array>
          <technique_common>
            <accessor source="#collisionmesh-1-mesh-positions-array" count="112" stride="3">
              <param name="X" type="float"/>
              <param name="Y" type="float"/>
              <param name="Z" type="float"/>
            </accessor>
          </technique_common>
        </source>
        <source id="collisionmesh-1-mesh-normals">
          <float_array id="collisionmesh-1-mesh-normals-array" count="660">0.2931759 0.9540165 -0.06245416 -0.7712427 0.425013 0.4738658 -0.8014239 0.5980153 0.009869754 -0.3796327 0.1554295 0.9119872 -0.891215 0.2877697 0.3506059 0.2612254 0.910112 -0.321648 -0.53047 0.6099497 -0.5886961 -0.8725529 0.4284095 0.2347697 0.3832485 0.4109238 0.8272013 -0.166786 0.6641496 -0.7287577 -0.4359426 0.6102941 -0.6614343 0.8640412 -0.3533665 0.3585594 0.6775892 -0.6775591 0.2859835 0.5270761 -0.7346697 -0.4271432 -0.3500727 0.7570226 -0.5516938 0.875855 -0.3197661 0.3614245 -0.2894656 0.2925696 0.9113795 -0.2801213 0.5766466 -0.7674704 -0.6864821 -0.2798282 -0.6711472 0.7879828 -0.1120015 0.6054244 0.9197463 -0.218014 0.3263995 0.6443492 -0.6706908 -0.3674068 -0.327896 0.2637172 0.907159 0.5201244 0.8503169 -0.08019751 0.7902228 0.6076528 0.07941031 0.6244683 0.7590531 0.184059 -0.1931253 0.7232174 -0.6630681 0.7319036 0.5745526 0.3663419 0.5871606 0.787554 0.1870856 -0.8742896 -0.4813662 -0.0624842 -0.4427335 -0.2436942 -0.8629022 0.6500383 -0.7458978 0.1452127 -0.5739159 -0.2407224 -0.7827346 -0.07056277 0.5513246 -0.8313015 0.6813915 -0.730136 0.05105656 -0.7215111 -0.195532 -0.6642205 0.02940887 -0.9768204 -0.2120312 -0.2122107 -0.3163635 -0.9245976 0.3141151 0.9428573 -0.1111382 -0.09796208 0.4047219 -0.9091774 0.4233114 0.8572696 0.2930807 -0.7316836 -0.4547437 -0.5077868 0.382429 0.9230731 -0.04103749 -0.2478219 0.8409365 0.481051 0.5590065 -0.4267761 0.7108965 0.4147968 -0.8415818 -0.3459536 0.478533 -0.7008404 -0.5289886 0.5499917 -0.7006078 0.4545963 0.5355348 -0.8418081 0.06753981 0.4140433 -0.8620876 -0.2921871 0.6621078 -0.2113999 -0.7189738 -0.5880799 -0.693589 -0.4160486 0.6390652 -0.7277821 -0.2488553 0.8725023 -0.1904685 0.4499571 0.8419174 0.3663303 -0.3962034 -0.8709731 0.429776 0.2381144 0.6321811 -0.7287247 -0.2632632 -0.2818806 0.8657615 0.4135218 0.3718641 -0.7813753 -0.5011683 -0.5004875 0.6654163 -0.5538352 -0.7431008 0.668646 -0.02671962 0.3237628 0.8161346 0.478646 -0.6433991 -0.5593119 0.5226928 -0.5289701 0.5906057 -0.6094059 0.9475326 -0.1316881 0.2912732 -0.4358607 0.120589 0.8918989 -0.708641 -0.6928486 -0.133374 0.5850898 0.3646103 0.7243821 0.8646012 -0.380471 0.3281871 0.1789273 0.07659828 -0.980876 -0.5931599 -0.3645282 -0.7178305 -0.4313279 0.1013174 0.8964881 0.7638218 0.5089734 0.3968907 -0.5562214 -0.7613394 0.3331366 -0.6594141 -0.7429525 0.1148683 -0.9068972 0.3662877 0.2082562 0.8252145 0.5616186 0.06004726 -0.5743429 -0.76796 0.2834919 0.2448166 0.9190508 -0.3088857 0.91065 -0.1072205 0.3990244 0.01417839 0.4826067 -0.8757224 -0.1254824 -0.9918803 -0.02067887 0.4854972 -0.6518867 -0.5825257 -0.4679351 0.4136201 -0.7809963 -0.3854895 0.4495177 -0.8058112 -0.7040243 0.03503286 -0.7093113 -0.9139766 0.3633339 0.1806523 -0.7192465 0.2908465 0.630946 0.9391017 -0.1302439 0.3180008 0.5846346 -0.8080822 -0.07215017 -0.7940115 -0.5964212 -0.1175902 0.3906245 -0.8672633 -0.3086531 -0.3743912 -0.6243982 0.6855349 -0.5690131 -0.8220115 -0.02282708 -0.2255421 -0.9528012 0.2032256 0.3697618 0.9288616 0.022188 -0.7483581 -0.631065 0.2042476 -0.6874482 -0.2825775 -0.669003 -0.7507166 -0.6509127 -0.1128599 0.2174826 0.9759777 0.01300364 0.8870357 -0.4344399 0.1562995 0.3814961 0.9230796 -0.04883337 0.8396278 -0.258205 0.4778653 -0.8067908 0.5908167 0.004912495 0.1108744 0.4752699 -0.8728261 0.947601 -0.2398071 0.2110565 0.3204336 0.898342 -0.3005067 -0.7968286 0.07814228 0.599131 -0.7394791 -0.5804522 0.3409483 0.9820016 -0.1682235 0.08586955 0.4650526 -0.833448 -0.2984805 0.2010627 0.9789031 0.03636497 -0.5854036 -0.616601 -0.5264085 -0.5744706 0.8071287 0.1361133 0.9584297 -0.1912924 0.2117071 -0.9392296 0.256768 0.2278551 0.4836775 -0.6606613 -0.5740929 0.8678011 -0.1631739 0.4693565 -0.8817818 0.4373824 0.1765148 0.9262943 -0.3426434 0.1567624 0.7525876 0.6237609 -0.2110314 0.6247719 0.7592677 0.1821339 0.6413159 -0.1732971 0.7474503 0.925679 -0.1176332 0.3595564 -0.9838418 0.09882396 -0.1492956 -0.2273518 -0.2909519 -0.929332 0.9904369 -0.137813 -0.006504118 0.9603123 -9.63903e-5 -0.2789272 0.1931764 0.9644278 -0.180449 0.5929775 -0.7024406 -0.3936432 0.01678103 0.466479 -0.8843731 -0.8973972 -0.4276393 0.1086414 0.6160814 -0.7834224 -0.08181196 -0.7699547 -0.6376812 -0.02307426 0.0702185 -0.311558 0.9476292 0.6964781 0.7150444 -0.06024563 -0.7267084 -0.6799297 0.09793061 -0.374628 0.4424166 -0.8148138 0.4558032 -0.6943156 -0.5569284 0.9809068 -0.07550632 0.1792223 -0.7588305 0.06925708 0.6475953 -0.2379907 -0.4528121 -0.8592564 0.2696264 -0.05823212 0.9612028 0.2678966 0.95012 -0.1596977 -0.09717655 -0.9301674 0.3540416 -0.3503885 0.7530585 -0.5568938 -0.9329643 0.3194589 0.1659023 -0.7680544 -0.6403815 -0.002013683 -0.06711977 -0.9918395 0.1083941 0.0573315 0.553183 -0.8310846 -0.4521939 0.7233477 -0.5218132 0.4004212 0.6134992 -0.6806479 -0.7393501 0.6118419 0.2810887 0.9181905 -0.315585 0.2394419 0.3714991 0.878753 -0.2996357 0.2309076 -0.06462979 0.9708268 -0.08715605 -0.3492398 -0.9329712 0.9634112 -0.09144467 0.2519456 -0.6894472 -0.7243339 -0.001705408 -0.3918097 0.7452719 -0.539495 0.9295949 -0.1965204 0.3118219 0.8408896 0.54079 0.0212385 -0.7285754 -0.6199554 0.2912616 -0.7919738 -0.5963031 0.1311495 -0.5290271 0.4682507 -0.7077229 -0.8061479 -0.5878471 0.06753677 0.2530844 0.9607206 0.1138601 0.1492473 0.988063 -0.03816688 0.9584897 -0.1759368 0.2243739 -0.7034128 0.6236488 0.3409876 0.08479762 0.1472457 0.9854583 -0.6312048 -0.7689903 -0.1011654 0.4782167 -0.7009393 -0.5291436 -0.4111818 0.1527712 0.8986604 -0.9450134 0.3216242 0.05922454 0.7657417 0.5596365 0.3169335 0.6164836 -0.7848926 -0.06238257 0.6909453 -0.2904867 0.6619758 -0.804444 -0.5453416 0.2355262 -0.3316699 -0.02196824 0.9431397 0.7575924 -0.3258435 -0.5655791 -0.9176359 -0.346615 0.1944285 -0.4207863 0.5480818 -0.7228729 -0.4135605 -0.3639473 -0.8345718 0.3323873 0.4829499 0.8101099 -0.6964542 0.3542759 0.6240513 -0.2778255 0.6937748 -0.6644467 -0.6873983 -0.2828224 -0.6689507 0.4776759 -0.6834597 -0.552004 0.4719116 0.8480137 -0.2411893 0.5135878 -0.3553436 -0.7809984 0.01940357 0.4674095 -0.8838279 -0.3350442 -0.0228458 0.9419254 -0.2110122 0.1599262 0.964312 0.0986247 -0.397481 0.912295 0.4246973 0.8941459 0.1418993 0.04272669 0.4452235 -0.8943995 -0.395727 0.3691808 0.8408957 -0.2824824 0.614813 -0.7363482 -0.3214964 -0.2686592 -0.9079991 0.1540833 0.9690241 -0.1930047 -0.8020982 -0.5808191 0.1388804 -0.9723168 0.2332739 0.01353728 -0.7398748 -0.6547576 0.1545238 0.5448649 0.8322969 -0.102001 0.6596168 -0.6582983 -0.3626972 0.4528765 0.3813529 -0.8058989 -0.411651 0.1542338 0.8981956 0.1612742 0.9243267 -0.3458479 0.5042591 0.4845914 -0.7147685 -0.3926842 0.4506738 -0.8016809 0.6278193 -0.7744262 0.07814675 -0.6446433 -0.4309368 0.6314495 -0.4688352 0.6591208 -0.588008 0.4214602 0.8870803 -0.1883072 -0.8311095 -0.5338816 0.1556518 0.7496157 -0.5303971 -0.3959231 -0.2814676 -0.3437141 -0.8958998 0.6335796 -0.5576879 -0.5362473 -0.732105 -0.6531278 0.1935108</float_array>
          <technique_common>
            <accessor source="#collisionmesh-1-mesh-normals-array" count="220" stride="3">
              <param name="X" type="float"/>
              <param name="Y" type="float"/>
              <param name="Z" type="float"/>
            </accessor>
          </technique_common>
        </source>
        <source id="collisionmesh-1-mesh-map-0">
          <float_array id="collisionmesh-1-mesh-map-0-array" count="1320">0.5378251 0.4489468 0.1743401 0.2998726 0.2432036 0.7112913 0.1636778 0.5683873 0.2894381 0.7491175 0.5288817 0.5235871 0.6938808 0.1595107 0.7771027 -0.02211648 0.5662372 -0.1042778 -0.2636417 0.1856076 0.01403975 0.02760928 0.01035732 0.2641733 0.6448342 0.7079696 0.5288817 0.5235871 0.2894381 0.7491175 0.5413598 -0.2607634 0.4043569 -0.4232623 0.2757712 -0.2617601 0.7419198 -0.4232623 0.6043196 -0.4604471 0.564422 -0.2316496 0.8778566 0.318817 0.6938808 0.1595107 0.5288817 0.5235871 0.313431 0.5647666 0.5393269 0.3088172 0.5428959 0.6660259 -0.2438602 0.3737443 -0.2410371 0.6732723 0.06231516 0.4605914 -0.4917237 0.2195191 -0.2438602 0.3737443 -0.3268246 0.1545825 -0.3481922 0.410447 -0.1409059 0.6075953 -0.3606956 0.7438493 -0.5974712 0.6052454 -0.3481922 0.410447 -0.3606956 0.7438493 0.8044365 -0.581076 0.7402765 -0.3051043 0.457301 -0.5297253 -0.10038 -0.4941882 -0.05755251 -0.4007534 0.1441883 -0.4530436 0.4588856 0.3418349 0.1400981 0.2937635 0.2657217 -0.04154914 -0.2636417 0.1856076 -0.2042572 -0.1239161 0.01403975 0.02760928 0.247305 0.2901088 0.1632389 0.0852276 -0.10038 0.2352552 0.044721 -0.3463171 0.1521481 -0.5970865 -0.08885687 -0.4856316 0.5594369 0.745207 0.4126477 0.989862 0.006813585 0.8674228 -0.07117396 0.4041927 -0.3481922 0.410447 -0.2888153 0.1110573 0.457301 -0.5297253 0.5734975 -0.259918 0.4830187 -0.2017205 -0.05207526 0.5340517 0.313431 0.5647666 0.2386342 0.7399001 0.4609817 0.07954907 0.2148544 -0.06670767 0.1743401 0.2998726 0.6041712 0.3483588 0.8113555 0.5991291 0.5437029 0.5641131 0.750642 0.3483588 0.9807721 0.09198224 0.784349 0.06850862 -0.2438602 -0.2838982 0.06231516 -0.2316496 -0.05755251 -0.4007534 0.5594369 0.745207 0.8113555 0.5991291 0.7698563 0.7838177 0.750642 0.3483588 0.784349 0.06850862 0.6400687 0.235467 0.1293522 -0.2535368 -0.07291859 -0.2355159 0.1379458 -0.08849865 -0.09674102 -0.4649952 -0.1439951 -0.1926874 0.0473597 -0.1668409 0.3430219 0.6052454 0.4676943 0.3207449 0.664826 0.410447 -0.3242383 -0.0591095 -0.5148255 0.02552163 -0.3268246 0.1545825 0.3114953 0.5004891 0.4576693 0.4688876 0.247305 0.2901088 0.4676943 0.3207449 0.6042035 0.209406 0.664826 0.410447 0.044721 -0.3463171 0.258413 -0.4473873 0.1521481 -0.5970865 0.006800889 -0.2634914 0.05707049 -0.3972893 0.1549497 -0.0646221 0.0473597 -0.1668409 0.1632389 0.0852276 0.3899664 0.004949688 -0.0564962 0.08574593 0.1743401 0.2998726 0.2148544 -0.06670767 0.3114953 0.5004891 0.4043569 0.6380893 0.4576693 0.4688876 0.2432036 0.7112913 0.5428959 0.7838177 0.5921882 0.5991291 -0.07291859 -0.2355159 -0.3611646 -0.4403128 -0.4143408 -0.3121834 0.7146862 -0.09458231 0.9429346 -0.08539855 0.5413598 -0.2607634 0.2432036 0.7112913 0.0379135 0.5345443 -0.02224373 0.7858933 0.5234376 -0.4645262 0.3910225 -0.2619095 0.2522644 -0.584448 0.5603659 5.60872e-4 0.3143593 0.1904151 0.1549497 -0.0646221 0.457301 -0.5297253 0.5118442 -0.735386 0.8044365 -0.581076 0.3430219 0.6052454 0.5234376 0.7438493 0.2522644 0.8844199 0.3143593 0.1904151 0.4676943 0.3207449 0.3430219 0.6052454 0.5603659 5.60872e-4 0.1549497 -0.0646221 0.2664998 -0.270189 0.7331289 0.123239 0.9366927 0.2104831 0.8044365 0.02400618 0.05707049 -0.3972893 0.006800889 -0.2634914 -0.1453861 -0.3121834 0.5603659 5.60872e-4 0.7978113 -0.05855488 0.7854966 0.1110573 0.2021531 0.6326624 0.006813585 0.8674228 -0.1409059 0.6075953 0.3143137 -0.5150327 0.5381483 -0.3919221 0.4576006 -0.1955342 0.6448342 0.7079696 0.8778566 0.318817 0.5288817 0.5235871 0.7402765 -0.3051043 0.9920402 -0.347923 0.8832178 -0.1510519 0.2386342 0.8866291 0.2432036 0.7112913 -0.02224373 0.7858933 0.7402765 -0.3051043 0.7978113 -0.05855488 0.5734975 -0.259918 0.06231516 -0.2316496 0.3114953 -0.4604471 0.1441883 -0.4530436 0.7771027 -0.02211648 0.8778566 0.318817 0.9933925 0.08574593 0.5428959 0.7838177 0.2432036 0.7112913 0.2386342 0.8866291 -0.5085126 0.8001989 -0.2638073 0.9780602 -0.04179066 0.7455815 -0.2438602 0.3737443 -0.3905026 0.4624066 -0.2410371 0.6732723 0.502479 0.09198224 0.4588856 0.3418349 0.2657217 -0.04154914 0.0553379 -0.3676378 0.234244 -0.1881728 0.01403975 0.02760928 -0.1404737 0.6331899 -0.2496212 0.4538119 -0.1744286 0.2108029 0.5428959 0.6660259 0.5393269 0.3088172 0.7452264 0.4556063 0.2657217 -0.04154914 0.1400981 0.2937635 -0.03080773 -0.1510519 0.5118442 -0.05392181 0.3899664 0.004949688 0.7331289 0.123239 -0.3242383 -0.0591095 -0.4012376 -0.1767491 -0.5148255 0.02552163 0.3531996 0.1667329 0.313431 0.5647666 0.01035732 0.2641733 0.502479 0.09198224 0.6041712 0.3483588 0.4588856 0.3418349 0.1549497 -0.0646221 -0.06027185 -0.09599196 0.006800889 -0.2634914 0.04556715 0.5604768 0.1716387 0.2690716 0.1338307 0.8001989 0.6938808 0.1595107 0.4562901 0.2138893 0.5288817 0.5235871 0.5437029 0.5641131 0.4588856 0.3418349 0.6041712 0.3483588 -0.479164 0.2562199 -0.3236883 -0.08289378 -0.1744286 0.2108029 0.4043569 -0.4232623 0.5413598 -0.2607634 0.626207 -0.4268189 0.4588856 0.3418349 0.5437029 0.5641131 0.2021531 0.6326624 0.247305 0.2901088 0.4576693 0.4688876 0.7712253 0.3600498 0.1549497 -0.0646221 0.3143593 0.1904151 0.1716387 0.2690716 0.4830187 -0.2017205 0.5734975 -0.259918 0.7978113 -0.05855488 0.06231516 0.4605914 0.03295218 0.8106929 0.2757712 0.7276485 -0.10038 0.2352552 -0.157239 0.04831761 -0.3268246 0.1545825 0.1293522 -0.2535368 0.3233497 -0.2833951 0.258413 -0.4473873 0.4562901 0.2138893 0.6938808 0.1595107 0.5662372 -0.1042778 0.2894381 0.7491175 0.6378822 0.8329631 0.6448342 0.7079696 0.1400981 0.2937635 -0.07117396 0.4041927 -0.07582008 0.1919371 0.7854966 0.1110573 0.6042035 0.209406 0.5603659 5.60872e-4 -0.216898 0.2858092 -0.4656916 0.5604768 -0.2372462 0.6331899 0.05707049 -0.3972893 0.2664998 -0.270189 0.1549497 -0.0646221 0.0553379 -0.3676378 0.1338307 -0.6123431 0.2522644 -0.584448 0.1549497 -0.0646221 0.1716387 0.2690716 -0.06027185 -0.09599196 0.3430219 0.6052454 0.1338307 0.8001989 0.1716387 0.2690716 0.5378251 0.4489468 0.2432036 0.7112913 0.5921882 0.5991291 -0.434768 -0.09599196 -0.1169372 -0.08289378 -0.4143408 -0.3121834 -0.4012376 -0.1767491 -0.1439951 -0.1926874 -0.09674102 -0.4649952 -0.09772843 0.2108029 -0.216898 0.2858092 -0.2372462 0.6331899 -0.0564962 0.08574593 0.0379135 0.5345443 0.1743401 0.2998726 -0.2093766 -0.05855488 -0.03080773 -0.1510519 -0.07582008 0.1919371 0.7146862 -0.09458231 0.784349 0.06850862 0.9429346 -0.08539855 -0.1409059 0.6075953 0.006813585 0.8674228 -0.3606956 0.7438493 0.6938808 0.1595107 0.8778566 0.318817 0.7771027 -0.02211648 0.4576693 0.4688876 0.4043569 0.6380893 0.626207 0.5699243 -0.07117396 0.4041927 -0.1409059 0.6075953 -0.3481922 0.410447 0.6400687 0.235467 0.4609817 0.07954907 0.5378251 0.4489468 -0.02008557 0.8707025 0.2894381 0.7491175 -0.04179066 0.7455815 -0.2978321 0.1023567 -0.09772843 0.2108029 -0.1169372 -0.08289378 0.1306671 -0.347923 0.4576006 -0.1955342 0.2657217 -0.04154914 0.7402765 -0.3051043 0.5734975 -0.259918 0.457301 -0.5297253 0.4609817 0.07954907 0.784349 0.06850862 0.7146862 -0.09458231 0.05707049 -0.3972893 -0.1453861 -0.3121834 -0.09674102 -0.4403128 0.0379135 0.5345443 -0.0564962 0.08574593 -0.1499667 0.318817 0.1400981 0.2937635 0.2021531 0.6326624 -0.1409059 0.6075953 0.1379458 -0.08849865 0.1111702 0.2562199 0.4562901 0.2138893 0.5603659 5.60872e-4 0.4830187 -0.2017205 0.7978113 -0.05855488 0.006813585 0.8674228 0.2021531 0.6326624 0.5594369 0.745207 0.5288817 0.5235871 0.4562901 0.2138893 0.1636778 0.5683873 -0.03080773 -0.1510519 0.1306671 -0.347923 0.2657217 -0.04154914 0.5381483 -0.3919221 0.5890763 -0.08539855 0.4576006 -0.1955342 0.784349 0.06850862 0.9807721 0.09198224 0.9429346 -0.08539855 0.3910225 -0.2619095 0.5537245 -0.09701693 0.5393269 0.3088172 0.5437029 0.5641131 0.5594369 0.745207 0.2021531 0.6326624 0.3233497 -0.2833951 0.1293522 -0.2535368 0.1379458 -0.08849865 0.3899664 0.004949688 0.2456724 -0.3627887 0.0473597 -0.1668409 -0.07582008 0.1919371 -0.2888153 0.1110573 -0.2093766 -0.05855488 0.1306671 -0.347923 0.3143137 -0.5150327 0.4576006 -0.1955342 0.784349 0.06850862 0.4609817 0.07954907 0.6400687 0.235467 0.8044365 -0.581076 0.9920402 -0.347923 0.7402765 -0.3051043 0.247305 0.2901088 0.7712253 0.3600498 0.3899664 0.004949688 -0.2978321 0.1023567 -0.4656916 0.5604768 -0.216898 0.2858092 0.5603659 5.60872e-4 0.6042035 0.209406 0.3143593 0.1904151 -0.08708322 0.4538119 -0.2372462 0.6331899 -0.04179066 0.7455815 0.0553379 -0.3676378 0.2522644 -0.584448 0.3910225 -0.2619095 0.8113555 0.5991291 0.6041712 0.3483588 0.7179664 0.235467 -0.2372462 0.6331899 -0.5085126 0.8001989 -0.04179066 0.7455815 0.06231516 0.4605914 -0.2410371 0.6732723 0.03295218 0.8106929 0.2664998 -0.270189 0.05707049 -0.3972893 0.2456724 -0.5899143 0.502479 0.09198224 0.2657217 -0.04154914 0.4576006 -0.1955342 0.1636778 0.5683873 -0.04179066 0.7455815 0.2894381 0.7491175 0.05707049 -0.6505514 -0.09674102 -0.4649952 0.2456724 -0.3627887 0.3531996 0.1667329 0.234244 -0.1881728 0.3910225 -0.2619095 0.2757712 -0.2617601 0.2148544 -0.06670767 0.5413598 -0.2607634 0.3430219 0.6052454 0.2522644 0.8844199 0.1338307 0.8001989 0.06231516 -0.2316496 0.1441883 -0.4530436 -0.05755251 -0.4007534 0.4562901 0.2138893 0.5662372 -0.1042778 0.1379458 -0.08849865 -0.4656916 0.5604768 -0.2978321 0.1023567 -0.6218509 0.2690716 0.3143593 0.1904151 0.3430219 0.6052454 0.1716387 0.2690716 0.626207 0.5699243 0.7712253 0.3600498 0.4576693 0.4688876 0.03295218 -0.06182169 -0.2410371 -0.02211648 -0.0564962 0.08574593 0.626207 0.5699243 0.8906387 0.4343177 0.7712253 0.3600498 0.9744845 0.5345443 0.6448342 0.7079696 0.7886226 0.7858933 0.4588856 0.3418349 0.2021531 0.6326624 0.1400981 0.2937635 0.4609817 0.07954907 0.1743401 0.2998726 0.5378251 0.4489468 0.3910225 -0.2619095 0.5393269 0.3088172 0.3531996 0.1667329 0.5118442 -0.05392181 0.2456724 -0.3627887 0.3899664 0.004949688 0.1400981 0.2937635 -0.07582008 0.1919371 -0.03080773 -0.1510519 -0.479164 0.2562199 -0.2496212 0.4538119 -0.3238281 0.7455815 -0.05755251 -0.4007534 -0.10038 -0.4941882 -0.3268246 -0.4473873 -0.07582008 0.1919371 -0.07117396 0.4041927 -0.2888153 0.1110573 0.502479 0.09198224 0.4576006 -0.1955342 0.5890763 -0.08539855 -0.2978321 0.1023567 -0.1169372 -0.08289378 -0.434768 -0.09599196 -0.07291859 -0.2355159 -0.4143408 -0.3121834 -0.1169372 -0.08289378 0.06231516 0.4605914 0.2757712 0.7276485 0.4043569 0.6380893 0.1379458 -0.08849865 -0.1169372 -0.08289378 0.1111702 0.2562199 0.5413598 -0.2607634 0.4609817 0.07954907 0.7146862 -0.09458231 0.0379135 0.5345443 0.2432036 0.7112913 0.1743401 0.2998726 0.1400981 0.2937635 -0.1409059 0.6075953 -0.07117396 0.4041927 0.9744845 0.5345443 0.8778566 0.318817 0.6448342 0.7079696 0.3531996 0.1667329 0.5393269 0.3088172 0.313431 0.5647666 -0.479164 0.2562199 -0.1744286 0.2108029 -0.2496212 0.4538119 0.5118442 -0.735386 0.457301 -0.5297253 0.2456724 -0.5899143 0.3531996 0.1667329 0.01403975 0.02760928 0.234244 -0.1881728 0.3233497 -0.2833951 0.1379458 -0.08849865 0.5662372 -0.1042778 0.8113555 0.5991291 0.5594369 0.745207 0.5437029 0.5641131 0.3143593 0.1904151 0.6042035 0.209406 0.4676943 0.3207449 -0.3606956 0.7438493 0.006813585 0.8674228 -0.1580789 0.9752779 -0.434768 -0.09599196 -0.6218509 0.2690716 -0.2978321 0.1023567 0.01035732 0.2641733 0.313431 0.5647666 -0.05207526 0.5340517 0.1278367 -0.581076 0.3143137 -0.5150327 0.1306671 -0.347923 0.1111702 0.2562199 -0.04179066 0.7455815 0.1636778 0.5683873 0.3114953 0.5004891 0.247305 0.2901088 0.1441883 0.3664391 0.0473597 -0.1668409 -0.1439951 -0.1926874 -0.157239 0.04831761 0.313431 0.5647666 0.5428959 0.6660259 0.2386342 0.7399001 0.6448342 0.7079696 0.6378822 0.8329631 0.7886226 0.7858933 -0.10038 -0.4941882 0.1441883 -0.4530436 0.247305 -0.5892217 -0.4012376 -0.1767491 -0.3242383 -0.0591095 -0.1439951 -0.1926874 0.457301 -0.5297253 0.2664998 -0.270189 0.2456724 -0.5899143 0.9429346 -0.08539855 0.8906387 -0.3919221 0.626207 -0.4268189 0.8044365 0.02400618 0.5118442 -0.05392181 0.7331289 0.123239 0.3899664 0.004949688 0.1632389 0.0852276 0.247305 0.2901088 -0.05207526 0.5340517 -0.2636417 0.1856076 0.01035732 0.2641733 0.01403975 0.02760928 -0.2042572 -0.1239161 0.0553379 -0.3676378 0.3910225 -0.2619095 0.234244 -0.1881728 0.0553379 -0.3676378 0.5413598 -0.2607634 0.2148544 -0.06670767 0.4609817 0.07954907 0.3899664 0.004949688 0.7712253 0.3600498 0.7331289 0.123239 -0.05207526 0.5340517 0.2386342 0.7399001 -0.02224373 0.6847921 -0.05755251 0.3092539 -0.3268246 0.1545825 -0.2438602 0.3737443 0.1632389 0.0852276 0.0473597 -0.1668409 -0.157239 0.04831761 0.03295218 -0.06182169 0.2148544 -0.06670767 0.2757712 -0.2617601 -0.1169372 -0.08289378 0.1379458 -0.08849865 -0.07291859 -0.2355159 0.1111702 0.2562199 0.1636778 0.5683873 0.4562901 0.2138893 -0.4656916 0.5604768 -0.5085126 0.8001989 -0.2372462 0.6331899 0.5378251 0.4489468 0.5921882 0.5991291 0.6400687 0.235467 -0.2827753 -0.2017205 -0.4864569 -0.270189 -0.1399651 -0.5297253 0.7712253 0.3600498 0.9366927 0.2104831 0.7331289 0.123239 0.01035732 0.2641733 0.01403975 0.02760928 0.3531996 0.1667329 0.03295218 -0.06182169 -0.0564962 0.08574593 0.2148544 -0.06670767 0.9366927 0.2104831 0.7712253 0.3600498 0.8906387 0.4343177 0.1632389 0.0852276 -0.157239 0.04831761 -0.10038 0.2352552 0.664826 0.410447 0.6042035 0.209406 0.7854966 0.1110573 0.0553379 -0.3676378 -0.2042572 -0.1239161 -0.3238281 -0.1456212 -0.2438602 0.3737443 -0.4917237 0.2195191 -0.3905026 0.4624066 0.626207 -0.4268189 0.5413598 -0.2607634 0.9429346 -0.08539855 -0.216898 0.2858092 -0.09772843 0.2108029 -0.2978321 0.1023567 -0.03080773 -0.1510519 -0.2093766 -0.05855488 -0.06652164 -0.3051043 0.0473597 -0.1668409 0.2456724 -0.3627887 -0.09674102 -0.4649952 -0.2827753 -0.2017205 -0.4308112 5.60872e-4 -0.4864569 -0.270189 -0.5686265 -0.2634914 -0.434768 -0.09599196 -0.4143408 -0.3121834</float_array>
          <technique_common>
            <accessor source="#collisionmesh-1-mesh-map-0-array" count="660" stride="2">
              <param name="S" type="float"/>
              <param name="T" type="float"/>
            </accessor>
          </technique_common>
        </source>
        <vertices id="collisionmesh-1-mesh-vertices">
          <input semantic="POSITION" source="#collisionmesh-1-mesh-positions"/>
        </vertices>
        <polylist count="220">
          <input semantic="VERTEX" source="#collisionmesh-1-mesh-vertices" offset="0"/>
          <input semantic="NORMAL" source="#collisionmesh-1-mesh-normals" offset="1"/>
          <input semantic="TEXCOORD" source="#collisionmesh-1-mesh-map-0" offset="2" set="0"/>
          <vcount>3 3 3 3 3 3 3 3 3 3 3 3 3 3 3 3 3 3 3 3 3 3 3 3 3 3 3 3 3 3 3 3 3 3 3 3 3 3 3 3 3 3 3 3 3 3 3 3 3 3 3 3 3 3 3 3 3 3 3 3 3 3 3 3 3 3 3 3 3 3 3 3 3 3 3 3 3 3 3 3 3 3 3 3 3 3 3 3 3 3 3 3 3 3 3 3 3 3 3 3 3 3 3 3 3 3 3 3 3 3 3 3 3 3 3 3 3 3 3 3 3 3 3 3 3 3 3 3 3 3 3 3 3 3 3 3 3 3 3 3 3 3 3 3 3 3 3 3 3 3 3 3 3 3 3 3 3 3 3 3 3 3 3 3 3 3 3 3 3 3 3 3 3 3 3 3 3 3 3 3 3 3 3 3 3 3 3 3 3 3 3 3 3 3 3 3 3 3 3 3 3 3 3 3 3 3 3 3 3 3 3 3 3 3 3 3 3 3 3 3 </vcount>
          <p>44 0 0 32 0 1 7 0 2 107 1 3 88 1 4 16 1 5 36 2 6 70 2 7 42 2 8 88 3 9 40 3 10 43 3 11 66 4 12 16 4 13 88 4 14 103 5 15 79 5 16 110 5 17 79 6 18 34 6 19 6 6 20 67 7 21 36 7 22 16 7 23 65 8 24 12 8 25 33 8 26 104 9 27 70 9 28 6 9 29 92 10 30 104 10 31 9 10 32 56 11 33 53 11 34 64 11 35 57 12 36 56 12 37 64 12 38 21 13 39 26 13 40 31 13 41 85 14 42 61 14 43 24 14 44 55 15 45 96 15 46 77 15 47 88 16 48 25 16 49 40 16 50 106 17 51 17 17 52 85 17 53 78 18 54 80 18 55 62 18 56 30 19 57 12 19 58 45 19 59 2 20 60 56 20 61 76 20 62 31 21 63 82 21 64 63 21 65 91 22 66 65 22 67 105 22 68 18 23 69 47 23 70 32 23 71 68 24 72 89 24 73 90 24 74 68 25 75 29 25 76 59 25 77 104 26 78 6 26 79 61 26 80 30 27 81 89 27 82 33 27 83 68 28 84 59 28 85 49 28 86 4 29 87 10 29 88 71 29 89 50 30 90 62 30 91 38 30 92 57 31 93 69 31 94 56 31 95 78 32 96 4 32 97 9 32 98 34 33 99 23 33 100 106 33 101 69 34 102 83 34 103 56 34 104 78 35 105 9 35 106 80 35 107 27 36 108 99 36 109 87 36 110 38 37 111 17 37 112 60 37 113 95 38 114 32 38 115 47 38 116 34 39 117 79 39 118 23 39 119 7 40 120 33 40 121 89 40 122 10 41 123 50 41 124 20 41 125 48 42 126 14 42 127 103 42 128 7 43 129 74 43 130 101 43 131 64 44 132 100 44 133 1 44 134 51 45 135 5 45 136 87 45 137 31 46 138 94 46 139 21 46 140 57 47 141 64 47 142 1 47 143 5 48 144 69 48 145 57 48 146 51 49 147 87 49 148 28 49 149 108 50 150 0 50 151 21 50 152 99 51 153 27 51 154 20 51 155 51 52 156 93 52 157 76 52 158 11 53 159 45 53 160 53 53 161 0 54 162 52 54 163 35 54 164 66 55 165 67 55 166 16 55 167 26 56 168 102 56 169 72 56 170 105 57 171 7 57 172 101 57 173 26 58 174 93 58 175 82 58 176 6 59 177 34 59 178 24 59 179 70 60 180 67 60 181 95 60 182 33 61 183 7 61 184 105 61 185 19 62 186 54 62 187 75 62 188 104 63 189 42 63 190 70 63 191 29 64 192 55 64 193 77 64 194 54 65 195 111 65 196 40 65 197 81 66 198 37 66 199 8 66 200 33 67 201 12 67 202 30 67 203 77 68 204 96 68 205 72 68 206 94 69 207 60 69 208 108 69 209 78 70 210 10 70 211 4 70 212 58 71 213 65 71 214 43 71 215 29 72 216 68 72 217 55 72 218 87 73 219 109 73 220 27 73 221 86 74 222 39 74 223 19 74 224 36 75 225 46 75 226 16 75 227 90 76 228 55 76 229 68 76 230 15 77 231 41 77 232 8 77 233 79 78 234 103 78 235 98 78 236 55 79 237 90 79 238 11 79 239 106 80 240 23 80 241 73 80 242 87 81 243 5 81 244 39 81 245 63 82 246 82 82 247 93 82 248 6 83 249 3 83 250 110 83 251 85 84 252 80 84 253 9 84 254 4 85 255 92 85 256 9 85 257 46 86 258 36 86 259 42 86 260 88 87 261 91 87 262 66 87 263 96 88 264 2 88 265 13 88 266 76 89 267 83 89 268 51 89 269 97 90 270 86 90 271 81 90 272 99 91 273 28 91 274 87 91 275 54 92 276 19 92 277 1 92 278 87 93 279 39 93 280 109 93 281 57 94 282 19 94 283 39 94 284 44 95 285 7 95 286 89 95 287 109 96 288 41 96 289 20 96 290 10 97 291 62 97 292 50 97 293 8 98 294 97 98 295 81 98 296 95 99 297 74 99 298 32 99 299 93 100 300 72 100 301 13 100 302 48 101 303 59 101 304 14 101 305 53 102 306 45 102 307 64 102 308 36 103 309 67 103 310 70 103 311 23 104 312 79 104 313 98 104 314 2 105 315 53 105 316 56 105 317 49 106 318 18 106 319 44 106 320 25 107 321 88 107 322 75 107 323 22 108 324 8 108 325 41 108 326 102 109 327 35 109 328 77 109 329 26 110 330 82 110 331 31 110 332 18 111 333 59 111 334 48 111 335 99 112 336 20 112 337 50 112 338 74 113 339 95 113 340 67 113 341 96 114 342 11 114 343 53 114 344 71 115 345 15 115 346 46 115 347 51 116 348 63 116 349 93 116 350 45 117 351 11 117 352 30 117 353 16 118 354 46 118 355 107 118 356 72 119 357 102 119 358 77 119 359 52 120 360 14 120 361 35 120 362 59 121 363 29 121 364 14 121 365 100 122 366 45 122 367 12 122 368 90 123 369 30 123 370 11 123 371 92 124 372 4 124 373 71 124 374 60 125 375 84 125 376 38 125 377 13 126 378 76 126 379 93 126 380 102 127 381 0 127 382 35 127 383 59 128 384 18 128 385 49 128 386 21 129 387 102 129 388 26 129 389 106 130 390 73 130 391 60 130 392 22 131 393 86 131 394 97 131 395 51 132 396 83 132 397 5 132 398 37 133 399 81 133 400 75 133 401 54 134 402 1 134 403 100 134 404 89 135 405 68 135 406 49 135 407 81 136 408 19 136 409 75 136 410 6 137 411 70 137 412 3 137 413 28 138 414 99 138 415 84 138 416 29 139 417 77 139 418 35 139 419 107 140 420 75 140 421 88 140 422 99 141 423 50 141 424 84 141 425 58 142 426 111 142 427 100 142 428 110 143 429 47 143 430 103 143 431 57 144 432 1 144 433 19 144 434 6 145 435 24 145 436 61 145 437 46 146 438 42 146 439 71 146 440 86 147 441 22 147 442 39 147 443 5 148 444 57 148 445 39 148 446 98 149 447 73 149 448 23 149 449 3 150 450 70 150 451 95 150 452 98 151 453 52 151 454 73 151 455 74 152 456 66 152 457 101 152 458 55 153 459 11 153 460 96 153 461 18 154 462 32 154 463 44 154 464 100 155 465 12 155 466 58 155 467 94 156 468 84 156 469 60 156 470 96 157 471 13 157 472 72 157 473 15 158 474 37 158 475 75 158 476 61 159 477 85 159 478 9 159 479 13 160 480 2 160 481 76 160 482 29 161 483 35 161 484 14 161 485 22 162 486 41 162 487 109 162 488 10 163 489 20 163 490 41 163 491 6 164 492 110 164 493 79 164 494 71 165 495 41 165 496 15 165 497 103 166 498 18 166 499 48 166 500 74 167 501 7 167 502 32 167 503 96 168 504 53 168 505 2 168 506 74 169 507 67 169 508 66 169 509 58 170 510 12 170 511 65 170 512 15 171 513 8 171 514 37 171 515 94 172 516 31 172 517 84 172 518 58 173 519 40 173 520 111 173 521 92 174 522 71 174 523 42 174 524 89 175 525 30 175 526 90 175 527 5 176 528 83 176 529 69 176 530 64 177 531 45 177 532 100 177 533 109 178 534 39 178 535 22 178 536 43 179 537 65 179 538 91 179 539 21 180 540 0 180 541 102 180 542 15 181 543 75 181 544 107 181 545 34 182 546 106 182 547 24 182 548 38 183 549 62 183 550 80 183 551 65 184 552 33 184 553 105 184 554 66 185 555 91 185 556 101 185 557 85 186 558 24 186 559 106 186 560 10 187 561 78 187 562 62 187 563 31 188 564 28 188 565 84 188 566 14 189 567 52 189 568 98 189 569 21 190 570 94 190 571 108 190 572 60 191 573 17 191 574 106 191 575 91 192 576 88 192 577 43 192 578 40 193 579 25 193 580 54 193 581 100 194 582 111 194 583 54 194 584 103 195 585 47 195 586 18 195 587 60 196 588 73 196 589 108 196 590 91 197 591 105 197 592 101 197 593 61 198 594 9 198 595 104 198 596 17 199 597 38 199 598 80 199 599 3 200 600 47 200 601 110 200 602 41 201 603 71 201 604 10 201 605 15 202 606 107 202 607 46 202 608 86 203 609 19 203 610 81 203 611 44 204 612 89 204 613 49 204 614 63 205 615 28 205 616 31 205 617 73 206 618 0 206 619 108 206 620 43 207 621 40 207 622 58 207 623 3 208 624 95 208 625 47 208 626 0 209 627 73 209 628 52 209 629 17 210 630 80 210 631 85 210 632 56 211 633 83 211 634 76 211 635 54 212 636 25 212 637 75 212 638 104 213 639 92 213 640 42 213 641 98 214 642 103 214 643 14 214 644 97 215 645 8 215 646 22 215 647 72 216 648 93 216 649 26 216 650 38 217 651 84 217 652 50 217 653 63 218 654 51 218 655 28 218 656 27 219 657 109 219 658 20 219 659</p>
        </polylist>
      </mesh>
      <extra><technique profile="MAYA"><double_sided>1</double_sided></technique></extra>
    </geometry>
  </library_geometries>
  <library_visual_scenes>
    <visual_scene id="Scene" name="Scene">
      <node id="Hemi" name="Hemi" type="NODE">
        <translate sid="location">2.68766 8.845478 -2.503622</translate>
        <rotate sid="rotationZ">0 0 1 0</rotate>
        <rotate sid="rotationY">0 1 0 0</rotate>
        <rotate sid="rotationX">1 0 0 0</rotate>
        <scale sid="scale">1 1 1</scale>
        <instance_light url="#Hemi-light"/>
      </node>
      <node id="base01" name="base01" type="NODE">
        <translate sid="location">0 0 0</translate>
        <rotate sid="rotationZ">0 0 1 0</rotate>
        <rotate sid="rotationY">0 1 0 0</rotate>
        <rotate sid="rotationX">1 0 0 0</rotate>
        <scale sid="scale">1 1 1</scale>
        <node id="start01" name="start01" type="NODE">
          <translate sid="location">0 0 0</translate>
          <rotate sid="rotationZ">0 0 1 0</rotate>
          <rotate sid="rotationY">0 1 0 0</rotate>
          <rotate sid="rotationX">1 0 0 0</rotate>
          <scale sid="scale">1 1 1</scale>
          <node id="bouldercubic128" name="bouldercubic128" type="NODE">
            <translate sid="location">0 0 0</translate>
            <rotate sid="rotationZ">0 0 1 0</rotate>
            <rotate sid="rotationY">0 1 0 0</rotate>
            <rotate sid="rotationX">1 0 0 0</rotate>
            <scale sid="scale">1.119715 1.119715 1.119715</scale>
            <instance_geometry url="#bouldercubic128-mesh">
              <bind_material>
                <technique_common>
                  <instance_material symbol="boulder_granite_grey_01-material" target="#boulder_granite_grey_01-material">
                    <bind_vertex_input semantic="UVMap" input_semantic="TEXCOORD" input_set="0"/>
                  </instance_material>
                </technique_common>
              </bind_material>
            </instance_geometry>
          </node>
          <node id="bouldercubic64" name="bouldercubic64" type="NODE">
            <translate sid="location">0 0 0</translate>
            <rotate sid="rotationZ">0 0 1 0</rotate>
            <rotate sid="rotationY">0 1 0 0</rotate>
            <rotate sid="rotationX">1 0 0 0</rotate>
            <scale sid="scale">1.119715 1.119715 1.119715</scale>
            <instance_geometry url="#bouldercubic64-mesh">
              <bind_material>
                <technique_common>
                  <instance_material symbol="boulder_granite_grey_01-material" target="#boulder_granite_grey_01-material">
                    <bind_vertex_input semantic="UVMap" input_semantic="TEXCOORD" input_set="0"/>
                  </instance_material>
                </technique_common>
              </bind_material>
            </instance_geometry>
          </node>
          <node id="bouldercubic8" name="bouldercubic8" type="NODE">
            <translate sid="location">0 0 0</translate>
            <rotate sid="rotationZ">0 0 1 0</rotate>
            <rotate sid="rotationY">0 1 0 0</rotate>
            <rotate sid="rotationX">1 0 0 0</rotate>
            <scale sid="scale">1.119715 1.119715 1.119715</scale>
            <instance_geometry url="#bouldercubic8-mesh">
              <bind_material>
                <technique_common>
                  <instance_material symbol="boulder_granite_grey_01-material" target="#boulder_granite_grey_01-material">
                    <bind_vertex_input semantic="UVMap" input_semantic="TEXCOORD" input_set="0"/>
                  </instance_material>
                </technique_common>
              </bind_material>
            </instance_geometry>
          </node>
          <node id="collisionmesh-1" name="collisionmesh-1" type="NODE">
            <translate sid="location">0 0 0</translate>
            <rotate sid="rotationZ">0 0 1 0</rotate>
            <rotate sid="rotationY">0 1 0 0</rotate>
            <rotate sid="rotationX">1 0 0 0</rotate>
            <scale sid="scale">1.119715 1.119715 1.119715</scale>
            <instance_geometry url="#collisionmesh-1-mesh"/>
          </node>
        </node>
        <node id="detail128" name="detail128" type="NODE">
          <translate sid="location">0 0 0</translate>
          <rotate sid="rotationZ">0 0 1 0</rotate>
          <rotate sid="rotationY">0 1 0 0</rotate>
          <rotate sid="rotationX">1 0 0 0</rotate>
          <scale sid="scale">1 1 1</scale>
        </node>
        <node id="nulldetail0" name="nulldetail0" type="NODE">
          <translate sid="location">0 0 0</translate>
          <rotate sid="rotationZ">0 0 1 0</rotate>
          <rotate sid="rotationY">0 1 0 0</rotate>
          <rotate sid="rotationX">1 0 0 0</rotate>
          <scale sid="scale">1 1 1</scale>
        </node>
        <node id="detail8" name="detail8" type="NODE">
          <translate sid="location">0 0 0</translate>
          <rotate sid="rotationZ">0 0 1 0</rotate>
          <rotate sid="rotationY">0 1 0 0</rotate>
          <rotate sid="rotationX">1 0 0 0</rotate>
          <scale sid="scale">1 1 1</scale>
        </node>
        <node id="detail64" name="detail64" type="NODE">
          <translate sid="location">0 0 0</translate>
          <rotate sid="rotationZ">0 0 1 0</rotate>
          <rotate sid="rotationY">0 1 0 0</rotate>
          <rotate sid="rotationX">1 0 0 0</rotate>
          <scale sid="scale">1 1 1</scale>
        </node>
        <node id="collision-1" name="collision-1" type="NODE">
          <translate sid="location">0 0 0</translate>
          <rotate sid="rotationZ">0 0 1 0</rotate>
          <rotate sid="rotationY">0 1 0 0</rotate>
          <rotate sid="rotationX">1 0 0 0</rotate>
          <scale sid="scale">1 1 1</scale>
        </node>
      </node>
    </visual_scene>
  </library_visual_scenes>
  <scene>
    <instance_visual_scene url="#Scene"/>
  </scene>
</COLLADA>