<?xml version="1.0" encoding="utf-8"?>
<COLLADA xmlns="http://www.collada.org/2005/11/COLLADASchema" version="1.4.1">
  <asset>
    <contributor>
      <author>Duion</author>
      <authoring_tool>Blender 2.65.0 r53189</authoring_tool>
    </contributor>
    <created>2013-06-11T17:52:44</created>
    <modified>2013-06-11T17:52:44</modified>
    <unit name="meter" meter="1"/>
    <up_axis>Z_UP</up_axis>
  </asset>
  <library_lights>
    <light id="Hemi-light" name="Hemi">
      <technique_common>
        <ambient>
          <color>1 1 1</color>
        </ambient>
      </technique_common>
      <extra>
        <technique profile="blender">
          <adapt_thresh>0.000999987</adapt_thresh>
          <area_shape>0</area_shape>
          <area_size>1</area_size>
          <area_sizey>1</area_sizey>
          <area_sizez>1</area_sizez>
          <atm_distance_factor>1</atm_distance_factor>
          <atm_extinction_factor>1</atm_extinction_factor>
          <atm_turbidity>2</atm_turbidity>
          <att1>0</att1>
          <att2>1</att2>
          <backscattered_light>1</backscattered_light>
          <bias>1</bias>
          <blue>1</blue>
          <buffers>1</buffers>
          <bufflag>0</bufflag>
          <bufsize>512</bufsize>
          <buftype>2</buftype>
          <clipend>40</clipend>
          <clipsta>0.5</clipsta>
          <compressthresh>0.04999995</compressthresh>
          <dist sid="blender_dist">25</dist>
          <energy sid="blender_energy">1</energy>
          <falloff_type>2</falloff_type>
          <filtertype>0</filtertype>
          <flag>0</flag>
          <gamma sid="blender_gamma">1</gamma>
          <green>1</green>
          <halo_intensity sid="blnder_halo_intensity">1</halo_intensity>
          <horizon_brightness>1</horizon_brightness>
          <mode>1</mode>
          <ray_samp>1</ray_samp>
          <ray_samp_method>1</ray_samp_method>
          <ray_samp_type>0</ray_samp_type>
          <ray_sampy>1</ray_sampy>
          <ray_sampz>1</ray_sampz>
          <red>1</red>
          <samp>3</samp>
          <shadhalostep>0</shadhalostep>
          <shadow_b sid="blender_shadow_b">0</shadow_b>
          <shadow_g sid="blender_shadow_g">0</shadow_g>
          <shadow_r sid="blender_shadow_r">0</shadow_r>
          <shadspotsize>45</shadspotsize>
          <sky_colorspace>2</sky_colorspace>
          <sky_exposure>1</sky_exposure>
          <skyblendfac>1</skyblendfac>
          <skyblendtype>1</skyblendtype>
          <soft>3</soft>
          <spotblend>0.15</spotblend>
          <spotsize>45</spotsize>
          <spread>1</spread>
          <sun_brightness>1</sun_brightness>
          <sun_effect_type>0</sun_effect_type>
          <sun_intensity>1</sun_intensity>
          <sun_size>1</sun_size>
          <type>3</type>
        </technique>
      </extra>
    </light>
  </library_lights>
  <library_images/>
  <library_effects>
    <effect id="boulder_granite_grey_01-effect">
      <profile_COMMON>
        <technique sid="common">
          <phong>
            <emission>
              <color sid="emission">0 0 0 1</color>
            </emission>
            <ambient>
              <color sid="ambient">0 0 0 1</color>
            </ambient>
            <diffuse>
              <color sid="diffuse">0.8 0.8 0.8 1</color>
            </diffuse>
            <specular>
              <color sid="specular">0.5 0.5 0.5 1</color>
            </specular>
            <shininess>
              <float sid="shininess">50</float>
            </shininess>
            <index_of_refraction>
              <float sid="index_of_refraction">1</float>
            </index_of_refraction>
          </phong>
        </technique>
        <extra>
          <technique profile="GOOGLEEARTH">
            <double_sided>1</double_sided>
          </technique>
        </extra>
      </profile_COMMON>
      <extra><technique profile="MAX3D"><double_sided>1</double_sided></technique></extra>
    </effect>
  </library_effects>
  <library_materials>
    <material id="boulder_granite_grey_01-material" name="boulder_granite_grey_01">
      <instance_effect url="#boulder_granite_grey_01-effect"/>
    </material>
  </library_materials>
  <library_geometries>
    <geometry id="collisionmesh-1-mesh" name="collisionmesh-1">
      <mesh>
        <source id="collisionmesh-1-mesh-positions">
          <float_array id="collisionmesh-1-mesh-positions-array" count="336">0.196677 0.2780025 -0.2538728 -0.06178063 -0.643906 0.6107673 0.4748646 0.03847825 -0.009815335 0.05128079 -0.1237524 0.9720605 -0.4686842 0.1370861 -0.6013735 -0.2322565 0.4269356 0.7348179 -0.6321936 0.3583394 -0.07985383 0.5524666 0.1618236 -0.7221285 0.6149861 -0.4518691 0.05901747 -0.5327329 0.02710455 0.472644 0.1763656 -0.1188426 -0.9813984 -0.6036071 0.4461212 -0.2344904 0.4337947 -0.176781 0.4182384 0.6267106 -0.03801125 -0.7870368 -0.649787 0.05587899 -0.3963067 -0.4421618 -0.3061038 0.504352 0.07293444 -0.4914922 -0.7159698 -0.1581821 -0.647758 -0.4421893 0.202353 -0.5723682 -0.3918407 0.4195404 -0.3272275 -0.7093142 -0.526314 -0.2203287 -0.2895904 -0.2805703 -0.4495968 0.1843724 -0.2286835 -0.3600443 -0.7518873 -0.40395 -0.4533261 -0.4886455 -0.3073017 0.5356551 -0.1449759 -0.186126 0.5054189 0.1477975 -0.3955755 0.2530531 -0.5073279 -0.6838859 0.2636859 -0.3440205 0.598547 -0.5257667 0.09277623 0.1449361 0.1833652 -0.7884691 0.5143523 -0.3471384 0.259379 0.07591885 0.3215011 0.08764314 -0.2383845 -0.5410271 -0.6349521 0.3884947 -0.5470007 0.4540351 0.2946841 0.2873384 0.2645397 0.05722081 -0.7359872 0.08933246 -0.1657227 0.2140626 -0.6628854 0.2917921 -0.4805062 0.7201423 -0.06895798 0.08404701 -0.8599647 0.4152433 0.1729131 -0.1598753 0.4843172 -0.5647035 0.2149112 -0.4654923 -0.238433 0.660656 -0.5648713 0.1194981 0.03508627 -0.09977108 -0.6547418 0.3131349 0.08403581 0.4101052 0.2909258 -0.002714633 -0.3502078 -0.8775737 0.5685527 0.1542347 -0.3835458 -0.4804667 0.3876619 -0.3488009 0.6603865 0.1472122 -0.5818514 0.4334393 -0.1695547 0.1583067 0.4838696 -0.4178113 -0.4294996 0.2432473 -0.6645015 0.2381389 0.5899192 -0.07284939 -0.1585648 -0.4753652 0.002736747 0.6863222 0.4418887 -0.4054562 0.5867717 -0.2552311 0.3086265 -0.4388638 -0.43111 0.3559019 0.6798499 -0.479448 -0.180876 0.1414429 -0.5507174 0.360457 0.2914746 0.02798557 -0.5360831 0.8202201 0.1856098 0.4983544 0.6919894 0.1716559 0.05260711 0.9833531 0.1083576 0.3911099 0.8526003 -0.5087408 0.507304 0.03200984 -0.09099376 -0.07686078 -0.93039 -0.2553721 0.5228517 0.4838744 0.1452283 0.2506947 -0.05779868 0.5954951 -0.3404923 -0.4736725 0.1504922 -0.6284683 0.5787793 0.3407241 -0.232625 -0.9103718 0.2904597 -0.0621311 0.9375627 0.1754919 -0.2908546 0.9508107 0.518929 -0.4297176 0.3290787 -0.03363919 0.3587016 -0.08456844 -0.05510014 -0.69394 -0.1477237 -0.5207982 0.3752982 0.5052908 0.618956 -0.3032676 -0.04431456 -0.0964114 -0.349983 0.9089086 0.3887254 0.07080429 0.2859897 -0.5371963 -0.1121894 -0.6066569 0.3325062 -0.4225896 -0.5677043 0.3547351 0.1859405 0.04631447 -0.3036111 0.4261792 -0.3055505 0.3387451 -0.2899391 0.8220631 0.7014366 -0.2011048 -0.5077105 0.4127405 -0.107097 0.6405745 0.2764161 0.3621928 0.5270167 0.5477411 -0.5954637 -0.02832138 0.7277442 -0.05820482 -0.4017554 -0.3609565 -0.23848 0.7778702 -0.2367494 -0.5500365 0.5734655 -0.4367182 0.4914037 0.2661936 0.2801491 0.2449309 0.8409641 0.3468906 0.3065193 -0.5357944 -0.05898845 0.4209186 -0.3353403 -0.4504217 0.4524299 0.472468 -0.0366038 0.1801763 0.8877248 0.4466081 0.004457592 -0.8904172 0.6123578 -0.4570873 -0.2445088 6.91893e-4 0.5396713 0.6927732 -0.5007579 0.2197133 0.6340075 6.29632e-4 0.5304517 0.4515257 0.1298902 0.3349134 -0.6019846 0.2672137 -0.6896461 -0.1083976 -0.3126496 -0.155936 -0.7995977 0.7434293 0.004354417 -0.6133591 -0.2709971 -0.5201495 -0.175029 -0.2674772 0.08699762 0.7946973 -0.3875342 -0.3310394 -0.02159774 -0.3980773 -0.3034529 -0.6836305 0.03355085 -0.6894629 0.3670035 -0.2620474 -0.4762809 0.7667294</float_array>
          <technique_common>
            <accessor source="#collisionmesh-1-mesh-positions-array" count="112" stride="3">
              <param name="X" type="float"/>
              <param name="Y" type="float"/>
              <param name="Z" type="float"/>
            </accessor>
          </technique_common>
        </source>
        <source id="collisionmesh-1-mesh-normals">
          <float_array id="collisionmesh-1-mesh-normals-array" count="660">-0.512686 -0.2516992 0.8208536 0.9225664 0.1436351 0.3581067 0.9605615 0.03195697 0.2762254 -0.6608985 -0.1883562 -0.7264539 -0.4904783 0.0960893 0.8661396 0.2941606 -0.9515667 0.08938956 -0.1845826 0.6547611 0.732951 -0.001479625 0.7497844 -0.6616805 -0.3271033 0.1636713 0.9307069 -0.807328 -0.5842413 0.08296734 0.3918595 0.3943511 0.831224 -0.4590346 0.05210226 0.8868893 -0.7567507 0.03999513 -0.6524791 0.7037745 0.5166487 -0.4876224 0.725183 0.517844 0.4538141 -0.7501984 -0.6557543 -0.0847854 -0.1795808 0.7562963 -0.6290999 -0.8162499 -0.4458897 -0.3673127 0.1734087 -0.6997929 -0.6929786 -0.9624781 -0.1691989 0.2121502 0.9076927 0.4195062 0.01042133 -0.2599018 -0.5514839 0.7926641 -0.6315602 -0.7687836 0.100516 0.0602172 -0.917407 -0.3933675 -0.3112596 0.6673431 -0.6765875 -0.2996809 -0.9447587 0.13275 0.9811907 -0.192389 0.01585227 -0.3088599 0.70892 -0.6340647 -0.7829158 -0.6049794 0.1450611 0.9994444 -0.03233176 -0.008098602 -0.1416307 0.8904562 -0.4324678 0.8046684 -0.393209 -0.4448544 0.2177545 0.9752895 -0.03732812 -0.4569823 0.4084178 -0.7901658 -0.3351203 0.8693718 0.3631625 0.2297586 -0.9459735 -0.2287904 -0.3258681 0.1966533 0.9247364 0.1414124 0.7738083 -0.6174326 0.4104717 -0.8530595 -0.3221839 0.03639894 -0.980871 -0.1912257 -0.2753983 0.3390572 0.8995533 -0.4177461 0.07315939 0.9056136 -0.9651633 -0.261496 0.008929729 -0.7824847 -0.5874099 0.2065608 -0.7452708 -0.6665808 -0.01554316 0.9059231 0.3013159 0.2975096 -0.09378898 0.8418201 -0.5315473 -0.74253 -0.1008684 0.6621743 0.9802302 0.1953197 0.03160691 0.4118345 -0.8876601 0.2060384 -0.4861101 -0.8688618 0.0936805 -0.9655407 -0.06630998 0.2516632 0.7339091 0.5116609 0.4467445 0.3867615 -0.810101 -0.4406266 0.623144 -0.5912768 -0.5119408 0.5407326 0.8246809 -0.1658606 -0.2503864 0.8554725 -0.4532918 -0.7728164 0.2249819 -0.5934121 0.431303 0.8206245 -0.3749042 0.0440396 -0.0937466 0.9946216 0.5551826 0.7778288 -0.2945414 -0.4041679 -0.2976452 -0.8649021 -0.2019628 0.6905516 -0.6945139 -0.4344874 0.1997197 0.8782555 -0.9901608 -0.01221144 0.1394004 0.9700684 -0.2069507 0.1270384 -0.8880141 -0.443655 -0.1208356 0.9450773 0.2398163 0.2220746 0.2130382 -0.9638595 0.1599673 0.3836036 -0.8190281 -0.4266631 -0.9622104 -0.1681379 0.2141981 -0.5033073 0.1464278 0.8516106 0.4374546 0.8821201 0.1746356 -0.06616151 0.7363756 -0.6733303 -0.9659621 -0.0519458 0.2534145 0.6906577 0.4424115 -0.5720698 -0.9650408 -0.2298454 0.1259661 -0.5948185 0.7061665 0.384083 0.3911335 -0.8929476 0.222843 -0.2638429 -0.8069158 0.5284637 -0.2502372 0.9592608 -0.1311485 0.7946101 0.5835211 0.1676241 0.6686535 -0.6270308 0.3996683 -0.7152713 -0.6919333 -0.09805816 -0.03711932 0.9975443 -0.05939221 -0.4515196 -0.3749983 -0.8096335 0.7773663 -0.5606854 0.2851902 -0.1642855 0.7843805 -0.5981283 0.3861266 -0.8105873 -0.440289 -0.0344696 0.9986771 -0.0381568 0.5598007 0.8153964 -0.1474851 0.2939782 -0.9516237 0.08938109 -0.8164177 0.5538406 0.1634708 0.958817 -0.2604759 0.1132354 -0.2194879 -0.2529476 -0.9422541 -0.6191599 0.1863411 -0.7628355 0.1821259 0.966167 -0.1826239 -0.03928941 -0.4511569 0.8915793 0.9512103 0.2967566 0.08446502 0.3885307 -0.8570611 -0.3383638 0.2847594 0.9583227 0.02301675 0.8656098 0.4590901 0.1998904 0.5391942 -0.4966251 0.6801714 0.3497322 -0.07761371 -0.9336292 -0.9240118 0.3797367 0.04474788 0.07029145 -0.4531829 -0.8886418 -0.9870451 0.03217422 0.1571837 0.03642678 0.5404279 -0.8406014 -0.9393919 -0.220252 0.2627393 0.03034901 0.540089 -0.8410606 -0.7447655 0.6630082 0.07579243 0.3452855 0.9128892 0.2177414 0.8956207 0.4200866 0.1462564 0.4763939 0.7988716 -0.3672234 0.3906946 -0.6046327 0.6941016 0.5233757 0.43285 -0.7339747 -0.7690664 -0.6234931 0.1406887 0.9190654 0.01880049 0.3936564 0.7070226 -0.4610132 0.5362704 0.9486209 0.2999457 0.1007526 0.6958063 -0.6181523 -0.3657066 0.8093804 0.3395798 0.4791544 0.5593269 0.2657912 0.7851806 -0.7805355 -0.6058683 0.153909 0.7673206 0.5461907 0.3359983 -0.6290144 -0.7706114 0.102464 0.9834767 0.1809971 0.003686964 0.4688938 -0.1359586 -0.8727279 -0.3434956 0.9267267 0.1522776 0.1039397 -0.9695268 0.2218431 0.5992774 -0.2573186 0.7580593 -0.46007 -0.4643167 -0.7567996 0.7993944 0.5691954 0.1923155 0.2837333 -0.08730792 0.9549203 0.4144726 0.8812777 -0.2270728 0.9057462 -0.4238201 -5.56714e-4 -0.4986407 -0.8295755 0.2513206 -0.8189172 0.5460743 0.1765712 -0.2530456 0.8509352 -0.4603013 -0.1081632 0.4109949 -0.9051983 -0.6316339 -0.763755 0.1331052 0.2413541 0.877252 -0.4149423 -0.7260841 0.6854806 0.05402082 -0.02076196 0.9970361 0.0740804 -0.6951363 -0.5596948 -0.4511399 0.4026217 -0.8170483 -0.4127078 -0.04650878 -0.7627237 -0.6450501 0.4746534 0.8461388 0.2423902 -0.5556911 0.2421326 -0.7953484 0.1274914 -0.9030289 0.410225 -0.4388337 -0.37175 -0.8180629 0.7944644 0.3471859 0.4982853 0.9393712 -0.05429887 0.3385755 -0.7874514 -0.6031074 -0.1272075 -0.2315657 0.3125458 0.921245 0.473394 0.8050717 -0.3574321 0.3947263 0.8860164 -0.2432409 0.6847776 -0.5649381 0.4603526 0.5557957 0.7649684 -0.3254451 -0.7063059 -0.3232803 0.6297792 -0.9630547 -0.2689446 0.01394635 0.526329 0.5681956 0.6325595 0.3932557 -0.8232499 -0.4094014 -0.9974271 -0.01581048 0.06992214 -0.8130271 -0.5750345 0.09122651 0.9464616 0.3226122 -0.01148641 0.3932874 0.8699373 0.2975471 0.7660665 0.543946 0.3424396 0.1534795 0.6717555 -0.7246989 0.5345647 -0.8097983 0.2418003 0.5275638 0.8352169 -0.1552069 0.6257552 -0.597927 -0.500913 -0.3522366 0.8629483 0.362284 0.3803773 0.8742845 -0.3015623 0.2367226 -0.9162647 -0.3231431 0.2243884 -0.9578049 0.1796101 0.3650163 0.9146325 0.1738114 0.3760981 -0.7728756 -0.5110905 0.9583223 0.04268354 0.2824828 -0.5863678 -0.7870123 -0.1917923 0.3920753 0.870679 0.2969763 -0.7763829 -0.6159721 0.1334466 -0.8424512 0.2748545 0.4633907 0.1762501 0.7773703 0.603847 0.7954913 0.5729649 0.1972432 -0.405749 0.8135827 0.4164745 0.0110706 0.7651399 -0.643769 -0.03639119 0.9923996 0.117552 -0.4151986 0.1297945 0.900424 -0.7025601 0.6620257 0.2610196 -0.05087423 0.824629 -0.5633815 0.9178985 0.393848 -0.04843509 -0.105974 -0.2025715 0.9735165 -0.9186347 -0.3224219 0.2283734 0.7896271 -0.5014905 0.3535483 0.4722936 0.8557693 -0.2111815 -0.4174706 -0.9079466 0.03675967 0.5113642 0.8447353 0.1578892 0.8448888 0.2242522 0.4856684 -0.08854228 0.9936249 -0.06978422 0.9248536 0.003210008 0.3803097 0.9281568 -0.3043469 -0.2142382 0.4666867 0.8647512 0.1854962 -0.3090379 0.7170422 -0.6247768 0.397269 -0.8226863 -0.4066506 -0.4106124 -0.4792014 -0.775734 0.9131353 0.2160085 0.3457227 0.3911665 -0.8948156 0.2151603 -0.9140365 -0.3924716 -0.1024857 -0.04189223 0.8250699 -0.5634756 0.4687409 -0.8017924 0.3706899 0.6297324 -0.5781065 -0.5188738 0.9130136 0.4028693 0.06405001 -0.4463605 0.5967575 -0.6668154 0.3526132 -0.8002087 0.4851081 -0.9638668 -0.2647755 -0.02923709 0.01182746 -0.8726944 -0.4881235 -0.5633682 0.01002275 0.8261451 0.4327625 -0.8188436 -0.3771098 -0.2779241 -0.9580233 0.07035326</float_array>
          <technique_common>
            <accessor source="#collisionmesh-1-mesh-normals-array" count="220" stride="3">
              <param name="X" type="float"/>
              <param name="Y" type="float"/>
              <param name="Z" type="float"/>
            </accessor>
          </technique_common>
        </source>
        <source id="collisionmesh-1-mesh-map-0">
          <float_array id="collisionmesh-1-mesh-map-0-array" count="1320">-0.1993188 -0.4836726 0.02759081 -0.3529785 -0.3348173 -0.2375944 0.4952059 0.8794226 0.07455229 0.9793834 0.01295226 0.6720579 0.2123802 -9.70513e-4 0.2566646 0.305131 -0.07261031 0.1730034 -0.2686402 -0.1521772 -0.3856702 -0.3048288 -0.5762533 -0.1069078 -0.4915492 0.01201856 -0.3348173 -0.2375944 -0.2067574 0.09921234 0.4928994 0.2556145 0.2380562 0.1016284 0.5257315 -0.1029841 0.3081099 0.41391 0.1606154 0.5676425 -0.1585074 0.4509827 -0.2562581 -0.3069995 -0.1899809 -0.444953 -0.4985378 -0.3517553 0.3948241 0.06362485 0.109523 0.1956343 0.2299187 -0.1188735 -0.08811962 0.1555526 -0.2938331 -0.01316297 -0.4562481 0.1999765 0.3081099 0.41391 0.3948241 0.06362485 0.543452 0.262643 -0.2067574 0.09921234 0.02759081 -0.3529785 0.2299187 -0.1188735 0.347466 -0.6131194 0.2362179 -0.4009147 0.5208988 -0.3468084 0.165633 -0.6255221 0.3813546 -0.7380775 0.3613381 -0.5929177 0.05986911 -0.1548975 0.3709583 -0.3877095 0.3917253 -0.1539367 -0.5938436 0.602613 -0.2596729 0.5310938 -0.4562481 0.1999765 0.3582199 -0.8067273 -0.06736081 -0.6767724 0.3376082 -0.6137518 -0.4613571 -0.4964676 0.00597614 -0.6185867 -0.2560414 -0.6982396 0.6264355 -0.9328731 0.2595826 -0.7317045 0.1559486 -0.8989334 0.6534683 0.3108066 0.6505672 -0.07344681 0.3233717 0.04549401 -0.08250987 0.4419829 -0.3158874 0.2775939 -0.07261031 0.1730034 0.1980059 -0.5455563 0.02759081 -0.3529785 -0.1993188 -0.4836726 0.08418428 -0.1436791 -0.2115791 -0.1719349 -0.05703067 -0.4483943 0.08418428 -0.1436791 0.436877 -0.3962932 0.5257315 -0.1029841 -0.4823966 0.1510442 -0.6672313 0.4708361 -0.4985378 0.410342 0.20563 0.3889645 0.02298831 0.3332208 0.2380562 0.1016284 0.165633 -0.6255221 0.07993119 -0.4065531 -0.1158317 -0.5161961 -0.06736081 -0.6767724 -0.4823966 -0.6131194 -0.3822429 -0.5158002 -0.1669687 0.6928383 -0.2596729 0.5310938 -0.4928036 0.8026039 -0.2557876 -0.0366705 -0.459361 0.07025831 -0.4665098 -0.2438331 -0.1899809 -0.444953 -0.06736081 -0.6767724 -0.3822429 -0.5158002 0.165633 -0.6255221 -0.1158317 -0.5161961 0.1075948 -0.8052452 0.1606154 0.7260734 0.41394 0.7252624 0.1605302 0.4764288 0.06520009 0.09615904 0.03501254 -0.07034963 -0.4823966 0.1510442 -0.190174 0.5099034 -0.4573783 0.4981001 -0.1585074 0.7695818 0.436877 -0.3962932 0.08418428 -0.1436791 -0.05703067 -0.4483943 -0.1585074 0.4509827 -0.4309225 0.3774766 -0.2067574 0.09921234 0.3376082 -0.6137518 0.916508 -0.7380775 0.3582199 -0.8067273 0.6151776 -0.5782782 0.2595826 -0.7317045 0.7344084 -0.7248173 0.08418428 -0.1436791 0.5257315 -0.1029841 0.2380562 0.1016284 0.3081099 0.41391 -0.1585074 0.4509827 0.109523 0.1956343 -0.3348173 -0.2375944 0.02759081 -0.3529785 -0.2067574 0.09921234 -0.2596729 0.5310938 0.196799 0.4982822 -0.08811962 0.1555526 -0.4613571 -0.4964676 -0.5529006 -0.1719349 -0.1421671 -0.2904838 -0.7372825 0.3332208 -0.4562481 0.1999765 -0.7909812 -0.1436791 -0.459361 0.07025831 -0.3158874 0.2775939 -0.4290151 0.3497197 -0.2613139 -0.1408356 -0.4985378 -0.3517553 -0.6672313 -0.233466 0.1634168 0.7193979 -0.1669687 0.6928383 -0.1670331 0.8141325 -0.08250987 0.4419829 0.2566646 0.305131 0.01295226 0.6720579 0.3658314 0.6081117 0.4928994 0.2556145 0.691878 0.4790254 0.07503241 0.6412132 -0.1646623 0.602613 0.02298831 0.3332208 -0.1669687 0.6928383 0.1634168 0.7193979 0.196799 0.4982822 0.05986911 -0.1548975 0.07993119 -0.4065531 0.3709583 -0.3877095 0.8225349 -0.4352629 0.9754541 -0.4809733 0.9985546 -0.2438331 0.1075948 -0.8052452 -0.1158317 -0.5161961 -0.1590122 -0.9328731 0.2636712 0.09988033 0.1135843 -0.07832556 -0.09531182 0.1621284 0.3376082 -0.6137518 -0.1899809 -0.444953 0.0788576 -0.3378262 0.00597614 -0.6185867 0.2362179 -0.4009147 0.347466 -0.6131194 0.2636712 0.09988033 0.274791 0.3102387 0.563364 0.2829343 0.4000793 -0.2917921 0.3948241 0.06362485 0.2299187 -0.1188735 0.274791 0.3102387 0.1605302 0.4764288 0.5383381 0.5545473 -0.2686402 -0.1521772 0.03501254 -0.07034963 0.1559486 -0.3532112 -0.4823966 0.1510442 -0.4985378 0.410342 -0.3822429 0.271048 -0.1585074 0.4509827 -0.2067574 0.09921234 0.109523 0.1956343 0.6534683 0.3108066 0.4606595 0.6652622 0.6737995 0.5320653 -0.2557876 -0.0366705 -0.4665098 -0.2438331 -0.1158317 -0.5161961 -0.1421671 -0.2904838 0.2362179 -0.4009147 0.00597614 -0.6185867 -0.08250987 0.4419829 -0.4290151 0.3497197 -0.3158874 0.2775939 0.20563 0.3889645 0.4928994 0.2556145 0.3658314 0.6081117 0.9985546 -0.2438331 0.5257315 -0.1029841 0.436877 -0.3962932 0.6505672 -0.07344681 0.2362179 -0.4009147 0.3233717 0.04549401 -0.2067574 0.09921234 -0.5263354 0.2365475 -0.4915492 0.01201856 0.1135843 -0.07832556 0.4291012 -0.253523 0.0788576 -0.3378262 -0.1899809 -0.444953 -0.2562581 -0.3069995 0.0788576 -0.3378262 0.4606595 0.6652622 0.196799 0.4982822 0.1634168 0.7193979 0.165633 -0.6255221 0.1075948 -0.8052452 0.3813546 -0.7380775 -0.08811962 0.1555526 0.3233717 0.04549401 -0.1421671 -0.2904838 -0.4309225 0.7127004 -0.4573783 0.4981001 -0.553789 0.5320653 0.823148 0.2315782 0.691878 0.4790254 0.4928994 0.2556145 0.1980059 0.8579565 -0.1993188 0.8026039 0.07503241 0.6412132 -0.6672313 -0.233466 -0.5372714 0.04231047 -0.2613139 -0.1408356 0.2566646 0.305131 0.2123802 -9.70513e-4 0.4389602 0.05775701 -0.5896847 0.4790254 -0.3957787 0.6163824 -0.4985918 0.7543951 -0.4562481 0.1999765 -0.7372825 0.3332208 -0.5938436 0.602613 -0.190174 0.5099034 0.1605302 0.4764288 -0.09531182 0.1621284 -0.3856702 -0.3048288 -0.2686402 -0.1521772 -0.1536125 -0.36339 -0.5896847 0.4790254 -0.4290151 0.3497197 -0.3957787 0.6163824 0.06520009 -0.8807114 -0.06736081 -0.6767724 0.3582199 -0.8067273 0.436877 -0.3962932 0.8225349 -0.4352629 0.9985546 -0.2438331 -0.190174 0.5099034 0.1606154 0.7260734 0.1605302 0.4764288 -0.2613139 -0.1408356 -0.09531182 0.1621284 0.1135843 -0.07832556 0.5257315 -0.1029841 0.9100343 -0.02012073 0.4928994 0.2556145 0.7708223 -0.233466 0.6505672 -0.07344681 0.8546383 0.04231047 -0.2557876 -0.0366705 -0.1158317 -0.5161961 0.07993119 -0.4065531 0.1559486 -0.3532112 0.03501254 -0.07034963 0.4012762 -0.1137927 -0.2686402 -0.1521772 -0.5762533 -0.1069078 -0.4823966 0.1510442 0.0788576 -0.3378262 0.6348835 -0.5452576 0.3376082 -0.6137518 0.1980059 -0.5455563 0.4000793 -0.2917921 0.02759081 -0.3529785 0.6558464 0.5545473 0.01295226 0.6720579 0.2566646 0.305131 0.7344084 -0.7248173 0.9754541 -0.4809733 0.6151776 -0.5782782 0.3586203 -0.05062401 0.6622968 0.05775701 0.7883933 -0.1539367 0.07993119 -0.4065531 0.165633 -0.6255221 0.3613381 -0.5929177 0.6237247 -0.2908446 0.4000793 -0.2917921 0.5594024 -0.4880449 0.4012762 -0.1137927 0.7714893 0.01379925 0.6264355 -0.2315356 0.5208988 -0.3468084 0.6505672 -0.07344681 0.7708223 -0.233466 0.6264355 -0.2315356 0.1559486 -0.3532112 0.4012762 -0.1137927 0.196799 0.4982822 0.4606595 0.6652622 0.6534683 0.3108066 0.4012762 -0.1137927 0.3582199 0.1989343 0.7714893 0.01379925 0.6505672 -0.07344681 0.5208988 -0.3468084 0.2362179 -0.4009147 0.3582199 0.1989343 0.4012762 -0.1137927 0.06520009 0.09615904 0.8328562 0.2846458 0.6534683 0.3108066 0.7794647 0.4981001 0.7883933 -0.1539367 0.4291012 -0.253523 0.3586203 -0.05062401 0.6558464 0.5545473 0.8423779 0.7252624 0.4952059 0.8794226 0.2636712 0.09988033 -0.09531182 0.1621284 0.274791 0.3102387 0.5594024 -0.4880449 0.4000793 -0.2917921 0.1980059 -0.5455563 0.7714893 0.01379925 0.916508 0.1766428 1.018217 -0.03014785 -0.08811962 0.1555526 -0.1421671 -0.2904838 -0.2938331 -0.01316297 -0.2375284 0.8598636 -0.3957787 0.6163824 0.01295226 0.6720579 -0.3957787 0.6163824 -0.2375284 0.8598636 -0.4985918 0.7543951 0.6558464 0.5545473 0.4952059 0.8794226 0.01295226 0.6720579 -0.4665098 -0.2438331 -0.3067829 -0.4809733 -0.1158317 -0.5161961 0.05986911 -0.1548975 -0.2557876 -0.0366705 0.07993119 -0.4065531 0.5575769 -0.05510729 0.543452 0.262643 0.3948241 0.06362485 -0.2938331 -0.01316297 -0.1421671 -0.2904838 -0.5529006 -0.1719349 0.3613381 -0.5929177 0.3709583 -0.3877095 0.07993119 -0.4065531 -0.3937153 -0.4964676 -0.05703067 -0.4483943 -0.2115791 -0.1719349 -0.08250987 0.4419829 -0.07261031 0.1730034 0.2566646 0.305131 1.018217 -0.03014785 0.6264355 -0.2315356 0.7714893 0.01379925 -0.4573783 0.4981001 -0.190174 0.5099034 -0.4386054 0.2846458 0.07503241 0.6412132 0.20563 0.3889645 0.3658314 0.6081117 0.4000793 -0.2917921 0.6237247 -0.2908446 0.5575769 -0.05510729 -0.3856702 -0.3048288 -0.1536125 -0.36339 -0.1669023 -0.5506724 0.2123802 -9.70513e-4 0.05986911 -0.1548975 0.3917253 -0.1539367 0.4000793 -0.2917921 0.5575769 -0.05510729 0.3948241 0.06362485 0.6348835 -0.5452576 1.06435 -0.5929177 0.916508 -0.7380775 -0.4665098 -0.2438331 -0.459361 0.07025831 -0.6560756 -0.02012073 -0.1993188 0.8026039 -0.1646623 0.602613 0.07503241 0.6412132 0.6534683 0.3108066 0.8546383 0.04231047 0.6505672 -0.07344681 -0.06736081 -0.6767724 -0.1899809 -0.444953 0.3376082 -0.6137518 0.4012762 -0.1137927 0.03501254 -0.07034963 0.06520009 0.09615904 -0.2246937 0.1999765 -0.2115791 -0.1719349 0.08418428 -0.1436791 0.3376082 -0.6137518 0.6348835 -0.5452576 0.916508 -0.7380775 0.6737995 0.5320653 0.7794647 0.4981001 0.6534683 0.3108066 -0.4386054 0.2846458 -0.09531182 0.1621284 -0.5372714 0.04231047 -0.5815013 -0.6478667 -0.4613571 -0.4964676 -0.2560414 -0.6982396 0.6151776 -0.5782782 0.9754541 -0.4809733 0.8225349 -0.4352629 0.1559486 -0.8989334 0.2595826 -0.7317045 -0.1669023 -0.6478667 0.4291012 -0.253523 0.1135843 -0.07832556 0.3586203 -0.05062401 -0.2686402 -0.1521772 -0.4823966 0.1510442 0.03501254 -0.07034963 0.1980059 0.8579565 0.07503241 0.6412132 0.3658314 0.6081117 -0.2686402 -0.1521772 0.1559486 -0.3532112 -0.1536125 -0.36339 -0.07261031 0.1730034 -0.2557876 -0.0366705 0.05986911 -0.1548975 -0.459361 0.07025831 -0.4290151 0.3497197 -0.5605956 0.1051921 -0.08811962 0.1555526 -0.4562481 0.1999765 -0.2596729 0.5310938 0.3081099 0.41391 0.109523 0.1956343 0.3948241 0.06362485 0.274791 0.3102387 -0.09531182 0.1621284 0.1605302 0.4764288 0.2636712 0.09988033 0.6622968 0.05775701 0.3586203 -0.05062401 -0.4290151 0.3497197 -0.6139363 0.2315782 -0.5605956 0.1051921 0.1605302 0.4764288 0.41394 0.7252624 0.5383381 0.5545473 -0.1669687 0.6928383 -0.4928036 0.8026039 -0.1670331 0.8141325 0.3233717 0.04549401 -0.08811962 0.1555526 0.196799 0.4982822 0.3081099 0.41391 0.543452 0.262643 0.41394 0.5248876 0.9100343 -0.02012073 0.5257315 -0.1029841 0.9985546 -0.2438331 0.6534683 0.3108066 0.3233717 0.04549401 0.196799 0.4982822 -0.4562481 0.1999765 -0.2938331 -0.01316297 -0.5529006 -0.1719349 -0.08250987 0.4419829 0.01295226 0.6720579 -0.4290151 0.3497197 0.6348835 -0.5452576 0.4291012 -0.253523 0.9385448 -0.3877095 -0.2557876 -0.0366705 -0.07261031 0.1730034 -0.3158874 0.2775939 0.7714893 0.01379925 0.3582199 0.1989343 0.916508 0.1766428 0.823148 0.2315782 0.9100343 -0.02012073 0.9796349 0.1051921 0.2636712 0.09988033 0.3586203 -0.05062401 0.1135843 -0.07832556 -0.2886109 -0.7248173 -0.1158317 -0.5161961 -0.3067829 -0.4809733 -0.1585074 0.7695818 0.1606154 0.7260734 -0.190174 0.5099034 0.2636712 0.09988033 0.563364 0.2829343 0.6622968 0.05775701 0.2595826 -0.7317045 0.436877 -0.3962932 -0.05703067 -0.4483943 0.20563 0.3889645 0.2380562 0.1016284 0.4928994 0.2556145 0.9385448 -0.3877095 0.4291012 -0.253523 0.7883933 -0.1539367 0.6264355 -0.9328731 0.7344084 -0.7248173 0.2595826 -0.7317045 -0.3957787 0.6163824 -0.4290151 0.3497197 0.01295226 0.6720579 -0.3937153 -0.4964676 -0.1669023 -0.6478667 -0.05703067 -0.4483943 0.0788576 -0.3378262 0.4291012 -0.253523 0.6348835 -0.5452576 -0.4928036 0.8026039 -0.2596729 0.5310938 -0.5938436 0.602613 0.4606595 0.6652622 0.6472283 0.7127004 0.6737995 0.5320653 0.1606154 0.7260734 0.3081099 0.8914638 0.41394 0.7252624 0.3917253 -0.1539367 0.4389602 0.05775701 0.2123802 -9.70513e-4 -0.4309225 0.7127004 -0.1585074 0.7695818 -0.4573783 0.4981001 -0.3822429 -0.5158002 -0.4985378 -0.3517553 -0.1899809 -0.444953 -0.2613139 -0.1408356 -0.5372714 0.04231047 -0.09531182 0.1621284 -0.2067574 0.09921234 0.2299187 -0.1188735 0.109523 0.1956343 0.8328562 0.2846458 0.8546383 0.04231047 0.6534683 0.3108066 -0.2613139 -0.1408356 0.0788576 -0.3378262 -0.2562581 -0.3069995 0.2566646 0.305131 0.553301 0.2829343 0.6558464 0.5545473 0.2299187 -0.1188735 0.02759081 -0.3529785 0.4000793 -0.2917921 0.3233717 0.04549401 0.2362179 -0.4009147 -0.1421671 -0.2904838 -0.5896847 0.4790254 -0.6139363 0.2315782 -0.4290151 0.3497197 0.5383381 0.5545473 0.563364 0.2829343 0.274791 0.3102387 0.02298831 0.3332208 0.08418428 -0.1436791 0.2380562 0.1016284 0.0788576 -0.3378262 -0.2613139 -0.1408356 0.1135843 -0.07832556 -0.07261031 0.1730034 0.05986911 -0.1548975 0.2123802 -9.70513e-4 -0.190174 0.5099034 -0.09531182 0.1621284 -0.4386054 0.2846458 -0.2375284 0.8598636 0.01295226 0.6720579 0.07455229 0.9793834 -0.459361 0.07025831 -0.5605956 0.1051921 -0.6560756 -0.02012073 0.6348835 -0.5452576 0.9385448 -0.3877095 1.06435 -0.5929177 -0.06736081 -0.6767724 0.06520009 -0.8807114 -0.4823966 -0.6131194 0.436877 -0.3962932 0.6151776 -0.5782782 0.8225349 -0.4352629 0.1559486 -0.3532112 -0.1669023 -0.5506724 -0.1536125 -0.36339 -0.459361 0.07025831 -0.2557876 -0.0366705 -0.3158874 0.2775939 0.4928994 0.2556145 0.9100343 -0.02012073 0.823148 0.2315782 0.00597614 -0.6185867 -0.4613571 -0.4964676 -0.1421671 -0.2904838 -0.4985378 -0.3517553 -0.2613139 -0.1408356 -0.2562581 -0.3069995 0.691878 0.4790254 0.5594024 0.7543951 0.3658314 0.6081117 -0.2886109 -0.7248173 -0.1590122 -0.9328731 -0.1158317 -0.5161961 0.2566646 0.305131 0.4389602 0.05775701 0.553301 0.2829343 -0.4823966 0.1510442 -0.7772077 0.2820507 -0.6672313 0.4708361 0.5594024 0.7543951 0.1980059 0.8579565 0.3658314 0.6081117 -0.2596729 0.5310938 -0.1669687 0.6928383 0.196799 0.4982822 -0.05703067 -0.4483943 -0.1669023 -0.6478667 0.2595826 -0.7317045 -0.2067574 0.09921234 -0.4309225 0.3774766 -0.5263354 0.2365475 0.6151776 -0.5782782 0.436877 -0.3962932 0.2595826 -0.7317045 0.20563 0.3889645 0.07503241 0.6412132 0.02298831 0.3332208</float_array>
          <technique_common>
            <accessor source="#collisionmesh-1-mesh-map-0-array" count="660" stride="2">
              <param name="S" type="float"/>
              <param name="T" type="float"/>
            </accessor>
          </technique_common>
        </source>
        <vertices id="collisionmesh-1-mesh-vertices">
          <input semantic="POSITION" source="#collisionmesh-1-mesh-positions"/>
        </vertices>
        <polylist count="220">
          <input semantic="VERTEX" source="#collisionmesh-1-mesh-vertices" offset="0"/>
          <input semantic="NORMAL" source="#collisionmesh-1-mesh-normals" offset="1"/>
          <input semantic="TEXCOORD" source="#collisionmesh-1-mesh-map-0" offset="2" set="0"/>
          <vcount>3 3 3 3 3 3 3 3 3 3 3 3 3 3 3 3 3 3 3 3 3 3 3 3 3 3 3 3 3 3 3 3 3 3 3 3 3 3 3 3 3 3 3 3 3 3 3 3 3 3 3 3 3 3 3 3 3 3 3 3 3 3 3 3 3 3 3 3 3 3 3 3 3 3 3 3 3 3 3 3 3 3 3 3 3 3 3 3 3 3 3 3 3 3 3 3 3 3 3 3 3 3 3 3 3 3 3 3 3 3 3 3 3 3 3 3 3 3 3 3 3 3 3 3 3 3 3 3 3 3 3 3 3 3 3 3 3 3 3 3 3 3 3 3 3 3 3 3 3 3 3 3 3 3 3 3 3 3 3 3 3 3 3 3 3 3 3 3 3 3 3 3 3 3 3 3 3 3 3 3 3 3 3 3 3 3 3 3 3 3 3 3 3 3 3 3 3 3 3 3 3 3 3 3 3 3 3 3 3 3 3 3 3 3 3 3 3 3 3 3 </vcount>
          <p>111 0 0 77 0 1 89 0 2 92 1 3 70 1 4 85 1 5 2 2 6 78 2 7 49 2 8 104 3 9 109 3 10 79 3 11 53 4 12 89 4 13 107 4 14 51 5 15 35 5 16 103 5 17 62 6 18 99 6 19 5 6 20 82 7 21 55 7 22 47 7 23 61 8 24 96 8 25 3 8 26 57 9 27 108 9 28 21 9 29 62 10 30 61 10 31 92 10 32 107 11 33 77 11 34 3 11 35 4 12 36 14 12 37 27 12 38 105 13 39 7 13 40 48 13 41 52 14 42 46 14 43 39 14 44 90 15 45 15 15 46 21 15 47 29 16 48 36 16 49 102 16 50 23 17 51 79 17 52 109 17 53 69 18 54 16 18 55 45 18 56 58 19 57 6 19 58 42 19 59 12 20 60 30 20 61 49 20 62 59 21 63 77 21 64 111 21 65 74 22 66 106 22 67 17 22 68 74 23 69 18 23 70 103 23 71 4 24 72 11 24 73 47 24 74 110 25 75 43 25 76 35 25 77 105 26 78 88 26 79 84 26 80 36 27 81 4 27 82 26 27 83 41 28 84 15 28 85 111 28 86 76 29 87 8 29 88 98 29 89 55 30 90 36 30 91 26 30 92 105 31 93 84 31 94 13 31 95 99 32 96 60 32 97 101 32 98 38 33 99 64 33 100 4 33 101 65 34 102 95 34 103 5 34 104 18 35 105 74 35 106 17 35 107 5 36 108 56 36 109 107 36 110 102 37 111 7 37 112 29 37 113 80 38 114 16 38 115 19 38 116 74 39 117 103 39 118 35 39 119 62 40 120 5 40 121 96 40 122 89 41 123 77 41 124 107 41 125 15 42 126 9 42 127 57 42 128 23 43 129 106 43 130 20 43 131 43 44 132 21 44 133 74 44 134 8 45 135 30 45 136 72 45 137 24 46 138 47 46 139 11 46 140 53 47 141 41 47 142 89 47 143 12 48 144 78 48 145 85 48 146 68 49 147 51 49 148 33 49 149 1 50 150 90 50 151 43 50 152 41 51 153 53 51 154 9 51 155 52 52 156 88 52 157 46 52 158 50 53 159 67 53 160 98 53 161 13 54 162 84 54 163 69 54 164 31 55 165 73 55 166 25 55 167 102 56 168 55 56 169 94 56 170 79 57 171 14 57 172 4 57 173 31 58 174 44 58 175 34 58 176 71 59 177 61 59 178 3 59 179 44 60 180 101 60 181 86 60 182 104 61 183 64 61 184 45 61 185 4 62 186 47 62 187 26 62 188 5 63 189 107 63 190 96 63 191 58 64 192 100 64 193 75 64 194 76 65 195 98 65 196 84 65 197 20 66 198 14 66 199 79 66 200 12 67 201 72 67 202 30 67 203 110 68 204 51 68 205 68 68 206 98 69 207 103 69 208 18 69 209 6 70 210 14 70 211 42 70 212 107 71 213 100 71 214 53 71 215 73 72 216 0 72 217 94 72 218 55 73 219 82 73 220 94 73 221 100 74 222 9 74 223 53 74 224 105 75 225 13 75 226 7 75 227 57 76 228 42 76 229 20 76 230 56 77 231 95 77 232 75 77 233 40 78 234 33 78 235 51 78 236 59 79 237 111 79 238 1 79 239 11 80 240 63 80 241 24 80 242 78 81 243 2 81 244 81 81 245 33 82 246 54 82 247 37 82 248 21 83 249 43 83 250 90 83 251 65 84 252 101 84 253 25 84 254 109 85 255 104 85 256 22 85 257 33 86 258 72 86 259 54 86 260 38 87 261 36 87 262 29 87 263 18 88 264 50 88 265 98 88 266 65 89 267 99 89 268 101 89 269 24 90 270 25 90 271 73 90 272 103 91 273 87 91 274 51 91 275 11 92 276 6 92 277 63 92 278 76 93 279 84 93 280 88 93 281 45 94 282 64 94 283 10 94 284 104 95 285 79 95 286 4 95 287 94 96 288 93 96 289 102 96 290 59 97 291 71 97 292 77 97 293 86 98 294 85 98 295 78 98 296 19 99 297 67 99 298 80 99 299 66 100 300 81 100 301 39 100 302 88 101 303 105 101 304 48 101 305 83 102 306 71 102 307 37 102 308 10 103 309 97 103 310 69 103 311 27 104 312 6 104 313 11 104 314 69 105 315 45 105 316 10 105 317 9 106 318 100 106 319 58 106 320 10 107 321 29 107 322 97 107 323 6 108 324 27 108 325 14 108 326 29 109 327 10 109 328 38 109 329 91 110 330 58 110 331 95 110 332 39 111 333 0 111 334 66 111 335 86 112 336 60 112 337 92 112 338 31 113 339 25 113 340 44 113 341 37 114 342 71 114 343 59 114 344 97 115 345 7 115 346 13 115 347 57 116 348 20 116 349 108 116 350 83 117 351 54 117 352 85 117 353 54 118 354 83 118 355 37 118 356 86 119 357 92 119 358 85 119 359 98 120 360 67 120 361 84 120 362 52 121 363 76 121 364 88 121 365 70 122 366 92 122 367 61 122 368 108 123 369 20 123 370 106 123 371 48 124 372 46 124 373 88 124 374 23 125 375 17 125 376 106 125 377 12 126 378 49 126 379 78 126 380 13 127 381 69 127 382 97 127 383 95 128 384 65 128 385 91 128 386 1 129 387 110 129 388 68 129 389 71 130 390 83 130 391 70 130 392 109 131 393 22 131 394 32 131 395 2 132 396 52 132 397 39 132 398 71 133 399 70 133 400 61 133 401 93 134 402 48 134 403 7 134 404 98 135 405 8 135 406 87 135 407 111 136 408 90 136 409 1 136 410 58 137 411 63 137 412 6 137 413 36 138 414 55 138 415 102 138 416 10 139 417 64 139 418 38 139 419 21 140 420 106 140 421 74 140 422 102 141 423 93 141 424 7 141 425 75 142 426 95 142 427 58 142 428 91 143 429 25 143 430 63 143 431 32 144 432 23 144 433 109 144 434 80 145 435 67 145 436 50 145 437 45 146 438 16 146 439 32 146 440 0 147 441 73 147 442 66 147 443 104 148 444 4 148 445 64 148 446 59 149 447 1 149 448 68 149 449 104 150 450 45 150 451 22 150 452 49 151 453 76 151 454 52 151 455 8 152 456 72 152 457 28 152 458 57 153 459 21 153 460 15 153 461 62 154 462 96 154 463 61 154 464 44 155 465 25 155 466 101 155 467 31 156 468 81 156 469 66 156 470 72 157 471 40 157 472 28 157 473 101 158 474 60 158 475 86 158 476 41 159 477 111 159 478 89 159 479 42 160 480 57 160 481 9 160 482 62 161 483 92 161 484 60 161 485 87 162 486 103 162 487 98 162 488 58 163 489 42 163 490 9 163 491 21 164 492 108 164 493 106 164 494 12 165 495 85 165 496 72 165 497 93 166 498 0 166 499 46 166 500 76 167 501 49 167 502 30 167 503 97 168 504 29 168 505 7 168 506 40 169 507 87 169 508 28 169 509 31 170 510 66 170 511 73 170 512 19 171 513 84 171 514 67 171 515 5 172 516 99 172 517 65 172 518 31 173 519 34 173 520 81 173 521 16 174 522 18 174 523 17 174 524 110 175 525 35 175 526 51 175 527 46 176 528 0 176 529 39 176 530 69 177 531 19 177 532 16 177 533 54 178 534 72 178 535 85 178 536 23 179 537 32 179 538 17 179 539 94 180 540 0 180 541 93 180 542 111 181 543 15 181 544 90 181 545 100 182 546 56 182 547 75 182 548 99 183 549 62 183 550 60 183 551 39 184 552 81 184 553 2 184 554 56 185 555 5 185 556 95 185 557 26 186 558 47 186 559 55 186 560 24 187 561 63 187 562 25 187 563 107 188 564 3 188 565 96 188 566 91 189 567 63 189 568 58 189 569 24 190 570 94 190 571 82 190 572 78 191 573 34 191 574 86 191 575 3 192 576 77 192 577 71 192 578 42 193 579 14 193 580 20 193 581 33 194 582 40 194 583 72 194 584 86 195 585 34 195 586 44 195 587 43 196 588 74 196 589 35 196 590 94 197 591 24 197 592 73 197 593 49 198 594 52 198 595 2 198 596 65 199 597 25 199 598 91 199 599 83 200 600 85 200 601 70 200 602 8 201 603 28 201 604 87 201 605 93 202 606 46 202 607 48 202 608 36 203 609 38 203 610 4 203 611 18 204 612 80 204 613 50 204 614 45 205 615 32 205 616 22 205 617 8 206 618 76 206 619 30 206 620 51 207 621 87 207 622 40 207 623 79 208 624 23 208 625 20 208 626 47 209 627 24 209 628 82 209 629 33 210 630 37 210 631 68 210 632 19 211 633 69 211 634 84 211 635 78 212 636 81 212 637 34 212 638 4 213 639 27 213 640 11 213 641 37 214 642 59 214 643 68 214 644 15 215 645 41 215 646 9 215 647 17 216 648 32 216 649 16 216 650 107 217 651 56 217 652 100 217 653 80 218 654 18 218 655 16 218 656 110 219 657 1 219 658 43 219 659</p>
        </polylist>
      </mesh>
      <extra><technique profile="MAYA"><double_sided>1</double_sided></technique></extra>
    </geometry>
    <geometry id="Cube-mesh" name="Cube">
      <mesh>
        <source id="Cube-mesh-positions">
          <float_array id="Cube-mesh-positions-array" count="336">0.196677 0.2780025 -0.2538728 -0.06178063 -0.643906 0.6107673 0.4748646 0.03847825 -0.009815335 0.05128079 -0.1237524 0.9720605 -0.4686842 0.1370861 -0.6013735 -0.2322565 0.4269356 0.7348179 -0.6321936 0.3583394 -0.07985383 0.5524666 0.1618236 -0.7221285 0.6149861 -0.4518691 0.05901747 -0.5327329 0.02710455 0.472644 0.1763656 -0.1188426 -0.9813984 -0.6036071 0.4461212 -0.2344904 0.4337947 -0.176781 0.4182384 0.6267106 -0.03801125 -0.7870368 -0.649787 0.05587899 -0.3963067 -0.4421618 -0.3061038 0.504352 0.07293444 -0.4914922 -0.7159698 -0.1581821 -0.647758 -0.4421893 0.202353 -0.5723682 -0.3918407 0.4195404 -0.3272275 -0.7093142 -0.526314 -0.2203287 -0.2895904 -0.2805703 -0.4495968 0.1843724 -0.2286835 -0.3600443 -0.7518873 -0.40395 -0.4533261 -0.4886455 -0.3073017 0.5356551 -0.1449759 -0.186126 0.5054189 0.1477975 -0.3955755 0.2530531 -0.5073279 -0.6838859 0.2636859 -0.3440205 0.598547 -0.5257667 0.09277623 0.1449361 0.1833652 -0.7884691 0.5143523 -0.3471384 0.259379 0.07591885 0.3215011 0.08764314 -0.2383845 -0.5410271 -0.6349521 0.3884947 -0.5470007 0.4540351 0.2946841 0.2873384 0.2645397 0.05722081 -0.7359872 0.08933246 -0.1657227 0.2140626 -0.6628854 0.2917921 -0.4805062 0.7201423 -0.06895798 0.08404701 -0.8599647 0.4152433 0.1729131 -0.1598753 0.4843172 -0.5647035 0.2149112 -0.4654923 -0.238433 0.660656 -0.5648713 0.1194981 0.03508627 -0.09977108 -0.6547418 0.3131349 0.08403581 0.4101052 0.2909258 -0.002714633 -0.3502078 -0.8775737 0.5685527 0.1542347 -0.3835458 -0.4804667 0.3876619 -0.3488009 0.6603865 0.1472122 -0.5818514 0.4334393 -0.1695547 0.1583067 0.4838696 -0.4178113 -0.4294996 0.2432473 -0.6645015 0.2381389 0.5899192 -0.07284939 -0.1585648 -0.4753652 0.002736747 0.6863222 0.4418887 -0.4054562 0.5867717 -0.2552311 0.3086265 -0.4388638 -0.43111 0.3559019 0.6798499 -0.479448 -0.180876 0.1414429 -0.5507174 0.360457 0.2914746 0.02798557 -0.5360831 0.8202201 0.1856098 0.4983544 0.6919894 0.1716559 0.05260711 0.9833531 0.1083576 0.3911099 0.8526003 -0.5087408 0.507304 0.03200984 -0.09099376 -0.07686078 -0.93039 -0.2553721 0.5228517 0.4838744 0.1452283 0.2506947 -0.05779868 0.5954951 -0.3404923 -0.4736725 0.1504922 -0.6284683 0.5787793 0.3407241 -0.232625 -0.9103718 0.2904597 -0.0621311 0.9375627 0.1754919 -0.2908546 0.9508107 0.518929 -0.4297176 0.3290787 -0.03363919 0.3587016 -0.08456844 -0.05510014 -0.69394 -0.1477237 -0.5207982 0.3752982 0.5052908 0.618956 -0.3032676 -0.04431456 -0.0964114 -0.349983 0.9089086 0.3887254 0.07080429 0.2859897 -0.5371963 -0.1121894 -0.6066569 0.3325062 -0.4225896 -0.5677043 0.3547351 0.1859405 0.04631447 -0.3036111 0.4261792 -0.3055505 0.3387451 -0.2899391 0.8220631 0.7014366 -0.2011048 -0.5077105 0.4127405 -0.107097 0.6405745 0.2764161 0.3621928 0.5270167 0.5477411 -0.5954637 -0.02832138 0.7277442 -0.05820482 -0.4017554 -0.3609565 -0.23848 0.7778702 -0.2367494 -0.5500365 0.5734655 -0.4367182 0.4914037 0.2661936 0.2801491 0.2449309 0.8409641 0.3468906 0.3065193 -0.5357944 -0.05898845 0.4209186 -0.3353403 -0.4504217 0.4524299 0.472468 -0.0366038 0.1801763 0.8877248 0.4466081 0.004457592 -0.8904172 0.6123578 -0.4570873 -0.2445088 6.91893e-4 0.5396713 0.6927732 -0.5007579 0.2197133 0.6340075 6.29632e-4 0.5304517 0.4515257 0.1298902 0.3349134 -0.6019846 0.2672137 -0.6896461 -0.1083976 -0.3126496 -0.155936 -0.7995977 0.7434293 0.004354417 -0.6133591 -0.2709971 -0.5201495 -0.175029 -0.2674772 0.08699762 0.7946973 -0.3875342 -0.3310394 -0.02159774 -0.3980773 -0.3034529 -0.6836305 0.03355085 -0.6894629 0.3670035 -0.2620474 -0.4762809 0.7667294</float_array>
          <technique_common>
            <accessor source="#Cube-mesh-positions-array" count="112" stride="3">
              <param name="X" type="float"/>
              <param name="Y" type="float"/>
              <param name="Z" type="float"/>
            </accessor>
          </technique_common>
        </source>
        <source id="Cube-mesh-normals">
          <float_array id="Cube-mesh-normals-array" count="336">-0.5749382 -0.6056703 0.5500656 -0.3006989 -0.271218 0.9143345 -0.5979797 -0.1185949 0.7926573 0.7598804 0.3827937 0.5253762 0.6822108 0.01608324 0.7309488 0.9615162 0.1575365 0.225013 0.8640095 0.4119083 0.2894986 0.9515976 0.2945952 0.08755761 0.9169286 0.3080538 0.2535783 -0.5515305 -0.07776117 -0.8305002 -0.6665853 -0.4062014 -0.6249886 -0.84579 -0.1380657 -0.5153051 -0.7901853 0.02020323 0.6125065 -0.4500564 0.1240882 0.8843044 0.3135777 -0.934843 0.1663259 -0.05618453 -0.9977722 0.03515732 0.2472609 -0.9450057 -0.2139958 0.1163671 0.5534532 0.8247017 -0.02545243 0.9282205 0.3711051 -0.3618274 0.6057314 0.7086093 -0.03927731 0.7917112 -0.6096072 -0.11713 0.8218024 -0.5575426 -0.1552782 0.75515 -0.6368603 0.136906 0.1928464 0.9716178 -0.3373821 0.235786 0.9113438 -0.2180852 -0.01754814 0.9757683 -0.9079257 -0.4173711 0.03790396 -0.7921385 -0.5987122 0.1184118 -0.7600635 -0.6496475 -0.01492351 -0.5417646 0.4405652 -0.7157811 -0.9647817 -0.1632435 -0.206183 -0.9273049 0.2263557 -0.2980132 0.9542833 0.1423078 -0.2627949 0.4463027 0.7044588 -0.5518357 0.7078158 0.7029023 -0.06991785 0.7969298 0.4085818 0.4448683 0.6119877 0.7198096 0.3275551 0.5664541 0.7924742 0.225959 -0.6483963 -0.7559435 0.08996856 -0.8671835 -0.49794 9.46074e-4 0.006042659 0.6991485 -0.7148961 -0.2460707 0.7865536 -0.5663625 0.01605272 0.8937346 -0.4482864 -0.7735527 -0.6212958 -0.1247291 0.3875545 -0.4778283 -0.7883237 0.1917783 -0.830134 -0.5235145 -0.1348918 -0.5370647 -0.8326365 -0.9349346 0.3209326 0.1512497 -0.9595324 0.2113407 0.1859188 -0.9705191 -0.1910458 0.146733 0.9615772 0.2737205 0.02069151 0.9063082 0.3476364 0.2402722 0.04788351 -0.7259133 0.6860561 -0.2907804 -0.9515061 -0.1001312 -0.7019257 -0.6999725 0.1315958 -0.2418591 -0.9518418 -0.1883602 0.2994171 -0.8789331 -0.3711966 -0.5978881 0.7520982 -0.2771996 -0.02945035 -0.9884945 0.1482589 -0.5269631 -0.8493912 0.02795493 0.9515061 0.1673024 0.258095 0.8709678 -0.4326914 -0.2326731 -0.1720328 0.7572863 -0.6299936 -0.886227 -0.3134556 0.3410748 0.9473861 0.1557664 0.279519 0.9867855 -0.05908381 0.1507004 0.7807245 -0.5880001 -0.2113407 0.7118442 -0.06375312 -0.6993927 0.5619373 0.7993408 0.2126529 0.2724692 0.9435408 -0.1883297 -0.2237007 0.5806452 -0.7827998 -0.3383587 0.09894096 -0.9357891 -0.2115543 0.967101 0.1410871 -0.5380108 0.8113651 0.228492 -0.5804926 0.4422132 0.6837062 0.4074831 -0.8373059 -0.364452 0.5017548 -0.7323832 -0.4602191 -0.9866329 -0.115482 0.1148411 -0.8877224 -0.4530168 0.08185064 0.9357891 -0.1463667 0.3206885 0.1009552 0.973632 -0.2045045 0.2855922 -0.9015168 0.3250831 0.596759 -0.7430341 0.3028352 -0.2022156 -0.9327983 0.2982879 0.3931699 -0.8144475 -0.4266793 0.5667592 -0.7053743 -0.4256417 0.4693441 0.8418531 -0.2664266 0.5179907 0.8552812 0.01116973 0.2411267 0.9632557 -0.1180456 0.1734061 0.9668874 -0.1870479 0.4837183 0.8117313 -0.3271584 0.7041841 0.6901761 -0.166509 0.2661824 -0.3495895 0.8982818 0.8124027 0.5782952 -0.07434308 -0.8482925 0.07690662 0.5238502 -0.8747521 0.4155095 0.2492141 0.3966796 0.885403 0.2422559 0.5653249 -0.7610401 0.3180639 -0.4804224 0.870571 0.1062044 0.6433607 0.7654042 0.01413005 0.8675802 -0.3096103 0.3890805 0.5354778 -0.6498612 0.5393536 -0.4384289 -0.4290902 -0.7896969 0.6155583 -0.7844783 -0.07516705 0.04242068 0.03924679 -0.9983215 0.3443709 0.9366436 -0.06402778 0.4281442 0.9036531 0.008117914 0.7683645 -0.2557146 0.5866573 0.3369243 0.3046968 -0.8908353 -0.414655 0.90347 0.1083712 -0.3888974 -0.7529527 -0.5308085 0.8657796 -0.4664449 0.1811273</float_array>
          <technique_common>
            <accessor source="#Cube-mesh-normals-array" count="112" stride="3">
              <param name="X" type="float"/>
              <param name="Y" type="float"/>
              <param name="Z" type="float"/>
            </accessor>
          </technique_common>
        </source>
        <source id="Cube-mesh-map-0">
          <float_array id="Cube-mesh-map-0-array" count="1320">-0.1993188 -0.4836726 0.02759081 -0.3529785 -0.3348173 -0.2375944 0.4952059 0.8794226 0.07455229 0.9793834 0.01295226 0.6720579 0.2123802 -9.70513e-4 0.2566646 0.305131 -0.07261031 0.1730034 -0.2686402 -0.1521772 -0.3856702 -0.3048288 -0.5762533 -0.1069078 -0.4915492 0.01201856 -0.3348173 -0.2375944 -0.2067574 0.09921234 0.4928994 0.2556145 0.2380562 0.1016284 0.5257315 -0.1029841 0.3081099 0.41391 0.1606154 0.5676425 -0.1585074 0.4509827 -0.2562581 -0.3069995 -0.1899809 -0.444953 -0.4985378 -0.3517553 0.3948241 0.06362485 0.109523 0.1956343 0.2299187 -0.1188735 -0.08811962 0.1555526 -0.2938331 -0.01316297 -0.4562481 0.1999765 0.3081099 0.41391 0.3948241 0.06362485 0.543452 0.262643 -0.2067574 0.09921234 0.02759081 -0.3529785 0.2299187 -0.1188735 0.347466 -0.6131194 0.2362179 -0.4009147 0.5208988 -0.3468084 0.165633 -0.6255221 0.3813546 -0.7380775 0.3613381 -0.5929177 0.05986911 -0.1548975 0.3709583 -0.3877095 0.3917253 -0.1539367 -0.5938436 0.602613 -0.2596729 0.5310938 -0.4562481 0.1999765 0.3582199 -0.8067273 -0.06736081 -0.6767724 0.3376082 -0.6137518 -0.4613571 -0.4964676 0.00597614 -0.6185867 -0.2560414 -0.6982396 0.6264355 -0.9328731 0.2595826 -0.7317045 0.1559486 -0.8989334 0.6534683 0.3108066 0.6505672 -0.07344681 0.3233717 0.04549401 -0.08250987 0.4419829 -0.3158874 0.2775939 -0.07261031 0.1730034 0.1980059 -0.5455563 0.02759081 -0.3529785 -0.1993188 -0.4836726 0.08418428 -0.1436791 -0.2115791 -0.1719349 -0.05703067 -0.4483943 0.08418428 -0.1436791 0.436877 -0.3962932 0.5257315 -0.1029841 -0.4823966 0.1510442 -0.6672313 0.4708361 -0.4985378 0.410342 0.20563 0.3889645 0.02298831 0.3332208 0.2380562 0.1016284 0.165633 -0.6255221 0.07993119 -0.4065531 -0.1158317 -0.5161961 -0.06736081 -0.6767724 -0.4823966 -0.6131194 -0.3822429 -0.5158002 -0.1669687 0.6928383 -0.2596729 0.5310938 -0.4928036 0.8026039 -0.2557876 -0.0366705 -0.459361 0.07025831 -0.4665098 -0.2438331 -0.1899809 -0.444953 -0.06736081 -0.6767724 -0.3822429 -0.5158002 0.165633 -0.6255221 -0.1158317 -0.5161961 0.1075948 -0.8052452 0.1606154 0.7260734 0.41394 0.7252624 0.1605302 0.4764288 0.06520009 0.09615904 0.03501254 -0.07034963 -0.4823966 0.1510442 -0.190174 0.5099034 -0.4573783 0.4981001 -0.1585074 0.7695818 0.436877 -0.3962932 0.08418428 -0.1436791 -0.05703067 -0.4483943 -0.1585074 0.4509827 -0.4309225 0.3774766 -0.2067574 0.09921234 0.3376082 -0.6137518 0.916508 -0.7380775 0.3582199 -0.8067273 0.6151776 -0.5782782 0.2595826 -0.7317045 0.7344084 -0.7248173 0.08418428 -0.1436791 0.5257315 -0.1029841 0.2380562 0.1016284 0.3081099 0.41391 -0.1585074 0.4509827 0.109523 0.1956343 -0.3348173 -0.2375944 0.02759081 -0.3529785 -0.2067574 0.09921234 -0.2596729 0.5310938 0.196799 0.4982822 -0.08811962 0.1555526 -0.4613571 -0.4964676 -0.5529006 -0.1719349 -0.1421671 -0.2904838 -0.7372825 0.3332208 -0.4562481 0.1999765 -0.7909812 -0.1436791 -0.459361 0.07025831 -0.3158874 0.2775939 -0.4290151 0.3497197 -0.2613139 -0.1408356 -0.4985378 -0.3517553 -0.6672313 -0.233466 0.1634168 0.7193979 -0.1669687 0.6928383 -0.1670331 0.8141325 -0.08250987 0.4419829 0.2566646 0.305131 0.01295226 0.6720579 0.3658314 0.6081117 0.4928994 0.2556145 0.691878 0.4790254 0.07503241 0.6412132 -0.1646623 0.602613 0.02298831 0.3332208 -0.1669687 0.6928383 0.1634168 0.7193979 0.196799 0.4982822 0.05986911 -0.1548975 0.07993119 -0.4065531 0.3709583 -0.3877095 0.8225349 -0.4352629 0.9754541 -0.4809733 0.9985546 -0.2438331 0.1075948 -0.8052452 -0.1158317 -0.5161961 -0.1590122 -0.9328731 0.2636712 0.09988033 0.1135843 -0.07832556 -0.09531182 0.1621284 0.3376082 -0.6137518 -0.1899809 -0.444953 0.0788576 -0.3378262 0.00597614 -0.6185867 0.2362179 -0.4009147 0.347466 -0.6131194 0.2636712 0.09988033 0.274791 0.3102387 0.563364 0.2829343 0.4000793 -0.2917921 0.3948241 0.06362485 0.2299187 -0.1188735 0.274791 0.3102387 0.1605302 0.4764288 0.5383381 0.5545473 -0.2686402 -0.1521772 0.03501254 -0.07034963 0.1559486 -0.3532112 -0.4823966 0.1510442 -0.4985378 0.410342 -0.3822429 0.271048 -0.1585074 0.4509827 -0.2067574 0.09921234 0.109523 0.1956343 0.6534683 0.3108066 0.4606595 0.6652622 0.6737995 0.5320653 -0.2557876 -0.0366705 -0.4665098 -0.2438331 -0.1158317 -0.5161961 -0.1421671 -0.2904838 0.2362179 -0.4009147 0.00597614 -0.6185867 -0.08250987 0.4419829 -0.4290151 0.3497197 -0.3158874 0.2775939 0.20563 0.3889645 0.4928994 0.2556145 0.3658314 0.6081117 0.9985546 -0.2438331 0.5257315 -0.1029841 0.436877 -0.3962932 0.6505672 -0.07344681 0.2362179 -0.4009147 0.3233717 0.04549401 -0.2067574 0.09921234 -0.5263354 0.2365475 -0.4915492 0.01201856 0.1135843 -0.07832556 0.4291012 -0.253523 0.0788576 -0.3378262 -0.1899809 -0.444953 -0.2562581 -0.3069995 0.0788576 -0.3378262 0.4606595 0.6652622 0.196799 0.4982822 0.1634168 0.7193979 0.165633 -0.6255221 0.1075948 -0.8052452 0.3813546 -0.7380775 -0.08811962 0.1555526 0.3233717 0.04549401 -0.1421671 -0.2904838 -0.4309225 0.7127004 -0.4573783 0.4981001 -0.553789 0.5320653 0.823148 0.2315782 0.691878 0.4790254 0.4928994 0.2556145 0.1980059 0.8579565 -0.1993188 0.8026039 0.07503241 0.6412132 -0.6672313 -0.233466 -0.5372714 0.04231047 -0.2613139 -0.1408356 0.2566646 0.305131 0.2123802 -9.70513e-4 0.4389602 0.05775701 -0.5896847 0.4790254 -0.3957787 0.6163824 -0.4985918 0.7543951 -0.4562481 0.1999765 -0.7372825 0.3332208 -0.5938436 0.602613 -0.190174 0.5099034 0.1605302 0.4764288 -0.09531182 0.1621284 -0.3856702 -0.3048288 -0.2686402 -0.1521772 -0.1536125 -0.36339 -0.5896847 0.4790254 -0.4290151 0.3497197 -0.3957787 0.6163824 0.06520009 -0.8807114 -0.06736081 -0.6767724 0.3582199 -0.8067273 0.436877 -0.3962932 0.8225349 -0.4352629 0.9985546 -0.2438331 -0.190174 0.5099034 0.1606154 0.7260734 0.1605302 0.4764288 -0.2613139 -0.1408356 -0.09531182 0.1621284 0.1135843 -0.07832556 0.5257315 -0.1029841 0.9100343 -0.02012073 0.4928994 0.2556145 0.7708223 -0.233466 0.6505672 -0.07344681 0.8546383 0.04231047 -0.2557876 -0.0366705 -0.1158317 -0.5161961 0.07993119 -0.4065531 0.1559486 -0.3532112 0.03501254 -0.07034963 0.4012762 -0.1137927 -0.2686402 -0.1521772 -0.5762533 -0.1069078 -0.4823966 0.1510442 0.0788576 -0.3378262 0.6348835 -0.5452576 0.3376082 -0.6137518 0.1980059 -0.5455563 0.4000793 -0.2917921 0.02759081 -0.3529785 0.6558464 0.5545473 0.01295226 0.6720579 0.2566646 0.305131 0.7344084 -0.7248173 0.9754541 -0.4809733 0.6151776 -0.5782782 0.3586203 -0.05062401 0.6622968 0.05775701 0.7883933 -0.1539367 0.07993119 -0.4065531 0.165633 -0.6255221 0.3613381 -0.5929177 0.6237247 -0.2908446 0.4000793 -0.2917921 0.5594024 -0.4880449 0.4012762 -0.1137927 0.7714893 0.01379925 0.6264355 -0.2315356 0.5208988 -0.3468084 0.6505672 -0.07344681 0.7708223 -0.233466 0.6264355 -0.2315356 0.1559486 -0.3532112 0.4012762 -0.1137927 0.196799 0.4982822 0.4606595 0.6652622 0.6534683 0.3108066 0.4012762 -0.1137927 0.3582199 0.1989343 0.7714893 0.01379925 0.6505672 -0.07344681 0.5208988 -0.3468084 0.2362179 -0.4009147 0.3582199 0.1989343 0.4012762 -0.1137927 0.06520009 0.09615904 0.8328562 0.2846458 0.6534683 0.3108066 0.7794647 0.4981001 0.7883933 -0.1539367 0.4291012 -0.253523 0.3586203 -0.05062401 0.6558464 0.5545473 0.8423779 0.7252624 0.4952059 0.8794226 0.2636712 0.09988033 -0.09531182 0.1621284 0.274791 0.3102387 0.5594024 -0.4880449 0.4000793 -0.2917921 0.1980059 -0.5455563 0.7714893 0.01379925 0.916508 0.1766428 1.018217 -0.03014785 -0.08811962 0.1555526 -0.1421671 -0.2904838 -0.2938331 -0.01316297 -0.2375284 0.8598636 -0.3957787 0.6163824 0.01295226 0.6720579 -0.3957787 0.6163824 -0.2375284 0.8598636 -0.4985918 0.7543951 0.6558464 0.5545473 0.4952059 0.8794226 0.01295226 0.6720579 -0.4665098 -0.2438331 -0.3067829 -0.4809733 -0.1158317 -0.5161961 0.05986911 -0.1548975 -0.2557876 -0.0366705 0.07993119 -0.4065531 0.5575769 -0.05510729 0.543452 0.262643 0.3948241 0.06362485 -0.2938331 -0.01316297 -0.1421671 -0.2904838 -0.5529006 -0.1719349 0.3613381 -0.5929177 0.3709583 -0.3877095 0.07993119 -0.4065531 -0.3937153 -0.4964676 -0.05703067 -0.4483943 -0.2115791 -0.1719349 -0.08250987 0.4419829 -0.07261031 0.1730034 0.2566646 0.305131 1.018217 -0.03014785 0.6264355 -0.2315356 0.7714893 0.01379925 -0.4573783 0.4981001 -0.190174 0.5099034 -0.4386054 0.2846458 0.07503241 0.6412132 0.20563 0.3889645 0.3658314 0.6081117 0.4000793 -0.2917921 0.6237247 -0.2908446 0.5575769 -0.05510729 -0.3856702 -0.3048288 -0.1536125 -0.36339 -0.1669023 -0.5506724 0.2123802 -9.70513e-4 0.05986911 -0.1548975 0.3917253 -0.1539367 0.4000793 -0.2917921 0.5575769 -0.05510729 0.3948241 0.06362485 0.6348835 -0.5452576 1.06435 -0.5929177 0.916508 -0.7380775 -0.4665098 -0.2438331 -0.459361 0.07025831 -0.6560756 -0.02012073 -0.1993188 0.8026039 -0.1646623 0.602613 0.07503241 0.6412132 0.6534683 0.3108066 0.8546383 0.04231047 0.6505672 -0.07344681 -0.06736081 -0.6767724 -0.1899809 -0.444953 0.3376082 -0.6137518 0.4012762 -0.1137927 0.03501254 -0.07034963 0.06520009 0.09615904 -0.2246937 0.1999765 -0.2115791 -0.1719349 0.08418428 -0.1436791 0.3376082 -0.6137518 0.6348835 -0.5452576 0.916508 -0.7380775 0.6737995 0.5320653 0.7794647 0.4981001 0.6534683 0.3108066 -0.4386054 0.2846458 -0.09531182 0.1621284 -0.5372714 0.04231047 -0.5815013 -0.6478667 -0.4613571 -0.4964676 -0.2560414 -0.6982396 0.6151776 -0.5782782 0.9754541 -0.4809733 0.8225349 -0.4352629 0.1559486 -0.8989334 0.2595826 -0.7317045 -0.1669023 -0.6478667 0.4291012 -0.253523 0.1135843 -0.07832556 0.3586203 -0.05062401 -0.2686402 -0.1521772 -0.4823966 0.1510442 0.03501254 -0.07034963 0.1980059 0.8579565 0.07503241 0.6412132 0.3658314 0.6081117 -0.2686402 -0.1521772 0.1559486 -0.3532112 -0.1536125 -0.36339 -0.07261031 0.1730034 -0.2557876 -0.0366705 0.05986911 -0.1548975 -0.459361 0.07025831 -0.4290151 0.3497197 -0.5605956 0.1051921 -0.08811962 0.1555526 -0.4562481 0.1999765 -0.2596729 0.5310938 0.3081099 0.41391 0.109523 0.1956343 0.3948241 0.06362485 0.274791 0.3102387 -0.09531182 0.1621284 0.1605302 0.4764288 0.2636712 0.09988033 0.6622968 0.05775701 0.3586203 -0.05062401 -0.4290151 0.3497197 -0.6139363 0.2315782 -0.5605956 0.1051921 0.1605302 0.4764288 0.41394 0.7252624 0.5383381 0.5545473 -0.1669687 0.6928383 -0.4928036 0.8026039 -0.1670331 0.8141325 0.3233717 0.04549401 -0.08811962 0.1555526 0.196799 0.4982822 0.3081099 0.41391 0.543452 0.262643 0.41394 0.5248876 0.9100343 -0.02012073 0.5257315 -0.1029841 0.9985546 -0.2438331 0.6534683 0.3108066 0.3233717 0.04549401 0.196799 0.4982822 -0.4562481 0.1999765 -0.2938331 -0.01316297 -0.5529006 -0.1719349 -0.08250987 0.4419829 0.01295226 0.6720579 -0.4290151 0.3497197 0.6348835 -0.5452576 0.4291012 -0.253523 0.9385448 -0.3877095 -0.2557876 -0.0366705 -0.07261031 0.1730034 -0.3158874 0.2775939 0.7714893 0.01379925 0.3582199 0.1989343 0.916508 0.1766428 0.823148 0.2315782 0.9100343 -0.02012073 0.9796349 0.1051921 0.2636712 0.09988033 0.3586203 -0.05062401 0.1135843 -0.07832556 -0.2886109 -0.7248173 -0.1158317 -0.5161961 -0.3067829 -0.4809733 -0.1585074 0.7695818 0.1606154 0.7260734 -0.190174 0.5099034 0.2636712 0.09988033 0.563364 0.2829343 0.6622968 0.05775701 0.2595826 -0.7317045 0.436877 -0.3962932 -0.05703067 -0.4483943 0.20563 0.3889645 0.2380562 0.1016284 0.4928994 0.2556145 0.9385448 -0.3877095 0.4291012 -0.253523 0.7883933 -0.1539367 0.6264355 -0.9328731 0.7344084 -0.7248173 0.2595826 -0.7317045 -0.3957787 0.6163824 -0.4290151 0.3497197 0.01295226 0.6720579 -0.3937153 -0.4964676 -0.1669023 -0.6478667 -0.05703067 -0.4483943 0.0788576 -0.3378262 0.4291012 -0.253523 0.6348835 -0.5452576 -0.4928036 0.8026039 -0.2596729 0.5310938 -0.5938436 0.602613 0.4606595 0.6652622 0.6472283 0.7127004 0.6737995 0.5320653 0.1606154 0.7260734 0.3081099 0.8914638 0.41394 0.7252624 0.3917253 -0.1539367 0.4389602 0.05775701 0.2123802 -9.70513e-4 -0.4309225 0.7127004 -0.1585074 0.7695818 -0.4573783 0.4981001 -0.3822429 -0.5158002 -0.4985378 -0.3517553 -0.1899809 -0.444953 -0.2613139 -0.1408356 -0.5372714 0.04231047 -0.09531182 0.1621284 -0.2067574 0.09921234 0.2299187 -0.1188735 0.109523 0.1956343 0.8328562 0.2846458 0.8546383 0.04231047 0.6534683 0.3108066 -0.2613139 -0.1408356 0.0788576 -0.3378262 -0.2562581 -0.3069995 0.2566646 0.305131 0.553301 0.2829343 0.6558464 0.5545473 0.2299187 -0.1188735 0.02759081 -0.3529785 0.4000793 -0.2917921 0.3233717 0.04549401 0.2362179 -0.4009147 -0.1421671 -0.2904838 -0.5896847 0.4790254 -0.6139363 0.2315782 -0.4290151 0.3497197 0.5383381 0.5545473 0.563364 0.2829343 0.274791 0.3102387 0.02298831 0.3332208 0.08418428 -0.1436791 0.2380562 0.1016284 0.0788576 -0.3378262 -0.2613139 -0.1408356 0.1135843 -0.07832556 -0.07261031 0.1730034 0.05986911 -0.1548975 0.2123802 -9.70513e-4 -0.190174 0.5099034 -0.09531182 0.1621284 -0.4386054 0.2846458 -0.2375284 0.8598636 0.01295226 0.6720579 0.07455229 0.9793834 -0.459361 0.07025831 -0.5605956 0.1051921 -0.6560756 -0.02012073 0.6348835 -0.5452576 0.9385448 -0.3877095 1.06435 -0.5929177 -0.06736081 -0.6767724 0.06520009 -0.8807114 -0.4823966 -0.6131194 0.436877 -0.3962932 0.6151776 -0.5782782 0.8225349 -0.4352629 0.1559486 -0.3532112 -0.1669023 -0.5506724 -0.1536125 -0.36339 -0.459361 0.07025831 -0.2557876 -0.0366705 -0.3158874 0.2775939 0.4928994 0.2556145 0.9100343 -0.02012073 0.823148 0.2315782 0.00597614 -0.6185867 -0.4613571 -0.4964676 -0.1421671 -0.2904838 -0.4985378 -0.3517553 -0.2613139 -0.1408356 -0.2562581 -0.3069995 0.691878 0.4790254 0.5594024 0.7543951 0.3658314 0.6081117 -0.2886109 -0.7248173 -0.1590122 -0.9328731 -0.1158317 -0.5161961 0.2566646 0.305131 0.4389602 0.05775701 0.553301 0.2829343 -0.4823966 0.1510442 -0.7772077 0.2820507 -0.6672313 0.4708361 0.5594024 0.7543951 0.1980059 0.8579565 0.3658314 0.6081117 -0.2596729 0.5310938 -0.1669687 0.6928383 0.196799 0.4982822 -0.05703067 -0.4483943 -0.1669023 -0.6478667 0.2595826 -0.7317045 -0.2067574 0.09921234 -0.4309225 0.3774766 -0.5263354 0.2365475 0.6151776 -0.5782782 0.436877 -0.3962932 0.2595826 -0.7317045 0.20563 0.3889645 0.07503241 0.6412132 0.02298831 0.3332208</float_array>
          <technique_common>
            <accessor source="#Cube-mesh-map-0-array" count="660" stride="2">
              <param name="S" type="float"/>
              <param name="T" type="float"/>
            </accessor>
          </technique_common>
        </source>
        <vertices id="Cube-mesh-vertices">
          <input semantic="POSITION" source="#Cube-mesh-positions"/>
        </vertices>
        <polylist material="boulder_granite_grey_01-material" count="220">
          <input semantic="VERTEX" source="#Cube-mesh-vertices" offset="0"/>
          <input semantic="NORMAL" source="#Cube-mesh-normals" offset="1"/>
          <input semantic="TEXCOORD" source="#Cube-mesh-map-0" offset="2" set="0"/>
          <vcount>3 3 3 3 3 3 3 3 3 3 3 3 3 3 3 3 3 3 3 3 3 3 3 3 3 3 3 3 3 3 3 3 3 3 3 3 3 3 3 3 3 3 3 3 3 3 3 3 3 3 3 3 3 3 3 3 3 3 3 3 3 3 3 3 3 3 3 3 3 3 3 3 3 3 3 3 3 3 3 3 3 3 3 3 3 3 3 3 3 3 3 3 3 3 3 3 3 3 3 3 3 3 3 3 3 3 3 3 3 3 3 3 3 3 3 3 3 3 3 3 3 3 3 3 3 3 3 3 3 3 3 3 3 3 3 3 3 3 3 3 3 3 3 3 3 3 3 3 3 3 3 3 3 3 3 3 3 3 3 3 3 3 3 3 3 3 3 3 3 3 3 3 3 3 3 3 3 3 3 3 3 3 3 3 3 3 3 3 3 3 3 3 3 3 3 3 3 3 3 3 3 3 3 3 3 3 3 3 3 3 3 3 3 3 3 3 3 3 3 3 </vcount>
          <p>111 0 0 77 1 1 89 2 2 92 3 3 70 4 4 85 5 5 2 6 6 78 7 7 49 8 8 104 9 9 109 10 10 79 11 11 53 12 12 89 2 13 107 13 14 51 14 15 35 15 16 103 16 17 62 17 18 99 18 19 5 19 20 82 20 21 55 21 22 47 22 23 61 23 24 96 24 25 3 25 26 57 26 27 108 27 28 21 28 29 62 17 30 61 23 31 92 3 32 107 13 33 77 1 34 3 25 35 4 29 36 14 30 37 27 31 38 105 32 39 7 33 40 48 34 41 52 35 42 46 36 43 39 37 44 90 38 45 15 39 46 21 28 47 29 40 48 36 41 49 102 42 50 23 43 51 79 11 52 109 10 53 69 44 54 16 45 55 45 46 56 58 47 57 6 48 58 42 49 59 12 50 60 30 51 61 49 8 62 59 52 63 77 1 64 111 0 65 74 53 66 106 54 67 17 55 68 74 53 69 18 56 70 103 16 71 4 29 72 11 57 73 47 22 74 110 58 75 43 59 76 35 15 77 105 32 78 88 60 79 84 61 80 36 41 81 4 29 82 26 62 83 41 63 84 15 39 85 111 0 86 76 64 87 8 65 88 98 66 89 55 21 90 36 41 91 26 62 92 105 32 93 84 61 94 13 67 95 99 18 96 60 68 97 101 69 98 38 70 99 64 71 100 4 29 101 65 72 102 95 73 103 5 19 104 18 56 105 74 53 106 17 55 107 5 19 108 56 74 109 107 13 110 102 42 111 7 33 112 29 40 113 80 75 114 16 45 115 19 76 116 74 53 117 103 16 118 35 15 119 62 17 120 5 19 121 96 24 122 89 2 123 77 1 124 107 13 125 15 39 126 9 77 127 57 26 128 23 43 129 106 54 130 20 78 131 43 59 132 21 28 133 74 53 134 8 65 135 30 51 136 72 79 137 24 80 138 47 22 139 11 57 140 53 12 141 41 63 142 89 2 143 12 50 144 78 7 145 85 5 146 68 81 147 51 14 148 33 82 149 1 83 150 90 38 151 43 59 152 41 63 153 53 12 154 9 77 155 52 35 156 88 60 157 46 36 158 50 84 159 67 85 160 98 66 161 13 67 162 84 61 163 69 44 164 31 86 165 73 87 166 25 88 167 102 42 168 55 21 169 94 89 170 79 11 171 14 30 172 4 29 173 31 86 174 44 90 175 34 91 176 71 92 177 61 23 178 3 25 179 44 90 180 101 69 181 86 93 182 104 9 183 64 71 184 45 46 185 4 29 186 47 22 187 26 62 188 5 19 189 107 13 190 96 24 191 58 47 192 100 94 193 75 95 194 76 64 195 98 66 196 84 61 197 20 78 198 14 30 199 79 11 200 12 50 201 72 79 202 30 51 203 110 58 204 51 14 205 68 81 206 98 66 207 103 16 208 18 56 209 6 48 210 14 30 211 42 49 212 107 13 213 100 94 214 53 12 215 73 87 216 0 96 217 94 89 218 55 21 219 82 20 220 94 89 221 100 94 222 9 77 223 53 12 224 105 32 225 13 67 226 7 33 227 57 26 228 42 49 229 20 78 230 56 74 231 95 73 232 75 95 233 40 97 234 33 82 235 51 14 236 59 52 237 111 0 238 1 83 239 11 57 240 63 98 241 24 80 242 78 7 243 2 6 244 81 99 245 33 82 246 54 100 247 37 101 248 21 28 249 43 59 250 90 38 251 65 72 252 101 69 253 25 88 254 109 10 255 104 9 256 22 102 257 33 82 258 72 79 259 54 100 260 38 70 261 36 41 262 29 40 263 18 56 264 50 84 265 98 66 266 65 72 267 99 18 268 101 69 269 24 80 270 25 88 271 73 87 272 103 16 273 87 103 274 51 14 275 11 57 276 6 48 277 63 98 278 76 64 279 84 61 280 88 60 281 45 46 282 64 71 283 10 104 284 104 9 285 79 11 286 4 29 287 94 89 288 93 105 289 102 42 290 59 52 291 71 92 292 77 1 293 86 93 294 85 5 295 78 7 296 19 76 297 67 85 298 80 75 299 66 106 300 81 99 301 39 37 302 88 60 303 105 32 304 48 34 305 83 107 306 71 92 307 37 101 308 10 104 309 97 108 310 69 44 311 27 31 312 6 48 313 11 57 314 69 44 315 45 46 316 10 104 317 9 77 318 100 94 319 58 47 320 10 104 321 29 40 322 97 108 323 6 48 324 27 31 325 14 30 326 29 40 327 10 104 328 38 70 329 91 109 330 58 47 331 95 73 332 39 37 333 0 96 334 66 106 335 86 93 336 60 68 337 92 3 338 31 86 339 25 88 340 44 90 341 37 101 342 71 92 343 59 52 344 97 108 345 7 33 346 13 67 347 57 26 348 20 78 349 108 27 350 83 107 351 54 100 352 85 5 353 54 100 354 83 107 355 37 101 356 86 93 357 92 3 358 85 5 359 98 66 360 67 85 361 84 61 362 52 35 363 76 64 364 88 60 365 70 4 366 92 3 367 61 23 368 108 27 369 20 78 370 106 54 371 48 34 372 46 36 373 88 60 374 23 43 375 17 55 376 106 54 377 12 50 378 49 8 379 78 7 380 13 67 381 69 44 382 97 108 383 95 73 384 65 72 385 91 109 386 1 83 387 110 58 388 68 81 389 71 92 390 83 107 391 70 4 392 109 10 393 22 102 394 32 110 395 2 6 396 52 35 397 39 37 398 71 92 399 70 4 400 61 23 401 93 105 402 48 34 403 7 33 404 98 66 405 8 65 406 87 103 407 111 0 408 90 38 409 1 83 410 58 47 411 63 98 412 6 48 413 36 41 414 55 21 415 102 42 416 10 104 417 64 71 418 38 70 419 21 28 420 106 54 421 74 53 422 102 42 423 93 105 424 7 33 425 75 95 426 95 73 427 58 47 428 91 109 429 25 88 430 63 98 431 32 110 432 23 43 433 109 10 434 80 75 435 67 85 436 50 84 437 45 46 438 16 45 439 32 110 440 0 96 441 73 87 442 66 106 443 104 9 444 4 29 445 64 71 446 59 52 447 1 83 448 68 81 449 104 9 450 45 46 451 22 102 452 49 8 453 76 64 454 52 35 455 8 65 456 72 79 457 28 111 458 57 26 459 21 28 460 15 39 461 62 17 462 96 24 463 61 23 464 44 90 465 25 88 466 101 69 467 31 86 468 81 99 469 66 106 470 72 79 471 40 97 472 28 111 473 101 69 474 60 68 475 86 93 476 41 63 477 111 0 478 89 2 479 42 49 480 57 26 481 9 77 482 62 17 483 92 3 484 60 68 485 87 103 486 103 16 487 98 66 488 58 47 489 42 49 490 9 77 491 21 28 492 108 27 493 106 54 494 12 50 495 85 5 496 72 79 497 93 105 498 0 96 499 46 36 500 76 64 501 49 8 502 30 51 503 97 108 504 29 40 505 7 33 506 40 97 507 87 103 508 28 111 509 31 86 510 66 106 511 73 87 512 19 76 513 84 61 514 67 85 515 5 19 516 99 18 517 65 72 518 31 86 519 34 91 520 81 99 521 16 45 522 18 56 523 17 55 524 110 58 525 35 15 526 51 14 527 46 36 528 0 96 529 39 37 530 69 44 531 19 76 532 16 45 533 54 100 534 72 79 535 85 5 536 23 43 537 32 110 538 17 55 539 94 89 540 0 96 541 93 105 542 111 0 543 15 39 544 90 38 545 100 94 546 56 74 547 75 95 548 99 18 549 62 17 550 60 68 551 39 37 552 81 99 553 2 6 554 56 74 555 5 19 556 95 73 557 26 62 558 47 22 559 55 21 560 24 80 561 63 98 562 25 88 563 107 13 564 3 25 565 96 24 566 91 109 567 63 98 568 58 47 569 24 80 570 94 89 571 82 20 572 78 7 573 34 91 574 86 93 575 3 25 576 77 1 577 71 92 578 42 49 579 14 30 580 20 78 581 33 82 582 40 97 583 72 79 584 86 93 585 34 91 586 44 90 587 43 59 588 74 53 589 35 15 590 94 89 591 24 80 592 73 87 593 49 8 594 52 35 595 2 6 596 65 72 597 25 88 598 91 109 599 83 107 600 85 5 601 70 4 602 8 65 603 28 111 604 87 103 605 93 105 606 46 36 607 48 34 608 36 41 609 38 70 610 4 29 611 18 56 612 80 75 613 50 84 614 45 46 615 32 110 616 22 102 617 8 65 618 76 64 619 30 51 620 51 14 621 87 103 622 40 97 623 79 11 624 23 43 625 20 78 626 47 22 627 24 80 628 82 20 629 33 82 630 37 101 631 68 81 632 19 76 633 69 44 634 84 61 635 78 7 636 81 99 637 34 91 638 4 29 639 27 31 640 11 57 641 37 101 642 59 52 643 68 81 644 15 39 645 41 63 646 9 77 647 17 55 648 32 110 649 16 45 650 107 13 651 56 74 652 100 94 653 80 75 654 18 56 655 16 45 656 110 58 657 1 83 658 43 59 659</p>
        </polylist>
      </mesh>
      <extra><technique profile="MAYA"><double_sided>1</double_sided></technique></extra>
    </geometry>
    <geometry id="Cube_001-mesh" name="Cube.001">
      <mesh>
        <source id="Cube_001-mesh-positions">
          <float_array id="Cube_001-mesh-positions-array" count="117">-0.1362826 -0.6281533 0.5905359 0.423308 0.04620283 0.05860352 0.1505768 0.0323683 0.9932931 -0.4735163 0.1790359 -0.5746425 -0.3991979 0.3781265 0.6912963 -0.6926992 0.2793436 -0.3230175 0.6454372 0.1819958 -0.6158533 0.603225 -0.4761831 0.1155124 -0.478042 -0.238649 0.641016 0.1050282 -0.1795546 -0.9941412 -0.5924101 0.4537855 -0.2463618 0.505409 -0.3995044 0.3917372 0.558114 -0.01738756 -0.853142 0.0687949 -0.4968698 -0.6948125 -0.2207781 -0.5955102 -0.5870577 0.3750567 -0.2539798 -0.8789587 -0.4663491 -0.3736506 -0.4501641 -0.4114322 -0.3009939 0.1327725 -0.2826922 0.5103646 -0.1795907 -0.1402373 0.5118242 0.2095518 0.07221162 0.1936778 -0.7821596 0.3586019 0.1494493 -0.005204081 0.2917647 -0.5950421 0.5257147 0.05440777 -0.7488915 -0.03472906 0.3799633 -0.404953 0.7183059 -0.08712881 -0.01732903 -0.9265226 -0.5772674 0.3386288 0.2034247 0.4334393 -0.1695547 0.1583067 0.02798557 -0.5360831 0.8202201 0.2270247 0.4633091 0.7401821 0.06290733 0.5139644 0.7691481 -0.4506373 0.5007975 0.2719158 0.2673822 -0.1842806 0.960983 -0.5077949 0.3609063 0.6157928 -0.2562163 -0.4350878 0.8269349 -0.4637627 -0.2088394 -0.6914585 0.7659481 -0.01451152 -0.5977862 0.5705202 -0.583028 -0.04508882 0.1599446 0.37804 -0.5232169</float_array>
          <technique_common>
            <accessor source="#Cube_001-mesh-positions-array" count="39" stride="3">
              <param name="X" type="float"/>
              <param name="Y" type="float"/>
              <param name="Z" type="float"/>
            </accessor>
          </technique_common>
        </source>
        <source id="Cube_001-mesh-normals">
          <float_array id="Cube_001-mesh-normals-array" count="117">0.617542 0.7509689 0.2337107 0.5081942 -0.1628162 0.8456679 0.9584338 -0.02478098 0.2842189 -0.8480483 0.3960082 0.352031 -0.5147557 -0.4516129 0.728721 -0.5425886 0.4745018 0.6931059 0.03030484 0.8207343 0.570452 0.07321387 0.172277 0.9822993 0.8988006 0.3645741 0.2432935 0.6519059 0.7343669 -0.188879 0.6377453 0.7678762 0.06006038 -0.4251228 -0.8844569 0.1922666 -0.9053316 -0.3261208 0.2719504 -0.8608356 -0.5079806 0.03003019 0.4104434 -0.5122837 -0.754326 0.1976073 -0.8334605 -0.5159764 -0.004669308 -0.1177709 -0.9930112 -0.02969449 -0.9988098 -0.03845328 -0.3515122 -0.8281503 -0.4365367 0.2562029 0.9562975 -0.1407208 -0.3872494 0.9145787 0.116306 0.08380383 0.921598 -0.3789178 -0.04709005 0.7230445 -0.6891385 0.9736015 0.09906303 -0.2054811 0.5667592 0.1049226 -0.8171331 -0.4655293 0.5270242 -0.7109592 0.1111484 0.9730216 -0.2020936 -0.6860256 -0.2634053 -0.6781823 -0.9593799 0.1746879 -0.2214728 -0.3111667 0.2593158 -0.9142735 0.9130527 -0.3628956 0.1860713 0.6339915 -0.7682119 -0.08874779 -0.8164312 -0.5741447 -0.061037 -0.5695365 0.7614063 -0.3096103 -0.9656361 0.209357 0.1538133 0.04785299 -0.7259133 0.6860256 0.406354 -0.8590961 0.3110752 0.7776116 -0.362743 0.5135045 0.9168981 0.3080233 0.2535783</float_array>
          <technique_common>
            <accessor source="#Cube_001-mesh-normals-array" count="39" stride="3">
              <param name="X" type="float"/>
              <param name="Y" type="float"/>
              <param name="Z" type="float"/>
            </accessor>
          </technique_common>
        </source>
        <source id="Cube_001-mesh-map-0">
          <float_array id="Cube_001-mesh-map-0-array" count="444">0.7875273 0.7310433 0.07455229 0.9793834 -0.3327119 0.3924199 -0.5171204 0.1770692 -0.1483947 -0.4086413 -0.3794787 0.390302 0.2172254 0.5086383 0.3615967 0.04820823 0.4293039 0.4937776 -0.3794787 0.390302 -0.1483947 -0.4086413 0.3615967 0.04820823 0.1933417 0.09548944 0.3678337 -0.6206757 0.4377147 0.01905542 -0.6292363 0.5361421 -0.1450641 0.649613 -0.2236476 0.1454818 0.6576704 -0.8884274 0.2689161 -0.7140471 0.1559486 -0.8989334 0.2738818 0.02453237 -0.2222441 0.1305077 -0.1340109 -0.5881522 0.2172254 0.789552 0.4242804 0.7110719 -0.02603185 0.2379381 -0.4078228 0.2675893 -0.530817 0.5239723 -0.3801773 0.7232962 0.2689161 -0.7140471 0.2738818 0.02453237 -0.1340109 -0.5881522 0.3973796 -0.5999801 1.012521 -0.6206757 0.2691309 -0.7795231 0.2172254 0.5086383 -0.3794787 0.390302 0.3615967 0.04820823 -0.6292363 0.5361421 -0.2236476 0.1454818 -0.7909812 -0.1436791 0.6029236 0.5711208 -0.1450641 0.649613 -0.3463312 0.8077873 0.1933417 0.09548944 0.1317011 -0.590534 0.3678337 -0.6206757 0.1075948 -0.8052452 0.1317011 -0.590534 -0.1760002 -0.8880935 0.3973796 -0.5999801 -0.4566644 -0.5895766 -0.2135266 -0.1685088 -0.1971521 -0.6803373 0.4996396 -0.3154373 0.347466 -0.6131194 -0.3907522 -0.2198166 0.04458481 -0.01755076 0.3363706 -0.1771349 -0.5231395 0.08992797 -0.6376288 -0.04189032 0.1317011 -0.590534 -0.3620988 -0.4324129 0.4996396 -0.3154373 -0.1971521 -0.6803373 0.9186483 -0.04189032 0.2738818 0.02453237 0.2689161 -0.7140471 -0.4566644 -0.5895766 -0.6540498 -0.2429521 -0.2135266 -0.1685088 0.1317011 -0.590534 0.1075948 -0.8052452 0.3678337 -0.6206757 -0.2236476 0.1454818 0.578368 0.2504453 -0.3620988 -0.4324129 -0.1993188 0.8026039 -0.02196049 0.5885165 0.1980059 0.8579565 -0.6540498 -0.2429521 -0.4078228 0.2675893 -0.2135266 -0.1685088 -0.5997327 0.3765022 -0.3327119 0.3924199 -0.3499382 0.7460202 0.2689161 -0.7140471 0.6576704 -0.8884274 0.9186483 -0.04189032 -0.4078228 0.2675893 0.2172254 0.789552 -0.02603185 0.2379381 -0.2135266 -0.1685088 -0.02603185 0.2379381 0.6992253 0.02096623 0.2738818 0.02453237 0.9186483 -0.04189032 0.5198383 0.4929213 0.7708223 -0.233466 0.4996396 -0.3154373 0.8392634 0.2133627 0.1980059 -0.5455563 0.4835066 -0.1664189 -0.1483947 -0.4086413 0.7875273 0.7310433 -0.3327119 0.3924199 0.1933417 0.09548944 0.3363706 -0.1771349 0.9080316 -0.01052165 0.6264355 -0.2315356 -0.1450641 0.649613 0.6029236 0.5711208 0.578368 0.2504453 0.3363706 -0.1771349 0.3582199 0.1989343 0.9080316 -0.01052165 0.3582199 0.1989343 0.3363706 -0.1771349 0.04458481 -0.01755076 0.8392634 0.2133627 0.578368 0.2504453 0.6029236 0.5711209 0.6108888 -0.3301972 0.4835066 -0.1664189 0.1980059 -0.5455563 -0.6376288 -0.04189032 -0.1760002 -0.8880935 0.1317011 -0.590534 0.1933417 0.09548944 -0.5231395 0.08992797 0.1317011 -0.590534 0.4835066 -0.1664189 0.4293039 0.4937776 0.3615967 0.04820823 -0.3937153 -0.4964676 -0.1340109 -0.5881522 -0.2222441 0.1305077 -0.3327119 0.3924199 -0.07261031 0.1730034 0.1933417 0.09548944 -0.02196049 0.5885165 0.2738818 0.02453237 0.5198383 0.4929213 0.578368 0.2504453 0.8392634 0.2133627 0.4996396 -0.3154373 0.2691309 -0.7795232 -0.4566644 -0.5895766 0.3973796 -0.5999801 -0.5815013 -0.6478667 -0.3620988 -0.4324129 -0.1971521 -0.6803373 0.1559486 -0.8989334 0.2689161 -0.7140471 -0.1340109 -0.5881522 -0.3907522 -0.2198166 -0.4823966 0.1510442 0.04458481 -0.01755076 0.1980059 0.8579565 -0.02196049 0.5885165 0.5198383 0.4929213 -0.07261031 0.1730034 -0.5231395 0.08992797 0.1933417 0.09548944 -0.3327119 0.3924199 -0.5997327 0.3765022 -0.5231395 0.08992797 0.578368 0.2504453 -0.2236476 0.1454818 -0.1450641 0.649613 0.3973796 -0.5999801 0.6992253 0.02096623 1.012521 -0.6206757 -0.5231395 0.08992797 -0.07261031 0.1730034 -0.3327119 0.3924199 0.9080316 -0.01052165 0.3582199 0.1989343 0.916508 0.1766428 0.5198383 0.4929213 0.9186483 -0.04189032 0.9796349 0.1051921 -0.3801773 0.7232962 0.2172254 0.789552 -0.4078228 0.2675893 -0.2135266 -0.1685088 0.6992253 0.02096623 0.3973796 -0.5999801 -0.1450641 0.649613 -0.6292363 0.5361421 -0.3463312 0.8077873 -0.2135266 -0.1685088 -0.4078228 0.2675893 -0.02603185 0.2379381 0.1933417 0.09548944 0.4377147 0.01905542 0.7875273 0.7310433 0.3615967 0.04820823 -0.1483947 -0.4086413 0.4835066 -0.1664189 0.578368 0.2504453 0.4996396 -0.3154373 -0.3620988 -0.4324129 0.4242804 0.7110719 0.6992253 0.02096623 -0.02603185 0.2379381 -0.3499382 0.7460202 -0.3327119 0.3924199 0.07455229 0.9793834 0.2691309 -0.7795232 0.06520009 -0.8807114 -0.4566644 -0.5895766 0.3363706 -0.1771349 -0.1669023 -0.5506724 -0.3907522 -0.2198166 -0.4590866 0.1789741 -0.7772077 0.2820507 -0.6537753 0.4660107 0.5594024 0.7543951 0.1980059 0.8579565 0.5198383 0.4929213</float_array>
          <technique_common>
            <accessor source="#Cube_001-mesh-map-0-array" count="222" stride="2">
              <param name="S" type="float"/>
              <param name="T" type="float"/>
            </accessor>
          </technique_common>
        </source>
        <vertices id="Cube_001-mesh-vertices">
          <input semantic="POSITION" source="#Cube_001-mesh-positions"/>
        </vertices>
        <polylist material="boulder_granite_grey_01-material" count="74">
          <input semantic="VERTEX" source="#Cube_001-mesh-vertices" offset="0"/>
          <input semantic="NORMAL" source="#Cube_001-mesh-normals" offset="1"/>
          <input semantic="TEXCOORD" source="#Cube_001-mesh-map-0" offset="2" set="0"/>
          <vcount>3 3 3 3 3 3 3 3 3 3 3 3 3 3 3 3 3 3 3 3 3 3 3 3 3 3 3 3 3 3 3 3 3 3 3 3 3 3 3 3 3 3 3 3 3 3 3 3 3 3 3 3 3 3 3 3 3 3 3 3 3 3 3 3 3 3 3 3 3 3 3 3 3 3 </vcount>
          <p>29 0 0 32 1 1 11 2 2 33 3 3 34 4 4 4 5 5 30 6 6 2 7 7 29 0 8 4 5 9 34 4 10 2 7 11 1 8 12 6 9 13 21 10 14 0 11 15 8 12 16 17 13 17 15 14 18 13 15 19 9 16 20 23 17 21 17 13 22 14 18 23 30 6 24 29 0 25 19 19 26 31 20 27 33 3 28 4 5 29 13 15 30 23 17 31 14 18 32 38 21 33 6 9 34 20 22 35 30 6 36 4 5 37 2 7 38 0 11 39 17 13 40 23 17 41 33 3 42 8 12 43 34 4 44 1 8 45 36 23 46 6 9 47 12 24 48 36 23 49 15 14 50 38 21 51 3 25 52 18 26 53 35 27 54 5 28 55 3 25 56 35 27 57 25 29 58 9 16 59 7 30 60 37 31 61 36 23 62 16 32 63 5 28 64 35 27 65 37 31 66 23 17 67 13 15 68 3 25 69 10 33 70 18 26 71 36 23 72 12 24 73 6 9 74 17 13 75 26 34 76 16 32 77 34 4 78 0 11 79 28 35 80 10 33 81 31 20 82 18 26 83 22 36 84 11 2 85 24 37 86 13 15 87 15 14 88 37 31 89 31 20 90 30 6 91 19 19 92 18 26 93 19 19 94 21 10 95 23 17 96 37 31 97 22 36 98 10 33 99 5 28 100 31 20 101 28 35 102 32 1 103 34 4 104 29 0 105 11 2 106 1 8 107 9 16 108 12 24 109 15 14 110 8 12 111 33 3 112 26 34 113 9 16 114 20 22 115 12 24 116 20 22 117 9 16 118 25 29 119 31 20 120 26 34 121 33 3 122 24 37 123 32 1 124 28 35 125 37 31 126 15 14 127 36 23 128 1 8 129 7 30 130 36 23 131 32 1 132 29 0 133 2 7 134 16 32 135 14 18 136 17 13 137 11 2 138 27 38 139 1 8 140 0 11 141 23 17 142 22 36 143 26 34 144 31 20 145 5 28 146 20 22 147 3 25 148 38 21 149 14 18 150 16 32 151 35 27 152 9 16 153 13 15 154 14 18 155 35 27 156 3 25 157 25 29 158 28 35 159 0 11 160 22 36 161 27 38 162 7 30 163 1 8 164 11 2 165 22 36 166 7 30 167 26 34 168 17 13 169 8 12 170 38 21 171 21 10 172 6 9 173 7 30 174 27 38 175 11 2 176 12 24 177 20 22 178 6 9 179 22 36 180 37 31 181 7 30 182 4 5 183 30 6 184 31 20 185 18 26 186 21 10 187 38 21 188 8 12 189 0 11 190 34 4 191 18 26 192 31 20 193 19 19 194 1 8 195 21 10 196 29 0 197 2 7 198 34 4 199 32 1 200 26 34 201 5 28 202 16 32 203 29 0 204 21 10 205 19 19 206 24 37 207 11 2 208 32 1 209 20 22 210 25 29 211 3 25 212 9 16 213 14 18 214 35 27 215 3 25 216 5 28 217 10 33 218 24 37 219 28 35 220 22 36 221</p>
        </polylist>
      </mesh>
      <extra><technique profile="MAYA"><double_sided>1</double_sided></technique></extra>
    </geometry>
    <geometry id="cubicflat8-mesh" name="cubicflat8">
      <mesh>
        <source id="cubicflat8-mesh-positions">
          <float_array id="cubicflat8-mesh-positions-array" count="48">-0.1681972 -0.5419894 0.838155 0.3992722 0.1117979 0.0175718 0.218356 -0.07248026 1.010342 -0.6782188 0.3437412 -0.3193402 0.7576772 0.07317608 -0.6504155 0.6368338 -0.5290748 0.006419599 -0.4691078 -0.2185548 0.6090089 0.0262261 -0.08135652 -1.009674 0.4872565 -0.1095427 -0.9152902 -0.1890565 -0.6167601 -0.5894134 -0.5092563 -0.2702317 -0.6250117 0.4682117 -0.5018031 0.4866784 0.05440777 -0.7488915 -0.03472906 -0.5063703 0.4061889 0.6018643 0.1841812 0.505717 0.7716658 -0.2485414 0.498747 -0.2458015</float_array>
          <technique_common>
            <accessor source="#cubicflat8-mesh-positions-array" count="16" stride="3">
              <param name="X" type="float"/>
              <param name="Y" type="float"/>
              <param name="Z" type="float"/>
            </accessor>
          </technique_common>
        </source>
        <source id="cubicflat8-mesh-normals">
          <float_array id="cubicflat8-mesh-normals-array" count="48">0.4042482 0.7608875 0.5075228 0.3814814 0.01049834 0.9242836 0.7717521 -0.4850001 0.4112674 -0.7064425 0.5401777 0.4572588 -0.3372295 -0.6749779 0.656209 0.484817 -0.09988707 -0.868862 -0.2764366 -0.8601337 -0.4286019 -0.09988707 0.1176488 -0.9880062 -0.08676409 -0.995819 -0.02838218 -0.8743553 -0.3105869 0.3728141 0.01409953 0.9620655 -0.2724387 0.8613849 0.3806269 -0.336314 0.8611103 -0.5030671 0.07330542 -0.8235115 -0.3250221 -0.464919 -0.8595843 0.4397717 -0.2601398 0.7862179 0.5959044 0.1634571</float_array>
          <technique_common>
            <accessor source="#cubicflat8-mesh-normals-array" count="16" stride="3">
              <param name="X" type="float"/>
              <param name="Y" type="float"/>
              <param name="Z" type="float"/>
            </accessor>
          </technique_common>
        </source>
        <source id="cubicflat8-mesh-map-0">
          <float_array id="cubicflat8-mesh-map-0-array" count="168">0.7875273 0.7310433 0.07455229 0.9793834 -0.4015369 0.4545022 -0.4907456 0.2179287 -0.07808345 -0.4364318 0.4211062 -0.05656057 0.6576704 -0.8884274 -0.105883 -0.5969408 0.1559486 -0.8989334 0.2738818 0.02453237 -0.2222441 0.1305077 -0.105883 -0.5969408 -0.1264566 -0.2272757 1.012521 -0.6206757 0.1130573 -0.8569652 0.3587625 0.4987206 -0.4907456 0.2179287 0.4211062 -0.05656057 -0.4049022 0.7515476 -0.1496647 0.6200994 -0.7909812 -0.1436791 -0.1496647 0.6200995 -0.4049021 0.7515476 0.6244705 0.5173864 0.944468 0.02037948 0.2738818 0.02453237 -0.105883 -0.5969408 -0.1496647 0.6200994 0.6244705 0.5173864 -0.2478942 -0.604069 -0.5072221 -0.5007932 -0.4927927 0.533504 -0.1264566 -0.2272757 -0.105883 -0.5969408 0.6576704 -0.8884274 0.944468 0.02037948 -0.4927927 0.533504 0.3554099 0.737176 -0.1264566 -0.2272757 0.2738818 0.02453237 0.944468 0.02037948 0.5369172 0.6057934 0.7875273 0.7310433 -0.4015369 0.4545022 0.3331373 0.05171549 0.4211062 -0.05656057 -0.07808345 -0.4364318 0.6108888 -0.3301972 -0.5891578 0.01391714 -0.006842494 -0.8386764 0.216407 -0.6013464 0.3331373 0.05171549 -0.5891578 0.01391714 0.216407 -0.6013464 -0.3937153 -0.4964676 -0.105883 -0.5969408 -0.2222441 0.1305077 -0.08940517 0.7785124 0.2738818 0.02453237 0.5369172 0.6057934 0.1130573 -0.8569652 -0.5072221 -0.5007932 -0.1264566 -0.2272757 -0.3907522 -0.2198166 -0.4823966 0.1510442 0.2517003 -0.09549015 -0.1264566 -0.2272757 0.6992253 0.02096623 1.012521 -0.6206757 -0.5891578 0.01391714 0.3331373 0.05171549 -0.4015369 0.4545022 0.7944009 -0.09970605 0.2517003 -0.09549015 0.916508 0.1766428 0.6244705 0.5173864 0.5631377 -0.3061041 -0.2478942 -0.604069 0.3554099 0.737176 0.6992253 0.02096623 -0.1264566 -0.2272757 0.2517003 -0.09549015 -0.1669023 -0.5506724 -0.3907522 -0.2198166</float_array>
          <technique_common>
            <accessor source="#cubicflat8-mesh-map-0-array" count="84" stride="2">
              <param name="S" type="float"/>
              <param name="T" type="float"/>
            </accessor>
          </technique_common>
        </source>
        <vertices id="cubicflat8-mesh-vertices">
          <input semantic="POSITION" source="#cubicflat8-mesh-positions"/>
        </vertices>
        <polylist material="boulder_granite_grey_01-material" count="28">
          <input semantic="VERTEX" source="#cubicflat8-mesh-vertices" offset="0"/>
          <input semantic="NORMAL" source="#cubicflat8-mesh-normals" offset="1"/>
          <input semantic="TEXCOORD" source="#cubicflat8-mesh-map-0" offset="2" set="0"/>
          <vcount>3 3 3 3 3 3 3 3 3 3 3 3 3 3 3 3 3 3 3 3 3 3 3 3 3 3 3 3 </vcount>
          <p>14 0 0 2 1 1 11 2 2 13 3 3 0 4 4 2 1 5 8 5 6 9 6 7 7 7 8 12 8 9 6 9 10 9 6 11 15 10 12 4 11 13 7 7 14 14 0 15 13 3 16 2 1 17 0 4 18 6 9 19 12 8 20 6 9 21 0 4 22 13 3 23 5 12 24 12 8 25 9 6 26 6 9 27 13 3 28 10 13 29 3 14 30 13 3 31 15 10 32 9 6 33 8 5 34 5 12 35 13 3 36 14 0 37 15 10 38 12 8 39 5 12 40 11 2 41 14 0 42 11 2 43 1 15 44 2 1 45 0 4 46 11 2 47 5 12 48 8 5 49 4 11 50 1 15 51 5 12 52 4 11 53 10 13 54 9 6 55 6 9 56 0 4 57 12 8 58 11 2 59 7 7 60 3 14 61 15 10 62 10 13 63 3 14 64 7 7 65 15 10 66 1 15 67 4 11 68 5 12 69 1 15 70 11 2 71 8 5 72 7 7 73 4 11 74 13 3 75 3 14 76 10 13 77 14 0 78 1 15 79 15 10 80 7 7 81 9 6 82 10 13 83</p>
        </polylist>
      </mesh>
      <extra><technique profile="MAYA"><double_sided>1</double_sided></technique></extra>
    </geometry>
  </library_geometries>
  <library_visual_scenes>
    <visual_scene id="Scene" name="Scene">
      <node id="Hemi" name="Hemi" type="NODE">
        <translate sid="location">2.68766 8.845478 -2.503622</translate>
        <rotate sid="rotationZ">0 0 1 0</rotate>
        <rotate sid="rotationY">0 1 0 0</rotate>
        <rotate sid="rotationX">1 0 0 0</rotate>
        <scale sid="scale">1 1 1</scale>
        <instance_light url="#Hemi-light"/>
      </node>
      <node id="base01" name="base01" type="NODE">
        <translate sid="location">0 0 0</translate>
        <rotate sid="rotationZ">0 0 1 0</rotate>
        <rotate sid="rotationY">0 1 0 0</rotate>
        <rotate sid="rotationX">1 0 0 0</rotate>
        <scale sid="scale">1 1 1</scale>
        <node id="start01" name="start01" type="NODE">
          <translate sid="location">0 0 0</translate>
          <rotate sid="rotationZ">0 0 1 0</rotate>
          <rotate sid="rotationY">0 1 0 0</rotate>
          <rotate sid="rotationX">1 0 0 0</rotate>
          <scale sid="scale">1 1 1</scale>
          <node id="collisionmesh-1" name="collisionmesh-1" type="NODE">
            <translate sid="location">0 0 0</translate>
            <rotate sid="rotationZ">0 0 1 93.54386</rotate>
            <rotate sid="rotationY">0 1 0 -34.13833</rotate>
            <rotate sid="rotationX">1 0 0 88.01288</rotate>
            <scale sid="scale">1.280869 1.280869 1.280869</scale>
            <instance_geometry url="#collisionmesh-1-mesh"/>
          </node>
          <node id="cubicflat128" name="cubicflat128" type="NODE">
            <translate sid="location">0 0 0</translate>
            <rotate sid="rotationZ">0 0 1 93.54386</rotate>
            <rotate sid="rotationY">0 1 0 -34.13833</rotate>
            <rotate sid="rotationX">1 0 0 88.01288</rotate>
            <scale sid="scale">1.280869 1.280869 1.280869</scale>
            <instance_geometry url="#Cube-mesh">
              <bind_material>
                <technique_common>
                  <instance_material symbol="boulder_granite_grey_01-material" target="#boulder_granite_grey_01-material">
                    <bind_vertex_input semantic="UVMap" input_semantic="TEXCOORD" input_set="0"/>
                  </instance_material>
                </technique_common>
              </bind_material>
            </instance_geometry>
          </node>
          <node id="cubicflat64" name="cubicflat64" type="NODE">
            <translate sid="location">0 0 0</translate>
            <rotate sid="rotationZ">0 0 1 93.54386</rotate>
            <rotate sid="rotationY">0 1 0 -34.13833</rotate>
            <rotate sid="rotationX">1 0 0 88.01288</rotate>
            <scale sid="scale">1.280869 1.280869 1.280869</scale>
            <instance_geometry url="#Cube_001-mesh">
              <bind_material>
                <technique_common>
                  <instance_material symbol="boulder_granite_grey_01-material" target="#boulder_granite_grey_01-material">
                    <bind_vertex_input semantic="UVMap" input_semantic="TEXCOORD" input_set="0"/>
                  </instance_material>
                </technique_common>
              </bind_material>
            </instance_geometry>
          </node>
          <node id="cubicflat8" name="cubicflat8" type="NODE">
            <translate sid="location">0 0 0</translate>
            <rotate sid="rotationZ">0 0 1 93.54386</rotate>
            <rotate sid="rotationY">0 1 0 -34.13833</rotate>
            <rotate sid="rotationX">1 0 0 88.01288</rotate>
            <scale sid="scale">1.280869 1.280869 1.280869</scale>
            <instance_geometry url="#cubicflat8-mesh">
              <bind_material>
                <technique_common>
                  <instance_material symbol="boulder_granite_grey_01-material" target="#boulder_granite_grey_01-material">
                    <bind_vertex_input semantic="UVMap" input_semantic="TEXCOORD" input_set="0"/>
                  </instance_material>
                </technique_common>
              </bind_material>
            </instance_geometry>
          </node>
        </node>
        <node id="nulldetail0" name="nulldetail0" type="NODE">
          <translate sid="location">0 0 0</translate>
          <rotate sid="rotationZ">0 0 1 0</rotate>
          <rotate sid="rotationY">0 1 0 0</rotate>
          <rotate sid="rotationX">1 0 0 0</rotate>
          <scale sid="scale">1 1 1</scale>
        </node>
        <node id="detail128" name="detail128" type="NODE">
          <translate sid="location">0 0 0</translate>
          <rotate sid="rotationZ">0 0 1 0</rotate>
          <rotate sid="rotationY">0 1 0 0</rotate>
          <rotate sid="rotationX">1 0 0 0</rotate>
          <scale sid="scale">1 1 1</scale>
        </node>
        <node id="detail8" name="detail8" type="NODE">
          <translate sid="location">0 0 0</translate>
          <rotate sid="rotationZ">0 0 1 0</rotate>
          <rotate sid="rotationY">0 1 0 0</rotate>
          <rotate sid="rotationX">1 0 0 0</rotate>
          <scale sid="scale">1 1 1</scale>
        </node>
        <node id="detail64" name="detail64" type="NODE">
          <translate sid="location">0 0 0</translate>
          <rotate sid="rotationZ">0 0 1 0</rotate>
          <rotate sid="rotationY">0 1 0 0</rotate>
          <rotate sid="rotationX">1 0 0 0</rotate>
          <scale sid="scale">1 1 1</scale>
        </node>
        <node id="collision-1" name="collision-1" type="NODE">
          <translate sid="location">0 0 0</translate>
          <rotate sid="rotationZ">0 0 1 0</rotate>
          <rotate sid="rotationY">0 1 0 0</rotate>
          <rotate sid="rotationX">1 0 0 0</rotate>
          <scale sid="scale">1 1 1</scale>
        </node>
      </node>
    </visual_scene>
  </library_visual_scenes>
  <scene>
    <instance_visual_scene url="#Scene"/>
  </scene>
</COLLADA>