<?xml version="1.0" encoding="utf-8"?>
<COLLADA xmlns="http://www.collada.org/2005/11/COLLADASchema" version="1.4.1">
  <asset>
    <contributor>
      <author>Duion</author>
      <authoring_tool>Blender 2.65.0 r53189</authoring_tool>
    </contributor>
    <created>2013-06-12T14:04:46</created>
    <modified>2013-06-12T14:04:46</modified>
    <unit name="meter" meter="1"/>
    <up_axis>Z_UP</up_axis>
  </asset>
  <library_lights>
    <light id="Hemi-light" name="Hemi">
      <technique_common>
        <ambient>
          <color>1 1 1</color>
        </ambient>
      </technique_common>
      <extra>
        <technique profile="blender">
          <adapt_thresh>0.000999987</adapt_thresh>
          <area_shape>0</area_shape>
          <area_size>0.1</area_size>
          <area_sizey>0.1</area_sizey>
          <area_sizez>0.1</area_sizez>
          <atm_distance_factor>1</atm_distance_factor>
          <atm_extinction_factor>1</atm_extinction_factor>
          <atm_turbidity>2</atm_turbidity>
          <att1>0</att1>
          <att2>1</att2>
          <backscattered_light>1</backscattered_light>
          <bias>1</bias>
          <blue>1</blue>
          <buffers>1</buffers>
          <bufflag>0</bufflag>
          <bufsize>512</bufsize>
          <buftype>2</buftype>
          <clipend>40</clipend>
          <clipsta>0.5</clipsta>
          <compressthresh>0.04999995</compressthresh>
          <dist sid="blender_dist">25</dist>
          <energy sid="blender_energy">1</energy>
          <falloff_type>2</falloff_type>
          <filtertype>0</filtertype>
          <flag>0</flag>
          <gamma sid="blender_gamma">1</gamma>
          <green>1</green>
          <halo_intensity sid="blnder_halo_intensity">1</halo_intensity>
          <horizon_brightness>1</horizon_brightness>
          <mode>1</mode>
          <ray_samp>1</ray_samp>
          <ray_samp_method>1</ray_samp_method>
          <ray_samp_type>0</ray_samp_type>
          <ray_sampy>1</ray_sampy>
          <ray_sampz>1</ray_sampz>
          <red>1</red>
          <samp>3</samp>
          <shadhalostep>0</shadhalostep>
          <shadow_b sid="blender_shadow_b">0</shadow_b>
          <shadow_g sid="blender_shadow_g">0</shadow_g>
          <shadow_r sid="blender_shadow_r">0</shadow_r>
          <shadspotsize>45</shadspotsize>
          <sky_colorspace>2</sky_colorspace>
          <sky_exposure>1</sky_exposure>
          <skyblendfac>1</skyblendfac>
          <skyblendtype>1</skyblendtype>
          <soft>3</soft>
          <spotblend>0.15</spotblend>
          <spotsize>45</spotsize>
          <spread>1</spread>
          <sun_brightness>1</sun_brightness>
          <sun_effect_type>0</sun_effect_type>
          <sun_intensity>1</sun_intensity>
          <sun_size>1</sun_size>
          <type>3</type>
        </technique>
      </extra>
    </light>
  </library_lights>
  <library_images/>
  <library_effects>
    <effect id="broadfern_01-effect">
      <profile_COMMON>
        <technique sid="common">
          <phong>
            <emission>
              <color sid="emission">0 0 0 1</color>
            </emission>
            <ambient>
              <color sid="ambient">0 0 0 1</color>
            </ambient>
            <diffuse>
              <color sid="diffuse">0.64 0.64 0.64 1</color>
            </diffuse>
            <specular>
              <color sid="specular">0.5 0.5 0.5 1</color>
            </specular>
            <shininess>
              <float sid="shininess">50</float>
            </shininess>
            <transparency>
              <float sid="transparency">0</float>
            </transparency>
            <index_of_refraction>
              <float sid="index_of_refraction">1</float>
            </index_of_refraction>
          </phong>
        </technique>
        <extra>
          <technique profile="GOOGLEEARTH">
            <double_sided>1</double_sided>
          </technique>
        </extra>
      </profile_COMMON>
      <extra><technique profile="MAX3D"><double_sided>1</double_sided></technique></extra>
    </effect>
  </library_effects>
  <library_materials>
    <material id="broadfern_01-material" name="broadfern_01">
      <instance_effect url="#broadfern_01-effect"/>
    </material>
  </library_materials>
  <library_geometries>
    <geometry id="broadfern128-mesh" name="broadfern128">
      <mesh>
        <source id="broadfern128-mesh-positions">
          <float_array id="broadfern128-mesh-positions-array" count="240">2.761526 -1.769874 1.233004 0.09035933 0.6075658 1.719061 3.322538 -0.6919637 2.102924 1.30044 1.108669 2.471531 1.174686 -0.5011406 -0.1583794 3.723171 1.701092 2.326835 2.773293 0.78336 2.090443 1.851238 -0.05005061 1.322418 1.530465 -0.4051253 1.060337 -1.426662 -1.110465 1.409226 1.039758 0.4951983 1.977713 -1.199442 -0.03832882 2.24238 -0.1032527 -0.8636925 -0.1563858 -0.4377811 1.93889 2.583003 -0.251611 0.8324133 1.953193 -0.1077492 -0.2013065 1.113732 2.125111 -2.344943 1.396691 -0.9293345 -1.312442 1.599595 2.142329 -1.256573 2.098961 -0.1702681 -0.4742271 2.253126 0.4755827 -1.84831 -0.1454908 1.600439 0.8689014 2.337982 1.180078 -0.2303298 2.015011 0.7741646 -1.242574 1.374447 -0.5309963 1.936437 1.09365 -3.185296 1.189455 0.763608 -1.091989 3.047808 1.181891 -3.102009 2.482828 0.9321202 -1.562523 0.9301761 -0.1368551 -2.303635 4.458054 0.4392862 -2.171851 3.181445 0.6492727 -1.93558 1.955158 0.5704506 -0.5267435 -0.6017239 1.485658 -3.380652 -0.9222274 1.199102 -1.056134 0.4146685 2.049855 -3.217205 0.1725763 1.833237 -1.807381 -1.050596 -0.1672943 -2.345645 1.982519 2.126584 -2.181662 0.8465251 1.686779 -2.001491 -0.2489517 1.12859 0.5266467 0.6000166 1.121999 -2.56421 0.07745951 1.144494 -0.05932527 1.803312 1.563921 -2.399828 1.408345 1.5812 -0.9405606 -0.2764657 -0.164253 -1.543396 3.417324 1.146403 -1.329641 2.125883 1.295024 -1.116465 0.8266035 0.9155251 3.083621 1.129089 0.9935528 0.3596338 2.018335 1.030036 3.12428 2.358376 1.242766 1.061896 3.032338 1.270604 1.510751 1.023439 -0.1633648 2.605223 4.291392 0.6431584 2.228708 3.152957 0.8830711 1.846055 2.005025 0.68732 2.391002 0.1097675 1.580883 -1.171593 0.6623399 1.554879 2.178477 1.619498 2.009936 -0.5189829 2.038713 1.990557 0.5006027 -0.2677268 -0.06899029 1.150091 3.92733 1.500958 0.9181303 2.446653 1.561724 0.6878265 0.9657637 1.189166 1.509598 1.781943 1.348382 -1.707212 2.126158 0.8515354 1.230711 3.229794 1.352159 -1.204982 3.491214 0.976081 -0.0200656 1.085566 -0.1223931 0.2855911 5.228103 0.1945816 0.1299035 3.829852 0.668866 0.003089606 2.400623 0.6635851 0.483989 -1.790108 1.692288 -2.27429 -2.274512 0.9374385 -0.2022044 -0.8160967 2.314473 -2.29096 -1.182306 1.743252 -0.5238471 -2.283707 -0.1065633 -1.581326 0.6790693 2.154788 -1.284202 -0.441511 1.776064 -0.9397117 -1.51572 1.101717</float_array>
          <technique_common>
            <accessor source="#broadfern128-mesh-positions-array" count="80" stride="3">
              <param name="X" type="float"/>
              <param name="Y" type="float"/>
              <param name="Z" type="float"/>
            </accessor>
          </technique_common>
        </source>
        <source id="broadfern128-mesh-normals">
          <float_array id="broadfern128-mesh-normals-array" count="240">-0.4194769 -0.6164739 0.6663106 -0.1760613 -0.8093814 0.5602283 -0.5401166 -0.7039399 0.4611957 -0.650502 -0.3785211 0.6584368 -0.01855522 -0.6660665 0.7456588 -0.4783471 -0.2345347 0.8462477 -0.1101413 -0.3282266 0.938139 -0.02706986 -0.2229682 0.9744255 0.2540056 -0.7513047 0.6090884 0.5613269 -0.6463515 0.51677 0.258858 -0.8560442 0.4473403 -0.08001953 -0.7992187 0.5956298 0.5697501 -0.4865871 0.6622517 -0.1257362 -0.6528825 0.7469405 0.2230293 -0.5112461 0.8299509 0.2111575 -0.4564348 0.8643147 -0.194647 -0.723838 0.661916 0.1092257 -0.8108158 0.5749992 -0.2690817 -0.8753319 0.4016846 -0.5006561 -0.601001 0.6229743 0.1837214 -0.5926694 0.7841731 -0.3983581 -0.3863338 0.8318735 -0.05478072 -0.3600574 0.9313029 -0.02966398 -0.2713096 0.9620045 -0.005645871 -0.3321635 0.9431746 0.3054903 -0.2681356 0.9136326 0.05438393 -0.5536057 0.830958 -0.3248695 -0.3978698 0.8579668 0.2451552 -0.02893149 0.9690237 -0.4050722 -0.1258583 0.9055452 -0.1166417 0.06152528 0.9912412 -0.1792352 0.1416059 0.9735404 0.004852414 -0.6858425 0.7277139 0.342204 -0.6277962 0.699057 0.04687643 -0.8463088 0.5305643 -0.3218177 -0.6988434 0.6387524 0.3249306 -0.4197211 0.8474685 -0.3795282 -0.4997406 0.7785577 -0.04235965 -0.4031495 0.9141209 -0.05233919 -0.3671072 0.9286782 0.09277623 -0.4956817 0.8634907 0.3640553 -0.4552446 0.8124943 0.1224097 -0.6841945 0.7189245 -0.178106 -0.5453963 0.8190252 0.3113803 -0.1901303 0.9310587 -0.2133854 -0.2778405 0.9366131 0.01483196 -0.03100675 0.9993897 -0.01159703 0.1123996 0.9935911 -0.1155126 -0.4011048 0.9086886 0.1901303 -0.501175 0.8441725 -0.1857051 -0.6065249 0.7730644 -0.4228339 -0.2982574 0.855678 0.2738731 -0.2363963 0.9322184 -0.3314615 -0.03595077 0.9427473 0.03540146 0.05801564 0.9976806 0.07263404 0.1825922 0.9804987 -0.08026367 -0.4948271 0.8652608 0.2463148 -0.5378887 0.8062075 -0.1120029 -0.7011628 0.7040925 -0.403882 -0.4354381 0.804529 0.2900784 -0.2768028 0.9160741 -0.3679922 -0.1744743 0.9132969 -0.01467937 -0.06442457 0.9978027 -4.27259e-4 0.04104739 0.9991455 -0.1749626 -0.2598956 0.9496445 0.1512192 -0.2966704 0.9428999 -0.1824091 -0.5020295 0.8453627 -0.4809412 -0.2367016 0.8441725 0.1698049 -0.001098632 0.9854732 -0.4554888 0.04504531 0.8890652 -0.1301004 0.2150028 0.9678946 -0.1044343 0.3298746 0.9382 -0.05536055 -0.7293008 0.6819361 0.2818689 -0.648793 0.7068087 0.009765923 -0.8423719 0.5387738 -0.3715934 -0.7497177 0.5475021 0.2428663 -0.4638508 0.8519547 -0.4667806 -0.5793634 0.6681417 -0.1629383 -0.4392529 0.8834498 -0.1869564 -0.3586535 0.9145482</float_array>
          <technique_common>
            <accessor source="#broadfern128-mesh-normals-array" count="80" stride="3">
              <param name="X" type="float"/>
              <param name="Y" type="float"/>
              <param name="Z" type="float"/>
            </accessor>
          </technique_common>
        </source>
        <source id="broadfern128-mesh-map-0">
          <float_array id="broadfern128-mesh-map-0-array" count="480">0.4867426 0.3457155 0 0.2754623 0.5032262 0 0.5032262 0 1 0.272086 0.4867426 0.3457155 0.1160365 0.6108362 0 0.2754623 0.4867426 0.3457155 1 0.272086 0.8805558 0.6080914 0.4867426 0.3457155 0.1160365 0.6108362 0.4867426 0.3457155 0.4946865 0.6880772 0.4946865 0.6880772 0.4867426 0.3457155 0.8805558 0.6080914 0.5024468 1 0.1160365 0.6108362 0.4946865 0.6880772 0.4946865 0.6880772 0.8805558 0.6080914 0.5024468 1 0.4867426 0.3457155 0 0.2754623 0.5032262 0 0.5032262 0 1 0.272086 0.4867426 0.3457155 0.1160365 0.6108362 0 0.2754623 0.4867426 0.3457155 1 0.272086 0.8805558 0.6080914 0.4867426 0.3457155 0.1160365 0.6108362 0.4867426 0.3457155 0.4946865 0.6880772 0.4946865 0.6880772 0.4867426 0.3457155 0.8805558 0.6080914 0.5024468 1 0.1160365 0.6108362 0.4946865 0.6880772 0.4946865 0.6880772 0.8805558 0.6080914 0.5024468 1 0.4867426 0.3457155 0 0.2754623 0.5032262 0 0.5032262 0 1 0.272086 0.4867426 0.3457155 0.1160365 0.6108362 0 0.2754623 0.4867426 0.3457155 1 0.272086 0.8805558 0.6080914 0.4867426 0.3457155 0.1160365 0.6108362 0.4867426 0.3457155 0.4946865 0.6880772 0.4946865 0.6880772 0.4867426 0.3457155 0.8805558 0.6080914 0.5024468 1 0.1160365 0.6108362 0.4946865 0.6880772 0.4946865 0.6880772 0.8805558 0.6080914 0.5024468 1 0.4867426 0.3457155 0 0.2754623 0.5032262 0 0.5032262 0 1 0.272086 0.4867426 0.3457155 0.1160365 0.6108362 0 0.2754623 0.4867426 0.3457155 1 0.272086 0.8805558 0.6080914 0.4867426 0.3457155 0.1160365 0.6108362 0.4867426 0.3457155 0.4946865 0.6880772 0.4946865 0.6880772 0.4867426 0.3457155 0.8805558 0.6080914 0.5024468 1 0.1160365 0.6108362 0.4946865 0.6880772 0.4946865 0.6880772 0.8805558 0.6080914 0.5024468 1 0.4867426 0.3457155 0 0.2754623 0.5032262 0 0.5032262 0 1 0.272086 0.4867426 0.3457155 0.1160365 0.6108362 0 0.2754623 0.4867426 0.3457155 1 0.272086 0.8805558 0.6080914 0.4867426 0.3457155 0.1160365 0.6108362 0.4867426 0.3457155 0.4946865 0.6880772 0.4946865 0.6880772 0.4867426 0.3457155 0.8805558 0.6080914 0.5024468 1 0.1160365 0.6108362 0.4946865 0.6880772 0.4946865 0.6880772 0.8805558 0.6080914 0.5024468 1 0.4867426 0.3457155 0 0.2754623 0.5032262 0 0.5032262 0 1 0.272086 0.4867426 0.3457155 0.1160365 0.6108362 0 0.2754623 0.4867426 0.3457155 1 0.272086 0.8805558 0.6080914 0.4867426 0.3457155 0.1160365 0.6108362 0.4867426 0.3457155 0.4946865 0.6880772 0.4946865 0.6880772 0.4867426 0.3457155 0.8805558 0.6080914 0.5024468 1 0.1160365 0.6108362 0.4946865 0.6880772 0.4946865 0.6880772 0.8805558 0.6080914 0.5024468 1 0.4867426 0.3457155 0 0.2754623 0.5032262 0 0.5032262 0 1 0.272086 0.4867426 0.3457155 0.1160365 0.6108362 0 0.2754623 0.4867426 0.3457155 1 0.272086 0.8805558 0.6080914 0.4867426 0.3457155 0.1160365 0.6108362 0.4867426 0.3457155 0.4946865 0.6880772 0.4946865 0.6880772 0.4867426 0.3457155 0.8805558 0.6080914 0.5024468 1 0.1160365 0.6108362 0.4946865 0.6880772 0.4946865 0.6880772 0.8805558 0.6080914 0.5024468 1 0.4867426 0.3457155 0 0.2754623 0.5032262 0 0.5032262 0 1 0.272086 0.4867426 0.3457155 0.1160365 0.6108362 0 0.2754623 0.4867426 0.3457155 1 0.272086 0.8805558 0.6080914 0.4867426 0.3457155 0.1160365 0.6108362 0.4867426 0.3457155 0.4946865 0.6880772 0.4946865 0.6880772 0.4867426 0.3457155 0.8805558 0.6080914 0.5024468 1 0.1160365 0.6108362 0.4946865 0.6880772 0.4946865 0.6880772 0.8805558 0.6080914 0.5024468 1 0.4867426 0.3457155 0 0.2754623 0.5032262 0 0.5032262 0 1 0.272086 0.4867426 0.3457155 0.1160365 0.6108362 0 0.2754623 0.4867426 0.3457155 1 0.272086 0.8805558 0.6080914 0.4867426 0.3457155 0.1160365 0.6108362 0.4867426 0.3457155 0.4946865 0.6880772 0.4946865 0.6880772 0.4867426 0.3457155 0.8805558 0.6080914 0.5024468 1 0.1160365 0.6108362 0.4946865 0.6880772 0.4946865 0.6880772 0.8805558 0.6080914 0.5024468 1 0.4867426 0.3457155 0 0.2754623 0.5032262 0 0.5032262 0 1 0.272086 0.4867426 0.3457155 0.1160365 0.6108362 0 0.2754623 0.4867426 0.3457155 1 0.272086 0.8805558 0.6080914 0.4867426 0.3457155 0.1160365 0.6108362 0.4867426 0.3457155 0.4946865 0.6880772 0.4946865 0.6880772 0.4867426 0.3457155 0.8805558 0.6080914 0.5024468 1 0.1160365 0.6108362 0.4946865 0.6880772 0.4946865 0.6880772 0.8805558 0.6080914 0.5024468 1</float_array>
          <technique_common>
            <accessor source="#broadfern128-mesh-map-0-array" count="240" stride="2">
              <param name="S" type="float"/>
              <param name="T" type="float"/>
            </accessor>
          </technique_common>
        </source>
        <source id="broadfern128-mesh-colors">
          <float_array id="broadfern128-mesh-colors-array" count="720">0.4627451 0.4705882 0 0.4509804 0.07843136 1 0 0.3137255 0 0 0.3137255 0 0.4784314 0.2745098 1 0.4627451 0.4705882 0 1 0.3137255 1 0.4509804 0.07843136 1 0.4627451 0.4705882 0 0.4784314 0.2745098 1 1 0.4705882 1 0.4627451 0.4705882 0 1 0.3137255 1 0.4627451 0.4705882 0 1 0.4705882 0 1 0.4705882 0 0.4627451 0.4705882 0 1 0.4705882 1 1 0.1568627 0 1 0.3137255 1 1 0.4705882 0 1 0.4705882 0 1 0.4705882 1 1 0.1568627 0 0.4627451 0.3921568 0 0.4509804 0.2352941 1 0 0.2980392 0 0 0.2980392 0 0.4784314 0.1411765 1 0.4627451 0.3921568 0 1 0.3921568 1 0.4509804 0.2352941 1 0.4627451 0.3921568 0 0.4784314 0.1411765 1 1 0.2666667 1 0.4627451 0.3921568 0 1 0.3921568 1 0.4627451 0.3921568 0 1 0.3921568 0 1 0.3921568 0 0.4627451 0.3921568 0 1 0.2666667 1 1 0.2039216 0 1 0.3921568 1 1 0.3921568 0 1 0.3921568 0 1 0.2666667 1 1 0.2039216 0 0.4627451 0.2941176 0 0.4509804 0.04705882 1 0 0.1764706 0 0 0.1764706 0 0.4784314 0.2509804 1 0.4627451 0.2941176 0 1 0.09019607 1 0.4509804 0.04705882 1 0.4627451 0.2941176 0 0.4784314 0.2509804 1 1 0.2588235 1 0.4627451 0.2941176 0 1 0.09019607 1 0.4627451 0.2941176 0 1 0.2196078 0 1 0.2196078 0 0.4627451 0.2941176 0 1 0.2588235 1 1 0.007843136 0 1 0.09019607 1 1 0.2196078 0 1 0.2196078 0 1 0.2588235 1 1 0.007843136 0 0.4627451 0.0980392 0 0.4509804 0.04313725 1 0 0.02745097 0 0 0.02745097 0 0.4784314 0.05490195 1 0.4627451 0.0980392 0 1 0.07450979 1 0.4509804 0.04313725 1 0.4627451 0.0980392 0 0.4784314 0.05490195 1 1 0.07450979 1 0.4627451 0.0980392 0 1 0.07450979 1 0.4627451 0.0980392 0 1 0.09019607 0 1 0.09019607 0 0.4627451 0.0980392 0 1 0.07450979 1 1 0.02352941 0 1 0.07450979 1 1 0.09019607 0 1 0.09019607 0 1 0.07450979 1 1 0.02352941 0 0.4627451 0.9803922 0 0.4509804 0.509804 1 0 0.9411765 0 0 0.9411765 0 0.4784314 0.2352941 1 0.4627451 0.9803922 0 1 0.7450981 1 0.4509804 0.509804 1 0.4627451 0.9803922 0 0.4784314 0.2352941 1 1 0.627451 1 0.4627451 0.9803922 0 1 0.7450981 1 0.4627451 0.9803922 0 1 0.7843137 0 1 0.7843137 0 0.4627451 0.9803922 0 1 0.627451 1 1 0.03921568 0 1 0.7450981 1 1 0.7843137 0 1 0.7843137 0 1 0.627451 1 1 0.03921568 0 0.4627451 0.5882353 0 0.4509804 0.4470588 1 0 0.4705882 0 0 0.4705882 0 0.4784314 0.3294118 1 0.4627451 0.5882353 0 1 0.4235294 1 0.4509804 0.4470588 1 0.4627451 0.5882353 0 0.4784314 0.3294118 1 1 0.3529412 1 0.4627451 0.5882353 0 1 0.4235294 1 0.4627451 0.5882353 0 1 0.4235294 0 1 0.4235294 0 0.4627451 0.5882353 0 1 0.3529412 1 1 0.0117647 0 1 0.4235294 1 1 0.4235294 0 1 0.4235294 0 1 0.3529412 1 1 0.0117647 0 0.4627451 0.4705882 0 0.4509804 0.3333333 1 0 0.1372549 0 0 0.1372549 0 0.4784314 0.03921568 1 0.4627451 0.4705882 0 1 0.4705882 1 0.4509804 0.3333333 1 0.4627451 0.4705882 0 0.4784314 0.03921568 1 1 0.1764706 1 0.4627451 0.4705882 0 1 0.4705882 1 0.4627451 0.4705882 0 1 0.4509804 0 1 0.4509804 0 0.4627451 0.4705882 0 1 0.1764706 1 1 0.07843136 0 1 0.4705882 1 1 0.4509804 0 1 0.4509804 0 1 0.1764706 1 1 0.07843136 0 0.4627451 0.3921568 0 0.4509804 0.1411765 1 0 0.1411765 0 0 0.1411765 0 0.4784314 0.1568627 1 0.4627451 0.3921568 0 1 0.2862745 1 0.4509804 0.1411765 1 0.4627451 0.3921568 0 0.4784314 0.1568627 1 1 0.3254902 1 0.4627451 0.3921568 0 1 0.2862745 1 0.4627451 0.3921568 0 1 0.3607843 0 1 0.3607843 0 0.4627451 0.3921568 0 1 0.3254902 1 1 0.04705882 0 1 0.2862745 1 1 0.3607843 0 1 0.3607843 0 1 0.3254902 1 1 0.04705882 0 0.4627451 0.2705882 0 0.4509804 0.1882353 1 0 0.02352941 0 0 0.02352941 0 0.4784314 0 1 0.4627451 0.2705882 0 1 0.2470588 1 0.4509804 0.1882353 1 0.4627451 0.2705882 0 0.4784314 0 1 1 0.03529411 1 0.4627451 0.2705882 0 1 0.2470588 1 0.4627451 0.2705882 0 1 0.2313725 0 1 0.2313725 0 0.4627451 0.2705882 0 1 0.03529411 1 1 0.0117647 0 1 0.2470588 1 1 0.2313725 0 1 0.2313725 0 1 0.03529411 1 1 0.0117647 0 0.4627451 0.1960784 0 0.4509804 0.1490196 1 0 0.172549 0 0 0.172549 0 0.4784314 0.0862745 1 0.4627451 0.1960784 0 1 0.1568627 1 0.4509804 0.1490196 1 0.4627451 0.1960784 0 0.4784314 0.0862745 1 1 0.1647059 1 0.4627451 0.1960784 0 1 0.1568627 1 0.4627451 0.1960784 0 1 0.1647059 0 1 0.1647059 0 0.4627451 0.1960784 0 1 0.1647059 1 1 0.01568627 0 1 0.1568627 1 1 0.1647059 0 1 0.1647059 0 1 0.1647059 1 1 0.01568627 0</float_array>
          <technique_common>
            <accessor source="#broadfern128-mesh-colors-array" count="240" stride="3">
              <param name="R" type="float"/>
              <param name="G" type="float"/>
              <param name="B" type="float"/>
            </accessor>
          </technique_common>
        </source>
        <vertices id="broadfern128-mesh-vertices">
          <input semantic="POSITION" source="#broadfern128-mesh-positions"/>
        </vertices>
        <polylist material="broadfern_01-material" count="80">
          <input semantic="VERTEX" source="#broadfern128-mesh-vertices" offset="0"/>
          <input semantic="NORMAL" source="#broadfern128-mesh-normals" offset="1"/>
          <input semantic="TEXCOORD" source="#broadfern128-mesh-map-0" offset="2" set="0"/>
          <input semantic="COLOR" source="#broadfern128-mesh-colors" offset="3"/>
          <vcount>3 3 3 3 3 3 3 3 3 3 3 3 3 3 3 3 3 3 3 3 3 3 3 3 3 3 3 3 3 3 3 3 3 3 3 3 3 3 3 3 3 3 3 3 3 3 3 3 3 3 3 3 3 3 3 3 3 3 3 3 3 3 3 3 3 3 3 3 3 3 3 3 3 3 3 3 3 3 3 3 </vcount>
          <p>7 0 0 0 1 1 1 1 4 2 2 2 4 2 3 3 0 3 4 4 7 0 5 5 3 4 6 6 1 1 7 7 7 0 8 8 0 3 9 9 2 5 10 10 7 0 11 11 3 4 12 12 7 0 13 13 6 6 14 14 6 6 15 15 7 0 16 16 2 5 17 17 5 7 18 18 3 4 19 19 6 6 20 20 6 6 21 21 2 5 22 22 5 7 23 23 15 8 24 24 9 9 25 25 12 10 26 26 12 10 27 27 8 11 28 28 15 8 29 29 11 12 30 30 9 9 31 31 15 8 32 32 8 11 33 33 10 13 34 34 15 8 35 35 11 12 36 36 15 8 37 37 14 14 38 38 14 14 39 39 15 8 40 40 10 13 41 41 13 15 42 42 11 12 43 43 14 14 44 44 14 14 45 45 10 13 46 46 13 15 47 47 23 16 48 48 17 17 49 49 20 18 50 50 20 18 51 51 16 19 52 52 23 16 53 53 19 20 54 54 17 17 55 55 23 16 56 56 16 19 57 57 18 21 58 58 23 16 59 59 19 20 60 60 23 16 61 61 22 22 62 62 22 22 63 63 23 16 64 64 18 21 65 65 21 23 66 66 19 20 67 67 22 22 68 68 22 22 69 69 18 21 70 70 21 23 71 71 31 24 72 72 25 25 73 73 28 26 74 74 28 26 75 75 24 27 76 76 31 24 77 77 27 28 78 78 25 25 79 79 31 24 80 80 24 27 81 81 26 29 82 82 31 24 83 83 27 28 84 84 31 24 85 85 30 30 86 86 30 30 87 87 31 24 88 88 26 29 89 89 29 31 90 90 27 28 91 91 30 30 92 92 30 30 93 93 26 29 94 94 29 31 95 95 39 32 96 96 33 33 97 97 36 34 98 98 36 34 99 99 32 35 100 100 39 32 101 101 35 36 102 102 33 33 103 103 39 32 104 104 32 35 105 105 34 37 106 106 39 32 107 107 35 36 108 108 39 32 109 109 38 38 110 110 38 38 111 111 39 32 112 112 34 37 113 113 37 39 114 114 35 36 115 115 38 38 116 116 38 38 117 117 34 37 118 118 37 39 119 119 47 40 120 120 41 41 121 121 44 42 122 122 44 42 123 123 40 43 124 124 47 40 125 125 43 44 126 126 41 41 127 127 47 40 128 128 40 43 129 129 42 45 130 130 47 40 131 131 43 44 132 132 47 40 133 133 46 46 134 134 46 46 135 135 47 40 136 136 42 45 137 137 45 47 138 138 43 44 139 139 46 46 140 140 46 46 141 141 42 45 142 142 45 47 143 143 55 48 144 144 49 49 145 145 52 50 146 146 52 50 147 147 48 51 148 148 55 48 149 149 51 52 150 150 49 49 151 151 55 48 152 152 48 51 153 153 50 53 154 154 55 48 155 155 51 52 156 156 55 48 157 157 54 54 158 158 54 54 159 159 55 48 160 160 50 53 161 161 53 55 162 162 51 52 163 163 54 54 164 164 54 54 165 165 50 53 166 166 53 55 167 167 63 56 168 168 57 57 169 169 60 58 170 170 60 58 171 171 56 59 172 172 63 56 173 173 59 60 174 174 57 57 175 175 63 56 176 176 56 59 177 177 58 61 178 178 63 56 179 179 59 60 180 180 63 56 181 181 62 62 182 182 62 62 183 183 63 56 184 184 58 61 185 185 61 63 186 186 59 60 187 187 62 62 188 188 62 62 189 189 58 61 190 190 61 63 191 191 71 64 192 192 65 65 193 193 68 66 194 194 68 66 195 195 64 67 196 196 71 64 197 197 67 68 198 198 65 65 199 199 71 64 200 200 64 67 201 201 66 69 202 202 71 64 203 203 67 68 204 204 71 64 205 205 70 70 206 206 70 70 207 207 71 64 208 208 66 69 209 209 69 71 210 210 67 68 211 211 70 70 212 212 70 70 213 213 66 69 214 214 69 71 215 215 79 72 216 216 73 73 217 217 76 74 218 218 76 74 219 219 72 75 220 220 79 72 221 221 75 76 222 222 73 73 223 223 79 72 224 224 72 75 225 225 74 77 226 226 79 72 227 227 75 76 228 228 79 72 229 229 78 78 230 230 78 78 231 231 79 72 232 232 74 77 233 233 77 79 234 234 75 76 235 235 78 78 236 236 78 78 237 237 74 77 238 238 77 79 239 239</p>
        </polylist>
      </mesh>
      <extra><technique profile="MAYA"><double_sided>1</double_sided></technique></extra>
    </geometry>
    <geometry id="broadfern8-mesh" name="broadfern8">
      <mesh>
        <source id="broadfern8-mesh-positions">
          <float_array id="broadfern8-mesh-positions-array" count="138">3.334111 -1.336624 0.8093453 0.09035933 0.6075658 1.719061 1.174686 -0.5011406 -0.1583794 3.723171 1.701092 2.326835 1.26352 1.207098 2.268993 1.530465 -0.4051253 1.060337 -1.426662 -1.110465 1.409226 1.039758 0.4951983 1.977713 -1.199442 -0.03832882 2.24238 0.006112813 -1.167037 0.1394594 -0.4377811 1.93889 2.583003 2.481114 -1.727329 1.024048 -0.8881903 -0.6994141 1.339658 0.4755827 -1.84831 -0.1454908 1.600439 0.8689014 2.337982 -0.3774824 2.413879 0.5077141 -3.381871 1.510666 0.2769622 -1.562523 0.9301761 -0.1368551 -2.303635 4.458054 0.4392862 -0.3448433 0.1025365 1.146134 -3.649461 -0.255339 0.8195363 -1.808153 -1.27969 0.1160867 -2.344563 1.947258 2.157179 0.5860663 1.103806 0.5906568 -2.76762 0.4732186 0.7508804 -0.9405606 -0.2764657 -0.164253 -1.543396 3.417324 1.146403 3.362445 1.474328 0.4538967 0.3319626 2.423202 0.6009569 1.510751 1.023439 -0.1633648 2.605223 4.291392 0.6431584 2.741629 0.7454555 0.8769661 -1.171593 0.6623399 1.554879 0.5006027 -0.2677268 -0.06899029 1.150091 3.92733 1.500958 -0.5754877 2.06553 1.758424 1.509598 1.781943 1.348382 -1.755414 2.51971 0.1545625 -0.0200656 1.085566 -0.1223931 0.2855911 5.228103 0.1945816 1.309201 3.169921 1.167165 0.483989 -1.790108 1.692288 -0.2022044 -0.8160967 2.314473 -2.569615 -1.539618 0.4483103 -0.5689657 -2.594545 0.2667075 -1.581326 0.6790693 2.154788</float_array>
          <technique_common>
            <accessor source="#broadfern8-mesh-positions-array" count="46" stride="3">
              <param name="X" type="float"/>
              <param name="Y" type="float"/>
              <param name="Z" type="float"/>
            </accessor>
          </technique_common>
        </source>
        <source id="broadfern8-mesh-normals">
          <float_array id="broadfern8-mesh-normals-array" count="138">-0.05963313 -0.6830958 0.7278665 0.1495102 -0.8111515 0.5653554 -0.3460799 -0.7612232 0.5483566 -0.271218 -0.6355479 0.7228309 0.0700705 -0.4529557 0.88876 0.6577349 -0.4384899 0.612415 0.522599 -0.5894345 0.6159551 0.2404553 -0.6385998 0.7309488 -0.05105745 -0.7262795 0.6854763 -0.2337412 -0.6521195 0.7211219 0.2311167 -0.5809503 0.7804194 -0.2185125 -0.8586688 0.4635761 -0.1322672 -0.6605121 0.7390362 -0.1337016 -0.6641133 0.7355571 -0.0597552 -0.4668111 0.8823207 0.06341743 -0.4398328 0.8958098 -0.01983702 -0.1849421 0.9825129 -0.01321446 -0.2059694 0.9784539 -0.0675069 -0.03021329 0.9972534 0.02813804 -0.5309916 0.8468887 -0.02468943 -0.5373089 0.8429823 -0.02505564 -0.5373394 0.8429518 -0.07696765 -0.5420698 0.836787 0.1498764 -0.5968505 0.7882016 0.1096225 -0.3462935 0.9316691 0.1099582 -0.3482772 0.9309061 0.07788324 -0.1644948 0.9832758 -0.1358379 -0.5604724 0.8169195 -0.03622543 -0.2650532 0.9635304 -0.03714102 -0.267861 0.9627369 0.02993863 -0.05896174 0.9978027 0.2706381 -0.3291421 0.9046297 0.5488144 -0.3436689 0.7619861 0.1206396 -0.5769829 0.8077639 0.07336646 -0.4196906 0.9046602 0.2274544 -0.07657092 0.9707633 -0.4481948 -0.003356993 0.8939177 -0.285165 -0.1338236 0.9490646 -0.3525193 -0.3193762 0.8796045 -0.6917325 -0.005584836 0.7220985 -0.3513291 0.2514114 0.9018525 -0.3641774 -0.6698508 0.6469924 -0.5652943 -0.5699637 0.5962401 -0.3763237 -0.581103 0.7215491 -0.4521622 -0.5464034 0.7049471 -0.2084719 -0.5362102 0.8178961</float_array>
          <technique_common>
            <accessor source="#broadfern8-mesh-normals-array" count="46" stride="3">
              <param name="X" type="float"/>
              <param name="Y" type="float"/>
              <param name="Z" type="float"/>
            </accessor>
          </technique_common>
        </source>
        <source id="broadfern8-mesh-map-0">
          <float_array id="broadfern8-mesh-map-0-array" count="156">0.1207713 0.6092068 0 0.2754623 0.5032262 0 0.5032262 0 0.9775549 0.3352258 0.1207713 0.6092068 0.1207713 0.6092068 0.9775549 0.3352258 0.5024468 1 0.1160365 0.6108362 0 0.2754623 0.5022928 0.02636605 1 0.272086 0.8805558 0.6080914 0.5022928 0.02636605 0.5024468 1 0.1160365 0.6108362 0.5022928 0.02636605 0.5022928 0.02636605 0.8805558 0.6080914 0.5024468 1 0.5032262 0 0.970344 0.3555104 0.03610694 0.3741015 0.03610694 0.3741015 0.970344 0.3555104 0.5024468 1 0.5032262 0 0.9698798 0.3568165 0.02968609 0.356284 0.02968609 0.356284 0.9698798 0.3568165 0.5024468 1 0.03176277 0.3672646 0.5019427 0.02691823 0.5023093 0.9944716 0.5023093 0.9944716 0.5019427 0.02691823 0.9686716 0.360215 0.5032262 0 0.9797631 0.3290139 0.02611237 0.3485199 0.02611237 0.3485199 0.9797631 0.3290138 0.5024468 1 0.5032262 0 0.977153 0.3363564 0.03070843 0.3593754 0.03070843 0.3593754 0.977153 0.3363564 0.5024468 1 0.1228771 0.60777 0 0.2754623 0.5032262 0 0.5032262 0 0.9722318 0.3502001 0.1228771 0.60777 0.1228771 0.60777 0.9722318 0.3502002 0.5024468 1 0.8742105 0.6057178 0.02320629 0.3425343 0.5032262 0 0.5032262 0 1 0.272086 0.8742105 0.6057178 0.5024468 1 0.02320629 0.3425343 0.8742105 0.6057178 1 0.272086 0.8805558 0.6080914 0.5022035 0.03208029 0.5024468 1 0.02603662 0.3507146 0.5022035 0.03208029 0.5022035 0.03208029 0.8805558 0.6080914 0.5024468 1</float_array>
          <technique_common>
            <accessor source="#broadfern8-mesh-map-0-array" count="78" stride="2">
              <param name="S" type="float"/>
              <param name="T" type="float"/>
            </accessor>
          </technique_common>
        </source>
        <source id="broadfern8-mesh-colors">
          <float_array id="broadfern8-mesh-colors-array" count="234">0.9921569 0.3137255 0.9843137 0.4509804 0.07843136 1 0 0.3137255 0 0 0.3137255 0 0.5725491 0.3098039 1 0.9921569 0.3137255 0.9843137 0.9921569 0.3137255 0.9843137 0.5725491 0.3098039 1 1 0.1568627 0 1 0.3921568 1 0.4509804 0.2352941 1 0.03529411 0.3019608 0 0.4784314 0.1411765 1 1 0.2666667 1 0.03529411 0.3019608 0 1 0.2039216 0 1 0.3921568 1 0.03529411 0.3019608 0 0.03529411 0.3019608 0 1 0.2666667 1 1 0.2039216 0 0 0.1764706 0 0.6078432 0.2509804 1 0.6078432 0.05882352 0.9921569 0.6078432 0.05882352 0.9921569 0.6078432 0.2509804 1 1 0.007843136 0 0 0.02745097 0 0.6078432 0.05882352 1 0.5803922 0.04705882 0.9921569 0.5803922 0.04705882 0.9921569 0.6078432 0.05882352 1 1 0.02352941 0 0.6 0.5725491 1 0.03529411 0.9411765 0 1 0.05098038 0 1 0.05098038 0 0.03529411 0.9411765 0 0.6117647 0.3372549 1 0 0.4705882 0 0.5647059 0.3333333 0.9960784 0.5686275 0.4392157 0.9960784 0.5686275 0.4392157 0.9960784 0.5647059 0.3333333 1 1 0.0117647 0 0 0.1372549 0 0.5764706 0.06274509 1 0.5843138 0.3647059 0.9921569 0.5843138 0.3647059 0.9921569 0.5764706 0.06274509 1 1 0.07843136 0 0.9921569 0.2862745 0.9803922 0.4509804 0.1411765 1 0 0.1411765 0 0 0.1411765 0 0.5960785 0.1921569 1 0.9921569 0.2862745 0.9803922 0.9921569 0.2862745 0.9803922 0.5960785 0.1921569 1 1 0.04705882 0 0.9921569 0.03529411 0.9803922 0.5568628 0.1960784 1 0 0.02352941 0 0 0.02352941 0 0.4784314 0 1 0.9921569 0.03529411 0.9803922 1 0.0117647 0 0.5568628 0.1960784 1 0.9921569 0.03529411 0.9803922 0.4784314 0.0862745 1 1 0.1647059 1 0.04313725 0.172549 0 1 0.01568627 0 0.5725491 0.1490196 1 0.04313725 0.172549 0 0.04313725 0.172549 0 1 0.1647059 1 1 0.01568627 0</float_array>
          <technique_common>
            <accessor source="#broadfern8-mesh-colors-array" count="78" stride="3">
              <param name="R" type="float"/>
              <param name="G" type="float"/>
              <param name="B" type="float"/>
            </accessor>
          </technique_common>
        </source>
        <vertices id="broadfern8-mesh-vertices">
          <input semantic="POSITION" source="#broadfern8-mesh-positions"/>
        </vertices>
        <polylist material="broadfern_01-material" count="26">
          <input semantic="VERTEX" source="#broadfern8-mesh-vertices" offset="0"/>
          <input semantic="NORMAL" source="#broadfern8-mesh-normals" offset="1"/>
          <input semantic="TEXCOORD" source="#broadfern8-mesh-map-0" offset="2" set="0"/>
          <input semantic="COLOR" source="#broadfern8-mesh-colors" offset="3"/>
          <vcount>3 3 3 3 3 3 3 3 3 3 3 3 3 3 3 3 3 3 3 3 3 3 3 3 3 3 </vcount>
          <p>4 0 0 0 1 1 1 1 2 2 2 2 2 2 3 3 0 3 4 4 4 0 5 5 4 0 6 6 0 3 7 7 3 4 8 8 8 5 9 9 6 6 10 10 9 7 11 11 5 8 12 12 7 9 13 13 9 7 14 14 10 10 15 15 8 5 16 16 9 7 17 17 9 7 18 18 7 9 19 19 10 10 20 20 13 11 21 21 11 12 22 22 12 13 23 23 12 13 24 24 11 12 25 25 14 14 26 26 17 15 27 27 15 16 28 28 16 17 29 29 16 17 30 30 15 16 31 31 18 18 32 32 20 19 33 33 21 20 34 34 22 21 35 35 22 21 36 36 21 20 37 37 19 22 38 38 25 23 39 39 23 24 40 40 24 25 41 41 24 25 42 42 23 24 43 43 26 26 44 44 29 27 45 45 27 28 46 46 28 29 47 47 28 29 48 48 27 28 49 49 30 30 50 50 35 31 51 51 32 32 52 52 33 33 53 53 33 33 54 54 31 34 55 55 35 31 56 56 35 31 57 57 31 34 58 58 34 35 59 59 40 36 60 60 37 37 61 61 38 38 62 62 38 38 63 63 36 39 64 64 40 36 65 65 39 40 66 66 37 37 67 67 40 36 68 68 41 41 69 69 42 42 70 70 44 43 71 71 45 44 72 72 43 45 73 73 44 43 74 74 44 43 75 75 42 42 76 76 45 44 77 77</p>
        </polylist>
      </mesh>
      <extra><technique profile="MAYA"><double_sided>1</double_sided></technique></extra>
    </geometry>
  </library_geometries>
  <library_visual_scenes>
    <visual_scene id="Scene" name="Scene">
      <node id="Hemi" name="Hemi" type="NODE">
        <translate sid="location">13.26591 8.842865 2.098701</translate>
        <rotate sid="rotationZ">0 0 1 0</rotate>
        <rotate sid="rotationY">0 1 0 0</rotate>
        <rotate sid="rotationX">1 0 0 0</rotate>
        <scale sid="scale">1 1 1</scale>
        <instance_light url="#Hemi-light"/>
      </node>
      <node id="base01" name="base01" type="NODE">
        <translate sid="location">0 0 0</translate>
        <rotate sid="rotationZ">0 0 1 0</rotate>
        <rotate sid="rotationY">0 1 0 0</rotate>
        <rotate sid="rotationX">1 0 0 0</rotate>
        <scale sid="scale">1 1 1</scale>
        <node id="start01" name="start01" type="NODE">
          <translate sid="location">0 0 0</translate>
          <rotate sid="rotationZ">0 0 1 0</rotate>
          <rotate sid="rotationY">0 1 0 0</rotate>
          <rotate sid="rotationX">1 0 0 0</rotate>
          <scale sid="scale">1 1 1</scale>
          <node id="broadfern128" name="broadfern128" type="NODE">
            <translate sid="location">0 0 0</translate>
            <rotate sid="rotationZ">0 0 1 0</rotate>
            <rotate sid="rotationY">0 1 0 0</rotate>
            <rotate sid="rotationX">1 0 0 0</rotate>
            <scale sid="scale">0.439215 0.439215 0.439215</scale>
            <instance_geometry url="#broadfern128-mesh">
              <bind_material>
                <technique_common>
                  <instance_material symbol="broadfern_01-material" target="#broadfern_01-material">
                    <bind_vertex_input semantic="UVMap" input_semantic="TEXCOORD" input_set="0"/>
                  </instance_material>
                </technique_common>
              </bind_material>
            </instance_geometry>
          </node>
          <node id="broadfern8" name="broadfern8" type="NODE">
            <translate sid="location">0 0 0</translate>
            <rotate sid="rotationZ">0 0 1 0</rotate>
            <rotate sid="rotationY">0 1 0 0</rotate>
            <rotate sid="rotationX">1 0 0 0</rotate>
            <scale sid="scale">0.439215 0.439215 0.439215</scale>
            <instance_geometry url="#broadfern8-mesh">
              <bind_material>
                <technique_common>
                  <instance_material symbol="broadfern_01-material" target="#broadfern_01-material">
                    <bind_vertex_input semantic="UVMap" input_semantic="TEXCOORD" input_set="0"/>
                  </instance_material>
                </technique_common>
              </bind_material>
            </instance_geometry>
          </node>
        </node>
        <node id="detail8" name="detail8" type="NODE">
          <translate sid="location">0 0 0</translate>
          <rotate sid="rotationZ">0 0 1 0</rotate>
          <rotate sid="rotationY">0 1 0 0</rotate>
          <rotate sid="rotationX">1 0 0 0</rotate>
          <scale sid="scale">1 1 1</scale>
        </node>
        <node id="detail128" name="detail128" type="NODE">
          <translate sid="location">0 0 0</translate>
          <rotate sid="rotationZ">0 0 1 0</rotate>
          <rotate sid="rotationY">0 1 0 0</rotate>
          <rotate sid="rotationX">1 0 0 0</rotate>
          <scale sid="scale">1 1 1</scale>
        </node>
        <node id="nulldetail0" name="nulldetail0" type="NODE">
          <translate sid="location">0 0 0</translate>
          <rotate sid="rotationZ">0 0 1 0</rotate>
          <rotate sid="rotationY">0 1 0 0</rotate>
          <rotate sid="rotationX">1 0 0 0</rotate>
          <scale sid="scale">1 1 1</scale>
        </node>
      </node>
    </visual_scene>
  </library_visual_scenes>
  <scene>
    <instance_visual_scene url="#Scene"/>
  </scene>
</COLLADA>