<?xml version="1.0" encoding="utf-8"?>
<COLLADA xmlns="http://www.collada.org/2005/11/COLLADASchema" version="1.4.1">
  <asset>
    <contributor>
      <author>Blender User</author>
      <authoring_tool>Blender 2.71.0 commit date:2014-06-25, commit time:18:36, hash:9337574</authoring_tool>
    </contributor>
    <created>2014-10-23T23:29:49</created>
    <modified>2014-10-23T23:29:49</modified>
    <unit name="meter" meter="1"/>
    <up_axis>Z_UP</up_axis>
  </asset>
  <library_cameras>
    <camera id="Camera-camera" name="Camera">
      <optics>
        <technique_common>
          <perspective>
            <xfov sid="xfov">49.13434</xfov>
            <aspect_ratio>1.777778</aspect_ratio>
            <znear sid="znear">0.1</znear>
            <zfar sid="zfar">100</zfar>
          </perspective>
        </technique_common>
      </optics>
      <extra>
        <technique profile="blender">
          <YF_dofdist>0</YF_dofdist>
          <shiftx>0</shiftx>
          <shifty>0</shifty>
        </technique>
      </extra>
    </camera>
  </library_cameras>
  <library_lights>
    <light id="Lamp-light" name="Lamp">
      <technique_common>
        <directional>
          <color sid="color">1 1 1</color>
        </directional>
      </technique_common>
      <extra>
        <technique profile="blender">
          <adapt_thresh>0.000999987</adapt_thresh>
          <area_shape>0</area_shape>
          <area_size>1</area_size>
          <area_sizey>1</area_sizey>
          <area_sizez>1</area_sizez>
          <atm_distance_factor>1</atm_distance_factor>
          <atm_extinction_factor>1</atm_extinction_factor>
          <atm_turbidity>2</atm_turbidity>
          <att1>0</att1>
          <att2>1</att2>
          <backscattered_light>1</backscattered_light>
          <bias>1</bias>
          <blue>1</blue>
          <buffers>1</buffers>
          <bufflag>0</bufflag>
          <bufsize>2880</bufsize>
          <buftype>2</buftype>
          <clipend>30.002</clipend>
          <clipsta>1.000799</clipsta>
          <compressthresh>0.04999995</compressthresh>
          <dist sid="blender_dist">29.99998</dist>
          <energy sid="blender_energy">1</energy>
          <falloff_type>2</falloff_type>
          <filtertype>0</filtertype>
          <flag>0</flag>
          <gamma sid="blender_gamma">1</gamma>
          <green>1</green>
          <halo_intensity sid="blnder_halo_intensity">1</halo_intensity>
          <horizon_brightness>1</horizon_brightness>
          <mode>8192</mode>
          <ray_samp>1</ray_samp>
          <ray_samp_method>1</ray_samp_method>
          <ray_samp_type>0</ray_samp_type>
          <ray_sampy>1</ray_sampy>
          <ray_sampz>1</ray_sampz>
          <red>1</red>
          <samp>3</samp>
          <shadhalostep>0</shadhalostep>
          <shadow_b sid="blender_shadow_b">0</shadow_b>
          <shadow_g sid="blender_shadow_g">0</shadow_g>
          <shadow_r sid="blender_shadow_r">0</shadow_r>
          <sky_colorspace>0</sky_colorspace>
          <sky_exposure>1</sky_exposure>
          <skyblendfac>1</skyblendfac>
          <skyblendtype>1</skyblendtype>
          <soft>3</soft>
          <spotblend>0.15</spotblend>
          <spotsize>75</spotsize>
          <spread>1</spread>
          <sun_brightness>1</sun_brightness>
          <sun_effect_type>0</sun_effect_type>
          <sun_intensity>1</sun_intensity>
          <sun_size>1</sun_size>
          <type>1</type>
        </technique>
      </extra>
    </light>
  </library_lights>
  <library_images>
    <image id="Wood_jpg" name="Wood_jpg">
      <init_from>Wood.jpg</init_from>
    </image>
  </library_images>
  <library_effects>
    <effect id="Wood2-effect">
      <profile_COMMON>
        <newparam sid="Wood_jpg-surface">
          <surface type="2D">
            <init_from>Wood_jpg</init_from>
          </surface>
        </newparam>
        <newparam sid="Wood_jpg-sampler">
          <sampler2D>
            <source>Wood_jpg-surface</source>
          </sampler2D>
        </newparam>
        <technique sid="common">
          <phong>
            <emission>
              <color sid="emission">0 0 0 1</color>
            </emission>
            <ambient>
              <color sid="ambient">0 0 0 1</color>
            </ambient>
            <diffuse>
              <texture texture="Wood_jpg-sampler"/>
            </diffuse>
            <specular>
              <color sid="specular">0.08 0.08 0.08 1</color>
            </specular>
            <shininess>
              <float sid="shininess">50</float>
            </shininess>
            <index_of_refraction>
              <float sid="index_of_refraction">1</float>
            </index_of_refraction>
          </phong>
          <extra>
            <technique profile="FCOLLADA">
              <bump>
                <texture texture="Wood_jpg-sampler"/>
              </bump>
            </technique>
          </extra>
        </technique>
        <extra>
          <technique profile="GOOGLEEARTH">
            <double_sided>1</double_sided>
          </technique>
        </extra>
      </profile_COMMON>
      <extra><technique profile="MAX3D"><double_sided>1</double_sided></technique></extra>
    </effect>
  </library_effects>
  <library_materials>
    <material id="Wood2-material" name="Wood2">
      <instance_effect url="#Wood2-effect"/>
    </material>
  </library_materials>
  <library_geometries>
    <geometry id="Outhouse-mesh" name="Outhouse">
      <mesh>
        <source id="Outhouse-mesh-positions">
          <float_array id="Outhouse-mesh-positions-array" count="618">0 -0.0296033 -0.2148025 0 0.0296033 -0.2148025 0.1518883 -0.0296033 -0.1518883 0.1518883 0.0296033 -0.1518883 0.2148025 -0.0296033 0 0.2148025 0.0296033 0 0.1518883 -0.0296033 0.1518883 0.1518883 0.0296033 0.1518883 0 -0.0296033 0.2148025 0 0.0296033 0.2148025 -0.1518883 -0.0296033 0.1518883 -0.1518883 0.0296033 0.1518883 -0.2148025 -0.0296033 0 -0.2148025 0.0296033 0 -0.1518883 -0.0296033 -0.1518883 -0.1518883 0.0296033 -0.1518883 0.5703558 -0.7603027 -0.3846648 0.5703558 -0.7603026 0.7560467 -0.5703558 -0.7603026 0.7560466 -0.5703555 -0.7603027 -0.384665 0.570356 0.8513177 -0.3846646 0.5703554 1.140884 0.7560469 -0.570356 1.140884 0.7560464 -0.5703557 0.8513177 -0.3846649 0.3989412 -0.7603027 -0.384665 -0.3989407 -0.7603027 -0.3846651 0.398941 -0.7603026 0.7560468 -0.3989412 -0.7603026 0.7560468 0.3989414 0.8513177 -0.3846648 -0.3989408 0.8513177 -0.3846649 0.3989404 1.140884 0.7560468 -0.3989416 1.140884 0.7560467 0.5703558 -0.5630596 -0.3846648 0.5703558 -0.5630595 0.7560467 -0.5703559 -0.5630595 0.7560466 -0.5703557 -0.5630596 -0.3846651 0.398941 -0.5630595 0.7560468 -0.3989412 -0.5630595 0.7560468 0.3989413 -0.5630596 -0.3846651 -0.3989408 -0.5630596 -0.3846651 -0.5703558 0.7791108 -0.384665 -0.570356 1.024424 0.7560465 0.5703555 1.024424 0.7560469 0.570356 0.7791108 -0.3846647 -0.3989415 1.024424 0.7560467 0.3989406 1.024424 0.7560469 -0.3989409 0.7791108 -0.384665 0.3989415 0.7791108 -0.384665 0.3161251 0.2827275 0.8862196 0.3161251 0.2827275 0.8495874 0.3779371 0.2827275 0.8495874 0.3779371 0.2827275 0.8862196 0.3161251 0.4556245 0.8862196 0.3161251 0.4556245 0.8495874 0.3779371 0.4556245 0.8495874 0.3779371 0.4556245 0.8862196 0.3161251 0.4203608 0.8495874 0.3161251 0.321592 0.8495874 0.3161251 0.321592 0.8862196 0.3161251 0.4203608 0.8862196 0.3779371 0.4203608 0.8495874 0.3779371 0.321592 0.8495874 0.3779371 0.4203608 0.8862196 0.3779371 0.321592 0.8862196 0.3161251 0.2827275 0.7821813 0.3779371 0.2827275 0.7821813 0.3161251 0.4556245 0.7821813 0.3779371 0.4556245 0.7821813 0.3161251 0.4203608 0.7821813 0.3161251 0.321592 0.7821813 0.3779371 0.4203608 0.7821813 0.3779371 0.321592 0.7821813 -0.5917108 -0.8142732 0.3760505 0.5917108 -0.8142732 0.3760505 -0.5917108 -0.02225524 0.3760505 -0.5917108 -0.0222553 -0.3957113 0.5917108 -0.0222553 -0.3957113 0.5917108 -0.02225524 0.3760505 0.4196758 -0.6022145 0.8173378 -0.419676 -0.6022145 0.8173378 -0.4196764 1.067778 0.8173377 0.4196753 1.067778 0.8173379 0.4196758 -0.6022145 0.7843543 -0.419676 -0.6022145 0.7843543 -0.4196764 1.067778 0.7843543 0.4196753 1.067778 0.7843544 -0.4196763 0.7280321 0.8173377 0.4196754 0.7280321 0.8173379 -0.4196763 0.7280321 0.7843543 0.4196754 0.7280321 0.7843544 0.4196754 0.8720412 0.7843544 -0.4196763 0.8720412 0.7843543 0.4196754 0.8720412 0.8173379 -0.4196763 0.8720412 0.8173377 0.06834328 0.8720412 0.7843543 -0.06834411 0.8720412 0.7843543 -0.06834411 0.8720412 0.8173378 0.06834328 0.8720412 0.8173378 0.06834346 -0.6022145 0.8173378 -0.06834393 -0.6022145 0.8173378 0.06834322 1.067778 0.8173378 -0.06834411 1.067778 0.8173378 0.06834346 -0.6022145 0.7843543 -0.06834393 -0.6022145 0.7843543 0.06834322 1.067778 0.7843544 -0.06834411 1.067778 0.7843543 -0.06834405 0.7280321 0.7843543 0.06834328 0.7280321 0.7843543 0.06834328 0.7280321 0.8173378 -0.06834405 0.7280321 0.8173378 0.6821166 0.8648293 -0.496425 0.6821159 1.211136 0.8678075 -0.6821165 1.211136 0.8678069 -0.6821162 0.8648293 -0.4964255 0.6821166 0.9068169 -0.5070835 0.6821159 1.253123 0.8571491 -0.6821165 1.253123 0.8571484 -0.6821162 0.9068169 -0.507084 0.4872261 0.8648293 -0.4964251 0.2923358 0.8648293 -0.4964251 0.0974453 0.8648293 -0.4964252 -0.09744501 0.8648293 -0.4964253 -0.2923355 0.8648293 -0.4964253 -0.4872258 0.8648293 -0.4964255 0.4872255 1.211136 0.8678075 0.2923351 1.211136 0.8678074 0.09744477 1.211136 0.8678073 -0.09744548 1.211136 0.8678072 -0.2923359 1.211136 0.867807 -0.4872261 1.211136 0.867807 0.4872261 0.9068169 -0.5070837 0.2923358 0.9068169 -0.5070837 0.0974453 0.9068169 -0.5070838 -0.09744501 0.9068169 -0.5070839 -0.2923355 0.9068169 -0.5070839 -0.4872258 0.9068169 -0.5070839 0.4872255 1.253123 0.857149 0.2923351 1.253123 0.8571489 0.09744477 1.253123 0.8571488 -0.09744548 1.253123 0.8571487 -0.2923359 1.253123 0.8571486 -0.4872261 1.253123 0.8571485 -0.2923359 1.219087 0.8991283 -0.4872262 1.219087 0.8991282 -0.2923359 1.261074 0.8884698 -0.4872262 1.261074 0.8884698 0.09744477 1.215024 0.883386 -0.09744548 1.215024 0.883386 0.09744477 1.257012 0.8727276 -0.09744548 1.257012 0.8727275 0.4872254 1.22226 0.91163 0.2923351 1.22226 0.9116299 0.4872254 1.264248 0.9009715 0.2923351 1.264248 0.9009715 0.6821166 0.8575997 -0.5249048 0.6821166 0.8995874 -0.5355633 0.4872261 0.8575997 -0.5249048 0.4872261 0.8995874 -0.5355634 0.2923358 0.8620294 -0.5074547 0.0974453 0.8620294 -0.5074548 0.2923358 0.9040171 -0.5181133 0.0974453 0.9040171 -0.5181133 -0.09744501 0.8549931 -0.5287864 -0.2923355 0.8549931 -0.5287864 -0.09744501 0.8969808 -0.5394449 -0.2923355 0.8969808 -0.5394449 0.0974453 0.8637427 -0.5007057 -0.09744501 0.8637427 -0.5007058 0.0974453 0.9057303 -0.5113643 -0.09744501 0.9057303 -0.5113644 -0.2923355 0.8609706 -0.511626 -0.4872258 0.8609706 -0.5116261 -0.2923355 0.9029583 -0.5222845 -0.4872258 0.9029583 -0.5222845 0.5999997 -0.8097093 -0.4143087 0.5999997 -0.8097093 0.7856907 -0.5999998 -0.8097093 0.7856906 -0.5999995 -0.8097093 -0.414309 0.6 0.8856742 -0.4143086 0.5999993 1.190291 0.7856909 -0.6 1.190291 0.7856903 -0.5999997 0.8856742 -0.4143089 0.419676 -0.8097093 -0.414309 -0.4196755 -0.8097093 -0.4143091 0.4196758 -0.8097093 0.7856907 -0.419676 -0.8097093 0.7856907 0.4196762 0.8856742 -0.4143088 -0.4196756 0.8856742 -0.4143089 0.4196751 1.190291 0.7856909 -0.4196764 1.190291 0.7856906 0.5999998 -0.6022146 -0.4143088 0.5999997 -0.6022145 0.7856907 -0.5999999 -0.6022145 0.7856906 -0.5999996 -0.6022146 -0.4143091 0.4196758 -0.6022145 0.7856907 -0.419676 -0.6022145 0.7856907 0.4196761 -0.6022146 -0.4143091 -0.4196755 -0.6022146 -0.4143092 -0.5999997 0.8097144 -0.414309 -0.6 1.067778 0.7856904 0.5999995 1.067778 0.7856909 0.6 0.8097144 -0.4143087 -0.4196764 1.067778 0.7856907 0.4196753 1.067778 0.7856909 -0.4196756 0.8097144 -0.414309 0.4196763 0.8097144 -0.4143089</float_array>
          <technique_common>
            <accessor source="#Outhouse-mesh-positions-array" count="206" stride="3">
              <param name="X" type="float"/>
              <param name="Y" type="float"/>
              <param name="Z" type="float"/>
            </accessor>
          </technique_common>
        </source>
        <source id="Outhouse-mesh-normals">
          <float_array id="Outhouse-mesh-normals-array" count="1038">0.3826834 0 -0.9238795 0.9238796 0 -0.3826833 0.9238796 0 0.3826835 0.3826833 0 0.9238796 -0.3826835 0 0.9238795 -0.9238796 0 0.3826833 0 1 0 -0.3826835 0 -0.9238796 -0.9238796 0 -0.3826833 -1 -1.53541e-6 -1.85014e-7 1.39089e-6 -1.02361e-6 -1 1 -8.25471e-7 3.86529e-7 3.47722e-7 3.02189e-7 1 3.47721e-7 -5.11804e-7 -1 2.24111e-7 -5.11804e-7 -1 -1.39089e-6 3.0219e-7 1 0 3.02189e-7 1 -1 0 0 1.04317e-6 0 -1 1 6.04378e-7 2.61261e-7 0 0 1 -3.47722e-7 0 -1 0 0 -1 -1.39089e-6 0 1 0 0 1 0 -1.65094e-6 1 -1 -1.50186e-7 -3.85719e-7 0 -1.65094e-6 1 1 0 2.09009e-7 1.04317e-6 0 -1 -1.39089e-6 -1.65094e-6 1 0 0 -1 -1 0 0 0 -1 0 1 0 0 0 0 1 0 -1 0 0 1 0 -1 0 0 -1 0 0 0 1 0 0 0 -1 1 0 0 1 0 0 0 0 1 0 0 1 1 0 0 -1 0 0 0 -1 0 1 0 0 -1 0 0 0 1 0 0 0 1 0 1 0 -3.39306e-7 0 1 0 0 -1 0 -1 0 -1 -2.01632e-7 0 1 2.91247e-7 0 0 1 0 -3.39306e-7 0 1 0 0 -1 -1 -2.06947e-7 0 1 2.06947e-7 0 -3.39306e-7 0 1 0 1 0 1 4.56772e-7 0 0 0 -1 0 1 0 0 -1 0 -3.39307e-7 0 1 -1 -1.52257e-7 0 0 0 1 8.72131e-7 0 -1 0 -1 0 0 6.09029e-7 -1 -3.39307e-7 0 1 0 0 1 3.39306e-7 0 -1 0 0 -1 -3.39307e-7 0 1 0 1 0 3.39307e-7 0 -1 1 1.55211e-7 -4.51776e-7 -1 0 2.25888e-7 0 -1 0 -1.50498e-7 -0.9692589 0.2460436 0 0.9692588 -0.2460436 -2.96435e-7 0.2460435 0.9692588 -1 0 -2.0523e-7 1 1.35452e-7 5.33599e-7 0 -0.2460441 -0.9692587 0 -0.9692588 0.2460435 0 -0.9692588 0.2460435 -1.50498e-7 -0.9692589 0.2460435 -1.50498e-7 -0.9692589 0.2460436 -1.50498e-7 -0.9692589 0.2460436 0 -0.9692588 0.2460436 1.50498e-7 0.9692587 -0.2460435 0 0.9692588 -0.2460435 1.50498e-7 0.9692588 -0.2460435 0 0.9692589 -0.2460436 1.50498e-7 0.9692588 -0.2460435 0 0.9692588 -0.2460436 -5.9287e-7 0.2460435 0.9692588 1 3.24365e-7 1.2778e-6 -2.96435e-7 0.2460435 0.9692587 -1 2.2834e-7 8.99512e-7 -5.9287e-7 0.2460435 0.9692588 1 0 0 1 0 0 2.96435e-7 -0.2460467 -0.9692581 -1.50497e-7 -0.9692591 0.2460422 0 -0.9692585 0.2460448 -1 0 0 1 0 0 -2.96435e-7 0.2460435 0.9692588 0 -0.9692592 0.2460425 -1 -4.5383e-7 -1.78781e-6 1.50498e-7 0.969259 -0.2460429 -5.9287e-7 0.2460448 0.9692584 1.48122e-7 0.9702368 -0.2421582 1 0 -4.49758e-7 0 -0.9702368 0.2421582 -2.96435e-7 0.2460435 0.9692588 0 -0.9692586 0.2460442 -1 0 0 1.50499e-7 0.9692586 -0.2460442 2.96435e-7 -0.246046 -0.9692581 0 -0.9692587 0.2460439 1.50498e-7 0.9692587 -0.2460436 -1 0 0 2.96435e-7 -0.246046 -0.9692581 1 0 0 1.50498e-7 0.969259 -0.2460428 -1 0 0 0 -0.2460448 -0.9692584 0 -0.95678 0.290813 1 0 0 0 0.9567798 -0.2908133 2.96435e-7 -0.2460448 -0.9692584 1 0 0 0 0.9692581 -0.2460464 -1 0 0 5.9287e-7 -0.2460421 -0.9692591 0 0.9692587 -0.246044 -1 0 0 -1.50498e-7 -0.9692587 0.2460436 1 1.45955e-6 2.25543e-7 -1.65271e-6 4.86517e-7 1 -1 4.86517e-7 -3.71854e-7 -3.30542e-7 -2.87259e-7 -1 -3.30542e-7 4.86517e-7 1 -2.84051e-7 4.86518e-7 1 1.65271e-6 -2.8726e-7 -1 0 -2.87259e-7 -1 1 0 0 -9.91627e-7 0 1 -1 -5.74517e-7 -1.98682e-7 -3.30542e-7 1.26645e-7 -1 3.30542e-7 0 1 0 0 1 1.65271e-6 0 -1 0 1.26645e-7 -1 0 1.56937e-6 -1 1 1.42766e-7 4.16333e-7 0 1.56937e-6 -1 -1 0 -2.25326e-7 -1.32217e-6 0 1 1.32217e-6 1.56937e-6 -1 0 0 1 0.3826834 0 -0.9238795 0.9238796 0 -0.3826833 0.9238796 0 0.3826835 0.3826833 0 0.9238796 -0.3826836 0 0.9238795 -0.9238796 0 0.3826833 0 1 0 0 1 0 0 1 0 -0.3826835 0 -0.9238795 0 1 0 0 1 0 -0.9238796 0 -0.3826833 -1 0 -4.18017e-7 1.73861e-6 -5.11804e-7 -1 1 -5.11804e-7 3.38929e-7 3.47722e-7 3.02189e-7 1 0 0 -1 2.24111e-7 -5.11804e-7 -1 -1.39089e-6 3.02189e-7 1 0 3.02189e-7 1 -1 3.02189e-7 0 1.04317e-6 0 -1 1 3.02189e-7 2.09009e-7 3.47722e-7 0 1 -3.47722e-7 0 -1 0 0 -1 -1.39089e-6 0 1 0 0 1 0 -1.65094e-6 1 -1 1.33227e-7 0 0 -1.65094e-6 1 1 0 1.9286e-7 1.39089e-6 0 -1 -1.39089e-6 -1.65094e-6 1 -3.47722e-7 0 -1 -1 0 0 0 -1 0 1 0 0 0 0 1 0 -1 0 0 1 0 -1 0 0 -1 0 0 0 1 0 0 0 -1 1 0 0 1 0 0 0 0 1 0 0 1 1 0 0 -1 0 0 0 -1 0 1 0 0 -1 0 0 0 1 0 0 0 1 0 1 0 -3.39306e-7 0 1 0 0 -1 0 -1 0 -1 -2.01632e-7 0 1 2.91247e-7 0 0 1 0 0 0 1 0 0 -1 -1 -2.06947e-7 0 1 2.06947e-7 0 -3.39306e-7 0 1 0 1 0 1 4.56772e-7 0 0 0 -1 0 1 0 0 -1 0 -3.39307e-7 0 1 -1 -1.52257e-7 0 0 0 1 0 6.09029e-7 -1 0 -1 0 3.39307e-7 0 -1 0 -1.34422e-7 1 0 0 1 0 0 -1 0 0 -1 -3.39307e-7 0 1 0 1 0 3.39306e-7 0 -1 1 0 -2.25888e-7 -1 0 2.25888e-7 0 -1 0 0 -0.9692588 0.2460436 0 0.9692588 -0.2460436 -5.92934e-7 0.2460448 0.9692585 -1 0 -2.0523e-7 1 1.35454e-7 5.33598e-7 2.96467e-7 -0.2460428 -0.969259 0 -0.9692587 0.2460435 0 -0.9692589 0.2460436 -1.50498e-7 -0.9692588 0.2460435 0 -0.9692588 0.2460436 0 -0.9692588 0.2460436 -1.50498e-7 -0.9692589 0.2460436 0 0.9692588 -0.2460435 0 0.9692588 -0.2460435 0 0.9692588 -0.2460435 0 0.9692588 -0.2460435 0 0.9692589 -0.2460436 3.25936e-7 0.9692588 -0.2460436 -2.96467e-7 0.2460422 0.9692592 1 3.24365e-7 1.2778e-6 -5.92934e-7 0.2460448 0.9692584 -1 2.28339e-7 8.99515e-7 -5.92934e-7 0.2460435 0.9692588 1 0 0 1 0 0 0 -0.2460454 -0.9692584 0 -0.9692589 0.2460435 -1.50497e-7 -0.9692593 0.2460415 -1 0 0 1 0 0 -5.92934e-7 0.2460448 0.9692585 -1.52502e-7 -0.9692589 0.2460429 -1 -4.53831e-7 -1.7878e-6 0 0.9692591 -0.2460425 -2.96467e-7 0.2460435 0.9692587 1.48808e-7 0.9702368 -0.2421582 1 0 -4.49758e-7 -1.48121e-7 -0.970237 0.2421573 -2.96467e-7 0.2460435 0.9692588 0 -0.9692587 0.2460442 -1 0 0 0 0.9692587 -0.2460439 0 -0.2460448 -0.9692584 0 -0.9692586 0.2460443 0 0.9692587 -0.2460441 -1 0 0 2.96435e-7 -0.246046 -0.9692581 1 0 0 0 0.9692587 -0.246044 -1 0 0 2.96435e-7 -0.246046 -0.9692581 0 -0.95678 0.290813 1 0 0 0 0.9567798 -0.2908133 5.92869e-7 -0.246046 -0.9692581 1 0 0 0 0.9692581 -0.2460464 -1 0 0 0 -0.2460448 -0.9692585 0 0.9692587 -0.246044 -1 0 0 -1.50498e-7 -0.9692589 0.2460436 1 0 4.47035e-7 -1.32217e-6 9.73036e-7 1 -1 7.84687e-7 -4.17102e-7 -3.30542e-7 -2.87259e-7 -1 0 0 1 -2.84051e-7 4.86517e-7 1 1.65271e-6 -2.87259e-7 -1 0 -2.87259e-7 -1 1 -2.87259e-7 0 -9.91627e-7 0 1 -1 -2.87259e-7 -2.48353e-7 0 0 -1 3.30542e-7 0 1 0 0 1 1.32217e-6 1.26645e-7 -1 0 1.26645e-7 -1 0 1.56937e-6 -1 1 -1.6886e-7 0 0 1.56937e-6 -1 -1 0 -1.98682e-7 -9.91627e-7 0 1 1.32217e-6 1.56937e-6 -1 3.30542e-7 -1.42766e-7 1</float_array>
          <technique_common>
            <accessor source="#Outhouse-mesh-normals-array" count="346" stride="3">
              <param name="X" type="float"/>
              <param name="Y" type="float"/>
              <param name="Z" type="float"/>
            </accessor>
          </technique_common>
        </source>
        <source id="Outhouse-mesh-map-0">
          <float_array id="Outhouse-mesh-map-0-array" count="2076">0.46576 0.5743073 0.4734538 0.554063 0.5313293 0.5543488 0.5391962 0.5743073 0.5313293 0.5543488 0.5734585 0.5144054 0.5734585 0.5144054 0.5693719 0.4554988 0.5883364 0.4463881 0.5883364 0.4463881 0.5693719 0.4554988 0.5265461 0.4156754 0.5342399 0.3954311 0.5265461 0.4156754 0.4686706 0.4153895 0.4608037 0.395431 0.4686706 0.4153895 0.4265414 0.4553329 0.5693719 0.4554988 0.5734585 0.5144054 0.4734538 0.554063 0.4116635 0.5233502 0.430628 0.5142396 0.4734538 0.554063 0.4077708 0.4477668 0.4265414 0.4553329 0.430628 0.5142396 -0.2173345 0.03202921 -0.2644073 0.03201252 -0.147525 0.5048585 0.8785386 0.5016372 0.8785388 0.5726855 0.9256113 0.5726855 -0.1628546 1.0744 -0.06370031 0.6015955 -0.09288603 0.6015956 1.130203 1.003352 1.130203 1.0744 1.209927 1.0744 0.8785379 0.1709296 0.9256103 0.1709296 0.9256104 0.09988081 0.8785386 0.5016372 0.9256111 0.5016371 0.9256103 0.1709296 1.130203 0.6726438 1.209927 0.6726438 1.209927 0.6015955 1.130203 1.003352 1.209927 1.003352 1.209927 0.6726438 0.5040404 0.03228479 0.4243159 0.03225654 0.4241569 0.5050608 0.1571635 0.5726864 0.2368881 0.5726862 0.2368881 0.501638 0.5585205 1.0744 0.5585205 0.6015955 0.478796 0.6015955 0.5877063 1.003352 0.5877063 1.0744 1.130203 1.0744 0.1571632 0.1709304 0.2368875 0.1709302 0.2368875 0.09988176 0.1571635 0.5016381 0.2368881 0.501638 0.2368875 0.1709302 0.5877063 0.6726438 1.130203 0.6726438 1.130203 0.6015955 0.5877063 0.6726438 0.5877063 1.003352 1.130203 1.003352 0.5585208 0.6726438 0.5585207 1.003352 0.5877063 1.003352 0.4243159 0.03225654 -0.2173345 0.03202921 -0.1183394 0.5048689 0.5585204 1.0744 0.5877063 1.0744 0.5877063 1.003352 0.478796 1.0744 0.478796 0.6015955 -0.06370031 0.6015955 0.2368881 0.501638 0.2368881 0.5726862 0.8785388 0.5726855 0.5585208 0.6015957 0.5585208 0.6726438 0.5877063 0.6726438 0.2368875 0.1709302 0.8785379 0.1709296 0.8785378 0.09988081 0.4755085 0.4172988 0.4611505 0.4173428 0.4611038 0.4021099 0.5409637 0.4963269 0.5167365 0.4964013 0.5166553 0.4699814 0.4900744 0.4173799 0.4757164 0.4174239 0.4756697 0.4021909 0.5168166 0.4546743 0.5410438 0.4545999 0.5410905 0.4698328 0.5167805 0.5107593 0.5167365 0.4964013 0.5409637 0.4963269 0.4756697 0.5107358 0.4757137 0.4963777 0.4999409 0.496452 0.4756697 0.4698328 0.4613117 0.4698769 0.4612693 0.4560553 0.4756273 0.4560112 0.4612693 0.4560553 0.4611505 0.4173428 0.5103614 0.5141513 0.4861341 0.5142256 0.4860532 0.4878059 0.4755509 0.5087447 0.4513236 0.5086704 0.4514424 0.469958 0.4902356 0.4699139 0.4758776 0.469958 0.4758352 0.4561363 0.4901931 0.4560922 0.4758352 0.4561363 0.4757164 0.4174239 0.5166553 0.4021402 0.5408826 0.4020659 0.540925 0.4158875 0.5166978 0.4159618 0.540925 0.4158875 0.5410438 0.4545999 0.516613 0.4560112 0.5166553 0.4698328 0.4902356 0.4699139 0.4612693 0.4560553 0.4613117 0.4698769 0.4348919 0.469958 0.565316 0.4963269 0.5410888 0.4964013 0.5410078 0.4699814 0.4900744 0.4173799 0.4900277 0.4021469 0.5164475 0.4020659 0.4347307 0.4174239 0.434684 0.4021909 0.4611038 0.4021099 0.4999409 0.496452 0.4757137 0.4963777 0.4757948 0.469958 0.6102907 0.5042354 0.1276944 0.5042354 0.1276944 0.1730312 0.6102907 0.5042354 0.6102905 0.8269688 0.1276944 0.8269687 0.7399781 0.9282333 0.9350845 0.9288319 0.935418 0.8201329 0.4664532 0.1086991 0.4661198 0 0.2710133 5.98558e-4 0.9994015 0.2710135 0.9810847 0.2710697 0.9816831 0.466176 0.9596702 0.7387298 0.977987 0.7387861 0.9802533 5.6271e-5 0.9401958 0.7387861 0.9585126 0.7387298 0.9562462 0 0.9810846 0.7372455 0.9816831 0.9323519 0.9999999 0.9322956 0.7405569 0.7395613 0.9356634 0.7401598 0.9379295 0.001429975 0.4689648 0.927402 0.4666985 0.1886721 0.2715921 0.1892707 0.9594248 0.8187028 0.9777416 0.818759 0.977987 0.7387861 0.9404412 0.8187589 0.9587579 0.8187028 0.9585126 0.7387298 0.7403116 0.8195342 0.935418 0.8201329 0.9356634 0.7401598 0.9802533 0.4662322 0.9808518 0.6613385 0.9991686 0.6612823 0.9407746 0.9274581 0.9590914 0.9274019 0.9587579 0.8187028 0.4666985 0.1886721 0.4664532 0.1086991 0.2713468 0.1092976 0.9808518 0.6613385 0.9810846 0.7372455 0.9994015 0.7371893 0.9991686 0.1951064 0.9808518 0.1951626 0.9810847 0.2710697 0.4689648 0.927402 0.6640711 0.9280005 0.6644045 0.8193014 0.9590914 0.927402 0.9774081 0.9274581 0.9777416 0.818759 0.6640711 0.9280005 0.7399781 0.9282333 0.7403116 0.8195342 0.2713468 0.1092976 0.2710133 5.98558e-4 0.1951063 8.31487e-4 0.9985701 0 0.9802533 5.62213e-5 0.9808518 0.1951626 0.1954398 0.1095306 0.1951063 8.31487e-4 0 0.001429975 0.4695435 0.7387298 0.6646499 0.7393284 0.6669161 5.98558e-4 0.6669161 5.98558e-4 0.6646499 0.7393284 0.7405569 0.7395613 0.1979513 0.9282334 0.1956851 0.1895036 5.78764e-4 0.1901021 0.1979513 0.9282334 0.2738584 0.9280005 0.2715921 0.1892707 0.4692983 0.8187028 0.6644045 0.8193014 0.6646499 0.7393284 0.4875145 1.004739 0.4872817 0.9288319 0.4689648 0.9288881 0.1956851 0.1895036 0.1954398 0.1095306 3.33439e-4 0.1101291 0.961691 0.9275143 0.9619364 1.007487 0.9802533 1.007431 0.9562463 1.007487 0.9564917 0.9275144 0.9381749 0.9274581 0.9379295 0.9288881 0.9196126 0.9288319 0.9193798 1.004739 0.9426625 0.4969676 0.9426625 0.9652926 0.8794251 0.9652926 0.7857513 0.4622883 0.8489888 0.4622883 0.8489886 0.9306135 0.5140556 0.4223434 0.5140557 0.4871903 0.4999995 0.4871903 0.8934815 0.4969676 0.8934815 0.02863466 0.9075374 0.02863466 0.8934815 0.4969676 0.8794251 0.4969676 0.8794251 0.0286495 0.436762 0.420866 0.436762 0.4857128 0.4227059 0.4857128 0.4999994 0.9652925 0.436762 0.9652925 0.4367623 0.4969666 0.3102872 0.9502487 0.2470498 0.9502487 0.2470498 0.4819227 0.8161876 0.4969668 0.8161876 0.9652925 0.7529503 0.9652925 0.6897124 0.4916242 0.6897128 0.9599498 0.6264755 0.9599499 0.3735247 0.4969669 0.3735244 0.9652925 0.3102872 0.9652925 0.120575 0.4862149 0.1205748 0.9545402 0.05733758 0.9545402 0.4830905 0.503903 0.5463278 0.503903 0.5463278 0.9722283 0.248067 0.374418 0.3113043 0.374418 0.3113044 0.8427436 0.7133858 0.4484163 0.776623 0.4484164 0.776623 0.9167418 0.5598551 0.3841193 0.6230925 0.3841192 0.6230932 0.8524447 0.5449804 0.4206731 0.5449803 0.8889985 0.481743 0.8889985 0.1679205 0.4654073 0.2311578 0.4654074 0.2311578 0.9337327 0.4508181 0.4223429 0.4508181 0.4871898 0.436762 0.4871898 0.3454124 0.4857128 0.3454124 0.470669 0.3594685 0.470669 0.3875808 0.420866 0.3875808 0.4857128 0.3735247 0.4857128 0.2962311 0.4819227 0.2962102 0.4765801 0.3102663 0.4765802 0.4016368 0.420866 0.4016368 0.4857128 0.3875808 0.4857128 0.2470498 0.4819231 0.2329937 0.4819231 0.2329937 0.4711709 0.2189375 0.4721463 0.2329937 0.4721463 0.2329937 0.4819231 0.4859433 0.4871898 0.4718873 0.4871898 0.4718873 0.4223428 0.8161876 0.4931806 0.8161876 0.4969668 0.7529502 0.4969668 0.6897124 0.4901548 0.6897124 0.4916242 0.626475 0.4916242 0.3359205 0.471299 0.3359205 0.4857128 0.3249576 0.4851899 0.2611268 0.4767045 0.2751829 0.4767045 0.2751829 0.4819227 0.5281118 0.4223436 0.5281118 0.4871903 0.5140557 0.4871903 0.05733758 0.9545402 0.1205748 0.9545402 0.1205748 0.9652923 0.1983783 0.4675092 0.2088637 0.4675092 0.2088637 0.4819231 0.1679205 0.944485 0.1679205 0.9337327 0.2311578 0.9337327 0.4227059 0.420866 0.4227059 0.4857128 0.4086498 0.4857128 0.6230932 0.8577874 0.5598559 0.8577874 0.5598559 0.8524448 0.2611059 0.4819227 0.2470498 0.4819226 0.2470707 0.4765801 0.6897128 0.9599498 0.6897128 0.9652925 0.6264755 0.9652925 0.3735247 0.4208658 0.3735247 0.4857128 0.3594686 0.4857128 0.2470498 0.9502487 0.3102872 0.9502487 0.3102872 0.9652925 0.3249576 0.4857128 0.3102872 0.4857128 0.3102872 0.4712989 0.2480671 0.8577874 0.2480671 0.8427436 0.3113044 0.8427436 0.5421679 0.4871903 0.5281118 0.4871903 0.5281118 0.4223434 0.4999995 0.4871899 0.4999994 0.4969666 0.4367623 0.4969666 0.5463278 0.503903 0.4830905 0.503903 0.4830906 0.4941262 0.2183977 0.4819231 0.2088637 0.4819231 0.2088637 0.4675092 0.4999995 0.4871898 0.4859433 0.4871898 0.4859433 0.4223428 0.1065188 0.4772106 0.120575 0.4772106 0.120575 0.4809968 0.776623 0.4484164 0.7133858 0.4484163 0.7133858 0.44463 0.0713936 0.4772106 0.0713936 0.4809968 0.05733746 0.4809968 0.4648743 0.4871898 0.4508181 0.4871898 0.4508181 0.4223428 0.3735247 0.4857128 0.3735247 0.4969669 0.3102874 0.4969669 0.1978684 0.4706811 0.1983783 0.4819231 0.1843222 0.4819231 0.5449804 0.4206731 0.4817431 0.420673 0.4817431 0.409419 0.5562241 0.4871903 0.542168 0.4871903 0.5421679 0.4223434 0.0713936 0.4795274 0.08544975 0.4795274 0.08544975 0.4809968 0.6230925 0.3841192 0.5598551 0.3841193 0.5598551 0.38265 0.1065188 0.4795274 0.1065188 0.4809968 0.09246271 0.4809968 0.5702803 0.4223434 0.5702803 0.4871903 0.5562241 0.4871903 0.1838123 0.4862148 0.120575 0.4862148 0.120575 0.4809967 0.2821542 0.4767045 0.2962102 0.4767045 0.2962102 0.4819227 0.120575 0.4809968 0.120575 0.4862149 0.05733746 0.486215 -0.147525 0.5048585 -0.2644073 0.03201252 -0.2173345 0.03202921 0.8785386 0.5016372 0.9256111 0.5016371 0.9256113 0.5726855 -0.1628546 1.0744 -0.209927 1.0744 -0.09288603 0.6015956 1.130203 1.003352 1.209927 1.003352 1.209927 1.0744 0.9256104 0.09988081 0.9256103 0.1709296 0.8785379 0.1709296 0.9256103 0.1709296 0.9256111 0.5016371 0.8785386 0.5016372 1.209927 0.6015955 1.209927 0.6726438 1.130203 0.6726438 1.209927 0.6726438 1.209927 1.003352 1.130203 1.003352 0.4241569 0.5050608 0.4243159 0.03225654 0.5040404 0.03228479 0.2368881 0.501638 0.2368881 0.5726862 0.1571635 0.5726864 0.478796 1.0744 0.478796 0.6015955 0.5585205 0.6015955 0.5877063 1.003352 1.130203 1.003352 1.130203 1.0744 0.2368875 0.09988176 0.2368875 0.1709302 0.1571632 0.1709304 0.2368875 0.1709302 0.2368881 0.501638 0.1571635 0.5016381 0.5877062 0.6015956 1.130203 0.6015955 1.130203 0.6726438 1.130203 0.6726438 1.130203 1.003352 0.5877063 1.003352 0.5585208 0.6726438 0.5877063 0.6726438 0.5877063 1.003352 -0.1183394 0.5048689 -0.2173345 0.03202921 0.4243159 0.03225654 0.5877063 1.003352 0.5877063 1.0744 0.5585204 1.0744 0.478796 1.0744 -0.1628546 1.0744 -0.06370031 0.6015955 0.8785386 0.5016372 0.8785388 0.5726855 0.2368881 0.5726862 0.5585208 0.6015957 0.5877062 0.6015956 0.5877063 0.6726438 0.8785378 0.09988081 0.8785379 0.1709296 0.2368875 0.1709302 0.5391962 0.5743073 0.46576 0.5743073 0.5313293 0.5543488 0.5922291 0.5219715 0.5391962 0.5743073 0.5734585 0.5144054 0.5922291 0.5219715 0.5734585 0.5144054 0.5883364 0.4463881 0.5342399 0.3954311 0.5883364 0.4463881 0.5265461 0.4156754 0.4608037 0.395431 0.5342399 0.3954311 0.4686706 0.4153895 0.4077708 0.4477668 0.4608037 0.395431 0.4265414 0.4553329 0.5734585 0.5144054 0.5313293 0.5543488 0.4734538 0.554063 0.4734538 0.554063 0.430628 0.5142396 0.4265414 0.4553329 0.4265414 0.4553329 0.4686706 0.4153895 0.5265461 0.4156754 0.46576 0.5743073 0.4116635 0.5233502 0.4734538 0.554063 0.4265414 0.4553329 0.5693719 0.4554988 0.4734538 0.554063 0.4265414 0.4553329 0.5265461 0.4156754 0.5693719 0.4554988 0.4116635 0.5233502 0.4077708 0.4477668 0.430628 0.5142396 -0.1183394 0.5048689 -0.2173345 0.03202921 -0.147525 0.5048585 0.9256111 0.5016371 0.8785386 0.5016372 0.9256113 0.5726855 -0.209927 1.0744 -0.1628546 1.0744 -0.09288603 0.6015956 1.209927 1.003352 1.130203 1.003352 1.209927 1.0744 0.8785378 0.09988081 0.8785379 0.1709296 0.9256104 0.09988081 0.8785379 0.1709296 0.8785386 0.5016372 0.9256103 0.1709296 1.130203 0.6015955 1.130203 0.6726438 1.209927 0.6015955 1.130203 0.6726438 1.130203 1.003352 1.209927 0.6726438 0.5038813 0.5050889 0.5040404 0.03228479 0.4241569 0.5050608 0.1571635 0.5016381 0.1571635 0.5726864 0.2368881 0.501638 0.478796 1.0744 0.5585205 1.0744 0.478796 0.6015955 1.130203 1.003352 0.5877063 1.003352 1.130203 1.0744 0.157163 0.09988218 0.1571632 0.1709304 0.2368875 0.09988176 0.1571632 0.1709304 0.1571635 0.5016381 0.2368875 0.1709302 0.5877062 0.6015956 0.5877063 0.6726438 1.130203 0.6015955 1.130203 0.6726438 0.5877063 0.6726438 1.130203 1.003352 0.5877063 0.6726438 0.5585208 0.6726438 0.5877063 1.003352 0.4241569 0.5050608 0.4243159 0.03225654 -0.1183394 0.5048689 0.5585207 1.003352 0.5585204 1.0744 0.5877063 1.003352 -0.1628546 1.0744 0.478796 1.0744 -0.06370031 0.6015955 0.8785386 0.5016372 0.2368881 0.501638 0.8785388 0.5726855 0.5877062 0.6015956 0.5585208 0.6015957 0.5877063 0.6726438 0.2368875 0.09988176 0.2368875 0.1709302 0.8785378 0.09988081 0.4754618 0.4020659 0.4755085 0.4172988 0.4611038 0.4021099 0.5408826 0.4699072 0.5409637 0.4963269 0.5166553 0.4699814 0.4900277 0.4021469 0.4900744 0.4173799 0.4756697 0.4021909 0.5168633 0.4699072 0.5168166 0.4546743 0.5410905 0.4698328 0.5410078 0.510685 0.5167805 0.5107593 0.5409637 0.4963269 0.499897 0.5108101 0.4756697 0.5107358 0.4999409 0.496452 0.4756273 0.4560112 0.4756697 0.4698328 0.4612693 0.4560553 0.4755085 0.4172988 0.4756273 0.4560112 0.4611505 0.4173428 0.5102804 0.4877315 0.5103614 0.5141513 0.4860532 0.4878059 0.4756697 0.4700323 0.4755509 0.5087447 0.4514424 0.469958 0.4901931 0.4560922 0.4902356 0.4699139 0.4758352 0.4561363 0.4900744 0.4173799 0.4901931 0.4560922 0.4757164 0.4174239 0.5166978 0.4159618 0.5166553 0.4021402 0.540925 0.4158875 0.5168166 0.4546743 0.5166978 0.4159618 0.5410438 0.4545999 0.4901931 0.4560922 0.516613 0.4560112 0.4902356 0.4699139 0.4348495 0.4561363 0.4612693 0.4560553 0.4348919 0.469958 0.565235 0.4699072 0.565316 0.4963269 0.5410078 0.4699814 0.5164942 0.4172988 0.4900744 0.4173799 0.5164475 0.4020659 0.4611505 0.4173428 0.4347307 0.4174239 0.4611038 0.4021099 0.5000221 0.4700322 0.4999409 0.496452 0.4757948 0.469958 0.6102907 0.1730312 0.6102907 0.5042354 0.1276944 0.1730312 0.1276944 0.5042354 0.6102907 0.5042354 0.1276944 0.8269687 0.7403116 0.8195342 0.7399781 0.9282333 0.935418 0.8201329 0.2713468 0.1092976 0.4664532 0.1086991 0.2710133 5.98558e-4 1 0.4661197 0.9994015 0.2710135 0.9816831 0.466176 0.9619365 0 0.9596702 0.7387298 0.9802533 5.6271e-5 0.9379295 5.6271e-5 0.9401958 0.7387861 0.9562462 0 0.9994015 0.7371893 0.9810846 0.7372455 0.9999999 0.9322956 0.7428232 8.31487e-4 0.7405569 0.7395613 0.9379295 0.001429975 0.2738584 0.9280005 0.4689648 0.927402 0.2715921 0.1892707 0.9596702 0.7387298 0.9594248 0.8187028 0.977987 0.7387861 0.9401958 0.7387861 0.9404412 0.8187589 0.9585126 0.7387298 0.7405569 0.7395613 0.7403116 0.8195342 0.9356634 0.7401598 0.9985701 0.466176 0.9802533 0.4662322 0.9991686 0.6612823 0.9404412 0.8187589 0.9407746 0.9274581 0.9587579 0.8187028 0.2715921 0.1892707 0.4666985 0.1886721 0.2713468 0.1092976 0.9991686 0.6612823 0.9808518 0.6613385 0.9994015 0.7371893 0.9994015 0.2710135 0.9991686 0.1951064 0.9810847 0.2710697 0.4692983 0.8187028 0.4689648 0.927402 0.6644045 0.8193014 0.9594248 0.8187028 0.9590914 0.927402 0.9777416 0.818759 0.6644045 0.8193014 0.6640711 0.9280005 0.7403116 0.8195342 0.1954398 0.1095306 0.2713468 0.1092976 0.1951063 8.31487e-4 0.9991686 0.1951064 0.9985701 0 0.9808518 0.1951626 3.33439e-4 0.1101291 0.1954398 0.1095306 0 0.001429975 0.4718097 0 0.4695435 0.7387298 0.6669161 5.98558e-4 0.7428232 8.31487e-4 0.6669161 5.98558e-4 0.7405569 0.7395613 0.00284487 0.9288321 0.1979513 0.9282334 5.78764e-4 0.1901021 0.1956851 0.1895036 0.1979513 0.9282334 0.2715921 0.1892707 0.4695435 0.7387298 0.4692983 0.8187028 0.6646499 0.7393284 0.4691976 1.004795 0.4875145 1.004739 0.4689648 0.9288881 5.78764e-4 0.1901021 0.1956851 0.1895036 3.33439e-4 0.1101291 0.9800079 0.9274581 0.961691 0.9275143 0.9802533 1.007431 0.9379295 1.007431 0.9562463 1.007487 0.9381749 0.9274581 0.9376966 1.004795 0.9379295 0.9288881 0.9193798 1.004739 0.8794251 0.4969677 0.9426625 0.4969676 0.8794251 0.9652926 0.7857512 0.9306134 0.7857513 0.4622883 0.8489886 0.9306135 0.4999995 0.4223434 0.5140556 0.4223434 0.4999995 0.4871903 0.9075375 0.4969676 0.8934815 0.4969676 0.9075374 0.02863466 0.8934815 0.0286495 0.8934815 0.4969676 0.8794251 0.0286495 0.4227059 0.420866 0.436762 0.420866 0.4227059 0.4857128 0.4999994 0.4969666 0.4999994 0.9652925 0.4367623 0.4969666 0.310287 0.4819227 0.3102872 0.9502487 0.2470498 0.4819227 0.7529502 0.4969668 0.8161876 0.4969668 0.7529503 0.9652925 0.626475 0.4916242 0.6897124 0.4916242 0.6264755 0.9599499 0.3102874 0.4969669 0.3735247 0.4969669 0.3102872 0.9652925 0.05733746 0.486215 0.120575 0.4862149 0.05733758 0.9545402 0.4830903 0.9722283 0.4830905 0.503903 0.5463278 0.9722283 0.2480671 0.8427436 0.248067 0.374418 0.3113044 0.8427436 0.7133857 0.9167418 0.7133858 0.4484163 0.776623 0.9167418 0.5598559 0.8524448 0.5598551 0.3841193 0.6230932 0.8524447 0.4817431 0.420673 0.5449804 0.4206731 0.481743 0.8889985 0.1679205 0.9337327 0.1679205 0.4654073 0.2311578 0.9337327 0.436762 0.4223429 0.4508181 0.4223429 0.436762 0.4871898 0.3594686 0.4857128 0.3454124 0.4857128 0.3594685 0.470669 0.3735247 0.420866 0.3875808 0.420866 0.3735247 0.4857128 0.3102872 0.4819227 0.2962311 0.4819227 0.3102663 0.4765802 0.3875808 0.420866 0.4016368 0.420866 0.3875808 0.4857128 0.2470498 0.4711708 0.2470498 0.4819231 0.2329937 0.4711709 0.2189375 0.4819231 0.2189375 0.4721463 0.2329937 0.4819231 0.4859433 0.4223428 0.4859433 0.4871898 0.4718873 0.4223428 0.7529502 0.4931807 0.8161876 0.4931806 0.7529502 0.4969668 0.626475 0.4901549 0.6897124 0.4901548 0.626475 0.4916242 0.3249576 0.470776 0.3359205 0.471299 0.3249576 0.4851899 0.2611268 0.4819226 0.2611268 0.4767045 0.2751829 0.4819227 0.5140557 0.4223436 0.5281118 0.4223436 0.5140557 0.4871903 0.05733758 0.9652925 0.05733758 0.9545402 0.1205748 0.9652923 0.1983783 0.4819231 0.1983783 0.4675092 0.2088637 0.4819231 0.2311578 0.944485 0.1679205 0.944485 0.2311578 0.9337327 0.4086498 0.420866 0.4227059 0.420866 0.4086498 0.4857128 0.6230932 0.8524447 0.6230932 0.8577874 0.5598559 0.8524448 0.2611268 0.47658 0.2611059 0.4819227 0.2470707 0.4765801 0.6264755 0.9599499 0.6897128 0.9599498 0.6264755 0.9652925 0.3594686 0.4208658 0.3735247 0.4208658 0.3594686 0.4857128 0.2470498 0.9652925 0.2470498 0.9502487 0.3102872 0.9652925 0.3249576 0.471299 0.3249576 0.4857128 0.3102872 0.4712989 0.3113044 0.8577874 0.2480671 0.8577874 0.3113044 0.8427436 0.5421679 0.4223434 0.5421679 0.4871903 0.5281118 0.4223434 0.4367623 0.4871898 0.4999995 0.4871899 0.4367623 0.4969666 0.5463278 0.4941263 0.5463278 0.503903 0.4830906 0.4941262 0.2183977 0.4675092 0.2183977 0.4819231 0.2088637 0.4675092 0.4999995 0.4223428 0.4999995 0.4871898 0.4859433 0.4223428 0.1065188 0.4809968 0.1065188 0.4772106 0.120575 0.4809968 0.776623 0.4446301 0.776623 0.4484164 0.7133858 0.44463 0.05733746 0.4772105 0.0713936 0.4772106 0.05733746 0.4809968 0.4648743 0.4223428 0.4648743 0.4871898 0.4508181 0.4223428 0.3102874 0.4857128 0.3735247 0.4857128 0.3102874 0.4969669 0.1838123 0.4706811 0.1978684 0.4706811 0.1843222 0.4819231 0.5449804 0.409419 0.5449804 0.4206731 0.4817431 0.409419 0.5562241 0.4223434 0.5562241 0.4871903 0.5421679 0.4223434 0.0713936 0.4809968 0.0713936 0.4795274 0.08544975 0.4809968 0.6230925 0.3826498 0.6230925 0.3841192 0.5598551 0.38265 0.09246271 0.4795274 0.1065188 0.4795274 0.09246271 0.4809968 0.5562241 0.4223434 0.5702803 0.4223434 0.5562241 0.4871903 0.1838123 0.4809967 0.1838123 0.4862148 0.120575 0.4809967 0.2821542 0.4819227 0.2821542 0.4767045 0.2962102 0.4819227 0.05733746 0.4809968 0.120575 0.4809968 0.05733746 0.486215 -0.1183394 0.5048689 -0.147525 0.5048585 -0.2173345 0.03202921 0.8785388 0.5726855 0.8785386 0.5016372 0.9256113 0.5726855 -0.06370031 0.6015955 -0.1628546 1.0744 -0.09288603 0.6015956 1.130203 1.0744 1.130203 1.003352 1.209927 1.0744 0.8785378 0.09988081 0.9256104 0.09988081 0.8785379 0.1709296 0.8785379 0.1709296 0.9256103 0.1709296 0.8785386 0.5016372 1.130203 0.6015955 1.209927 0.6015955 1.130203 0.6726438 1.130203 0.6726438 1.209927 0.6726438 1.130203 1.003352 0.5038813 0.5050889 0.4241569 0.5050608 0.5040404 0.03228479 0.1571635 0.5016381 0.2368881 0.501638 0.1571635 0.5726864 0.5585205 1.0744 0.478796 1.0744 0.5585205 0.6015955 0.5877063 1.0744 0.5877063 1.003352 1.130203 1.0744 0.157163 0.09988218 0.2368875 0.09988176 0.1571632 0.1709304 0.1571632 0.1709304 0.2368875 0.1709302 0.1571635 0.5016381 0.5877063 0.6726438 0.5877062 0.6015956 1.130203 0.6726438 0.5877063 0.6726438 1.130203 0.6726438 0.5877063 1.003352 0.5585207 1.003352 0.5585208 0.6726438 0.5877063 1.003352 0.4241569 0.5050608 -0.1183394 0.5048689 0.4243159 0.03225654 0.5585207 1.003352 0.5877063 1.003352 0.5585204 1.0744 0.478796 0.6015955 0.478796 1.0744 -0.06370031 0.6015955 0.2368881 0.501638 0.8785386 0.5016372 0.2368881 0.5726862 0.5585208 0.6726438 0.5585208 0.6015957 0.5877063 0.6726438 0.2368875 0.09988176 0.8785378 0.09988081 0.2368875 0.1709302</float_array>
          <technique_common>
            <accessor source="#Outhouse-mesh-map-0-array" count="1038" stride="2">
              <param name="S" type="float"/>
              <param name="T" type="float"/>
            </accessor>
          </technique_common>
        </source>
        <vertices id="Outhouse-mesh-vertices">
          <input semantic="POSITION" source="#Outhouse-mesh-positions"/>
        </vertices>
        <polylist material="Wood2-material" count="346">
          <input semantic="VERTEX" source="#Outhouse-mesh-vertices" offset="0"/>
          <input semantic="NORMAL" source="#Outhouse-mesh-normals" offset="1"/>
          <input semantic="TEXCOORD" source="#Outhouse-mesh-map-0" offset="2" set="0"/>
          <vcount>3 3 3 3 3 3 3 3 3 3 3 3 3 3 3 3 3 3 3 3 3 3 3 3 3 3 3 3 3 3 3 3 3 3 3 3 3 3 3 3 3 3 3 3 3 3 3 3 3 3 3 3 3 3 3 3 3 3 3 3 3 3 3 3 3 3 3 3 3 3 3 3 3 3 3 3 3 3 3 3 3 3 3 3 3 3 3 3 3 3 3 3 3 3 3 3 3 3 3 3 3 3 3 3 3 3 3 3 3 3 3 3 3 3 3 3 3 3 3 3 3 3 3 3 3 3 3 3 3 3 3 3 3 3 3 3 3 3 3 3 3 3 3 3 3 3 3 3 3 3 3 3 3 3 3 3 3 3 3 3 3 3 3 3 3 3 3 3 3 3 3 3 3 3 3 3 3 3 3 3 3 3 3 3 3 3 3 3 3 3 3 3 3 3 3 3 3 3 3 3 3 3 3 3 3 3 3 3 3 3 3 3 3 3 3 3 3 3 3 3 3 3 3 3 3 3 3 3 3 3 3 3 3 3 3 3 3 3 3 3 3 3 3 3 3 3 3 3 3 3 3 3 3 3 3 3 3 3 3 3 3 3 3 3 3 3 3 3 3 3 3 3 3 3 3 3 3 3 3 3 3 3 3 3 3 3 3 3 3 3 3 3 3 3 3 3 3 3 3 3 3 3 3 3 3 3 3 3 3 3 3 3 3 3 3 3 3 3 3 3 3 3 3 3 3 3 3 3 3 3 3 3 3 3 3 3 3 3 3 3 3 3 3 3 3 3 </vcount>
          <p>0 0 0 1 0 1 3 0 2 2 1 3 3 1 4 5 1 5 5 2 6 7 2 7 6 2 8 6 3 9 7 3 10 9 3 11 8 4 12 9 4 13 11 4 14 10 5 15 11 5 16 13 5 17 7 6 18 5 6 19 1 6 20 14 7 21 15 7 22 1 7 23 12 8 24 13 8 25 15 8 26 42 9 27 21 9 28 20 9 29 44 10 30 41 10 31 22 10 32 41 11 33 40 11 34 23 11 35 39 12 36 35 12 37 19 12 38 45 13 39 30 13 40 21 13 41 44 14 42 31 14 43 30 14 44 38 15 45 24 15 46 16 15 47 39 16 48 25 16 49 24 16 50 17 17 51 33 17 52 32 17 53 18 18 54 34 18 55 37 18 56 18 19 57 19 19 58 35 19 59 46 20 60 40 20 61 35 20 62 26 21 63 36 21 64 33 21 65 27 22 66 37 22 67 36 22 68 47 23 69 38 23 70 32 23 71 47 24 72 46 24 73 39 24 74 28 25 75 29 25 76 46 25 77 33 26 78 42 26 79 43 26 80 23 27 81 40 27 82 46 27 83 34 28 84 35 28 85 40 28 86 37 29 87 34 29 88 41 29 89 20 30 90 28 30 91 47 30 92 36 31 93 45 31 94 42 31 95 58 32 96 57 32 97 49 32 98 50 33 99 49 33 100 64 33 101 61 34 102 63 34 103 51 34 104 63 35 105 58 35 106 48 35 107 48 36 108 49 36 109 50 36 110 55 37 111 54 37 112 53 37 113 52 38 114 53 38 115 56 38 116 59 39 117 56 39 118 57 39 119 71 40 120 69 40 121 57 40 122 56 41 123 60 41 124 61 41 125 54 42 126 55 42 127 62 42 128 60 43 129 62 43 130 63 43 131 55 44 132 52 44 133 59 44 134 62 45 135 59 45 136 58 45 137 70 46 138 67 46 139 54 46 140 56 47 141 53 47 142 66 47 143 60 48 144 56 48 145 68 48 146 61 49 147 50 49 148 65 49 149 69 50 150 64 50 151 49 50 152 53 51 153 54 51 154 67 51 155 77 52 156 74 52 157 72 52 158 77 53 159 76 53 160 75 53 161 101 54 162 80 54 163 93 54 164 91 55 165 84 55 166 105 55 167 103 56 168 99 56 169 79 56 170 86 57 171 88 57 172 83 57 173 89 58 174 87 58 175 78 58 176 105 59 177 84 59 178 80 59 179 109 60 180 86 60 181 79 60 182 83 61 183 88 61 184 106 61 185 93 62 186 91 62 187 88 62 188 90 63 189 92 63 190 87 63 191 96 64 192 93 64 193 86 64 194 85 65 195 104 65 196 100 65 197 85 66 198 81 66 199 92 66 200 88 67 201 91 67 202 95 67 203 104 68 204 105 68 205 101 68 206 102 69 207 98 69 208 99 69 209 81 70 210 100 70 211 97 70 212 80 71 213 84 71 214 91 71 215 100 72 216 101 72 217 96 72 218 95 73 219 105 73 220 104 73 221 82 74 222 78 74 223 98 74 224 94 75 225 104 75 226 85 75 227 87 76 228 108 76 229 98 76 230 98 77 231 108 77 232 109 77 233 102 78 234 107 78 235 89 78 236 102 79 237 103 79 238 106 79 239 92 80 240 97 80 241 108 80 242 109 81 243 108 81 244 107 81 245 107 82 246 94 82 247 90 82 248 106 83 249 95 83 250 96 83 251 94 84 252 107 84 253 108 84 254 94 85 255 97 85 256 96 85 257 123 86 258 129 86 259 112 86 260 135 87 261 117 87 262 116 87 263 141 88 264 116 88 265 112 88 266 116 89 267 117 89 268 113 89 269 115 90 270 111 90 271 110 90 272 123 91 273 113 91 274 117 91 275 111 92 276 124 92 277 118 92 278 124 93 279 125 93 280 119 93 281 119 94 282 125 94 283 126 94 284 120 95 285 126 95 286 127 95 287 121 96 288 127 96 289 128 96 290 122 97 291 128 97 292 129 97 293 114 98 294 130 98 295 136 98 296 130 99 297 131 99 298 137 99 299 131 100 300 132 100 301 138 100 302 132 101 303 133 101 304 139 101 305 134 102 306 140 102 307 139 102 308 134 103 309 135 103 310 141 103 311 115 104 312 136 104 313 124 104 314 150 105 315 124 105 316 136 105 317 137 106 318 138 106 319 126 106 320 127 107 321 147 107 322 149 107 323 139 108 324 140 108 325 128 108 326 144 109 327 142 109 328 128 109 329 154 110 330 155 110 331 114 110 332 119 111 333 131 111 334 130 111 335 158 112 336 119 112 337 120 112 338 166 113 339 120 113 340 121 113 341 122 114 342 134 114 343 165 114 344 170 115 345 172 115 346 134 115 347 144 116 348 145 116 349 143 116 350 129 117 351 128 117 352 142 117 353 129 118 354 143 118 355 145 118 356 144 119 357 140 119 358 141 119 359 148 120 360 149 120 361 147 120 362 149 121 363 148 121 364 138 121 365 148 122 366 146 122 367 126 122 368 126 123 369 146 123 370 147 123 371 152 124 372 153 124 373 151 124 374 125 125 375 124 125 376 150 125 377 125 126 378 151 126 379 153 126 380 152 127 381 136 127 382 137 127 383 156 128 384 157 128 385 155 128 386 154 129 387 110 129 388 118 129 389 130 130 390 114 130 391 155 130 392 130 131 393 157 131 394 156 131 395 159 132 396 161 132 397 160 132 398 158 133 399 160 133 400 131 133 401 132 134 402 131 134 403 160 134 404 132 135 405 161 135 406 159 135 407 163 136 408 165 136 409 164 136 410 162 137 411 121 137 412 122 137 413 164 138 414 133 138 415 121 138 416 134 139 417 133 139 418 164 139 419 167 140 420 169 140 421 168 140 422 166 141 423 168 141 424 132 141 425 133 142 426 132 142 427 168 142 428 133 143 429 169 143 430 167 143 431 170 144 432 171 144 433 173 144 434 135 145 435 134 145 436 172 145 437 123 146 438 135 146 439 173 146 440 170 147 441 122 147 442 123 147 443 178 148 444 179 148 445 200 148 446 202 149 447 189 149 448 180 149 449 199 150 450 180 150 451 181 150 452 197 151 453 183 151 454 177 151 455 179 152 456 188 152 457 203 152 458 188 153 459 189 153 460 202 153 461 174 154 462 182 154 463 196 154 464 182 155 465 183 155 466 197 155 467 190 156 468 191 156 469 175 156 470 195 157 471 192 157 472 176 157 473 192 158 474 193 158 475 177 158 476 204 159 477 197 159 478 193 159 479 191 160 480 194 160 481 184 160 482 194 161 483 195 161 484 185 161 485 201 162 486 190 162 487 196 162 488 196 163 489 197 163 490 204 163 491 186 164 492 205 164 493 204 164 494 201 165 495 200 165 496 191 165 497 204 166 498 198 166 499 181 166 500 192 167 501 199 167 502 198 167 503 202 168 504 199 168 505 192 168 506 178 169 507 201 169 508 205 169 509 200 170 510 203 170 511 194 170 512 2 171 513 0 171 514 3 171 515 4 172 516 2 172 517 5 172 518 4 173 519 5 173 520 6 173 521 8 174 522 6 174 523 9 174 524 10 175 525 8 175 526 11 175 527 12 176 528 10 176 529 13 176 530 5 177 531 3 177 532 1 177 533 1 178 534 15 178 535 13 178 536 13 179 537 11 179 538 9 179 539 0 180 540 14 180 541 1 180 542 13 181 543 7 181 544 1 181 545 13 182 546 9 182 547 7 182 548 14 183 549 12 183 550 15 183 551 43 184 552 42 184 553 20 184 554 31 185 555 44 185 556 22 185 557 22 186 558 41 186 559 23 186 560 25 187 561 39 187 562 19 187 563 42 188 564 45 188 565 21 188 566 45 189 567 44 189 568 30 189 569 32 190 570 38 190 571 16 190 572 38 191 573 39 191 574 24 191 575 16 192 576 17 192 577 32 192 578 27 193 579 18 193 580 37 193 581 34 194 582 18 194 583 35 194 584 39 195 585 46 195 586 35 195 587 17 196 588 26 196 589 33 196 590 26 197 591 27 197 592 36 197 593 43 198 594 47 198 595 32 198 596 38 199 597 47 199 598 39 199 599 47 200 600 28 200 601 46 200 602 32 201 603 33 201 604 43 201 605 29 202 606 23 202 607 46 202 608 41 203 609 34 203 610 40 203 611 44 204 612 37 204 613 41 204 614 43 205 615 20 205 616 47 205 617 33 206 618 36 206 619 42 206 620 48 207 621 58 207 622 49 207 623 65 208 624 50 208 625 64 208 626 50 209 627 61 209 628 51 209 629 51 210 630 63 210 631 48 210 632 51 211 633 48 211 634 50 211 635 52 212 636 55 212 637 53 212 638 59 213 639 52 213 640 56 213 641 58 214 642 59 214 643 57 214 644 61 215 645 71 215 646 57 215 647 57 216 648 56 216 649 61 216 650 60 217 651 54 217 652 62 217 653 61 218 654 60 218 655 63 218 656 62 219 657 55 219 658 59 219 659 63 220 660 62 220 661 58 220 662 60 221 663 70 221 664 54 221 665 68 222 666 56 222 667 66 222 668 70 223 669 60 223 670 68 223 671 71 224 672 61 224 673 65 224 674 57 225 675 69 225 676 49 225 677 66 226 678 53 226 679 67 226 680 73 227 681 77 227 682 72 227 683 74 228 684 77 228 685 75 228 686 96 229 687 101 229 688 93 229 689 95 230 690 91 230 691 105 230 692 83 231 693 103 231 694 79 231 695 79 232 696 86 232 697 83 232 698 82 233 699 89 233 700 78 233 701 101 234 702 105 234 703 80 234 704 99 235 705 109 235 706 79 235 707 103 236 708 83 236 709 106 236 710 86 237 711 93 237 712 88 237 713 89 238 714 90 238 715 87 238 716 109 239 717 96 239 718 86 239 719 81 240 720 85 240 721 100 240 722 90 241 723 85 241 724 92 241 725 106 242 726 88 242 727 95 242 728 100 243 729 104 243 730 101 243 731 103 244 732 102 244 733 99 244 734 92 245 735 81 245 736 97 245 737 93 246 738 80 246 739 91 246 740 97 247 741 100 247 742 96 247 743 94 248 744 95 248 745 104 248 746 102 249 747 82 249 748 98 249 749 90 250 750 94 250 751 85 250 752 78 251 753 87 251 754 98 251 755 99 252 756 98 252 757 109 252 758 82 253 759 102 253 760 89 253 761 107 254 762 102 254 763 106 254 764 87 255 765 92 255 766 108 255 767 106 256 768 109 256 769 107 256 770 89 257 771 107 257 772 90 257 773 109 258 774 106 258 775 96 258 776 97 259 777 94 259 778 108 259 779 95 260 780 94 260 781 96 260 782 113 261 783 123 261 784 112 261 785 141 262 786 135 262 787 116 262 788 129 263 789 141 263 790 112 263 791 112 264 792 116 264 793 113 264 794 114 265 795 115 265 796 110 265 797 135 266 798 123 266 799 117 266 800 110 267 801 111 267 802 118 267 803 118 268 804 124 268 805 119 268 806 120 269 807 119 269 808 126 269 809 121 270 810 120 270 811 127 270 812 122 271 813 121 271 814 128 271 815 123 272 816 122 272 817 129 272 818 115 273 819 114 273 820 136 273 821 136 274 822 130 274 823 137 274 824 137 275 825 131 275 826 138 275 827 138 276 828 132 276 829 139 276 830 133 277 831 134 277 832 139 277 833 140 278 834 134 278 835 141 278 836 111 279 837 115 279 838 124 279 839 152 280 840 150 280 841 136 280 842 125 281 843 137 281 844 126 281 845 139 282 846 127 282 847 149 282 848 127 283 849 139 283 850 128 283 851 140 284 852 144 284 853 128 284 854 110 285 855 154 285 856 114 285 857 118 286 858 119 286 859 130 286 860 159 287 861 158 287 862 120 287 863 167 288 864 166 288 865 121 288 866 163 289 867 122 289 868 165 289 869 122 290 870 170 290 871 134 290 872 142 291 873 144 291 874 143 291 875 143 292 876 129 292 877 142 292 878 141 293 879 129 293 880 145 293 881 145 294 882 144 294 883 141 294 884 146 295 885 148 295 886 147 295 887 139 296 888 149 296 889 138 296 890 138 297 891 148 297 892 126 297 893 127 298 894 126 298 895 147 298 896 150 299 897 152 299 898 151 299 899 151 300 900 125 300 901 150 300 902 137 301 903 125 301 904 153 301 905 153 302 906 152 302 907 137 302 908 154 303 909 156 303 910 155 303 911 156 304 912 154 304 913 118 304 914 157 305 915 130 305 916 155 305 917 118 306 918 130 306 919 156 306 920 158 307 921 159 307 922 160 307 923 119 308 924 158 308 925 131 308 926 161 309 927 132 309 928 160 309 929 120 310 930 132 310 931 159 310 932 162 311 933 163 311 934 164 311 935 163 312 936 162 312 937 122 312 938 162 313 939 164 313 940 121 313 941 165 314 942 134 314 943 164 314 944 166 315 945 167 315 946 168 315 947 120 316 948 166 316 949 132 316 950 169 317 951 133 317 952 168 317 953 121 318 954 133 318 955 167 318 956 172 319 957 170 319 958 173 319 959 173 320 960 135 320 961 172 320 962 171 321 963 123 321 964 173 321 965 171 322 966 170 322 967 123 322 968 201 323 969 178 323 970 200 323 971 199 324 972 202 324 973 180 324 974 198 325 975 199 325 976 181 325 977 193 326 978 197 326 979 177 326 980 200 327 981 179 327 982 203 327 983 203 328 984 188 328 985 202 328 986 190 329 987 174 329 988 196 329 989 196 330 990 182 330 991 197 330 992 174 331 993 190 331 994 175 331 995 185 332 996 195 332 997 176 332 998 176 333 999 192 333 1000 177 333 1001 198 334 1002 204 334 1003 193 334 1004 175 335 1005 191 335 1006 184 335 1007 184 336 1008 194 336 1009 185 336 1010 205 337 1011 201 337 1012 196 337 1013 205 338 1014 196 338 1015 204 338 1016 187 339 1017 186 339 1018 204 339 1019 190 340 1020 201 340 1021 191 340 1022 187 341 1023 204 341 1024 181 341 1025 193 342 1026 192 342 1027 198 342 1028 195 343 1029 202 343 1030 192 343 1031 186 344 1032 178 344 1033 205 344 1034 191 345 1035 200 345 1036 194 345 1037</p>
        </polylist>
      </mesh>
    </geometry>
  </library_geometries>
  <library_controllers/>
  <library_visual_scenes>
    <visual_scene id="Scene" name="Scene">
      <node id="Outhouse" name="Outhouse" type="NODE">
        <matrix sid="transform">1 0 0 2.797641 0 7.54979e-8 -1 2.838963 0 1 7.54979e-8 0.7896067 0 0 0 1</matrix>
        <instance_geometry url="#Outhouse-mesh">
          <bind_material>
            <technique_common>
              <instance_material symbol="Wood2-material" target="#Wood2-material"/>
            </technique_common>
          </bind_material>
        </instance_geometry>
      </node>
      <node id="Camera" name="Camera" type="NODE">
        <matrix sid="transform">0.6858805 -0.3173701 0.6548619 8.789702 0.7276338 0.3124686 -0.6106656 -8.404783 -0.01081678 0.8953432 0.4452454 7.616721 0 0 0 1</matrix>
        <instance_camera url="#Camera-camera"/>
      </node>
      <node id="Lamp" name="Lamp" type="NODE">
        <matrix sid="transform">-0.2908646 -0.7711008 0.5663932 4.076245 0.9551712 -0.1998834 0.2183912 1.005454 -0.05518906 0.6045247 0.7946723 5.903862 0 0 0 1</matrix>
        <instance_light url="#Lamp-light"/>
      </node>
    </visual_scene>
  </library_visual_scenes>
  <scene>
    <instance_visual_scene url="#Scene"/>
  </scene>
</COLLADA>