<?xml version="1.0" encoding="utf-8"?>
<COLLADA xmlns="http://www.collada.org/2005/11/COLLADASchema" version="1.4.1">
  <asset>
    <contributor>
      <author>Duion</author>
      <authoring_tool>Blender 2.67.0 r56533</authoring_tool>
    </contributor>
    <created>2013-06-11T20:54:03</created>
    <modified>2013-06-11T20:54:03</modified>
    <unit name="meter" meter="1"/>
    <up_axis>Z_UP</up_axis>
  </asset>
  <library_lights>
    <light id="Hemi-light" name="Hemi">
      <technique_common>
        <ambient>
          <color>1 1 1</color>
        </ambient>
      </technique_common>
      <extra>
        <technique profile="blender">
          <adapt_thresh>0.000999987</adapt_thresh>
          <area_shape>0</area_shape>
          <area_size>1</area_size>
          <area_sizey>1</area_sizey>
          <area_sizez>1</area_sizez>
          <atm_distance_factor>1</atm_distance_factor>
          <atm_extinction_factor>1</atm_extinction_factor>
          <atm_turbidity>2</atm_turbidity>
          <att1>0</att1>
          <att2>1</att2>
          <backscattered_light>1</backscattered_light>
          <bias>1</bias>
          <blue>1</blue>
          <buffers>1</buffers>
          <bufflag>0</bufflag>
          <bufsize>512</bufsize>
          <buftype>2</buftype>
          <clipend>40</clipend>
          <clipsta>0.5</clipsta>
          <compressthresh>0.04999995</compressthresh>
          <dist sid="blender_dist">25</dist>
          <energy sid="blender_energy">1</energy>
          <falloff_type>2</falloff_type>
          <filtertype>0</filtertype>
          <flag>0</flag>
          <gamma sid="blender_gamma">1</gamma>
          <green>1</green>
          <halo_intensity sid="blnder_halo_intensity">1</halo_intensity>
          <horizon_brightness>1</horizon_brightness>
          <mode>1</mode>
          <ray_samp>1</ray_samp>
          <ray_samp_method>1</ray_samp_method>
          <ray_samp_type>0</ray_samp_type>
          <ray_sampy>1</ray_sampy>
          <ray_sampz>1</ray_sampz>
          <red>1</red>
          <samp>3</samp>
          <shadhalostep>0</shadhalostep>
          <shadow_b sid="blender_shadow_b">0</shadow_b>
          <shadow_g sid="blender_shadow_g">0</shadow_g>
          <shadow_r sid="blender_shadow_r">0</shadow_r>
          <shadspotsize>45</shadspotsize>
          <sky_colorspace>2</sky_colorspace>
          <sky_exposure>1</sky_exposure>
          <skyblendfac>1</skyblendfac>
          <skyblendtype>1</skyblendtype>
          <soft>3</soft>
          <spotblend>0.15</spotblend>
          <spotsize>45</spotsize>
          <spread>1</spread>
          <sun_brightness>1</sun_brightness>
          <sun_effect_type>0</sun_effect_type>
          <sun_intensity>1</sun_intensity>
          <sun_size>1</sun_size>
          <type>3</type>
        </technique>
      </extra>
    </light>
  </library_lights>
  <library_images/>
  <library_effects>
    <effect id="street_poles_lp_a-effect">
      <profile_COMMON>
        <technique sid="common">
          <phong>
            <emission>
              <color sid="emission">0 0 0 1</color>
            </emission>
            <ambient>
              <color sid="ambient">0 0 0 1</color>
            </ambient>
            <diffuse>
              <color sid="diffuse">0.64 0.64 0.64 1</color>
            </diffuse>
            <specular>
              <color sid="specular">0.5 0.5 0.5 1</color>
            </specular>
            <shininess>
              <float sid="shininess">50</float>
            </shininess>
            <index_of_refraction>
              <float sid="index_of_refraction">1</float>
            </index_of_refraction>
          </phong>
        </technique>
        <extra>
          <technique profile="GOOGLEEARTH">
            <double_sided>1</double_sided>
          </technique>
        </extra>
      </profile_COMMON>
      <extra><technique profile="MAX3D"><double_sided>1</double_sided></technique></extra>
    </effect>
  </library_effects>
  <library_materials>
    <material id="street_poles_lp_a-material" name="street_poles_lp_a">
      <instance_effect url="#street_poles_lp_a-effect"/>
    </material>
  </library_materials>
  <library_geometries>
    <geometry id="polewhite8-mesh" name="polewhite8">
      <mesh>
        <source id="polewhite8-mesh-positions">
          <float_array id="polewhite8-mesh-positions-array" count="24">-0.5782983 -1 -0.9999999 -1 1 -1 1 1 -1 0.5782983 -1 -0.9999999 -0.5782983 -1 0.8766641 -1 1 1 1 1 1 0.5782983 -1 0.8766641</float_array>
          <technique_common>
            <accessor source="#polewhite8-mesh-positions-array" count="8" stride="3">
              <param name="X" type="float"/>
              <param name="Y" type="float"/>
              <param name="Z" type="float"/>
            </accessor>
          </technique_common>
        </source>
        <source id="polewhite8-mesh-normals">
          <float_array id="polewhite8-mesh-normals-array" count="36">-0.9784857 -0.2063145 0 0 1 0 0.9784857 -0.2063145 0 0 -1 0 0 0 -1 0 -0.06155103 0.998104 -0.9784857 -0.2063145 0 0 1 0 0.9784857 -0.2063145 0 0 -1 0 0 0 -1 0 -0.06155103 0.9981039</float_array>
          <technique_common>
            <accessor source="#polewhite8-mesh-normals-array" count="12" stride="3">
              <param name="X" type="float"/>
              <param name="Y" type="float"/>
              <param name="Z" type="float"/>
            </accessor>
          </technique_common>
        </source>
        <source id="polewhite8-mesh-map-0">
          <float_array id="polewhite8-mesh-map-0-array" count="72">0.2619836 0.9235716 0.1494421 0.9847162 0.2567102 0.01010805 0.2815321 0.9827767 0.3685657 0.9827767 0.3700981 0.01370769 0.1314713 0.9825585 0.01487571 0.918605 0.1298104 0.01140606 0.3685536 0.9800661 0.2818569 0.9800662 0.2802745 0.07516497 0.04418802 0.1076996 0.02239805 0.2356332 0.1257412 0.2356332 0.2339428 0.2199411 0.2556995 0.3476796 0.1525141 0.3476796 0.1494421 0.9847162 0.1478797 0.009717345 0.2567102 0.01010805 0.2799996 0.01370769 0.2815321 0.9827767 0.3700981 0.01370769 0.01487571 0.918605 0.01917183 0.01215469 0.1298104 0.01140606 0.3685536 0.0767275 0.3685536 0.9800661 0.2802745 0.07516497 0.1039512 0.1076996 0.04418802 0.1076996 0.1257412 0.2356332 0.1742708 0.2199411 0.2339428 0.2199411 0.1525141 0.3476796</float_array>
          <technique_common>
            <accessor source="#polewhite8-mesh-map-0-array" count="36" stride="2">
              <param name="S" type="float"/>
              <param name="T" type="float"/>
            </accessor>
          </technique_common>
        </source>
        <vertices id="polewhite8-mesh-vertices">
          <input semantic="POSITION" source="#polewhite8-mesh-positions"/>
        </vertices>
        <polylist material="street_poles_lp_a-material" count="12">
          <input semantic="VERTEX" source="#polewhite8-mesh-vertices" offset="0"/>
          <input semantic="NORMAL" source="#polewhite8-mesh-normals" offset="1"/>
          <input semantic="TEXCOORD" source="#polewhite8-mesh-map-0" offset="2" set="0"/>
          <vcount>3 3 3 3 3 3 3 3 3 3 3 3 </vcount>
          <p>4 0 0 5 0 1 0 0 2 5 1 3 6 1 4 2 1 5 6 2 6 7 2 7 2 2 8 7 3 9 4 3 10 0 3 11 0 4 12 1 4 13 2 4 14 7 5 15 6 5 16 5 5 17 5 6 18 1 6 19 0 6 20 1 7 21 5 7 22 2 7 23 7 8 24 3 8 25 2 8 26 3 9 27 7 9 28 0 9 29 3 10 30 0 10 31 2 10 32 4 11 33 7 11 34 5 11 35</p>
        </polylist>
      </mesh>
      <extra><technique profile="MAYA"><double_sided>1</double_sided></technique></extra>
    </geometry>
  </library_geometries>
  <library_controllers/>
  <library_visual_scenes>
    <visual_scene id="Scene" name="Scene">
      <node id="Hemi" name="Hemi" type="NODE">
        <matrix sid="transform">1 0 0 0.8022745 0 1 0 3.898263 0 0 1 1.705307 0 0 0 1</matrix>
        <instance_light url="#Hemi-light"/>
      </node>
      <node id="base01" name="base01" type="NODE">
        <matrix sid="transform">1 0 0 0 0 1 0 0 0 0 1 0 0 0 0 1</matrix>
        <node id="start01" name="start01" type="NODE">
          <matrix sid="transform">1 0 0 0 0 1 0 0 0 0 1 0 0 0 0 1</matrix>
          <node id="polewhite8" name="polewhite8" type="NODE">
            <matrix sid="transform">0.04846726 0 0 0 0 0.06 0 0 0 0 0.5 0.4899504 0 0 0 1</matrix>
            <instance_geometry url="#polewhite8-mesh">
              <bind_material>
                <technique_common>
                  <instance_material symbol="street_poles_lp_a-material" target="#street_poles_lp_a-material"/>
                </technique_common>
              </bind_material>
            </instance_geometry>
          </node>
        </node>
        <node id="nulldetail0" name="nulldetail0" type="NODE">
          <matrix sid="transform">1 0 0 0 0 1 0 0 0 0 1 0 0 0 0 1</matrix>
        </node>
        <node id="detail8" name="detail8" type="NODE">
          <matrix sid="transform">1 0 0 0 0 1 0 0 0 0 1 0 0 0 0 1</matrix>
        </node>
      </node>
    </visual_scene>
  </library_visual_scenes>
  <scene>
    <instance_visual_scene url="#Scene"/>
  </scene>
</COLLADA>