<?xml version="1.0" encoding="utf-8"?>
<COLLADA xmlns="http://www.collada.org/2005/11/COLLADASchema" version="1.4.1">
  <asset>
    <contributor>
      <author>Blender User</author>
      <authoring_tool>Blender 2.71.0 commit date:2014-06-25, commit time:18:36, hash:9337574</authoring_tool>
    </contributor>
    <created>2014-11-09T18:17:21</created>
    <modified>2014-11-09T18:17:21</modified>
    <unit name="meter" meter="1"/>
    <up_axis>Z_UP</up_axis>
  </asset>
  <library_images>
    <image id="Wood_jpg" name="Wood_jpg">
      <init_from>Wood.jpg</init_from>
    </image>
    <image id="WindowsYellow2_jpg" name="WindowsYellow2_jpg">
      <init_from>WindowsYellow2.jpg</init_from>
    </image>
    <image id="WindowDark1_jpg" name="WindowDark1_jpg">
      <init_from>WindowDark1.jpg</init_from>
    </image>
    <image id="WindowAllBroken1" name="WindowAllBroken1">
      <init_from>WindowAllBroken1.jpg</init_from>
    </image>
  </library_images>
  <library_effects>
    <effect id="Wood-effect">
      <profile_COMMON>
        <newparam sid="Wood_jpg-surface">
          <surface type="2D">
            <init_from>Wood_jpg</init_from>
          </surface>
        </newparam>
        <newparam sid="Wood_jpg-sampler">
          <sampler2D>
            <source>Wood_jpg-surface</source>
          </sampler2D>
        </newparam>
        <technique sid="common">
          <lambert>
            <emission>
              <color sid="emission">0 0 0 1</color>
            </emission>
            <ambient>
              <color sid="ambient">0 0 0 1</color>
            </ambient>
            <diffuse>
              <texture texture="Wood_jpg-sampler" texcoord="UVMap"/>
            </diffuse>
            <index_of_refraction>
              <float sid="index_of_refraction">1</float>
            </index_of_refraction>
          </lambert>
        </technique>
        <extra>
          <technique profile="GOOGLEEARTH">
            <double_sided>1</double_sided>
          </technique>
        </extra>
      </profile_COMMON>
      <extra><technique profile="MAX3D"><double_sided>1</double_sided></technique></extra>
    </effect>
    <effect id="WindowYellow2-effect">
      <profile_COMMON>
        <newparam sid="WindowAllBroken1-surface">
          <surface type="2D">
            <init_from>WindowAllBroken1</init_from>
          </surface>
        </newparam>
        <newparam sid="WindowAllBroken1-sampler">
          <sampler2D>
            <source>WindowAllBroken1-surface</source>
          </sampler2D>
        </newparam>
        <technique sid="common">
          <phong>
            <emission>
              <color sid="emission">0 0 0 1</color>
            </emission>
            <ambient>
              <color sid="ambient">0 0 0 1</color>
            </ambient>
            <diffuse>
              <texture texture="WindowAllBroken1-sampler" texcoord="UVMap"/>
            </diffuse>
            <specular>
              <color sid="specular">0.02500001 0.02500001 0.02500001 1</color>
            </specular>
            <shininess>
              <float sid="shininess">50</float>
            </shininess>
            <index_of_refraction>
              <float sid="index_of_refraction">1</float>
            </index_of_refraction>
          </phong>
        </technique>
        <extra>
          <technique profile="GOOGLEEARTH">
            <double_sided>1</double_sided>
          </technique>
        </extra>
      </profile_COMMON>
      <extra><technique profile="MAX3D"><double_sided>1</double_sided></technique></extra>
    </effect>
    <effect id="WindowDark1-effect">
      <profile_COMMON>
        <newparam sid="WindowDark1_jpg-surface">
          <surface type="2D">
            <init_from>WindowDark1_jpg</init_from>
          </surface>
        </newparam>
        <newparam sid="WindowDark1_jpg-sampler">
          <sampler2D>
            <source>WindowDark1_jpg-surface</source>
          </sampler2D>
        </newparam>
        <technique sid="common">
          <phong>
            <emission>
              <color sid="emission">0 0 0 1</color>
            </emission>
            <ambient>
              <color sid="ambient">0 0 0 1</color>
            </ambient>
            <diffuse>
              <texture texture="WindowDark1_jpg-sampler" texcoord="UVMap"/>
            </diffuse>
            <specular>
              <color sid="specular">0.02500001 0.02500001 0.02500001 1</color>
            </specular>
            <shininess>
              <float sid="shininess">50</float>
            </shininess>
            <index_of_refraction>
              <float sid="index_of_refraction">1</float>
            </index_of_refraction>
          </phong>
        </technique>
        <extra>
          <technique profile="GOOGLEEARTH">
            <double_sided>1</double_sided>
          </technique>
        </extra>
      </profile_COMMON>
      <extra><technique profile="MAX3D"><double_sided>1</double_sided></technique></extra>
    </effect>
  </library_effects>
  <library_materials>
    <material id="Wood-material" name="Wood">
      <instance_effect url="#Wood-effect"/>
    </material>
    <material id="WindowYellow2-material" name="WindowYellow2">
      <instance_effect url="#WindowYellow2-effect"/>
    </material>
    <material id="WindowDark1-material" name="WindowDark1">
      <instance_effect url="#WindowDark1-effect"/>
    </material>
  </library_materials>
  <library_geometries>
    <geometry id="Cube_004-mesh" name="Cube.004">
      <mesh>
        <source id="Cube_004-mesh-positions">
          <float_array id="Cube_004-mesh-positions-array" count="72">0.2743187 -0.03481531 -0.3066833 -0.2743184 -0.03481519 -0.3066833 0.2743184 -0.0348156 0.3066834 -0.2743185 -0.03481513 0.3066834 0.2743186 -0.03481543 -0.212517 0.2743185 -0.03481554 0.212517 -0.2743185 -0.03481519 -0.212517 -0.2743185 -0.03481513 0.212517 0.1711196 -0.03481537 -0.212517 -0.1711195 -0.03481525 -0.212517 0.1711195 -0.03481543 0.212517 -0.1711196 -0.03481531 0.212517 0.1711196 -0.007432401 -0.212517 -0.1711195 -0.007432281 -0.212517 0.1711195 -0.00743246 0.212517 -0.1711196 -0.007432341 0.212517 0.2743187 0.05593925 -0.3066833 -0.2743184 0.05593931 -0.3066833 0.2743184 0.05593895 0.3066834 -0.2743185 0.05593943 0.3066834 0.2743186 0.05593913 -0.212517 0.2743185 0.05593901 0.212517 -0.2743185 0.05593937 -0.212517 -0.2743185 0.05593937 0.212517</float_array>
          <technique_common>
            <accessor source="#Cube_004-mesh-positions-array" count="24" stride="3">
              <param name="X" type="float"/>
              <param name="Y" type="float"/>
              <param name="Z" type="float"/>
            </accessor>
          </technique_common>
        </source>
        <source id="Cube_004-mesh-normals">
          <float_array id="Cube_004-mesh-normals-array" count="108">-1.44393e-6 -1 0 -2.61241e-7 -1 -3.46672e-7 0 0 1 -1.15514e-6 -1 -1.40235e-7 0 0 -1 1 0 1.40235e-7 -1 0 -3.50587e-7 0 0 1 1 0 1.26594e-6 -1 0 0 -1 0 0 1 0 1.40235e-7 1 0 1.26594e-6 0 0 -1 -1 0 -1.26594e-6 -1.44393e-6 -1 3.16486e-7 -8.66355e-7 -1 0 -8.66355e-7 -1 3.16485e-7 -1.62962e-7 -1 -8.11566e-7 -5.7757e-7 -1 -1.26595e-6 0 0 1 -5.7757e-7 -1 -2.8047e-7 0 0 -1 1 0 1.40235e-7 -1 0 -3.50587e-7 0 0 1 1 0 1.26594e-6 -1 0 0 -1 0 0 1 0 1.40235e-7 1 0 1.26594e-6 0 0 -1 -1 0 -1.26594e-6 -3.48322e-7 -1 1.51718e-6 -1.15514e-6 -1 -6.32973e-7 -8.69131e-7 -1 -9.46416e-7</float_array>
          <technique_common>
            <accessor source="#Cube_004-mesh-normals-array" count="36" stride="3">
              <param name="X" type="float"/>
              <param name="Y" type="float"/>
              <param name="Z" type="float"/>
            </accessor>
          </technique_common>
        </source>
        <source id="Cube_004-mesh-map-0">
          <float_array id="Cube_004-mesh-map-0-array" count="216">0.4737382 0.8970897 0.3903656 0.8970897 0.3903654 0.5449712 0.237195 0.5560751 0.31327 0.1870529 0.3132703 0.47058 0.468508 0.672267 0.4685084 0.21775 0.5418275 0.2177501 0.2382514 0.8207402 0.1548786 0.8207402 0.1548786 0.4686218 0.5849388 0.5324378 0.6070609 0.5324378 0.607061 0.8159641 0.7155972 0.6956675 0.7155972 0.3435518 0.7377192 0.3435517 0.7601237 0.3435518 0.7601236 0.6956675 0.7380016 0.6956676 0.6070609 0.2486224 0.6070609 0.5321494 0.5849387 0.5321494 0.2371947 0.1015578 0.237195 0.02637243 0.3132702 0.02637267 0.468508 0.672267 0.4685079 0.7474525 0.3924323 0.7474523 0.3903656 0.8970897 0.3170464 0.8970897 0.3170464 0.5449713 0.2382515 0.4686218 0.3115707 0.4686218 0.3115706 0.8207402 0.3924331 0.21775 0.3924331 0.142565 0.4685083 0.1425648 0.237195 0.5560751 0.1638758 0.5560752 0.1638754 0.1015579 0.3132703 0.556075 0.3132705 0.6312603 0.2371953 0.6312605 0.468508 0.672267 0.3924325 0.6722669 0.3924326 0.586772 0.4737383 0.5449712 0.4737382 0.8970897 0.3903654 0.5449712 0.3132703 0.556075 0.237195 0.5560751 0.3132703 0.47058 0.2371947 0.1015578 0.31327 0.1870529 0.237195 0.5560751 0.2371947 0.1015578 0.31327 0.1015579 0.31327 0.1870529 0.5418274 0.6722671 0.468508 0.672267 0.5418275 0.2177501 0.2382515 0.4686218 0.2382514 0.8207402 0.1548786 0.4686218 0.5849387 0.8159641 0.5849388 0.5324378 0.607061 0.8159641 0.7377198 0.6956675 0.7155972 0.6956675 0.7377192 0.3435517 0.7380011 0.3435517 0.7601237 0.3435518 0.7380016 0.6956676 0.5849387 0.2486224 0.6070609 0.2486224 0.5849387 0.5321494 0.31327 0.1015579 0.2371947 0.1015578 0.3132702 0.02637267 0.3924325 0.6722669 0.468508 0.672267 0.3924323 0.7474523 0.3903654 0.5449712 0.3903656 0.8970897 0.3170464 0.5449713 0.2382514 0.8207402 0.2382515 0.4686218 0.3115706 0.8207402 0.4685084 0.21775 0.3924331 0.21775 0.4685083 0.1425648 0.2371947 0.1015578 0.237195 0.5560751 0.1638754 0.1015579 0.237195 0.5560751 0.3132703 0.556075 0.2371953 0.6312605 0.3924331 0.3032448 0.468508 0.672267 0.3924326 0.586772 0.3924331 0.3032448 0.3924331 0.21775 0.4685084 0.21775 0.3924331 0.3032448 0.4685084 0.21775 0.468508 0.672267</float_array>
          <technique_common>
            <accessor source="#Cube_004-mesh-map-0-array" count="108" stride="2">
              <param name="S" type="float"/>
              <param name="T" type="float"/>
            </accessor>
          </technique_common>
        </source>
        <vertices id="Cube_004-mesh-vertices">
          <input semantic="POSITION" source="#Cube_004-mesh-positions"/>
        </vertices>
        <polylist material="Wood-material" count="36">
          <input semantic="VERTEX" source="#Cube_004-mesh-vertices" offset="0"/>
          <input semantic="NORMAL" source="#Cube_004-mesh-normals" offset="1"/>
          <input semantic="TEXCOORD" source="#Cube_004-mesh-map-0" offset="2" set="0"/>
          <vcount>3 3 3 3 3 3 3 3 3 3 3 3 3 3 3 3 3 3 3 3 3 3 3 3 3 3 3 3 3 3 3 3 3 3 3 3 </vcount>
          <p>11 0 0 7 0 1 6 0 2 1 1 3 8 1 4 9 1 5 3 2 6 2 2 7 18 2 8 5 3 9 10 3 10 8 3 11 14 4 12 10 4 13 11 4 14 11 5 15 9 5 16 13 5 17 8 6 18 10 6 19 14 6 20 12 7 21 13 7 22 9 7 23 0 8 24 16 8 25 20 8 26 3 9 27 19 9 28 23 9 29 7 10 30 23 10 31 22 10 32 4 11 33 20 11 34 21 11 35 5 12 36 21 12 37 18 12 38 1 13 39 17 13 40 16 13 41 6 14 42 22 14 43 17 14 44 3 15 45 7 15 46 11 15 47 9 16 48 11 16 49 6 16 50 6 17 51 1 17 52 9 17 53 0 18 54 8 18 55 1 18 56 0 19 57 4 19 58 8 19 59 19 20 60 3 20 61 18 20 62 4 21 63 5 21 64 8 21 65 15 22 66 14 22 67 11 22 68 15 23 69 11 23 70 13 23 71 12 24 72 8 24 73 14 24 74 8 25 75 12 25 76 9 25 77 4 26 78 0 26 79 20 26 80 7 27 81 3 27 82 23 27 83 6 28 84 7 28 85 22 28 86 5 29 87 4 29 88 21 29 89 2 30 90 5 30 91 18 30 92 0 31 93 1 31 94 16 31 95 1 32 96 6 32 97 17 32 98 10 33 99 3 33 100 11 33 101 10 34 102 5 34 103 2 34 104 10 35 105 2 35 106 3 35 107</p>
        </polylist>
      </mesh>
    </geometry>
    <geometry id="Cube_017-mesh" name="Cube.017">
      <mesh>
        <source id="Cube_017-mesh-positions">
          <float_array id="Cube_017-mesh-positions-array" count="12">0.1711196 -0.007432401 -0.212517 -0.1711195 -0.007432281 -0.212517 0.1711195 -0.00743246 0.212517 -0.1711196 -0.007432341 0.212517</float_array>
          <technique_common>
            <accessor source="#Cube_017-mesh-positions-array" count="4" stride="3">
              <param name="X" type="float"/>
              <param name="Y" type="float"/>
              <param name="Z" type="float"/>
            </accessor>
          </technique_common>
        </source>
        <source id="Cube_017-mesh-normals">
          <float_array id="Cube_017-mesh-normals-array" count="6">-3.48322e-7 -1 0 -2.61241e-7 -1 -1.40235e-7</float_array>
          <technique_common>
            <accessor source="#Cube_017-mesh-normals-array" count="2" stride="3">
              <param name="X" type="float"/>
              <param name="Y" type="float"/>
              <param name="Z" type="float"/>
            </accessor>
          </technique_common>
        </source>
        <source id="Cube_017-mesh-map-0">
          <float_array id="Cube_017-mesh-map-0-array" count="12">0.9204919 0.4916123 0.5587142 0.4916123 0.5587142 0.04231262 0.9204921 0.04231256 0.9204919 0.4916123 0.5587142 0.04231262</float_array>
          <technique_common>
            <accessor source="#Cube_017-mesh-map-0-array" count="6" stride="2">
              <param name="S" type="float"/>
              <param name="T" type="float"/>
            </accessor>
          </technique_common>
        </source>
        <vertices id="Cube_017-mesh-vertices">
          <input semantic="POSITION" source="#Cube_017-mesh-positions"/>
        </vertices>
        <polylist material="WindowYellow2-material" count="2">
          <input semantic="VERTEX" source="#Cube_017-mesh-vertices" offset="0"/>
          <input semantic="NORMAL" source="#Cube_017-mesh-normals" offset="1"/>
          <input semantic="TEXCOORD" source="#Cube_017-mesh-map-0" offset="2" set="0"/>
          <vcount>3 3 </vcount>
          <p>2 0 0 3 0 1 1 0 2 0 1 3 2 1 4 1 1 5</p>
        </polylist>
      </mesh>
    </geometry>
    <geometry id="Cube_023-mesh" name="Cube.023">
      <mesh>
        <source id="Cube_023-mesh-positions">
          <float_array id="Cube_023-mesh-positions-array" count="144">0.00453788 -0.07548874 -0.3432939 0.00453788 -0.05268996 -0.3432939 0.1365857 -0.05269002 0.2742771 0.1365857 -0.0754888 0.2742771 -0.08532339 -0.07548874 -0.3306933 -0.08532339 -0.05268996 -0.3306933 0.04672431 -0.05269002 0.2868777 0.04672431 -0.0754888 0.2868777 -0.2429092 -0.05233329 -0.2575944 -0.2429092 -0.02953451 -0.2575944 0.2451724 -0.02953451 -0.2529839 0.2451724 -0.05233329 -0.2529839 -0.2427777 -0.05233329 -0.166854 -0.2427777 -0.02953451 -0.166854 0.2453039 -0.02953451 -0.1622434 0.2453039 -0.05233329 -0.1622434 -0.3153749 -0.05233329 -0.1519073 -0.3153749 -0.02953451 -0.1519073 0.2933984 -0.02953451 -0.1533492 0.2933984 -0.05233329 -0.1533492 -0.3151729 -0.05233329 -0.06116694 -0.3151729 -0.02953451 -0.06116694 0.2936004 -0.02953451 -0.06260889 0.2936004 -0.05233329 -0.06260889 -0.2212668 -0.05233329 -0.05293047 -0.2212668 -0.02953451 -0.05293047 0.2376 -0.02953451 -0.05087733 0.2376 -0.05233329 -0.05087733 -0.2227208 -0.05233329 0.0377984 -0.2227208 -0.02953451 0.0377984 0.2361461 -0.02953451 0.03985154 0.2361461 -0.05233329 0.03985154 -0.3228141 -0.05233329 0.04612362 -0.3228141 -0.02953457 0.04612362 0.3341322 -0.02953457 0.06066238 0.3341322 -0.05233329 0.06066238 -0.3242681 -0.05233329 0.1368525 -0.3242681 -0.02953457 0.1368525 0.3326783 -0.02953457 0.1513913 0.3326783 -0.05233329 0.1513913 -0.3587647 -0.05233335 0.1557687 -0.3587647 -0.02953457 0.1557687 0.245238 -0.02953457 0.172783 0.245238 -0.05233335 0.172783 -0.3627036 -0.05233335 0.2464237 -0.3627036 -0.02953457 0.2464237 0.241299 -0.02953457 0.2634381 0.241299 -0.05233335 0.2634381</float_array>
          <technique_common>
            <accessor source="#Cube_023-mesh-positions-array" count="48" stride="3">
              <param name="X" type="float"/>
              <param name="Y" type="float"/>
              <param name="Z" type="float"/>
            </accessor>
          </technique_common>
        </source>
        <source id="Cube_023-mesh-normals">
          <float_array id="Cube_023-mesh-normals-array" count="186">-0.1388648 0 -0.9903115 0 1 0 0.138864 0 0.9903115 0 -1 0 0.977896 0 -0.2090918 -0.977896 0 0.2090917 -0.9999989 0 0.001449704 0.999999 0 -0.001449704 0 -1 0 0.009445726 0 -0.9999554 -0.009445786 0 0.9999554 -0.9999976 0 0.002226114 0.9999976 0 -0.002226412 0 -1 0 -0.002368569 0 -0.9999973 0.002368569 0 0.9999973 -0.9998717 0 -0.01602298 0.9998717 0 0.01602298 0 -1 0 0.004474282 0 -0.9999901 -0.004474282 0 0.9999901 -0.9998717 0 -0.01602298 0.9998717 0 0.01602298 0 -1 0 0.02212536 0 -0.9997552 -0.02212536 0 0.9997552 -0.9990574 0 -0.04340851 0.9990574 0 0.04340881 0 -1 0 0.028158 0 -0.9996036 -0.028158 0 0.9996035 -0.1388648 0 -0.9903115 0 1 0 0.138864 0 0.9903115 0 -1 0 0.977896 0 -0.2090918 -0.977896 0 0.2090917 -0.9999989 0 0.001449704 0.999999 0 -0.001449704 0 -1 0 0.009445726 0 -0.9999554 -0.009445786 0 0.9999554 -0.9999976 0 0.002226114 0.9999976 0 -0.002226412 0 -1 0 -0.002368569 0 -0.9999973 0.002368569 0 0.9999973 -0.9998717 0 -0.01602298 0.9998717 0 0.01602298 0 -1 0 0.004474282 0 -0.9999899 -0.004474282 0 0.9999901 -0.9998717 0 -0.01602298 0.9998717 0 0.01602298 0 -1 0 0.02212536 0 -0.9997553 -0.02212536 0 0.9997552 -0.9990574 0 -0.04340851 0.9990574 0 0.04340881 0 -1 0 0.028158 0 -0.9996036 -0.028158 0 0.9996035</float_array>
          <technique_common>
            <accessor source="#Cube_023-mesh-normals-array" count="62" stride="3">
              <param name="X" type="float"/>
              <param name="Y" type="float"/>
              <param name="Z" type="float"/>
            </accessor>
          </technique_common>
        </source>
        <source id="Cube_023-mesh-map-0">
          <float_array id="Cube_023-mesh-map-0-array" count="372">0.3636798 0.6803594 0.3461645 0.6803594 0.3461645 0.6088727 0.2397753 0.7375118 0.1702402 0.7426066 0.1702406 0.2450773 0.5038684 0.7997445 0.5038684 0.7282577 0.5213837 0.7282577 0.2403239 0.7375123 0.240324 0.2399824 0.3098589 0.2450773 0.7967299 0.2399824 0.8142451 0.2399824 0.8142458 0.737505 0.7961811 0.7375055 0.7786659 0.7375055 0.7786651 0.2399824 0.6935573 0.2394351 0.6760419 0.2394348 0.6760429 0.167948 0.6818102 0.52758 0.6642948 0.5275805 0.664293 0.4560937 0.4675553 0.4625031 0.3978471 0.463281 0.3978527 0.07874596 0.4491803 0.7997445 0.431665 0.7997444 0.431665 0.4152103 0.4497154 0.4152102 0.4672307 0.4152102 0.467231 0.7997445 0.6990645 0.6736522 0.6815492 0.6736519 0.68155 0.6021652 0.6809979 0.6736525 0.6634826 0.6736519 0.6634852 0.6021652 0.2318407 0.03516995 0.2318295 0.5147725 0.1621174 0.5147606 0.4130794 0.7997444 0.3955643 0.7997444 0.3955627 0.3201485 0.5895451 0.3105625 0.6070602 0.3105629 0.6070501 0.7901586 0.6998741 0.5275805 0.6823588 0.5275805 0.6823588 0.4560937 0.7171293 0.6736519 0.699614 0.6736519 0.6996139 0.6021652 0.3950276 0.4382392 0.3950277 0.7997444 0.32532 0.7989189 0.5033322 0.7997445 0.4858171 0.7997444 0.4858171 0.4382445 0.4677659 0.4382445 0.485281 0.4382445 0.4852821 0.7997444 0.7042197 0.4555431 0.6867044 0.4555431 0.6867043 0.3840564 0.7116224 0.2394347 0.6941069 0.2394347 0.6941069 0.167948 0.1538624 0.9128586 0.0841515 0.9132949 0.08415156 0.395617 0.640823 0.9434795 0.6233079 0.9434794 0.623308 0.4258139 0.6052563 0.4258136 0.6227712 0.4258136 0.6227731 0.9434794 0.7179381 0.5275805 0.7004228 0.5275805 0.7004228 0.4560937 0.7222837 0.4555431 0.7047684 0.4555431 0.7047684 0.3840563 0.3099439 0.266896 0.3099439 0.7429262 0.2402397 0.7418354 0.5889991 0.7901586 0.5714837 0.7901586 0.5714841 0.3141246 0.4136145 0.3237153 0.4311299 0.3237153 0.4311299 0.7997444 0.3636798 0.6088727 0.3636798 0.6803594 0.3461645 0.6088727 0.2397753 0.2399824 0.2397753 0.7375118 0.1702406 0.2450773 0.5213837 0.7997445 0.5038684 0.7997445 0.5213837 0.7282577 0.3098588 0.7426072 0.2403239 0.7375123 0.3098589 0.2450773 0.7967298 0.7375051 0.7967299 0.2399824 0.8142458 0.737505 0.7961812 0.2399824 0.7961811 0.7375055 0.7786651 0.2399824 0.6935583 0.1679483 0.6935573 0.2394351 0.6760429 0.167948 0.6818084 0.4560933 0.6818102 0.52758 0.664293 0.4560937 0.4675609 0.07796812 0.4675553 0.4625031 0.3978527 0.07874596 0.4491804 0.4152103 0.4491803 0.7997445 0.431665 0.4152103 0.4497154 0.7997445 0.4497154 0.4152102 0.467231 0.7997445 0.6990653 0.6021654 0.6990645 0.6736522 0.68155 0.6021652 0.6810005 0.6021658 0.6809979 0.6736525 0.6634852 0.6021652 0.1621285 0.03515803 0.2318407 0.03516995 0.1621174 0.5147606 0.4130787 0.3201485 0.4130794 0.7997444 0.3955627 0.3201485 0.5895342 0.7901583 0.5895451 0.3105625 0.6070501 0.7901586 0.6998741 0.4560937 0.6998741 0.5275805 0.6823588 0.4560937 0.7171293 0.6021652 0.7171293 0.6736519 0.6996139 0.6021652 0.32532 0.4374135 0.3950276 0.4382392 0.32532 0.7989189 0.5033333 0.4382445 0.5033322 0.7997445 0.4858171 0.4382445 0.467766 0.7997445 0.4677659 0.4382445 0.4852821 0.7997444 0.7042197 0.3840563 0.7042197 0.4555431 0.6867043 0.3840564 0.7116224 0.167948 0.7116224 0.2394347 0.6941069 0.167948 0.1538629 0.3951809 0.1538624 0.9128586 0.08415156 0.395617 0.6408246 0.4258139 0.640823 0.9434795 0.623308 0.4258139 0.6052563 0.9434795 0.6052563 0.4258136 0.6227731 0.9434794 0.7179381 0.4560937 0.7179381 0.5275805 0.7004228 0.4560937 0.7222837 0.3840563 0.7222837 0.4555431 0.7047684 0.3840563 0.2402397 0.2658051 0.3099439 0.266896 0.2402397 0.7418354 0.5889991 0.3141246 0.5889991 0.7901586 0.5714841 0.3141246 0.4136143 0.7997444 0.4136145 0.3237153 0.4311299 0.7997444</float_array>
          <technique_common>
            <accessor source="#Cube_023-mesh-map-0-array" count="186" stride="2">
              <param name="S" type="float"/>
              <param name="T" type="float"/>
            </accessor>
          </technique_common>
        </source>
        <vertices id="Cube_023-mesh-vertices">
          <input semantic="POSITION" source="#Cube_023-mesh-positions"/>
        </vertices>
        <polylist material="Wood-material" count="62">
          <input semantic="VERTEX" source="#Cube_023-mesh-vertices" offset="0"/>
          <input semantic="NORMAL" source="#Cube_023-mesh-normals" offset="1"/>
          <input semantic="TEXCOORD" source="#Cube_023-mesh-map-0" offset="2" set="0"/>
          <vcount>3 3 3 3 3 3 3 3 3 3 3 3 3 3 3 3 3 3 3 3 3 3 3 3 3 3 3 3 3 3 3 3 3 3 3 3 3 3 3 3 3 3 3 3 3 3 3 3 3 3 3 3 3 3 3 3 3 3 3 3 3 3 </vcount>
          <p>4 0 0 5 0 1 1 0 2 6 1 3 2 1 4 1 1 5 7 2 6 3 2 7 2 2 8 7 3 9 4 3 10 0 3 11 0 4 12 1 4 13 2 4 14 7 5 15 6 5 16 5 5 17 12 6 18 13 6 19 9 6 20 14 7 21 15 7 22 11 7 23 12 8 24 8 8 25 11 8 26 8 9 27 9 9 28 10 9 29 15 10 30 14 10 31 13 10 32 20 11 33 21 11 34 17 11 35 22 12 36 23 12 37 19 12 38 23 13 39 20 13 40 16 13 41 16 14 42 17 14 43 18 14 44 23 15 45 22 15 46 21 15 47 28 16 48 29 16 49 25 16 50 30 17 51 31 17 52 27 17 53 31 18 54 28 18 55 24 18 56 24 19 57 25 19 58 26 19 59 31 20 60 30 20 61 29 20 62 36 21 63 37 21 64 33 21 65 38 22 66 39 22 67 35 22 68 36 23 69 32 23 70 35 23 71 32 24 72 33 24 73 34 24 74 39 25 75 38 25 76 37 25 77 44 26 78 45 26 79 41 26 80 46 27 81 47 27 82 43 27 83 47 28 84 44 28 85 40 28 86 40 29 87 41 29 88 42 29 89 47 30 90 46 30 91 45 30 92 0 31 93 4 31 94 1 31 95 5 32 96 6 32 97 1 32 98 6 33 99 7 33 100 2 33 101 3 34 102 7 34 103 0 34 104 3 35 105 0 35 106 2 35 107 4 36 108 7 36 109 5 36 110 8 37 111 12 37 112 9 37 113 10 38 114 14 38 115 11 38 116 15 39 117 12 39 118 11 39 119 11 40 120 8 40 121 10 40 122 12 41 123 15 41 124 13 41 125 16 42 126 20 42 127 17 42 128 18 43 129 22 43 130 19 43 131 19 44 132 23 44 133 16 44 134 19 45 135 16 45 136 18 45 137 20 46 138 23 46 139 21 46 140 24 47 141 28 47 142 25 47 143 26 48 144 30 48 145 27 48 146 27 49 147 31 49 148 24 49 149 27 50 150 24 50 151 26 50 152 28 51 153 31 51 154 29 51 155 32 52 156 36 52 157 33 52 158 34 53 159 38 53 160 35 53 161 39 54 162 36 54 163 35 54 164 35 55 165 32 55 166 34 55 167 36 56 168 39 56 169 37 56 170 40 57 171 44 57 172 41 57 173 42 58 174 46 58 175 43 58 176 43 59 177 47 59 178 40 59 179 43 60 180 40 60 181 42 60 182 44 61 183 47 61 184 45 61 185</p>
        </polylist>
      </mesh>
    </geometry>
  </library_geometries>
  <library_controllers/>
  <library_visual_scenes>
    <visual_scene id="Scene" name="Scene">
      <node id="WindowsSingleLow1Frame" name="WindowsSingleLow1Frame" type="NODE">
        <matrix sid="transform">1 0 0 5 0 1 0 0 0 0 1 0 0 0 0 1</matrix>
        <instance_geometry url="#Cube_004-mesh">
          <bind_material>
            <technique_common>
              <instance_material symbol="Wood-material" target="#Wood-material">
                <bind_vertex_input semantic="UVMap" input_semantic="TEXCOORD" input_set="0"/>
              </instance_material>
            </technique_common>
          </bind_material>
        </instance_geometry>
      </node>
      <node id="WindowsSingleLow1" name="WindowsSingleLow1" type="NODE">
        <matrix sid="transform">1 0 0 5 0 1 0 0 0 0 1 0 0 0 0 1</matrix>
        <instance_geometry url="#Cube_017-mesh">
          <bind_material>
            <technique_common>
              <instance_material symbol="WindowYellow2-material" target="#WindowYellow2-material">
                <bind_vertex_input semantic="UVMap" input_semantic="TEXCOORD" input_set="0"/>
              </instance_material>
            </technique_common>
          </bind_material>
        </instance_geometry>
      </node>
      <node id="WindowsSingleLowBoards" name="WindowsSingleLowBoards" type="NODE">
        <matrix sid="transform">1 0 0 5 0 1 0 0 0 0 1 0 0 0 0 1</matrix>
        <instance_geometry url="#Cube_023-mesh">
          <bind_material>
            <technique_common>
              <instance_material symbol="Wood-material" target="#Wood-material">
                <bind_vertex_input semantic="UVMap" input_semantic="TEXCOORD" input_set="0"/>
              </instance_material>
              <instance_material symbol="WindowDark1-material" target="#WindowDark1-material">
                <bind_vertex_input semantic="UVMap" input_semantic="TEXCOORD" input_set="0"/>
              </instance_material>
              <instance_material symbol="Wood-material" target="#Wood-material">
                <bind_vertex_input semantic="UVMap" input_semantic="TEXCOORD" input_set="0"/>
              </instance_material>
            </technique_common>
          </bind_material>
        </instance_geometry>
      </node>
    </visual_scene>
  </library_visual_scenes>
  <scene>
    <instance_visual_scene url="#Scene"/>
  </scene>
</COLLADA>