<?xml version="1.0" encoding="utf-8"?>
<COLLADA xmlns="http://www.collada.org/2005/11/COLLADASchema" version="1.4.1">
  <asset>
    <contributor>
      <author>Duion</author>
      <authoring_tool>Blender 2.65.0 r53189</authoring_tool>
    </contributor>
    <created>2013-06-11T17:54:37</created>
    <modified>2013-06-11T17:54:37</modified>
    <unit name="meter" meter="1"/>
    <up_axis>Z_UP</up_axis>
  </asset>
  <library_lights>
    <light id="Hemi-light" name="Hemi">
      <technique_common>
        <ambient>
          <color>1 1 1</color>
        </ambient>
      </technique_common>
      <extra>
        <technique profile="blender">
          <adapt_thresh>0.000999987</adapt_thresh>
          <area_shape>0</area_shape>
          <area_size>0.1</area_size>
          <area_sizey>0.1</area_sizey>
          <area_sizez>0.1</area_sizez>
          <atm_distance_factor>1</atm_distance_factor>
          <atm_extinction_factor>1</atm_extinction_factor>
          <atm_turbidity>2</atm_turbidity>
          <att1>0</att1>
          <att2>1</att2>
          <backscattered_light>1</backscattered_light>
          <bias>1</bias>
          <blue>1</blue>
          <buffers>1</buffers>
          <bufflag>0</bufflag>
          <bufsize>512</bufsize>
          <buftype>2</buftype>
          <clipend>40</clipend>
          <clipsta>0.5</clipsta>
          <compressthresh>0.04999995</compressthresh>
          <dist sid="blender_dist">25</dist>
          <energy sid="blender_energy">1</energy>
          <falloff_type>2</falloff_type>
          <filtertype>0</filtertype>
          <flag>0</flag>
          <gamma sid="blender_gamma">1</gamma>
          <green>1</green>
          <halo_intensity sid="blnder_halo_intensity">1</halo_intensity>
          <horizon_brightness>1</horizon_brightness>
          <mode>1</mode>
          <ray_samp>1</ray_samp>
          <ray_samp_method>1</ray_samp_method>
          <ray_samp_type>0</ray_samp_type>
          <ray_sampy>1</ray_sampy>
          <ray_sampz>1</ray_sampz>
          <red>1</red>
          <samp>3</samp>
          <shadhalostep>0</shadhalostep>
          <shadow_b sid="blender_shadow_b">0</shadow_b>
          <shadow_g sid="blender_shadow_g">0</shadow_g>
          <shadow_r sid="blender_shadow_r">0</shadow_r>
          <shadspotsize>45</shadspotsize>
          <sky_colorspace>2</sky_colorspace>
          <sky_exposure>1</sky_exposure>
          <skyblendfac>1</skyblendfac>
          <skyblendtype>1</skyblendtype>
          <soft>3</soft>
          <spotblend>0.15</spotblend>
          <spotsize>45</spotsize>
          <spread>1</spread>
          <sun_brightness>1</sun_brightness>
          <sun_effect_type>0</sun_effect_type>
          <sun_intensity>1</sun_intensity>
          <sun_size>1</sun_size>
          <type>3</type>
        </technique>
      </extra>
    </light>
  </library_lights>
  <library_images/>
  <library_effects>
    <effect id="rock_brown_01-effect">
      <profile_COMMON>
        <technique sid="common">
          <phong>
            <emission>
              <color sid="emission">0 0 0 1</color>
            </emission>
            <ambient>
              <color sid="ambient">0 0 0 1</color>
            </ambient>
            <diffuse>
              <color sid="diffuse">0.64 0.64 0.64 1</color>
            </diffuse>
            <specular>
              <color sid="specular">0.5 0.5 0.5 1</color>
            </specular>
            <shininess>
              <float sid="shininess">50</float>
            </shininess>
            <index_of_refraction>
              <float sid="index_of_refraction">1</float>
            </index_of_refraction>
          </phong>
        </technique>
        <extra>
          <technique profile="GOOGLEEARTH">
            <double_sided>1</double_sided>
          </technique>
        </extra>
      </profile_COMMON>
      <extra><technique profile="MAX3D"><double_sided>1</double_sided></technique></extra>
    </effect>
  </library_effects>
  <library_materials>
    <material id="rock_brown_01-material" name="rock_brown_01">
      <instance_effect url="#rock_brown_01-effect"/>
    </material>
  </library_materials>
  <library_geometries>
    <geometry id="rockflat96-mesh" name="rockflat96">
      <mesh>
        <source id="rockflat96-mesh-positions">
          <float_array id="rockflat96-mesh-positions-array" count="348">-0.9204146 0.2400112 0.1716629 0.8536405 1.042699 -0.5446177 0.8939362 -0.7826266 -0.3582536 -0.6752257 -0.7828234 -0.4730492 0.2308478 0.5580363 -0.5457727 -0.71736 0.9745085 0.6189894 -1.033056 -0.1682928 -0.5031871 -0.8840102 -0.8867523 -0.2423816 -1.357066 0.9451227 -0.06210029 -0.4460725 1.146602 -0.4480847 -0.6070685 -1.152084 0.04775387 0.9940069 1.430081 0.1286455 0.2624576 -0.937888 -0.5769673 -0.007455766 -1.293488 -0.4056391 0.8451798 -0.8850112 -0.0065521 1.036824 -0.04215574 0.1352049 1.349509 0.433273 0.1737745 0.2090513 -0.3243902 0.1264067 0.229695 -1.351352 -0.2267923 -0.3915629 -0.1853577 -0.5744699 0.1568119 -1.148625 -0.5173854 -0.6728789 -0.01338368 0.228114 -0.1192426 -0.07739746 0.1824446 0.3217653 1.129425 0.6069244 -0.5480914 0.2457751 0.2650575 -1.116639 -0.1823375 -0.2292765 -0.09485262 0.2646256 0.2936044 0.5641674 1.22056 -0.5953431 0.413257 1.778894 -0.354043 1.169951 1.318747 -0.2230839 0.9051083 -0.4779712 -0.4640247 -0.01500427 -1.38382 -0.2273026 0.5672534 -0.649042 -0.5745777 -0.6003211 1.47981 0.02984929 -1.388749 0.540049 -0.3802477 -0.6559196 -1.103358 -0.1847468 -0.8947271 -0.9605409 0.002986431 -0.3955017 -1.088494 -0.3046282 0.02540862 0.9196096 0.7647648 -0.8089815 0.5432283 0.3264865 -0.325877 0.8165066 0.7395882 -0.3364649 1.064729 0.7059032 -0.8739953 -0.5263255 -0.4630056 -0.6015956 1.471334 -0.302672 -1.347324 0.174414 -0.4141382 1.553153 0.4657101 0.003241121 -0.8372329 -0.2119165 0.2483253 -0.5301182 -0.2489965 0.2839921 0.7156373 1.654729 -0.2783764 -1.482236 0.3039985 -0.2339454 0.388553 0.1305519 0.1126424 -0.5619898 1.329422 0.3450282 1.107647 1.114495 -0.3801656 0.7321678 0.4767318 -0.529569 -1.082172 1.206216 0.312971 -0.8088524 1.185174 0.5265783 0.9325831 -0.5142573 0.1030014 -0.1271317 -1.142805 0.03700929 0.3861079 1.536615 0.3018053 1.091619 -0.2520818 -0.001496851 -0.6220369 0.780143 0.6607202 1.477309 0.8100478 -0.1410651 -1.142257 -0.2091633 -0.01525646 1.603959 0.7740582 0.0531432 0.07167845 1.694712 -0.478518 0.9694559 0.3232862 0.2574759 0.7206177 0.04965865 0.1120725 0.8349019 -0.3066866 0.1247877 0.01326507 -1.357977 -0.08580046 -1.1178 0.1351021 -0.5453137 0.2126893 -1.284869 -0.4009579 0.237137 -1.265231 -0.06253939 0.603174 -1.079958 -0.03309941 -0.4650859 0.4660416 -0.4890006 0.2055805 -0.6497532 0.1075383 -0.5551363 1.13654 0.5637173 -0.2106674 -0.5558985 0.157615 -0.8249286 -0.8373554 0.1263236 -1.458637 0.3109701 -0.08408319 0.6966716 -1.060681 -0.3435135 1.082036 -0.05601423 -0.3687276 -0.2631126 -0.8060712 -0.5253906 -0.03169083 1.191053 0.634051 -0.883548 -0.04504281 -0.5925573 0.8172329 1.478297 -0.515088 0.769528 1.375252 0.3539876 -0.9275773 0.7648588 -0.4868834 -1.080276 1.024518 -0.4278797 -0.02388042 1.784526 -0.2668784 1.300119 1.148704 0.1942349 -1.199317 0.7069498 0.1774989 0.7905141 -0.6602252 0.1220161 0.4095204 -0.1356782 0.06734204 0.422739 0.6937217 0.5783578 0.6400413 0.3766395 0.302517 0.9576407 0.9607052 0.4604457 0.4458366 1.68898 0.08203274 -0.3126638 -1.2676 -0.1031261 -0.7634094 -0.5335083 -0.5579673 1.054007 -0.3796517 -0.2933731 1.300439 0.2431643 -0.1732496 0.2617613 -0.08317601 -0.6136667 -1.229074 1.253709 -0.1160205 -1.240925 1.157907 -0.3185606 0.5850549 -0.9965274 -0.5180034 0.9487331 0.5793761 -0.4685102 -0.5828684 -0.5127564 0.2693432 -1.363129 1.023637 -0.2410572 -1.125934 0.09484982 0.120398 -0.959073 1.120869 0.4704882 -0.03102952 1.639778 0.1350856 -1.345315 0.284899 0.06268471 0.4880208 1.6495 -0.5363347 0.9874969 1.185161 0.3919354 1.488623 1.058507 -0.01695406 0.9112673 0.6582522 0.4461342</float_array>
          <technique_common>
            <accessor source="#rockflat96-mesh-positions-array" count="116" stride="3">
              <param name="X" type="float"/>
              <param name="Y" type="float"/>
              <param name="Z" type="float"/>
            </accessor>
          </technique_common>
        </source>
        <source id="rockflat96-mesh-normals">
          <float_array id="rockflat96-mesh-normals-array" count="348">0.05056911 -0.1542405 0.9867244 0.3885312 -0.6768701 0.6251717 0.196234 -0.2417066 0.9502854 -0.2425306 0.2717063 -0.9313029 -0.7453231 0.1555833 -0.6482742 -0.5529344 0.5483871 -0.6272774 0.0262764 0.03204441 -0.999115 0.2152776 -0.07538068 -0.973632 0.01269567 -0.182287 -0.9831538 -0.7158422 -0.3636891 -0.5960265 -0.3356121 -0.4918363 -0.8033692 -0.73867 -0.5163732 -0.4332103 0.1989196 -0.3648793 0.9095432 0.06649982 -0.397473 0.9151891 0.04361093 -0.561449 0.8263497 -0.3757134 0.7421491 -0.5549791 -0.1347392 0.169927 -0.9761956 -0.3096103 -0.9425337 0.1254616 -0.2270272 -0.7125462 -0.6638386 -0.1581469 -0.9736931 -0.1638538 0.1634876 -0.08227789 0.9830927 -0.05533003 0.08279669 0.9950255 0.07089447 0.06479078 0.9953612 0.3572192 0.005615353 -0.9339885 0.03326517 0.04910427 -0.9982299 0.4704123 0.4751732 -0.743553 0.6172063 0.1393475 -0.7743156 -0.1728568 0.4532914 0.8744164 -0.108951 -0.2714011 0.956267 0.1469771 -0.02740561 0.9887387 0.4720603 -0.04419076 -0.8804285 -0.140141 -0.03067106 -0.9896543 -0.0104373 0.1024506 -0.9946593 -0.01855522 0.01492351 -0.9996948 0.1778923 0.9035921 0.3896908 -0.2361827 0.9676504 -0.08832055 -0.1656544 0.8586078 0.4850917 0.7004914 0.05505537 -0.7115085 0.8498489 0.5165563 -0.1043428 0.9738152 0.06274604 0.2183904 -0.1918699 0.5806146 -0.7912229 0.8228706 -0.4134647 -0.3896908 0.5821406 -0.1438947 -0.8002259 0.9087496 -0.3077791 -0.2817469 0.2968841 -0.2858974 0.911069 -0.1384319 -0.3649404 0.9206519 0.6374706 -0.7234107 -0.2650532 0.385937 -0.4461501 -0.8074282 0.3194067 -0.9475387 -0.00943017 -8.24e-4 -0.8239693 0.5666067 -0.6068301 0.14185 0.7820368 -0.6481216 0.5560778 0.520249 -0.6419874 -0.07907342 0.7625965 0.4746544 0.8744164 -0.1001312 0.1823786 0.962096 -0.2026429 -0.1684927 -0.28605 -0.9432661 -0.3308817 -0.6462905 -0.687582 -0.4427625 -0.7998291 -0.4052248 0.07034516 -0.5023957 0.8617511 0.1416059 -0.4029969 0.9041414 0.5173803 -0.2787255 0.8090457 -0.3552049 -0.04278695 0.9337748 -0.4176763 -0.1729484 0.8919645 -0.8604694 -0.377575 0.3420209 -0.7707755 -0.5760674 0.271981 -0.855678 -0.4696493 -0.2172613 0.6848964 -0.5587634 0.4676046 0.5519273 -0.2233344 0.8033998 0.1759086 -0.01498454 -0.984283 -0.04852437 0.04077267 -0.9979858 0.02914518 -0.4223151 0.905942 0.7029939 0.6223335 -0.3441877 0.6771447 -0.099002 -0.7291177 0.7356792 -0.2472915 -0.6305429 0.08877831 0.728782 0.6789148 -0.002410948 0.6082949 0.7936643 0.3010956 0.6127812 0.7306131 -0.01104766 -0.173986 0.9846797 -0.4565263 -0.3080538 0.8346507 -0.3105564 -0.7760857 0.5488144 -0.4560991 0.05243074 0.8883633 -0.1489303 0.649617 0.7455062 -0.2569048 0.6106144 0.7490769 -0.466506 -0.3938413 0.7919553 -0.4269234 -0.2948698 0.8548235 -0.6468093 -0.3714408 -0.666036 -0.7420271 -0.315714 -0.5913267 0.9417402 -0.336314 3.05185e-5 -0.3447676 -0.043733 -0.9376507 -0.3202002 -0.2766808 -0.9060335 -0.2508011 -0.1103549 0.9616993 -0.9196448 -0.1820429 0.347911 -0.651265 -0.1667531 0.7402875 0.2056947 -0.7983642 -0.5659047 -0.9688101 -0.2017884 -0.1435896 -0.927427 0.1982787 0.3170568 -0.6637166 0.7476119 0.02276676 0.00225836 -0.008728265 0.999939 0.2573321 -0.2669759 0.9286782 0.04458749 0.04327523 0.9980468 0.1117893 0.02157658 0.9934691 0.3826411 0.08743548 0.9197363 0.5069735 0.7893918 0.3460494 -0.3507187 0.9086886 0.2264168 -0.1914426 0.816126 0.5452132 -0.05676442 0.1308938 -0.9897458 0.8684347 -0.3567308 0.3442183 0.3679617 0.408002 0.8355053 0.6316111 0.498825 0.5934324 -0.0954619 -0.2554399 0.9620655 0.1622363 0.5644704 -0.8093203 -0.02520829 -0.4399853 -0.897641 0.2504349 -0.6614582 0.7069002 0.188818 -0.1620227 0.9685354 0.2489395 0.3424177 0.905942 -0.9187902 0.3102512 -0.2439039</float_array>
          <technique_common>
            <accessor source="#rockflat96-mesh-normals-array" count="116" stride="3">
              <param name="X" type="float"/>
              <param name="Y" type="float"/>
              <param name="Z" type="float"/>
            </accessor>
          </technique_common>
        </source>
        <source id="rockflat96-mesh-map-0">
          <float_array id="rockflat96-mesh-map-0-array" count="1368">0.0595979 -0.0950402 -0.006918907 -0.2561345 0.1300147 -0.2355648 0.02766937 0.6978024 -0.0103746 0.4664867 0.1498536 0.6680647 -0.7131639 0.2213757 -0.6627445 -0.134756 -0.4454757 -0.1335803 -0.192391 0.2088164 -0.2224478 0.1286546 -0.1526404 0.122527 0.4093546 0.08100861 0.2609323 -0.0327875 0.3648225 -0.0341767 0.2227149 0.7707829 0.477196 0.5881385 0.5550155 0.7324621 -0.1482787 -0.0297802 -0.2423623 -0.121139 -0.1762048 -0.1176414 0.1477667 0.05028945 0.08697104 0.1740515 0.05894869 0.1134065 0.7975162 -0.5850824 0.8757971 -0.7324956 1.018603 -0.5995904 0.7975162 -0.5850824 1.018603 -0.5995904 0.8316024 -0.4435992 0.3639583 0.2683837 0.3266332 0.2306848 0.3925987 0.1925632 0.7975162 -0.5850824 0.8316024 -0.4435992 0.5961151 -0.5245829 -0.218799 0.362857 -0.3620361 0.5981988 -0.3989914 0.2848735 0.6639152 0.2727887 0.6404784 0.4406836 0.5578919 0.357054 0.662987 -0.2746981 0.74967 -0.1749075 0.6262759 -0.2110908 0.6404784 0.4406836 0.7066618 0.4829009 0.477196 0.5881385 0.08869218 -0.4010707 0.1853596 -0.4643886 0.2384524 -0.3879675 0.3648225 -0.0341767 0.478793 -0.03151106 0.4093546 0.08100861 0.1477667 0.05028945 0.1570691 0.1865423 0.08697104 0.1740515 0.08869218 -0.4010707 -0.03485131 -0.3696056 -0.09428203 -0.4697066 -0.1589478 -0.1976078 -0.1371493 -0.1178066 -0.1762048 -0.1176414 0.2768131 0.3840309 0.2689962 0.4333089 0.1452609 0.3874967 0.08869218 -0.4010707 -0.09428203 -0.4697066 0.1853596 -0.4643886 0.6639152 0.2727887 0.8145864 0.2686285 0.7543454 0.3706297 -0.2224478 0.1286546 -0.3207536 0.05661159 -0.208832 0.01591867 -0.2224478 0.1286546 -0.208832 0.01591867 -0.1575586 0.06014329 -0.2224478 0.1286546 -0.1575586 0.06014329 -0.1526404 0.122527 0.3266332 0.2306848 0.2260419 0.09672558 0.4093546 0.08100861 0.7543454 0.3706297 0.8145864 0.2686285 0.9702702 0.2872015 0.411222 -0.118895 0.5062535 -0.1890073 0.478793 -0.03151106 0.02551329 0.1763955 0.03809446 0.2801399 -0.04050284 0.250439 -0.1125572 0.1007394 -0.04050284 0.250439 -0.0876531 0.2817221 0.1300147 -0.2355648 0.07817906 -0.2895905 0.1846497 -0.2543246 0.5397022 -0.6120471 0.5388365 -0.8391881 0.8757971 -0.7324956 0.0595979 -0.0950402 -0.08870148 -0.06555759 -0.006918907 -0.2561345 0.5397022 -0.6120471 0.8757971 -0.7324956 0.7975162 -0.5850824 0.5397022 -0.6120471 0.7975162 -0.5850824 0.5961151 -0.5245829 0.5397022 -0.6120471 0.2590513 -0.7648687 0.5388365 -0.8391881 0.9401671 -0.3490274 0.74967 -0.1749075 0.662987 -0.2746981 0.2384524 -0.3879675 0.3542321 -0.4195939 0.4754121 -0.3332074 0.594242 0.2383665 0.5578919 0.357054 0.434765 0.24508 0.6292951 0.1253697 0.6639152 0.2727887 0.594242 0.2383665 0.004209697 0.09196937 -0.07877498 0.1004781 -0.1137116 0.04101145 0.2949883 0.31932 0.3471339 0.3253778 0.3100357 0.3683711 0.2949883 0.31932 0.3100357 0.3683711 0.2768131 0.3840309 0.2227149 0.7707829 0.1498536 0.6680647 0.477196 0.5881385 0.2949883 0.31932 0.2768131 0.3840309 0.1821575 0.2828252 0.2949883 0.31932 0.1821575 0.2828252 0.2808541 0.2748189 -0.1629565 0.3165493 -0.192391 0.2088164 -0.0876531 0.2817221 -0.1629565 0.3165493 -0.0876531 0.2817221 -0.06126165 0.3939738 0.4754121 -0.3332074 0.662987 -0.2746981 0.5523075 -0.2497307 -0.1629565 0.3165493 -0.06126165 0.3939738 -0.1284538 0.4054515 -0.1629565 0.3165493 -0.1284538 0.4054515 -0.218799 0.362857 0.02551329 0.1763955 -0.07877498 0.1004781 0.004209697 0.09196937 -0.1629565 0.3165493 -0.218799 0.362857 -0.2338107 0.2042676 -0.1629565 0.3165493 -0.2338107 0.2042676 -0.192391 0.2088164 0.02551329 0.1763955 0.09772044 0.2614951 0.03809446 0.2801399 0.01982188 0.3781998 -0.04050284 0.250439 0.04308384 0.3466741 -0.03485131 -0.3696056 -0.1589478 -0.1976078 -0.2498195 -0.2315936 -0.1575586 0.06014329 -0.1125572 0.1007394 -0.1526404 0.122527 -0.1575586 0.06014329 -0.1482787 -0.0297802 -0.1137116 0.04101145 -0.1125572 0.1007394 -0.07877498 0.1004781 -0.04050284 0.250439 0.01982188 0.3781998 -0.007260799 0.3989242 -0.0876531 0.2817221 0.01982188 0.3781998 -0.0876531 0.2817221 -0.04050284 0.250439 0.9401671 -0.3490274 0.662987 -0.2746981 0.8316024 -0.4435992 0.1360781 0.4956408 0.1452609 0.3874967 0.2689962 0.4333089 0.6639152 0.2727887 0.7543454 0.3706297 0.6404784 0.4406836 0.1360781 0.4956408 0.2689962 0.4333089 0.2268093 0.5657956 0.2255528 -0.2000942 0.1846497 -0.2543246 0.3319708 -0.2139638 0.2073474 -0.07503575 0.1371696 -0.05508249 0.2255528 -0.2000942 0.6262759 -0.2110908 0.5537356 0.009018838 0.5062535 -0.1890073 0.6292951 0.1253697 0.729271 0.08675646 0.6639152 0.2727887 0.1300147 -0.2355648 0.2255528 -0.2000942 0.1371696 -0.05508249 0.5550155 0.7324621 0.477196 0.5881385 0.7066618 0.4829009 -0.1482787 -0.0297802 -0.1762048 -0.1176414 -0.1371493 -0.1178066 0.03809446 0.2801399 0.04308384 0.3466741 -0.04050284 0.250439 0.662987 -0.2746981 0.4754121 -0.3332074 0.8316024 -0.4435992 0.1853596 -0.4643886 0.5961151 -0.5245829 0.3542321 -0.4195939 0.01982188 0.3781998 0.1452609 0.3874967 0.1360781 0.4956408 -0.06126165 0.3939738 -0.0876531 0.2817221 -0.007260799 0.3989242 0.5578919 0.357054 0.4304923 0.4774681 0.3877362 0.3857024 0.01982188 0.3781998 0.1360781 0.4956408 -0.007260799 0.3989242 -0.1526404 0.122527 -0.1125572 0.1007394 -0.0876531 0.2817221 0.2227149 0.7707829 0.5550155 0.7324621 0.3042351 0.9240203 0.284286 -0.2879893 0.3319708 -0.2139638 0.1846497 -0.2543246 0.6292951 0.1253697 0.6143838 0.0377891 0.687711 -0.05627888 0.5578919 0.357054 0.6404784 0.4406836 0.4304923 0.4774681 0.5537356 0.009018838 0.478793 -0.03151106 0.5062535 -0.1890073 0.3877362 0.3857024 0.3471339 0.3253778 0.434765 0.24508 0.2768131 0.3840309 0.1452609 0.3874967 0.1821575 0.2828252 0.2073474 -0.07503575 0.2255528 -0.2000942 0.2957754 -0.1169366 -0.218799 0.362857 -0.083965 0.6393091 -0.3620361 0.5981988 0.729271 0.08675646 0.687711 -0.05627888 0.74967 -0.1749075 0.729271 0.08675646 0.74967 -0.1749075 0.8963041 0.01383805 0.729271 0.08675646 0.8963041 0.01383805 0.8145864 0.2686285 0.729271 0.08675646 0.8145864 0.2686285 0.6639152 0.2727887 0.3542321 -0.4195939 0.5961151 -0.5245829 0.4754121 -0.3332074 0.3266332 0.2306848 0.2808541 0.2748189 0.1570691 0.1865423 -0.2338107 0.2042676 -0.3989914 0.2848735 -0.3207536 0.05661159 0.3042351 0.9240203 0.5550155 0.7324621 0.5833284 1.075504 0.05152517 -0.5799837 0.1853596 -0.4643886 -0.09428203 -0.4697066 0.6262759 -0.2110908 0.5062535 -0.1890073 0.5523075 -0.2497307 0.1477667 0.05028945 0.05894869 0.1134065 0.1371696 -0.05508249 0.1300147 -0.2355648 0.1371696 -0.05508249 0.0595979 -0.0950402 -0.2338107 0.2042676 -0.3207536 0.05661159 -0.2224478 0.1286546 -0.3989914 0.2848735 -0.3620361 0.5981988 -0.7723796 0.5887454 0.2384524 -0.3879675 0.4754121 -0.3332074 0.284286 -0.2879893 0.5062535 -0.1890073 0.3319708 -0.2139638 0.284286 -0.2879893 0.7543454 0.3706297 0.8310068 0.4020376 0.7066618 0.4829009 0.5062535 -0.1890073 0.284286 -0.2879893 0.5523075 -0.2497307 -0.09428203 -0.4697066 -0.03485131 -0.3696056 -0.2498195 -0.2315936 0.3100357 0.3683711 0.2689962 0.4333089 0.2768131 0.3840309 0.07817906 -0.2895905 0.284286 -0.2879893 0.1846497 -0.2543246 0.5537356 0.009018838 0.6143838 0.0377891 0.6292951 0.1253697 0.5961151 -0.5245829 0.8316024 -0.4435992 0.4754121 -0.3332074 0.3266332 0.2306848 0.1570691 0.1865423 0.2260419 0.09672558 0.3266332 0.2306848 0.4093546 0.08100861 0.3925987 0.1925632 0.07817906 -0.2895905 -0.03485131 -0.3696056 0.08869218 -0.4010707 0.07817906 -0.2895905 0.08869218 -0.4010707 0.284286 -0.2879893 0.1300147 -0.2355648 -0.006918907 -0.2561345 0.07817906 -0.2895905 0.3648225 -0.0341767 0.2957754 -0.1169366 0.411222 -0.118895 0.2073474 -0.07503575 0.2957754 -0.1169366 0.2609323 -0.0327875 -0.3334863 -0.1599316 -0.2498195 -0.2315936 -0.2423623 -0.121139 -0.5267479 -0.2928289 -0.2498195 -0.2315936 -0.3334863 -0.1599316 -0.006918907 -0.2561345 -0.1589478 -0.1976078 -0.03485131 -0.3696056 0.3639583 0.2683837 0.2808541 0.2748189 0.3266332 0.2306848 0.2255528 -0.2000942 0.3319708 -0.2139638 0.2957754 -0.1169366 -0.7131639 0.2213757 -0.4454757 -0.1335803 -0.3989914 0.2848735 0.1821575 0.2828252 0.09772044 0.2614951 0.1570691 0.1865423 -0.09689468 -0.1728595 -0.006918907 -0.2561345 -0.08870148 -0.06555759 0.1477667 0.05028945 0.2260419 0.09672558 0.1570691 0.1865423 0.3100357 0.3683711 0.3471339 0.3253778 0.3877362 0.3857024 -0.09689468 -0.1728595 -0.08870148 -0.06555759 -0.1371493 -0.1178066 -0.2423623 -0.121139 -0.3207536 0.05661159 -0.3334863 -0.1599316 -0.09689468 -0.1728595 -0.1371493 -0.1178066 -0.1589478 -0.1976078 0.01982188 0.3781998 0.04308384 0.3466741 0.1452609 0.3874967 0.004209697 0.09196937 -0.1137116 0.04101145 -0.08870148 -0.06555759 0.03344219 0.01057195 0.1371696 -0.05508249 0.05894869 0.1134065 0.411222 -0.118895 0.2957754 -0.1169366 0.3319708 -0.2139638 -0.1137116 0.04101145 -0.07877498 0.1004781 -0.1125572 0.1007394 0.7543454 0.3706297 0.9702702 0.2872015 0.8310068 0.4020376 0.1452609 0.3874967 0.09772044 0.2614951 0.1821575 0.2828252 0.02551329 0.1763955 -0.04050284 0.250439 -0.07877498 0.1004781 -0.1137116 0.04101145 -0.1482787 -0.0297802 -0.08870148 -0.06555759 0.004209697 0.09196937 0.05894869 0.1134065 0.02551329 0.1763955 0.3639583 0.2683837 0.2949883 0.31932 0.2808541 0.2748189 -0.192391 0.2088164 -0.2338107 0.2042676 -0.2224478 0.1286546 0.05152517 -0.5799837 0.2590513 -0.7648687 0.5397022 -0.6120471 0.05152517 -0.5799837 0.5397022 -0.6120471 0.5961151 -0.5245829 0.05152517 -0.5799837 0.5961151 -0.5245829 0.1853596 -0.4643886 -0.006918907 -0.2561345 -0.09689468 -0.1728595 -0.1589478 -0.1976078 -0.192391 0.2088164 -0.1526404 0.122527 -0.0876531 0.2817221 0.0595979 -0.0950402 0.1371696 -0.05508249 0.03344219 0.01057195 -0.218799 0.362857 -0.3989914 0.2848735 -0.2338107 0.2042676 0.6292951 0.1253697 0.687711 -0.05627888 0.729271 0.08675646 -0.1589478 -0.1976078 -0.1762048 -0.1176414 -0.2423623 -0.121139 -0.08870148 -0.06555759 -0.1482787 -0.0297802 -0.1371493 -0.1178066 -0.1482787 -0.0297802 -0.208832 0.01591867 -0.2423623 -0.121139 -0.2423623 -0.121139 -0.208832 0.01591867 -0.3207536 0.05661159 -0.1589478 -0.1976078 -0.2423623 -0.121139 -0.2498195 -0.2315936 -0.4454757 -0.1335803 -0.3207536 0.05661159 -0.3989914 0.2848735 0.3648225 -0.0341767 0.2609323 -0.0327875 0.2957754 -0.1169366 0.1300147 -0.2355648 0.1846497 -0.2543246 0.2255528 -0.2000942 -0.1575586 0.06014329 -0.1137116 0.04101145 -0.1125572 0.1007394 0.4754121 -0.3332074 0.5523075 -0.2497307 0.284286 -0.2879893 0.3648225 -0.0341767 0.411222 -0.118895 0.478793 -0.03151106 0.3639583 0.2683837 0.3471339 0.3253778 0.2949883 0.31932 0.5550155 0.7324621 0.956945 0.9388044 0.5833284 1.075504 0.662987 -0.2746981 0.6262759 -0.2110908 0.5523075 -0.2497307 0.5537356 0.009018838 0.687711 -0.05627888 0.6143838 0.0377891 0.9401671 -0.3490274 0.8316024 -0.4435992 1.018603 -0.5995904 0.1570691 0.1865423 0.09772044 0.2614951 0.08697104 0.1740515 0.004209697 0.09196937 -0.08870148 -0.06555759 0.03344219 0.01057195 0.08697104 0.1740515 0.09772044 0.2614951 0.02551329 0.1763955 0.411222 -0.118895 0.3319708 -0.2139638 0.5062535 -0.1890073 0.08697104 0.1740515 0.02551329 0.1763955 0.05894869 0.1134065 0.1821575 0.2828252 0.1570691 0.1865423 0.2808541 0.2748189 0.1477667 0.05028945 0.1371696 -0.05508249 0.2073474 -0.07503575 0.1477667 0.05028945 0.2073474 -0.07503575 0.2609323 -0.0327875 0.3877362 0.3857024 0.434765 0.24508 0.5578919 0.357054 0.1477667 0.05028945 0.2609323 -0.0327875 0.2260419 0.09672558 -0.006918907 -0.2561345 -0.03485131 -0.3696056 0.07817906 -0.2895905 0.4093546 0.08100861 0.2260419 0.09672558 0.2609323 -0.0327875 0.2268093 0.5657956 0.477196 0.5881385 0.1498536 0.6680647 0.4796745 0.1705653 0.3925987 0.1925632 0.4093546 0.08100861 0.4796745 0.1705653 0.4093546 0.08100861 0.5537356 0.009018838 0.4796745 0.1705653 0.5537356 0.009018838 0.6292951 0.1253697 0.4796745 0.1705653 0.6292951 0.1253697 0.594242 0.2383665 0.4796745 0.1705653 0.594242 0.2383665 0.434765 0.24508 -0.6627445 -0.134756 -0.5267479 -0.2928289 -0.4454757 -0.1335803 0.4796745 0.1705653 0.434765 0.24508 0.3925987 0.1925632 0.03809446 0.2801399 0.09772044 0.2614951 0.1452609 0.3874967 0.6404784 0.4406836 0.477196 0.5881385 0.4304923 0.4774681 -0.1284538 0.4054515 -0.06126165 0.3939738 -0.0103746 0.4664867 0.2384524 -0.3879675 0.284286 -0.2879893 0.08869218 -0.4010707 -0.1284538 0.4054515 -0.0103746 0.4664867 0.02766937 0.6978024 -0.1284538 0.4054515 0.02766937 0.6978024 -0.083965 0.6393091 -0.1284538 0.4054515 -0.083965 0.6393091 -0.218799 0.362857 0.2689962 0.4333089 0.4304923 0.4774681 0.2268093 0.5657956 0.6262759 -0.2110908 0.74967 -0.1749075 0.687711 -0.05627888 -0.0103746 0.4664867 -0.06126165 0.3939738 -0.007260799 0.3989242 0.1452609 0.3874967 0.04308384 0.3466741 0.03809446 0.2801399 -0.0103746 0.4664867 -0.007260799 0.3989242 0.1360781 0.4956408 -0.0103746 0.4664867 0.1360781 0.4956408 0.1181566 0.5583146 0.3100357 0.3683711 0.3877362 0.3857024 0.2689962 0.4333089 0.2689962 0.4333089 0.3877362 0.3857024 0.4304923 0.4774681 -0.1575586 0.06014329 -0.208832 0.01591867 -0.1482787 -0.0297802 0.6262759 -0.2110908 0.687711 -0.05627888 0.5537356 0.009018838 -0.4454757 -0.1335803 -0.3334863 -0.1599316 -0.3207536 0.05661159 0.3639583 0.2683837 0.3925987 0.1925632 0.434765 0.24508 0.1181566 0.5583146 0.1360781 0.4956408 0.2268093 0.5657956 0.03344219 0.01057195 0.05894869 0.1134065 0.004209697 0.09196937 0.1181566 0.5583146 0.2268093 0.5657956 0.1498536 0.6680647 0.0595979 -0.0950402 0.03344219 0.01057195 -0.08870148 -0.06555759 0.1181566 0.5583146 0.1498536 0.6680647 -0.0103746 0.4664867 -0.5267479 -0.2928289 -0.3334863 -0.1599316 -0.4454757 -0.1335803 1.018603 0.5258145 0.5550155 0.7324621 0.7066618 0.4829009 1.018603 0.5258145 0.7066618 0.4829009 0.8310068 0.4020376 1.018603 0.5258145 0.8310068 0.4020376 0.9702702 0.2872015 0.594242 0.2383665 0.6639152 0.2727887 0.5578919 0.357054 0.5537356 0.009018838 0.4093546 0.08100861 0.478793 -0.03151106 0.2268093 0.5657956 0.4304923 0.4774681 0.477196 0.5881385 0.3639583 0.2683837 0.434765 0.24508 0.3471339 0.3253778 1.018603 0.5258145 0.956945 0.9388044 0.5550155 0.7324621 0.1853596 -0.4643886 0.3542321 -0.4195939 0.2384524 -0.3879675 -0.3989914 0.2848735 -0.7723796 0.5887454 -0.7131639 0.2213757 0.8963041 0.01383805 0.9702702 0.2872015 0.8145864 0.2686285 0.7543454 0.3706297 0.7066618 0.4829009 0.6404784 0.4406836</float_array>
          <technique_common>
            <accessor source="#rockflat96-mesh-map-0-array" count="684" stride="2">
              <param name="S" type="float"/>
              <param name="T" type="float"/>
            </accessor>
          </technique_common>
        </source>
        <vertices id="rockflat96-mesh-vertices">
          <input semantic="POSITION" source="#rockflat96-mesh-positions"/>
        </vertices>
        <polylist material="rock_brown_01-material" count="228">
          <input semantic="VERTEX" source="#rockflat96-mesh-vertices" offset="0"/>
          <input semantic="NORMAL" source="#rockflat96-mesh-normals" offset="1"/>
          <input semantic="TEXCOORD" source="#rockflat96-mesh-map-0" offset="2" set="0"/>
          <vcount>3 3 3 3 3 3 3 3 3 3 3 3 3 3 3 3 3 3 3 3 3 3 3 3 3 3 3 3 3 3 3 3 3 3 3 3 3 3 3 3 3 3 3 3 3 3 3 3 3 3 3 3 3 3 3 3 3 3 3 3 3 3 3 3 3 3 3 3 3 3 3 3 3 3 3 3 3 3 3 3 3 3 3 3 3 3 3 3 3 3 3 3 3 3 3 3 3 3 3 3 3 3 3 3 3 3 3 3 3 3 3 3 3 3 3 3 3 3 3 3 3 3 3 3 3 3 3 3 3 3 3 3 3 3 3 3 3 3 3 3 3 3 3 3 3 3 3 3 3 3 3 3 3 3 3 3 3 3 3 3 3 3 3 3 3 3 3 3 3 3 3 3 3 3 3 3 3 3 3 3 3 3 3 3 3 3 3 3 3 3 3 3 3 3 3 3 3 3 3 3 3 3 3 3 3 3 3 3 3 3 3 3 3 3 3 3 3 3 3 3 3 3 3 3 3 3 3 3 </vcount>
          <p>74 0 0 72 1 1 91 2 2 87 3 3 34 4 4 103 5 5 101 6 6 32 7 7 12 8 8 42 9 9 3 10 10 7 11 11 93 12 12 50 13 13 94 14 14 87 3 15 43 15 16 9 16 17 97 17 18 13 18 19 31 19 20 22 20 21 21 21 22 47 22 23 1 23 24 27 24 25 84 25 26 1 23 27 84 25 28 52 26 29 41 27 30 40 28 31 38 29 32 1 23 33 52 26 34 105 30 35 83 31 36 73 32 37 19 33 38 96 34 39 88 35 40 110 36 41 61 37 42 114 38 43 63 39 44 88 35 45 64 40 46 43 15 47 2 41 48 30 42 49 99 43 50 94 14 51 115 44 52 93 12 53 22 20 54 24 45 55 21 21 56 2 41 57 79 46 58 104 47 59 18 48 60 68 49 61 31 19 62 109 50 63 54 51 64 90 52 65 2 41 66 104 47 67 30 42 68 96 34 69 48 53 70 28 54 71 3 10 72 81 55 73 37 56 74 3 10 75 37 56 76 35 57 77 3 10 78 35 57 79 7 11 80 40 28 81 26 58 82 93 12 83 28 54 84 48 53 85 84 25 86 65 59 87 16 60 88 115 44 89 46 61 90 108 62 91 62 63 92 36 64 93 62 63 94 25 65 95 91 2 96 14 66 97 56 67 98 53 68 99 4 69 100 27 24 101 74 0 102 57 70 103 72 1 104 53 68 105 27 24 106 1 23 107 53 68 108 1 23 109 105 30 110 53 68 111 101 6 112 4 69 113 29 71 114 114 38 115 61 37 116 99 43 117 80 72 118 100 73 119 58 74 120 110 36 121 82 75 122 85 76 123 96 34 124 58 74 125 106 77 126 77 78 127 10 79 128 5 80 129 75 81 130 55 82 131 5 80 132 55 82 133 109 50 134 87 3 135 103 5 136 43 15 137 5 80 138 109 50 139 39 83 140 5 80 141 39 83 142 60 84 143 6 85 144 42 9 145 25 65 146 6 85 147 25 65 148 44 86 149 100 73 150 61 37 151 45 87 152 6 85 153 44 86 154 69 88 155 6 85 156 69 88 157 83 31 158 46 61 159 77 78 160 106 77 161 6 85 162 83 31 163 98 89 164 6 85 165 98 89 166 42 9 167 46 61 168 0 90 169 108 62 170 78 91 171 62 63 172 111 92 173 79 46 174 18 48 175 70 93 176 35 57 177 36 64 178 7 11 179 35 57 180 97 17 181 10 79 182 36 64 183 77 78 184 62 63 185 78 91 186 49 94 187 25 65 188 78 91 189 25 65 190 62 63 191 29 71 192 61 37 193 52 26 194 8 95 195 90 52 196 54 51 197 96 34 198 28 54 199 88 35 200 8 95 201 54 51 202 102 96 203 67 97 204 56 67 205 15 98 206 92 99 207 17 100 208 67 97 209 63 39 210 95 101 211 16 60 212 85 76 213 11 102 214 96 34 215 91 2 216 67 97 217 17 100 218 9 16 219 43 15 220 64 40 221 97 17 222 31 19 223 68 49 224 108 62 225 111 92 226 62 63 227 61 37 228 100 73 229 52 26 230 30 42 231 105 30 232 80 72 233 78 91 234 90 52 235 8 95 236 44 86 237 25 65 238 49 94 239 110 36 240 33 103 241 51 104 242 78 91 243 8 95 244 49 94 245 7 11 246 36 64 247 25 65 248 87 3 249 9 16 250 86 105 251 59 106 252 15 98 253 56 67 254 85 76 255 113 107 256 89 108 257 110 36 258 88 35 259 33 103 260 95 101 261 115 44 262 16 60 263 51 104 264 75 81 265 82 75 266 109 50 267 90 52 268 39 83 269 92 99 270 67 97 271 66 109 272 83 31 273 86 105 274 73 32 275 11 102 276 89 108 277 114 38 278 11 102 279 114 38 280 29 71 281 11 102 282 29 71 283 48 53 284 11 102 285 48 53 286 96 34 287 80 72 288 105 30 289 100 73 290 40 28 291 60 84 292 24 45 293 98 89 294 19 33 295 81 55 296 86 105 297 9 16 298 73 32 299 32 7 300 30 42 301 104 47 302 63 39 303 16 60 304 45 87 305 22 20 306 47 22 307 17 100 308 91 2 309 17 100 310 74 0 311 98 89 312 81 55 313 3 10 314 19 33 315 73 32 316 4 69 317 99 43 318 100 73 319 59 106 320 16 60 321 15 98 322 59 106 323 28 54 324 112 110 325 64 40 326 16 60 327 59 106 328 45 87 329 104 47 330 79 46 331 70 93 332 55 82 333 54 51 334 109 50 335 14 66 336 59 106 337 56 67 338 95 101 339 113 107 340 85 76 341 105 30 342 52 26 343 100 73 344 40 28 345 24 45 346 26 58 347 40 28 348 93 12 349 38 29 350 14 66 351 79 46 352 2 41 353 14 66 354 2 41 355 59 106 356 91 2 357 72 1 358 14 66 359 94 14 360 66 109 361 65 59 362 92 99 363 66 109 364 50 13 365 20 111 366 70 93 367 13 18 368 104 47 369 70 93 370 20 111 371 72 1 372 18 48 373 79 46 374 41 27 375 60 84 376 40 28 377 67 97 378 15 98 379 66 109 380 101 6 381 12 8 382 19 33 383 39 83 384 0 90 385 24 45 386 71 112 387 72 1 388 57 70 389 22 20 390 26 58 391 24 45 392 55 82 393 75 81 394 51 104 395 71 112 396 57 70 397 68 49 398 13 18 399 81 55 400 20 111 401 71 112 402 68 49 403 18 48 404 78 91 405 111 92 406 90 52 407 106 77 408 10 79 409 57 70 410 76 113 411 17 100 412 47 22 413 65 59 414 66 109 415 15 98 416 10 79 417 77 78 418 36 64 419 28 54 420 84 25 421 112 110 422 90 52 423 0 90 424 39 83 425 46 61 426 62 63 427 77 78 428 10 79 429 97 17 430 57 70 431 106 77 432 47 22 433 46 61 434 41 27 435 5 80 436 60 84 437 42 9 438 98 89 439 3 10 440 32 7 441 101 6 442 53 68 443 32 7 444 53 68 445 105 30 446 32 7 447 105 30 448 30 42 449 72 1 450 71 112 451 18 48 452 42 9 453 7 11 454 25 65 455 74 0 456 17 100 457 76 113 458 83 31 459 19 33 460 98 89 461 85 76 462 89 108 463 11 102 464 18 48 465 31 19 466 13 18 467 57 70 468 97 17 469 68 49 470 97 17 471 37 56 472 13 18 473 13 18 474 37 56 475 81 55 476 18 48 477 13 18 478 70 93 479 12 8 480 81 55 481 19 33 482 94 14 483 50 13 484 66 109 485 91 2 486 56 67 487 67 97 488 35 57 489 10 79 490 36 64 491 100 73 492 45 87 493 59 106 494 94 14 495 65 59 496 115 44 497 41 27 498 75 81 499 5 80 500 9 16 501 4 69 502 73 32 503 61 37 504 63 39 505 45 87 506 95 101 507 89 108 508 113 107 509 29 71 510 52 26 511 84 25 512 24 45 513 0 90 514 21 21 515 106 77 516 57 70 517 76 113 518 21 21 519 0 90 520 46 61 521 65 59 522 15 98 523 16 60 524 21 21 525 46 61 526 47 22 527 39 83 528 24 45 529 60 84 530 22 20 531 17 100 532 92 99 533 22 20 534 92 99 535 50 13 536 51 104 537 82 75 538 110 36 539 22 20 540 50 13 541 26 58 542 72 1 543 79 46 544 14 66 545 93 12 546 26 58 547 50 13 548 102 96 549 43 15 550 103 5 551 23 114 552 38 29 553 93 12 554 23 114 555 93 12 556 95 101 557 23 114 558 95 101 559 85 76 560 23 114 561 85 76 562 58 74 563 23 114 564 58 74 565 82 75 566 32 7 567 104 47 568 12 8 569 23 114 570 82 75 571 38 29 572 108 62 573 0 90 574 90 52 575 88 35 576 43 15 577 33 103 578 69 88 579 44 86 580 34 4 581 99 43 582 59 106 583 2 41 584 69 88 585 34 4 586 87 3 587 69 88 588 87 3 589 86 105 590 69 88 591 86 105 592 83 31 593 54 51 594 33 103 595 102 96 596 63 39 597 114 38 598 89 108 599 34 4 600 44 86 601 49 94 602 90 52 603 111 92 604 108 62 605 34 4 606 49 94 607 8 95 608 34 4 609 8 95 610 107 115 611 55 82 612 51 104 613 54 51 614 54 51 615 51 104 616 33 103 617 35 57 618 37 56 619 97 17 620 63 39 621 89 108 622 95 101 623 12 8 624 20 111 625 81 55 626 41 27 627 38 29 628 82 75 629 107 115 630 8 95 631 102 96 632 76 113 633 47 22 634 106 77 635 107 115 636 102 96 637 103 5 638 74 0 639 76 113 640 57 70 641 107 115 642 103 5 643 34 4 644 104 47 645 20 111 646 12 8 647 27 24 648 9 16 649 64 40 650 27 24 651 64 40 652 112 110 653 27 24 654 112 110 655 84 25 656 58 74 657 96 34 658 110 36 659 95 101 660 93 12 661 115 44 662 102 96 663 33 103 664 43 15 665 41 27 666 82 75 667 75 81 668 27 24 669 4 69 670 9 16 671 30 42 672 80 72 673 99 43 674 19 33 675 4 69 676 101 6 677 29 71 678 84 25 679 48 53 680 28 54 681 64 40 682 88 35 683</p>
        </polylist>
      </mesh>
      <extra><technique profile="MAYA"><double_sided>1</double_sided></technique></extra>
    </geometry>
    <geometry id="rockflat8-mesh" name="rockflat8">
      <mesh>
        <source id="rockflat8-mesh-positions">
          <float_array id="rockflat8-mesh-positions-array" count="117">-0.7781136 0.2173648 0.2023746 0.7538316 1.493889 -0.5787 0.8202102 -0.9535951 -0.3669037 -0.7530185 -0.6158184 -0.5390652 0.365143 0.2712677 -0.5830855 -0.8496209 1.128371 0.5384417 -0.8417458 -0.9780823 -0.2163147 -1.33032 1.167672 -0.204734 -0.5571428 1.451363 -0.3720383 -0.8289912 -1.040101 0.05630183 1.219518 1.247464 0.2030008 0.1688385 -1.050738 -0.5486867 0.07268995 -1.390427 -0.3084415 0.8416857 -0.8609729 0.05375397 1.073605 -0.2018783 0.09655737 1.104453 0.4972128 0.3354049 -0.001018404 -0.27428 0.1580885 -0.9949944 0.004891753 -0.5640028 -0.1063688 1.026172 0.7649314 -0.4099996 0.2256848 0.2871997 -1.18277 -0.1389716 -0.03877985 0.4906165 1.769296 -0.3440012 1.457244 1.104206 -0.03566253 0.9522558 -0.1951154 -0.4678844 0.5849552 -0.9525447 -0.5461776 -1.127564 1.224929 0.2346997 -1.416225 0.2834635 -0.3937411 -0.3166065 -1.271582 -0.1454097 -0.5568987 0.7629243 0.6939227 1.617599 0.7023795 0.01863306 -0.6709579 -0.3732518 0.2984975 -1.492708 0.3278623 -0.1559777 0.444311 0.03160011 0.07397741 0.0539149 -1.324731 -0.05349051 0.3222147 1.691174 0.1497555 -0.02309727 1.770134 -0.3968388 0.9996494 1.17372 0.4172645 -1.022549 0.9829155 -0.4535315 -1.308669 0.3435811 0.07674711</float_array>
          <technique_common>
            <accessor source="#rockflat8-mesh-positions-array" count="39" stride="3">
              <param name="X" type="float"/>
              <param name="Y" type="float"/>
              <param name="Z" type="float"/>
            </accessor>
          </technique_common>
        </source>
        <source id="rockflat8-mesh-normals">
          <float_array id="rockflat8-mesh-normals-array" count="117">-0.2018799 0.2413403 -0.9491867 -0.7619251 -0.1700491 -0.624897 -0.7946715 0.5560168 -0.2435072 -0.01431316 0.03680527 -0.9992066 0.3669546 -0.4003723 -0.8396252 -0.02435374 -0.3353984 -0.9417402 0.1441999 -0.08029419 0.9862667 -0.2132633 -0.08313238 0.9734184 -0.04419076 -0.04080319 0.9981689 -0.07544171 -0.4096194 0.9091159 -0.4318369 0.3857845 0.8152409 -0.6453139 0.562151 0.5171972 -0.6271859 -0.1537827 0.7635121 0.7360759 -0.5930357 -0.3263039 0.572985 -0.1161839 -0.8112735 -0.4023255 -0.398938 -0.8239693 -0.3230994 -0.9453414 0.04385507 -0.6610614 -0.6130864 -0.4325083 -0.359386 -0.2924588 0.8861355 0.359386 -0.3088778 0.8805506 -0.8753624 -0.3960387 0.2772302 0.3535875 0.4207892 -0.8353832 0.01461833 -0.7942137 0.6074099 0.5760674 -0.5080721 0.6402783 0.9934691 -0.06540113 0.093234 -0.3514207 0.6786096 -0.6449171 -0.249916 -0.0348826 -0.9676198 -0.974334 -0.1980041 0.1069979 -0.6560869 -0.63155 0.4130985 0.8360241 0.5319986 -0.1341288 0.06564527 0.8674581 0.4931181 0.2504349 0.9509873 -0.1811884 -0.2352672 0.8594928 -0.4537492 0.04800558 -0.2458266 0.9681082 0.5358135 -0.2921537 0.7921385 0.3655202 0.3502609 0.8623616 0.6053041 0.5939207 0.5299234 -0.01614427 -0.9407026 -0.3388165 0.01315343 0.2664266 0.963744</float_array>
          <technique_common>
            <accessor source="#rockflat8-mesh-normals-array" count="39" stride="3">
              <param name="X" type="float"/>
              <param name="Y" type="float"/>
              <param name="Z" type="float"/>
            </accessor>
          </technique_common>
        </source>
        <source id="rockflat8-mesh-map-0">
          <float_array id="rockflat8-mesh-map-0-array" count="444">0.002633154 0.6846842 -0.04508191 0.4170296 0.1636255 0.5881765 -0.7453004 0.4207481 -0.5452207 -0.2713575 -0.3731657 -0.1308928 0.110149 -0.001682102 0.1097444 0.2270007 0.03313946 0.1187005 0.1780492 0.159222 0.1097444 0.2270007 0.110149 -0.001682102 0.297263 0.3673617 0.2712519 0.4339256 0.05925124 0.346177 0.02272909 -0.3836916 -0.07447665 -0.4846858 0.2911831 -0.469819 -0.2176866 0.1823385 -0.3731657 -0.1308928 -0.1544705 -0.02510726 -0.2176866 0.1823385 -0.1544705 -0.02510726 -0.1541277 0.1036621 0.2910832 0.2649574 0.1780492 0.159222 0.4755713 -0.1003092 0.03313946 0.1187005 0.05925124 0.346177 -0.04637867 0.2543374 0.2911831 -0.469819 0.4108914 -0.805202 0.9316174 -0.6407264 0.110149 -0.001682102 -0.1313235 -0.1166003 0.08752971 -0.2720906 0.02272909 -0.3836916 0.2911831 -0.469819 0.6054084 -0.2275488 0.2409974 0.8051494 0.1636255 0.5881765 0.4893168 0.6106177 0.297263 0.3673617 0.1097444 0.2270007 0.2910832 0.2649574 -0.2176866 0.1823385 -0.04637867 0.2543374 -0.04508191 0.4170296 -0.2176866 0.1823385 -0.04508191 0.4170296 -0.1814845 0.3805465 0.03313946 0.1187005 0.1097444 0.2270007 0.05925124 0.346177 0.006364524 0.3884977 -0.04637867 0.2543374 0.05925124 0.346177 -0.1541277 0.1036621 -0.1544705 -0.02510726 -0.1097694 0.08529525 0.7728326 -0.1960788 0.6054084 -0.2275488 0.9316174 -0.6407264 0.1636255 0.5881765 0.05925124 0.346177 0.2712519 0.4339256 0.6187404 0.2876594 0.767907 0.3476668 0.671304 0.4603468 0.2465687 -0.05333745 0.110149 -0.001682102 0.2911733 -0.2431574 0.6054084 -0.2275488 0.5953294 0.0498951 0.4755713 -0.1003092 0.5953294 0.0498951 0.6998818 -0.01439112 0.6187404 0.2876594 0.08752971 -0.2720906 0.2911733 -0.2431574 0.110149 -0.001682102 -0.1544705 -0.02510726 -0.1996721 -0.1524737 -0.1313235 -0.1166003 0.006364524 0.3884977 0.05925124 0.346177 0.1636255 0.5881765 -0.04508191 0.4170296 -0.04637867 0.2543374 0.006364524 0.3884977 0.6187404 0.2876594 0.2712519 0.4339256 0.297263 0.3673617 -0.1541277 0.1036621 -0.1097694 0.08529525 -0.04637867 0.2543374 0.6187404 0.2876594 0.671304 0.4603468 0.2712519 0.4339256 0.05925124 0.346177 0.1097444 0.2270007 0.297263 0.3673617 0.6998818 -0.01439112 0.7674993 -0.1519578 0.767907 0.3476668 0.6998818 -0.01439112 0.767907 0.3476668 0.6187404 0.2876594 -0.2176866 0.1823385 -0.1814845 0.3805465 -0.3731657 -0.1308928 0.2409974 0.8051494 0.4893168 0.6106176 0.5833284 1.075504 0.02272909 -0.3836916 0.6054084 -0.2275488 0.2911733 -0.2431573 0.767907 0.3476668 0.9306235 0.3378261 0.671304 0.4603468 0.4755713 -0.1003092 0.2911733 -0.2431573 0.6054084 -0.2275488 -0.07447665 -0.4846858 0.02272909 -0.3836916 -0.1996721 -0.1524737 0.2911831 -0.469819 0.9316174 -0.6407264 0.6054084 -0.2275488 0.2910832 0.2649574 0.4755713 -0.1003092 0.3915261 0.226798 0.08752971 -0.2720906 0.02272909 -0.3836916 0.2911733 -0.2431573 -0.5452207 -0.2713574 -0.1996721 -0.1524737 -0.3731657 -0.1308928 0.08752971 -0.2720906 -0.1996721 -0.1524737 0.02272909 -0.3836916 -0.7453004 0.4207481 -0.3731657 -0.1308928 -0.1814845 0.3805465 0.03313946 0.1187005 -0.1097694 0.08529525 -0.1313235 -0.1166003 0.4755713 -0.1003092 0.2465687 -0.05333745 0.2911733 -0.2431574 0.03313946 0.1187005 -0.04637867 0.2543374 -0.1097694 0.08529525 -0.1097694 0.08529525 -0.1544705 -0.02510726 -0.1313235 -0.1166003 0.3915261 0.226798 0.297263 0.3673617 0.2910832 0.2649574 -0.07447665 -0.4846858 0.4108914 -0.805202 0.2911831 -0.469819 0.08752971 -0.2720906 -0.1313235 -0.1166003 -0.1996721 -0.1524737 -0.2176866 0.1823385 -0.1541277 0.1036621 -0.04637867 0.2543374 -0.1996721 -0.1524737 -0.1544705 -0.02510726 -0.3731657 -0.1308928 0.4893168 0.6106176 0.956945 0.9388044 0.5833284 1.075504 0.03313946 0.1187005 -0.1313235 -0.1166003 0.110149 -0.001682102 0.1097444 0.2270007 0.1780492 0.159222 0.2910832 0.2649574 0.297263 0.3673617 0.3915261 0.226798 0.6187404 0.2876594 0.110149 -0.001682102 0.2465687 -0.05333745 0.1780492 0.159222 0.4755713 -0.1003092 0.1780492 0.159222 0.2465687 -0.05333745 0.3915261 0.226798 0.4755713 -0.1003092 0.5953294 0.0498951 0.3915261 0.226798 0.5953294 0.0498951 0.6187404 0.2876594 0.671304 0.4603468 0.4893168 0.6106177 0.2712519 0.4339256 -0.1814845 0.3805465 -0.04508191 0.4170296 0.002633154 0.6846842 0.6054084 -0.2275488 0.7674993 -0.1519578 0.6998818 -0.01439112 -0.04508191 0.4170296 0.006364524 0.3884977 0.1636255 0.5881765 0.6054084 -0.2275488 0.6998818 -0.01439112 0.5953294 0.0498951 0.9306235 0.3378261 0.4893168 0.6106176 0.671304 0.4603468 0.1636255 0.5881765 0.2712519 0.4339256 0.4893168 0.6106177 0.9306235 0.3378261 0.956945 0.9388044 0.4893168 0.6106176 0.7674993 -0.1519578 0.9306235 0.3378261 0.767907 0.3476668</float_array>
          <technique_common>
            <accessor source="#rockflat8-mesh-map-0-array" count="222" stride="2">
              <param name="S" type="float"/>
              <param name="T" type="float"/>
            </accessor>
          </technique_common>
        </source>
        <vertices id="rockflat8-mesh-vertices">
          <input semantic="POSITION" source="#rockflat8-mesh-positions"/>
        </vertices>
        <polylist material="rock_brown_01-material" count="74">
          <input semantic="VERTEX" source="#rockflat8-mesh-vertices" offset="0"/>
          <input semantic="NORMAL" source="#rockflat8-mesh-normals" offset="1"/>
          <input semantic="TEXCOORD" source="#rockflat8-mesh-map-0" offset="2" set="0"/>
          <vcount>3 3 3 3 3 3 3 3 3 3 3 3 3 3 3 3 3 3 3 3 3 3 3 3 3 3 3 3 3 3 3 3 3 3 3 3 3 3 3 3 3 3 3 3 3 3 3 3 3 3 3 3 3 3 3 3 3 3 3 3 3 3 3 3 3 3 3 3 3 3 3 3 3 3 </vcount>
          <p>37 0 0 26 1 1 7 2 2 4 3 3 24 4 4 11 5 5 16 6 6 0 7 7 30 8 8 19 9 9 0 7 10 16 6 11 5 10 12 25 11 13 38 12 14 2 13 15 24 4 16 23 14 17 3 15 18 11 5 19 27 16 20 3 15 21 27 16 22 6 17 23 28 18 24 19 9 25 15 19 26 30 8 27 38 12 28 20 20 29 23 14 30 4 3 31 1 21 32 16 6 33 33 22 34 13 23 35 2 13 36 23 14 37 29 24 38 37 0 39 7 2 40 8 25 41 5 10 42 0 7 43 28 18 44 3 15 45 20 20 46 26 1 47 3 15 48 26 1 49 17 26 50 30 8 51 0 7 52 38 12 53 31 27 54 20 20 55 38 12 56 6 17 57 27 16 58 9 28 59 22 29 60 29 24 61 1 21 62 7 2 63 38 12 64 25 11 65 34 30 66 21 31 67 35 32 68 32 33 69 16 6 70 14 34 71 29 24 72 36 35 73 15 19 74 36 35 75 10 36 76 34 30 77 13 23 78 14 34 79 16 6 80 27 16 81 12 37 82 33 22 83 31 27 84 38 12 85 7 2 86 26 1 87 20 20 88 31 27 89 34 30 90 25 11 91 5 10 92 6 17 93 9 28 94 20 20 95 34 30 96 35 32 97 25 11 98 38 12 99 0 7 100 5 10 101 10 36 102 22 29 103 21 31 104 10 36 105 21 31 106 34 30 107 3 15 108 17 26 109 11 5 110 37 0 111 8 25 112 17 26 113 2 13 114 29 24 115 14 34 116 21 31 117 1 21 118 35 32 119 15 19 120 14 34 121 29 24 122 24 4 123 2 13 124 12 37 125 23 14 126 1 21 127 29 24 128 28 18 129 15 19 130 18 38 131 13 23 132 2 13 133 14 34 134 24 4 135 12 37 136 11 5 137 13 23 138 12 37 139 2 13 140 4 3 141 11 5 142 17 26 143 30 8 144 9 28 145 33 22 146 15 19 147 32 33 148 14 34 149 30 8 150 20 20 151 9 28 152 9 28 153 27 16 154 33 22 155 18 38 156 5 10 157 28 18 158 24 4 159 4 3 160 23 14 161 13 23 162 33 22 163 12 37 164 3 15 165 6 17 166 20 20 167 12 37 168 27 16 169 11 5 170 8 25 171 4 3 172 17 26 173 30 8 174 33 22 175 16 6 176 0 7 177 19 9 178 28 18 179 5 10 180 18 38 181 34 30 182 16 6 183 32 33 184 19 9 185 15 19 186 19 9 187 32 33 188 18 38 189 15 19 190 36 35 191 18 38 192 36 35 193 34 30 194 35 32 195 8 25 196 25 11 197 17 26 198 26 1 199 37 0 200 29 24 201 22 29 202 10 36 203 26 1 204 31 27 205 7 2 206 29 24 207 10 36 208 36 35 209 1 21 210 8 25 211 35 32 212 7 2 213 25 11 214 8 25 215 1 21 216 4 3 217 8 25 218 22 29 219 1 21 220 21 31 221</p>
        </polylist>
      </mesh>
      <extra><technique profile="MAYA"><double_sided>1</double_sided></technique></extra>
    </geometry>
    <geometry id="collisionmesh-1-mesh" name="collisionmesh-1">
      <mesh>
        <source id="collisionmesh-1-mesh-positions">
          <float_array id="collisionmesh-1-mesh-positions-array" count="348">-0.9204146 0.2400112 0.1716629 0.8536405 1.042699 -0.5446177 0.8939362 -0.7826266 -0.3582536 -0.6752257 -0.7828234 -0.4730492 0.2308478 0.5580363 -0.5457727 -0.71736 0.9745085 0.6189894 -1.033056 -0.1682928 -0.5031871 -0.8840102 -0.8867523 -0.2423816 -1.357066 0.9451227 -0.06210029 -0.4460725 1.146602 -0.4480847 -0.6070685 -1.152084 0.04775387 0.9940069 1.430081 0.1286455 0.2624576 -0.937888 -0.5769673 -0.007455766 -1.293488 -0.4056391 0.8451798 -0.8850112 -0.0065521 1.036824 -0.04215574 0.1352049 1.349509 0.433273 0.1737745 0.2090513 -0.3243902 0.1264067 0.229695 -1.351352 -0.2267923 -0.3915629 -0.1853577 -0.5744699 0.1568119 -1.148625 -0.5173854 -0.6728789 -0.01338368 0.228114 -0.1192426 -0.07739746 0.1824446 0.3217653 1.129425 0.6069244 -0.5480914 0.2457751 0.2650575 -1.116639 -0.1823375 -0.2292765 -0.09485262 0.2646256 0.2936044 0.5641674 1.22056 -0.5953431 0.413257 1.778894 -0.354043 1.169951 1.318747 -0.2230839 0.9051083 -0.4779712 -0.4640247 -0.01500427 -1.38382 -0.2273026 0.5672534 -0.649042 -0.5745777 -0.6003211 1.47981 0.02984929 -1.388749 0.540049 -0.3802477 -0.6559196 -1.103358 -0.1847468 -0.8947271 -0.9605409 0.002986431 -0.3955017 -1.088494 -0.3046282 0.02540862 0.9196096 0.7647648 -0.8089815 0.5432283 0.3264865 -0.325877 0.8165066 0.7395882 -0.3364649 1.064729 0.7059032 -0.8739953 -0.5263255 -0.4630056 -0.6015956 1.471334 -0.302672 -1.347324 0.174414 -0.4141382 1.553153 0.4657101 0.003241121 -0.8372329 -0.2119165 0.2483253 -0.5301182 -0.2489965 0.2839921 0.7156373 1.654729 -0.2783764 -1.482236 0.3039985 -0.2339454 0.388553 0.1305519 0.1126424 -0.5619898 1.329422 0.3450282 1.107647 1.114495 -0.3801656 0.7321678 0.4767318 -0.529569 -1.082172 1.206216 0.312971 -0.8088524 1.185174 0.5265783 0.9325831 -0.5142573 0.1030014 -0.1271317 -1.142805 0.03700929 0.3861079 1.536615 0.3018053 1.091619 -0.2520818 -0.001496851 -0.6220369 0.780143 0.6607202 1.477309 0.8100478 -0.1410651 -1.142257 -0.2091633 -0.01525646 1.603959 0.7740582 0.0531432 0.07167845 1.694712 -0.478518 0.9694559 0.3232862 0.2574759 0.7206177 0.04965865 0.1120725 0.8349019 -0.3066866 0.1247877 0.01326507 -1.357977 -0.08580046 -1.1178 0.1351021 -0.5453137 0.2126893 -1.284869 -0.4009579 0.237137 -1.265231 -0.06253939 0.603174 -1.079958 -0.03309941 -0.4650859 0.4660416 -0.4890006 0.2055805 -0.6497532 0.1075383 -0.5551363 1.13654 0.5637173 -0.2106674 -0.5558985 0.157615 -0.8249286 -0.8373554 0.1263236 -1.458637 0.3109701 -0.08408319 0.6966716 -1.060681 -0.3435135 1.082036 -0.05601423 -0.3687276 -0.2631126 -0.8060712 -0.5253906 -0.03169083 1.191053 0.634051 -0.883548 -0.04504281 -0.5925573 0.8172329 1.478297 -0.515088 0.769528 1.375252 0.3539876 -0.9275773 0.7648588 -0.4868834 -1.080276 1.024518 -0.4278797 -0.02388042 1.784526 -0.2668784 1.300119 1.148704 0.1942349 -1.199317 0.7069498 0.1774989 0.7905141 -0.6602252 0.1220161 0.4095204 -0.1356782 0.06734204 0.422739 0.6937217 0.5783578 0.6400413 0.3766395 0.302517 0.9576407 0.9607052 0.4604457 0.4458366 1.68898 0.08203274 -0.3126638 -1.2676 -0.1031261 -0.7634094 -0.5335083 -0.5579673 1.054007 -0.3796517 -0.2933731 1.300439 0.2431643 -0.1732496 0.2617613 -0.08317601 -0.6136667 -1.229074 1.253709 -0.1160205 -1.240925 1.157907 -0.3185606 0.5850549 -0.9965274 -0.5180034 0.9487331 0.5793761 -0.4685102 -0.5828684 -0.5127564 0.2693432 -1.363129 1.023637 -0.2410572 -1.125934 0.09484982 0.120398 -0.959073 1.120869 0.4704882 -0.03102952 1.639778 0.1350856 -1.345315 0.284899 0.06268471 0.4880208 1.6495 -0.5363347 0.9874969 1.185161 0.3919354 1.488623 1.058507 -0.01695406 0.9112673 0.6582522 0.4461342</float_array>
          <technique_common>
            <accessor source="#collisionmesh-1-mesh-positions-array" count="116" stride="3">
              <param name="X" type="float"/>
              <param name="Y" type="float"/>
              <param name="Z" type="float"/>
            </accessor>
          </technique_common>
        </source>
        <source id="collisionmesh-1-mesh-normals">
          <float_array id="collisionmesh-1-mesh-normals-array" count="684">-0.02930676 -0.3349602 0.9417763 -0.4378351 0.1924347 -0.8782194 0.04839199 -0.04280853 -0.9979106 -0.5728605 -0.4162828 -0.7060734 0.04427909 -0.6382483 0.7685561 -0.09999573 0.3663565 -0.9250858 -0.4756268 -0.7764424 -0.4134204 0.1122174 0.2931664 0.9494529 0.2220813 0.08441162 -0.9713674 0.520426 0.1009786 -0.8479152 -0.1085428 0.12913 0.9856693 0.5482349 -0.02479797 -0.8359566 0.07569581 0.1381148 -0.9875193 -0.05941605 0.939531 0.33727 0.8358542 0.2143774 -0.5053615 -0.3876578 0.7725479 -0.5028829 0.794688 -0.2248913 -0.5638217 0.1744655 -0.575495 0.7989789 0.0614981 -0.1698188 0.9835546 0.6430574 -0.4875223 -0.5905923 0.1296703 -0.9796792 0.1530174 -0.7837625 0.01542919 0.620869 0.5883945 -0.2843666 -0.7569198 0.3388479 0.9261445 0.1656455 -0.1350851 -0.5701265 -0.8103751 -0.2867944 -0.6501345 -0.703615 -0.4218902 -0.6202222 -0.6613118 0.07026034 -0.6090257 0.7900324 0.4324372 0.8019611 -0.4121364 0.3102781 -0.4250261 0.8503414 -0.6274372 -0.2889546 0.7230684 -0.9377378 -0.3125994 -0.1514244 0.4682986 -0.3501125 0.8112445 0.01859575 -0.08389943 -0.9963006 0.1115847 -0.2141112 0.9704151 0.1388015 -0.05608046 -0.9887311 0.3102635 -0.09175056 -0.9462127 0.04953372 0.1075271 -0.9929675 0.6795414 0.3028438 -0.6682133 0.7924416 -0.2025852 -0.5753222 -0.08304142 0.7410355 0.6663112 0.2410734 0.7656726 0.5963465 -0.1246924 -0.3207119 0.9389333 -0.06276667 0.3779343 0.9237022 -0.4185284 0.2062213 0.8844811 -0.204624 0.4611608 -0.8634002 -0.6327289 -0.3380811 0.6966745 -0.761843 -0.2448767 0.5996922 -0.8637347 -0.4156967 -0.2848834 -0.7444801 -0.6154713 -0.2587363 0.6575422 -0.1633988 -0.7354856 -0.5123329 -0.2568885 -0.8194653 -0.3562292 -0.2254124 -0.9068021 -0.3000009 -0.1883207 0.9351657 -0.4037196 -0.1630442 -0.9002372 -0.6222606 -0.3547609 -0.6978084 -0.3089423 0.1035135 0.9454309 -0.7600481 -0.3939173 0.5168715 0.4270668 -0.8300881 -0.3585635 -0.6333897 -0.7329855 -0.2480922 -0.4090359 -0.9065669 -0.1040478 -0.7335409 -0.226092 0.6409369 -0.790733 -0.5929631 0.1521055 -0.832624 -0.5284098 -0.165893 0.6812462 0.3042579 -0.6658309 -0.8178463 0.03606092 0.5743058 0.0520786 0.978831 0.1979337 -0.8478687 0.4103394 0.335768 0.05290353 -0.07958209 0.9954236 -0.006153523 0.3046422 0.9524471 0.5143375 -0.0818513 0.8536728 0.3284916 0.7889981 0.5192063 0.002818584 -0.008193314 0.9999625 -0.322419 0.2539284 -0.9119026 -0.2714415 -0.9357544 0.2251297 -0.4976696 -0.3310167 0.8017188 0.4806687 -0.1005129 -0.8711227 0.5197408 -0.02506649 -0.8539562 -0.7803204 0.1036025 0.6167387 -0.7879119 -0.5938659 -0.1628441 -0.3173673 0.8402864 0.4395416 -0.9774876 0.1514698 0.1468839 -0.9417463 -0.3085154 -0.1339111 -0.06660449 0.1836867 -0.9807258 0.7537989 -0.2089375 0.6230026 0.4595655 0.6481736 0.6071823 -0.3104358 0.8961198 0.3171731 0.4811381 -0.1148936 0.8690832 -0.1648223 0.7371466 0.6553232 -0.453083 -0.324698 0.8302331 -0.1372491 -0.008674085 0.9904987 0.08161044 0.1333103 -0.9877086 0.6273754 0.7394453 0.2441736 0.6100116 0.7904863 0.05492913 0.5909178 0.8057116 0.04055857 0.4018581 0.8897964 0.216269 0.6529463 0.01807606 -0.7571885 -0.1357524 -0.6016232 0.7871599 0.02476274 -0.07370525 -0.9969726 0.03358095 0.05904382 -0.9976904 0.3676321 -0.1310644 -0.9206894 0.6464076 -0.2245197 0.7292106 0.214293 0.06369215 0.9746906 -0.02573299 -0.05760192 0.9980079 -0.1375227 -0.3625935 -0.9217448 -0.09632033 0.1187934 -0.988236 0.9259628 -0.3749754 0.04456895 0.4868598 -0.3838551 0.7846164 0.008682787 0.8171 -0.5764305 0.6239552 -0.4056072 0.6679541 0.4068941 -0.7418354 -0.5330268 -0.4882491 0.5485267 0.678772 0.8332052 -0.3279749 0.4451985 0.0789178 0.2814047 0.9563385 0.6126404 -0.05173164 -0.788667 -0.02231782 -0.6340149 0.7729988 0.09484213 -0.5290573 0.8432695 0.8129091 -0.5796863 -0.05606025 0.9315347 -0.3628925 0.02349609 0.2538871 -0.4329565 0.8649219 0.03831148 -0.4958548 0.8675599 -0.0398848 -0.1706625 0.984522 0.04135626 -0.6392447 -0.7678905 0.2067276 -0.5852417 -0.7840636 0.5452193 -0.8306921 0.1126354 -0.269059 0.1182351 0.9558388 -0.06907171 0.01344174 0.9975212 -0.05314916 -0.04288071 -0.9976655 -0.2196986 -0.378392 0.8991953 0.1209378 -0.3843616 0.9152268 -0.04718112 -0.3057029 0.9509572 0.0471431 0.7498705 0.6599028 0.09282451 -0.447183 0.8896128 -0.2812584 -0.3655196 -0.8872931 0.3067676 -0.8485908 0.4310306 -0.7787238 0.1009349 0.6191941 0.02748447 -0.3282897 0.9441771 0.1841413 -0.204237 0.9614464 -0.1665223 -0.3403357 0.9254415 -0.4455186 -0.4946773 0.7461954 0.4445219 0.8063789 -0.3900686 -0.4411651 -0.2741882 0.854514 -0.6464084 -0.1583114 0.746387 0.02919018 -0.765365 0.6429342 -0.1190322 -0.03131067 0.9923966 -0.2415711 0.08899199 0.9662939 -0.6013385 -0.4398812 -0.6670056 0.1569046 0.01649457 -0.987476 0.2719622 -0.001366376 -0.962307 0.3187922 -0.01717317 -0.947669 0.3840802 -0.8247605 0.4150331 -0.8378764 -0.2678557 -0.4756222 0.1061813 -0.05869626 0.9926128 0.01777577 -0.06627458 -0.9976431 0.4590584 0.6424492 0.6136158 0.1187245 -0.8877934 -0.4446654 -0.2032396 -0.5820087 0.787375 -0.506016 -0.7374023 -0.4474211 -0.43056 -0.4218679 -0.7979007 0.04414117 -0.9318935 -0.360036 -0.1228089 -0.103457 -0.9870231 -0.1257774 -0.5222554 0.8434627 0.1607286 -0.0279147 0.9866037 -0.5467352 -0.8351424 -0.0601471 0.7452711 -0.4761222 -0.4667747 0.04090851 -0.48492 0.8736013 -0.3087003 0.5690535 0.7621564 -0.08932179 0.06225889 -0.994055 0.8325828 -0.04787606 -0.5518276 0.5406798 0.1789699 0.8219703 0.6852222 0.3010313 -0.6632123 -0.2429398 -0.02126926 0.9698081 0.2671524 -0.1573429 0.9507222 -0.06607419 0.155046 0.9856952 0.2784588 -0.2581884 0.9250943 -0.0925163 0.176353 0.9799696 -0.4841413 -0.5629628 0.6698359 0.219648 0.07119852 0.9729776 0.1945328 -0.1496303 0.9694162 -0.1679165 0.733102 0.659064 0.2547721 -0.3152768 0.9141619 0.6123917 -0.7787523 0.1360934 0.1087689 -0.6374104 0.7628089 -0.4010495 0.8369401 -0.372412 0.4449165 0.04446381 0.8944676 0.2212709 -0.0126543 0.9751303 0.2994936 0.3625438 0.8825336 0.1349781 0.580421 0.803052 0.1618355 0.575247 0.8018107 0.1510488 -0.151308 -0.9768778 0.146614 0.4540441 0.8788334 -0.165813 -0.1112868 0.9798578 -0.4755049 0.879472 -0.02059584 -0.492838 0.02478188 -0.8697681 0.925957 -0.3749888 0.04457557 -0.3578727 0.1370535 -0.9236577 -0.1479742 0.1355913 -0.9796523 -0.1043733 0.1230929 -0.9868913 -0.3759016 0.8981336 0.2281532 0.7572522 0.4285099 0.492898 -0.8129066 -0.03823345 -0.5811377 -0.3552772 -0.1289604 0.9258225 -0.9463381 0.2421314 -0.2140477 -0.9979834 0.03830397 0.05061382 -0.2349752 0.8910132 0.3884355 -0.232456 0.8665106 0.4417279 -0.2286832 -0.7723989 -0.5925403 0.5569834 0.1436553 0.8180054 -0.1454702 -0.2009652 -0.968737 0.02987182 0.4387666 0.8981044 -0.8900815 0.4055359 0.2080759 0.2743312 -0.1079348 0.9555587 -0.7820227 0.5798464 -0.2285137 0.07480555 -0.1904968 0.9788336 -0.6906895 0.2335787 -0.6843895 0.1131646 -0.3224413 -0.9398006 -0.1499244 0.08693665 -0.9848678 -0.1245585 0.1134887 -0.9857004 0.1463453 0.1602684 -0.9761645 -0.02214354 0.8244226 0.5655413 0.254591 -0.08461838 0.9633396 -0.3336235 0.9424319 -0.02274459 -0.163888 0.7559177 0.6338211 -0.1441318 -0.00152564 -0.9895573 0.7927066 -0.2025278 -0.5749773 -0.07537454 0.1014013 -0.9919861 0.5900858 0.7478583 -0.3041492 -0.07143718 0.9061804 -0.4168139</float_array>
          <technique_common>
            <accessor source="#collisionmesh-1-mesh-normals-array" count="228" stride="3">
              <param name="X" type="float"/>
              <param name="Y" type="float"/>
              <param name="Z" type="float"/>
            </accessor>
          </technique_common>
        </source>
        <source id="collisionmesh-1-mesh-map-0">
          <float_array id="collisionmesh-1-mesh-map-0-array" count="1368">0.0595979 -0.0950402 -0.006918907 -0.2561345 0.1300147 -0.2355648 0.02766937 0.6978024 -0.0103746 0.4664867 0.1498536 0.6680647 -0.7131639 0.2213757 -0.6627445 -0.134756 -0.4454757 -0.1335803 -0.192391 0.2088164 -0.2224478 0.1286546 -0.1526404 0.122527 0.4093546 0.08100861 0.2609323 -0.0327875 0.3648225 -0.0341767 0.2227149 0.7707829 0.477196 0.5881385 0.5550155 0.7324621 -0.1482787 -0.0297802 -0.2423623 -0.121139 -0.1762048 -0.1176414 0.1477667 0.05028945 0.08697104 0.1740515 0.05894869 0.1134065 0.7975162 -0.5850824 0.8757971 -0.7324956 1.018603 -0.5995904 0.7975162 -0.5850824 1.018603 -0.5995904 0.8316024 -0.4435992 0.3639583 0.2683837 0.3266332 0.2306848 0.3925987 0.1925632 0.7975162 -0.5850824 0.8316024 -0.4435992 0.5961151 -0.5245829 -0.218799 0.362857 -0.3620361 0.5981988 -0.3989914 0.2848735 0.6639152 0.2727887 0.6404784 0.4406836 0.5578919 0.357054 0.662987 -0.2746981 0.74967 -0.1749075 0.6262759 -0.2110908 0.6404784 0.4406836 0.7066618 0.4829009 0.477196 0.5881385 0.08869218 -0.4010707 0.1853596 -0.4643886 0.2384524 -0.3879675 0.3648225 -0.0341767 0.478793 -0.03151106 0.4093546 0.08100861 0.1477667 0.05028945 0.1570691 0.1865423 0.08697104 0.1740515 0.08869218 -0.4010707 -0.03485131 -0.3696056 -0.09428203 -0.4697066 -0.1589478 -0.1976078 -0.1371493 -0.1178066 -0.1762048 -0.1176414 0.2768131 0.3840309 0.2689962 0.4333089 0.1452609 0.3874967 0.08869218 -0.4010707 -0.09428203 -0.4697066 0.1853596 -0.4643886 0.6639152 0.2727887 0.8145864 0.2686285 0.7543454 0.3706297 -0.2224478 0.1286546 -0.3207536 0.05661159 -0.208832 0.01591867 -0.2224478 0.1286546 -0.208832 0.01591867 -0.1575586 0.06014329 -0.2224478 0.1286546 -0.1575586 0.06014329 -0.1526404 0.122527 0.3266332 0.2306848 0.2260419 0.09672558 0.4093546 0.08100861 0.7543454 0.3706297 0.8145864 0.2686285 0.9702702 0.2872015 0.411222 -0.118895 0.5062535 -0.1890073 0.478793 -0.03151106 0.02551329 0.1763955 0.03809446 0.2801399 -0.04050284 0.250439 -0.1125572 0.1007394 -0.04050284 0.250439 -0.0876531 0.2817221 0.1300147 -0.2355648 0.07817906 -0.2895905 0.1846497 -0.2543246 0.5397022 -0.6120471 0.5388365 -0.8391881 0.8757971 -0.7324956 0.0595979 -0.0950402 -0.08870148 -0.06555759 -0.006918907 -0.2561345 0.5397022 -0.6120471 0.8757971 -0.7324956 0.7975162 -0.5850824 0.5397022 -0.6120471 0.7975162 -0.5850824 0.5961151 -0.5245829 0.5397022 -0.6120471 0.2590513 -0.7648687 0.5388365 -0.8391881 0.9401671 -0.3490274 0.74967 -0.1749075 0.662987 -0.2746981 0.2384524 -0.3879675 0.3542321 -0.4195939 0.4754121 -0.3332074 0.594242 0.2383665 0.5578919 0.357054 0.434765 0.24508 0.6292951 0.1253697 0.6639152 0.2727887 0.594242 0.2383665 0.004209697 0.09196937 -0.07877498 0.1004781 -0.1137116 0.04101145 0.2949883 0.31932 0.3471339 0.3253778 0.3100357 0.3683711 0.2949883 0.31932 0.3100357 0.3683711 0.2768131 0.3840309 0.2227149 0.7707829 0.1498536 0.6680647 0.477196 0.5881385 0.2949883 0.31932 0.2768131 0.3840309 0.1821575 0.2828252 0.2949883 0.31932 0.1821575 0.2828252 0.2808541 0.2748189 -0.1629565 0.3165493 -0.192391 0.2088164 -0.0876531 0.2817221 -0.1629565 0.3165493 -0.0876531 0.2817221 -0.06126165 0.3939738 0.4754121 -0.3332074 0.662987 -0.2746981 0.5523075 -0.2497307 -0.1629565 0.3165493 -0.06126165 0.3939738 -0.1284538 0.4054515 -0.1629565 0.3165493 -0.1284538 0.4054515 -0.218799 0.362857 0.02551329 0.1763955 -0.07877498 0.1004781 0.004209697 0.09196937 -0.1629565 0.3165493 -0.218799 0.362857 -0.2338107 0.2042676 -0.1629565 0.3165493 -0.2338107 0.2042676 -0.192391 0.2088164 0.02551329 0.1763955 0.09772044 0.2614951 0.03809446 0.2801399 0.01982188 0.3781998 -0.04050284 0.250439 0.04308384 0.3466741 -0.03485131 -0.3696056 -0.1589478 -0.1976078 -0.2498195 -0.2315936 -0.1575586 0.06014329 -0.1125572 0.1007394 -0.1526404 0.122527 -0.1575586 0.06014329 -0.1482787 -0.0297802 -0.1137116 0.04101145 -0.1125572 0.1007394 -0.07877498 0.1004781 -0.04050284 0.250439 0.01982188 0.3781998 -0.007260799 0.3989242 -0.0876531 0.2817221 0.01982188 0.3781998 -0.0876531 0.2817221 -0.04050284 0.250439 0.9401671 -0.3490274 0.662987 -0.2746981 0.8316024 -0.4435992 0.1360781 0.4956408 0.1452609 0.3874967 0.2689962 0.4333089 0.6639152 0.2727887 0.7543454 0.3706297 0.6404784 0.4406836 0.1360781 0.4956408 0.2689962 0.4333089 0.2268093 0.5657956 0.2255528 -0.2000942 0.1846497 -0.2543246 0.3319708 -0.2139638 0.2073474 -0.07503575 0.1371696 -0.05508249 0.2255528 -0.2000942 0.6262759 -0.2110908 0.5537356 0.009018838 0.5062535 -0.1890073 0.6292951 0.1253697 0.729271 0.08675646 0.6639152 0.2727887 0.1300147 -0.2355648 0.2255528 -0.2000942 0.1371696 -0.05508249 0.5550155 0.7324621 0.477196 0.5881385 0.7066618 0.4829009 -0.1482787 -0.0297802 -0.1762048 -0.1176414 -0.1371493 -0.1178066 0.03809446 0.2801399 0.04308384 0.3466741 -0.04050284 0.250439 0.662987 -0.2746981 0.4754121 -0.3332074 0.8316024 -0.4435992 0.1853596 -0.4643886 0.5961151 -0.5245829 0.3542321 -0.4195939 0.01982188 0.3781998 0.1452609 0.3874967 0.1360781 0.4956408 -0.06126165 0.3939738 -0.0876531 0.2817221 -0.007260799 0.3989242 0.5578919 0.357054 0.4304923 0.4774681 0.3877362 0.3857024 0.01982188 0.3781998 0.1360781 0.4956408 -0.007260799 0.3989242 -0.1526404 0.122527 -0.1125572 0.1007394 -0.0876531 0.2817221 0.2227149 0.7707829 0.5550155 0.7324621 0.3042351 0.9240203 0.284286 -0.2879893 0.3319708 -0.2139638 0.1846497 -0.2543246 0.6292951 0.1253697 0.6143838 0.0377891 0.687711 -0.05627888 0.5578919 0.357054 0.6404784 0.4406836 0.4304923 0.4774681 0.5537356 0.009018838 0.478793 -0.03151106 0.5062535 -0.1890073 0.3877362 0.3857024 0.3471339 0.3253778 0.434765 0.24508 0.2768131 0.3840309 0.1452609 0.3874967 0.1821575 0.2828252 0.2073474 -0.07503575 0.2255528 -0.2000942 0.2957754 -0.1169366 -0.218799 0.362857 -0.083965 0.6393091 -0.3620361 0.5981988 0.729271 0.08675646 0.687711 -0.05627888 0.74967 -0.1749075 0.729271 0.08675646 0.74967 -0.1749075 0.8963041 0.01383805 0.729271 0.08675646 0.8963041 0.01383805 0.8145864 0.2686285 0.729271 0.08675646 0.8145864 0.2686285 0.6639152 0.2727887 0.3542321 -0.4195939 0.5961151 -0.5245829 0.4754121 -0.3332074 0.3266332 0.2306848 0.2808541 0.2748189 0.1570691 0.1865423 -0.2338107 0.2042676 -0.3989914 0.2848735 -0.3207536 0.05661159 0.3042351 0.9240203 0.5550155 0.7324621 0.5833284 1.075504 0.05152517 -0.5799837 0.1853596 -0.4643886 -0.09428203 -0.4697066 0.6262759 -0.2110908 0.5062535 -0.1890073 0.5523075 -0.2497307 0.1477667 0.05028945 0.05894869 0.1134065 0.1371696 -0.05508249 0.1300147 -0.2355648 0.1371696 -0.05508249 0.0595979 -0.0950402 -0.2338107 0.2042676 -0.3207536 0.05661159 -0.2224478 0.1286546 -0.3989914 0.2848735 -0.3620361 0.5981988 -0.7723796 0.5887454 0.2384524 -0.3879675 0.4754121 -0.3332074 0.284286 -0.2879893 0.5062535 -0.1890073 0.3319708 -0.2139638 0.284286 -0.2879893 0.7543454 0.3706297 0.8310068 0.4020376 0.7066618 0.4829009 0.5062535 -0.1890073 0.284286 -0.2879893 0.5523075 -0.2497307 -0.09428203 -0.4697066 -0.03485131 -0.3696056 -0.2498195 -0.2315936 0.3100357 0.3683711 0.2689962 0.4333089 0.2768131 0.3840309 0.07817906 -0.2895905 0.284286 -0.2879893 0.1846497 -0.2543246 0.5537356 0.009018838 0.6143838 0.0377891 0.6292951 0.1253697 0.5961151 -0.5245829 0.8316024 -0.4435992 0.4754121 -0.3332074 0.3266332 0.2306848 0.1570691 0.1865423 0.2260419 0.09672558 0.3266332 0.2306848 0.4093546 0.08100861 0.3925987 0.1925632 0.07817906 -0.2895905 -0.03485131 -0.3696056 0.08869218 -0.4010707 0.07817906 -0.2895905 0.08869218 -0.4010707 0.284286 -0.2879893 0.1300147 -0.2355648 -0.006918907 -0.2561345 0.07817906 -0.2895905 0.3648225 -0.0341767 0.2957754 -0.1169366 0.411222 -0.118895 0.2073474 -0.07503575 0.2957754 -0.1169366 0.2609323 -0.0327875 -0.3334863 -0.1599316 -0.2498195 -0.2315936 -0.2423623 -0.121139 -0.5267479 -0.2928289 -0.2498195 -0.2315936 -0.3334863 -0.1599316 -0.006918907 -0.2561345 -0.1589478 -0.1976078 -0.03485131 -0.3696056 0.3639583 0.2683837 0.2808541 0.2748189 0.3266332 0.2306848 0.2255528 -0.2000942 0.3319708 -0.2139638 0.2957754 -0.1169366 -0.7131639 0.2213757 -0.4454757 -0.1335803 -0.3989914 0.2848735 0.1821575 0.2828252 0.09772044 0.2614951 0.1570691 0.1865423 -0.09689468 -0.1728595 -0.006918907 -0.2561345 -0.08870148 -0.06555759 0.1477667 0.05028945 0.2260419 0.09672558 0.1570691 0.1865423 0.3100357 0.3683711 0.3471339 0.3253778 0.3877362 0.3857024 -0.09689468 -0.1728595 -0.08870148 -0.06555759 -0.1371493 -0.1178066 -0.2423623 -0.121139 -0.3207536 0.05661159 -0.3334863 -0.1599316 -0.09689468 -0.1728595 -0.1371493 -0.1178066 -0.1589478 -0.1976078 0.01982188 0.3781998 0.04308384 0.3466741 0.1452609 0.3874967 0.004209697 0.09196937 -0.1137116 0.04101145 -0.08870148 -0.06555759 0.03344219 0.01057195 0.1371696 -0.05508249 0.05894869 0.1134065 0.411222 -0.118895 0.2957754 -0.1169366 0.3319708 -0.2139638 -0.1137116 0.04101145 -0.07877498 0.1004781 -0.1125572 0.1007394 0.7543454 0.3706297 0.9702702 0.2872015 0.8310068 0.4020376 0.1452609 0.3874967 0.09772044 0.2614951 0.1821575 0.2828252 0.02551329 0.1763955 -0.04050284 0.250439 -0.07877498 0.1004781 -0.1137116 0.04101145 -0.1482787 -0.0297802 -0.08870148 -0.06555759 0.004209697 0.09196937 0.05894869 0.1134065 0.02551329 0.1763955 0.3639583 0.2683837 0.2949883 0.31932 0.2808541 0.2748189 -0.192391 0.2088164 -0.2338107 0.2042676 -0.2224478 0.1286546 0.05152517 -0.5799837 0.2590513 -0.7648687 0.5397022 -0.6120471 0.05152517 -0.5799837 0.5397022 -0.6120471 0.5961151 -0.5245829 0.05152517 -0.5799837 0.5961151 -0.5245829 0.1853596 -0.4643886 -0.006918907 -0.2561345 -0.09689468 -0.1728595 -0.1589478 -0.1976078 -0.192391 0.2088164 -0.1526404 0.122527 -0.0876531 0.2817221 0.0595979 -0.0950402 0.1371696 -0.05508249 0.03344219 0.01057195 -0.218799 0.362857 -0.3989914 0.2848735 -0.2338107 0.2042676 0.6292951 0.1253697 0.687711 -0.05627888 0.729271 0.08675646 -0.1589478 -0.1976078 -0.1762048 -0.1176414 -0.2423623 -0.121139 -0.08870148 -0.06555759 -0.1482787 -0.0297802 -0.1371493 -0.1178066 -0.1482787 -0.0297802 -0.208832 0.01591867 -0.2423623 -0.121139 -0.2423623 -0.121139 -0.208832 0.01591867 -0.3207536 0.05661159 -0.1589478 -0.1976078 -0.2423623 -0.121139 -0.2498195 -0.2315936 -0.4454757 -0.1335803 -0.3207536 0.05661159 -0.3989914 0.2848735 0.3648225 -0.0341767 0.2609323 -0.0327875 0.2957754 -0.1169366 0.1300147 -0.2355648 0.1846497 -0.2543246 0.2255528 -0.2000942 -0.1575586 0.06014329 -0.1137116 0.04101145 -0.1125572 0.1007394 0.4754121 -0.3332074 0.5523075 -0.2497307 0.284286 -0.2879893 0.3648225 -0.0341767 0.411222 -0.118895 0.478793 -0.03151106 0.3639583 0.2683837 0.3471339 0.3253778 0.2949883 0.31932 0.5550155 0.7324621 0.956945 0.9388044 0.5833284 1.075504 0.662987 -0.2746981 0.6262759 -0.2110908 0.5523075 -0.2497307 0.5537356 0.009018838 0.687711 -0.05627888 0.6143838 0.0377891 0.9401671 -0.3490274 0.8316024 -0.4435992 1.018603 -0.5995904 0.1570691 0.1865423 0.09772044 0.2614951 0.08697104 0.1740515 0.004209697 0.09196937 -0.08870148 -0.06555759 0.03344219 0.01057195 0.08697104 0.1740515 0.09772044 0.2614951 0.02551329 0.1763955 0.411222 -0.118895 0.3319708 -0.2139638 0.5062535 -0.1890073 0.08697104 0.1740515 0.02551329 0.1763955 0.05894869 0.1134065 0.1821575 0.2828252 0.1570691 0.1865423 0.2808541 0.2748189 0.1477667 0.05028945 0.1371696 -0.05508249 0.2073474 -0.07503575 0.1477667 0.05028945 0.2073474 -0.07503575 0.2609323 -0.0327875 0.3877362 0.3857024 0.434765 0.24508 0.5578919 0.357054 0.1477667 0.05028945 0.2609323 -0.0327875 0.2260419 0.09672558 -0.006918907 -0.2561345 -0.03485131 -0.3696056 0.07817906 -0.2895905 0.4093546 0.08100861 0.2260419 0.09672558 0.2609323 -0.0327875 0.2268093 0.5657956 0.477196 0.5881385 0.1498536 0.6680647 0.4796745 0.1705653 0.3925987 0.1925632 0.4093546 0.08100861 0.4796745 0.1705653 0.4093546 0.08100861 0.5537356 0.009018838 0.4796745 0.1705653 0.5537356 0.009018838 0.6292951 0.1253697 0.4796745 0.1705653 0.6292951 0.1253697 0.594242 0.2383665 0.4796745 0.1705653 0.594242 0.2383665 0.434765 0.24508 -0.6627445 -0.134756 -0.5267479 -0.2928289 -0.4454757 -0.1335803 0.4796745 0.1705653 0.434765 0.24508 0.3925987 0.1925632 0.03809446 0.2801399 0.09772044 0.2614951 0.1452609 0.3874967 0.6404784 0.4406836 0.477196 0.5881385 0.4304923 0.4774681 -0.1284538 0.4054515 -0.06126165 0.3939738 -0.0103746 0.4664867 0.2384524 -0.3879675 0.284286 -0.2879893 0.08869218 -0.4010707 -0.1284538 0.4054515 -0.0103746 0.4664867 0.02766937 0.6978024 -0.1284538 0.4054515 0.02766937 0.6978024 -0.083965 0.6393091 -0.1284538 0.4054515 -0.083965 0.6393091 -0.218799 0.362857 0.2689962 0.4333089 0.4304923 0.4774681 0.2268093 0.5657956 0.6262759 -0.2110908 0.74967 -0.1749075 0.687711 -0.05627888 -0.0103746 0.4664867 -0.06126165 0.3939738 -0.007260799 0.3989242 0.1452609 0.3874967 0.04308384 0.3466741 0.03809446 0.2801399 -0.0103746 0.4664867 -0.007260799 0.3989242 0.1360781 0.4956408 -0.0103746 0.4664867 0.1360781 0.4956408 0.1181566 0.5583146 0.3100357 0.3683711 0.3877362 0.3857024 0.2689962 0.4333089 0.2689962 0.4333089 0.3877362 0.3857024 0.4304923 0.4774681 -0.1575586 0.06014329 -0.208832 0.01591867 -0.1482787 -0.0297802 0.6262759 -0.2110908 0.687711 -0.05627888 0.5537356 0.009018838 -0.4454757 -0.1335803 -0.3334863 -0.1599316 -0.3207536 0.05661159 0.3639583 0.2683837 0.3925987 0.1925632 0.434765 0.24508 0.1181566 0.5583146 0.1360781 0.4956408 0.2268093 0.5657956 0.03344219 0.01057195 0.05894869 0.1134065 0.004209697 0.09196937 0.1181566 0.5583146 0.2268093 0.5657956 0.1498536 0.6680647 0.0595979 -0.0950402 0.03344219 0.01057195 -0.08870148 -0.06555759 0.1181566 0.5583146 0.1498536 0.6680647 -0.0103746 0.4664867 -0.5267479 -0.2928289 -0.3334863 -0.1599316 -0.4454757 -0.1335803 1.018603 0.5258145 0.5550155 0.7324621 0.7066618 0.4829009 1.018603 0.5258145 0.7066618 0.4829009 0.8310068 0.4020376 1.018603 0.5258145 0.8310068 0.4020376 0.9702702 0.2872015 0.594242 0.2383665 0.6639152 0.2727887 0.5578919 0.357054 0.5537356 0.009018838 0.4093546 0.08100861 0.478793 -0.03151106 0.2268093 0.5657956 0.4304923 0.4774681 0.477196 0.5881385 0.3639583 0.2683837 0.434765 0.24508 0.3471339 0.3253778 1.018603 0.5258145 0.956945 0.9388044 0.5550155 0.7324621 0.1853596 -0.4643886 0.3542321 -0.4195939 0.2384524 -0.3879675 -0.3989914 0.2848735 -0.7723796 0.5887454 -0.7131639 0.2213757 0.8963041 0.01383805 0.9702702 0.2872015 0.8145864 0.2686285 0.7543454 0.3706297 0.7066618 0.4829009 0.6404784 0.4406836</float_array>
          <technique_common>
            <accessor source="#collisionmesh-1-mesh-map-0-array" count="684" stride="2">
              <param name="S" type="float"/>
              <param name="T" type="float"/>
            </accessor>
          </technique_common>
        </source>
        <vertices id="collisionmesh-1-mesh-vertices">
          <input semantic="POSITION" source="#collisionmesh-1-mesh-positions"/>
        </vertices>
        <polylist count="228">
          <input semantic="VERTEX" source="#collisionmesh-1-mesh-vertices" offset="0"/>
          <input semantic="NORMAL" source="#collisionmesh-1-mesh-normals" offset="1"/>
          <input semantic="TEXCOORD" source="#collisionmesh-1-mesh-map-0" offset="2" set="0"/>
          <vcount>3 3 3 3 3 3 3 3 3 3 3 3 3 3 3 3 3 3 3 3 3 3 3 3 3 3 3 3 3 3 3 3 3 3 3 3 3 3 3 3 3 3 3 3 3 3 3 3 3 3 3 3 3 3 3 3 3 3 3 3 3 3 3 3 3 3 3 3 3 3 3 3 3 3 3 3 3 3 3 3 3 3 3 3 3 3 3 3 3 3 3 3 3 3 3 3 3 3 3 3 3 3 3 3 3 3 3 3 3 3 3 3 3 3 3 3 3 3 3 3 3 3 3 3 3 3 3 3 3 3 3 3 3 3 3 3 3 3 3 3 3 3 3 3 3 3 3 3 3 3 3 3 3 3 3 3 3 3 3 3 3 3 3 3 3 3 3 3 3 3 3 3 3 3 3 3 3 3 3 3 3 3 3 3 3 3 3 3 3 3 3 3 3 3 3 3 3 3 3 3 3 3 3 3 3 3 3 3 3 3 3 3 3 3 3 3 3 3 3 3 3 3 3 3 3 3 3 3 </vcount>
          <p>74 0 0 72 0 1 91 0 2 87 1 3 34 1 4 103 1 5 101 2 6 32 2 7 12 2 8 42 3 9 3 3 10 7 3 11 93 4 12 50 4 13 94 4 14 87 5 15 43 5 16 9 5 17 97 6 18 13 6 19 31 6 20 22 7 21 21 7 22 47 7 23 1 8 24 27 8 25 84 8 26 1 9 27 84 9 28 52 9 29 41 10 30 40 10 31 38 10 32 1 11 33 52 11 34 105 11 35 83 12 36 73 12 37 19 12 38 96 13 39 88 13 40 110 13 41 61 14 42 114 14 43 63 14 44 88 15 45 64 15 46 43 15 47 2 16 48 30 16 49 99 16 50 94 17 51 115 17 52 93 17 53 22 18 54 24 18 55 21 18 56 2 19 57 79 19 58 104 19 59 18 20 60 68 20 61 31 20 62 109 21 63 54 21 64 90 21 65 2 22 66 104 22 67 30 22 68 96 23 69 48 23 70 28 23 71 3 24 72 81 24 73 37 24 74 3 25 75 37 25 76 35 25 77 3 26 78 35 26 79 7 26 80 40 27 81 26 27 82 93 27 83 28 28 84 48 28 85 84 28 86 65 29 87 16 29 88 115 29 89 46 30 90 108 30 91 62 30 92 36 31 93 62 31 94 25 31 95 91 32 96 14 32 97 56 32 98 53 33 99 4 33 100 27 33 101 74 34 102 57 34 103 72 34 104 53 35 105 27 35 106 1 35 107 53 36 108 1 36 109 105 36 110 53 37 111 101 37 112 4 37 113 29 38 114 114 38 115 61 38 116 99 39 117 80 39 118 100 39 119 58 40 120 110 40 121 82 40 122 85 41 123 96 41 124 58 41 125 106 42 126 77 42 127 10 42 128 5 43 129 75 43 130 55 43 131 5 44 132 55 44 133 109 44 134 87 45 135 103 45 136 43 45 137 5 46 138 109 46 139 39 46 140 5 47 141 39 47 142 60 47 143 6 48 144 42 48 145 25 48 146 6 49 147 25 49 148 44 49 149 100 50 150 61 50 151 45 50 152 6 51 153 44 51 154 69 51 155 6 52 156 69 52 157 83 52 158 46 53 159 77 53 160 106 53 161 6 54 162 83 54 163 98 54 164 6 55 165 98 55 166 42 55 167 46 56 168 0 56 169 108 56 170 78 57 171 62 57 172 111 57 173 79 58 174 18 58 175 70 58 176 35 59 177 36 59 178 7 59 179 35 60 180 97 60 181 10 60 182 36 61 183 77 61 184 62 61 185 78 62 186 49 62 187 25 62 188 78 63 189 25 63 190 62 63 191 29 64 192 61 64 193 52 64 194 8 65 195 90 65 196 54 65 197 96 66 198 28 66 199 88 66 200 8 67 201 54 67 202 102 67 203 67 68 204 56 68 205 15 68 206 92 69 207 17 69 208 67 69 209 63 70 210 95 70 211 16 70 212 85 71 213 11 71 214 96 71 215 91 72 216 67 72 217 17 72 218 9 73 219 43 73 220 64 73 221 97 74 222 31 74 223 68 74 224 108 75 225 111 75 226 62 75 227 61 76 228 100 76 229 52 76 230 30 77 231 105 77 232 80 77 233 78 78 234 90 78 235 8 78 236 44 79 237 25 79 238 49 79 239 110 80 240 33 80 241 51 80 242 78 81 243 8 81 244 49 81 245 7 82 246 36 82 247 25 82 248 87 83 249 9 83 250 86 83 251 59 84 252 15 84 253 56 84 254 85 85 255 113 85 256 89 85 257 110 86 258 88 86 259 33 86 260 95 87 261 115 87 262 16 87 263 51 88 264 75 88 265 82 88 266 109 89 267 90 89 268 39 89 269 92 90 270 67 90 271 66 90 272 83 91 273 86 91 274 73 91 275 11 92 276 89 92 277 114 92 278 11 93 279 114 93 280 29 93 281 11 94 282 29 94 283 48 94 284 11 95 285 48 95 286 96 95 287 80 96 288 105 96 289 100 96 290 40 97 291 60 97 292 24 97 293 98 98 294 19 98 295 81 98 296 86 99 297 9 99 298 73 99 299 32 100 300 30 100 301 104 100 302 63 101 303 16 101 304 45 101 305 22 102 306 47 102 307 17 102 308 91 103 309 17 103 310 74 103 311 98 104 312 81 104 313 3 104 314 19 105 315 73 105 316 4 105 317 99 106 318 100 106 319 59 106 320 16 107 321 15 107 322 59 107 323 28 108 324 112 108 325 64 108 326 16 109 327 59 109 328 45 109 329 104 110 330 79 110 331 70 110 332 55 111 333 54 111 334 109 111 335 14 112 336 59 112 337 56 112 338 95 113 339 113 113 340 85 113 341 105 114 342 52 114 343 100 114 344 40 115 345 24 115 346 26 115 347 40 116 348 93 116 349 38 116 350 14 117 351 79 117 352 2 117 353 14 118 354 2 118 355 59 118 356 91 119 357 72 119 358 14 119 359 94 120 360 66 120 361 65 120 362 92 121 363 66 121 364 50 121 365 20 122 366 70 122 367 13 122 368 104 123 369 70 123 370 20 123 371 72 124 372 18 124 373 79 124 374 41 125 375 60 125 376 40 125 377 67 126 378 15 126 379 66 126 380 101 127 381 12 127 382 19 127 383 39 128 384 0 128 385 24 128 386 71 129 387 72 129 388 57 129 389 22 130 390 26 130 391 24 130 392 55 131 393 75 131 394 51 131 395 71 132 396 57 132 397 68 132 398 13 133 399 81 133 400 20 133 401 71 134 402 68 134 403 18 134 404 78 135 405 111 135 406 90 135 407 106 136 408 10 136 409 57 136 410 76 137 411 17 137 412 47 137 413 65 138 414 66 138 415 15 138 416 10 139 417 77 139 418 36 139 419 28 140 420 84 140 421 112 140 422 90 141 423 0 141 424 39 141 425 46 142 426 62 142 427 77 142 428 10 143 429 97 143 430 57 143 431 106 144 432 47 144 433 46 144 434 41 145 435 5 145 436 60 145 437 42 146 438 98 146 439 3 146 440 32 147 441 101 147 442 53 147 443 32 148 444 53 148 445 105 148 446 32 149 447 105 149 448 30 149 449 72 150 450 71 150 451 18 150 452 42 151 453 7 151 454 25 151 455 74 152 456 17 152 457 76 152 458 83 153 459 19 153 460 98 153 461 85 154 462 89 154 463 11 154 464 18 155 465 31 155 466 13 155 467 57 156 468 97 156 469 68 156 470 97 157 471 37 157 472 13 157 473 13 158 474 37 158 475 81 158 476 18 159 477 13 159 478 70 159 479 12 160 480 81 160 481 19 160 482 94 161 483 50 161 484 66 161 485 91 162 486 56 162 487 67 162 488 35 163 489 10 163 490 36 163 491 100 164 492 45 164 493 59 164 494 94 165 495 65 165 496 115 165 497 41 166 498 75 166 499 5 166 500 9 167 501 4 167 502 73 167 503 61 168 504 63 168 505 45 168 506 95 169 507 89 169 508 113 169 509 29 170 510 52 170 511 84 170 512 24 171 513 0 171 514 21 171 515 106 172 516 57 172 517 76 172 518 21 173 519 0 173 520 46 173 521 65 174 522 15 174 523 16 174 524 21 175 525 46 175 526 47 175 527 39 176 528 24 176 529 60 176 530 22 177 531 17 177 532 92 177 533 22 178 534 92 178 535 50 178 536 51 179 537 82 179 538 110 179 539 22 180 540 50 180 541 26 180 542 72 181 543 79 181 544 14 181 545 93 182 546 26 182 547 50 182 548 102 183 549 43 183 550 103 183 551 23 184 552 38 184 553 93 184 554 23 185 555 93 185 556 95 185 557 23 186 558 95 186 559 85 186 560 23 187 561 85 187 562 58 187 563 23 188 564 58 188 565 82 188 566 32 189 567 104 189 568 12 189 569 23 190 570 82 190 571 38 190 572 108 191 573 0 191 574 90 191 575 88 192 576 43 192 577 33 192 578 69 193 579 44 193 580 34 193 581 99 194 582 59 194 583 2 194 584 69 195 585 34 195 586 87 195 587 69 196 588 87 196 589 86 196 590 69 197 591 86 197 592 83 197 593 54 198 594 33 198 595 102 198 596 63 199 597 114 199 598 89 199 599 34 200 600 44 200 601 49 200 602 90 201 603 111 201 604 108 201 605 34 202 606 49 202 607 8 202 608 34 203 609 8 203 610 107 203 611 55 204 612 51 204 613 54 204 614 54 205 615 51 205 616 33 205 617 35 206 618 37 206 619 97 206 620 63 207 621 89 207 622 95 207 623 12 208 624 20 208 625 81 208 626 41 209 627 38 209 628 82 209 629 107 210 630 8 210 631 102 210 632 76 211 633 47 211 634 106 211 635 107 212 636 102 212 637 103 212 638 74 213 639 76 213 640 57 213 641 107 214 642 103 214 643 34 214 644 104 215 645 20 215 646 12 215 647 27 216 648 9 216 649 64 216 650 27 217 651 64 217 652 112 217 653 27 218 654 112 218 655 84 218 656 58 219 657 96 219 658 110 219 659 95 220 660 93 220 661 115 220 662 102 221 663 33 221 664 43 221 665 41 222 666 82 222 667 75 222 668 27 223 669 4 223 670 9 223 671 30 224 672 80 224 673 99 224 674 19 225 675 4 225 676 101 225 677 29 226 678 84 226 679 48 226 680 28 227 681 64 227 682 88 227 683</p>
        </polylist>
      </mesh>
      <extra><technique profile="MAYA"><double_sided>1</double_sided></technique></extra>
    </geometry>
  </library_geometries>
  <library_visual_scenes>
    <visual_scene id="Scene" name="Scene">
      <node id="Hemi" name="Hemi" type="NODE">
        <translate sid="location">6.038198 -1.989344 1.759058</translate>
        <rotate sid="rotationZ">0 0 1 0</rotate>
        <rotate sid="rotationY">0 1 0 0</rotate>
        <rotate sid="rotationX">1 0 0 0</rotate>
        <scale sid="scale">1 1 1</scale>
        <instance_light url="#Hemi-light"/>
      </node>
      <node id="base01" name="base01" type="NODE">
        <translate sid="location">0 0 0</translate>
        <rotate sid="rotationZ">0 0 1 0</rotate>
        <rotate sid="rotationY">0 1 0 0</rotate>
        <rotate sid="rotationX">1 0 0 0</rotate>
        <scale sid="scale">1 1 1</scale>
        <node id="detail8" name="detail8" type="NODE">
          <translate sid="location">0 0 0</translate>
          <rotate sid="rotationZ">0 0 1 0</rotate>
          <rotate sid="rotationY">0 1 0 0</rotate>
          <rotate sid="rotationX">1 0 0 0</rotate>
          <scale sid="scale">1 1 1</scale>
        </node>
        <node id="detail96" name="detail96" type="NODE">
          <translate sid="location">0 0 0</translate>
          <rotate sid="rotationZ">0 0 1 0</rotate>
          <rotate sid="rotationY">0 1 0 0</rotate>
          <rotate sid="rotationX">1 0 0 0</rotate>
          <scale sid="scale">1 1 1</scale>
        </node>
        <node id="nulldetail0" name="nulldetail0" type="NODE">
          <translate sid="location">0 0 0</translate>
          <rotate sid="rotationZ">0 0 1 0</rotate>
          <rotate sid="rotationY">0 1 0 0</rotate>
          <rotate sid="rotationX">1 0 0 0</rotate>
          <scale sid="scale">1 1 1</scale>
        </node>
        <node id="start01" name="start01" type="NODE">
          <translate sid="location">0 0 0</translate>
          <rotate sid="rotationZ">0 0 1 0</rotate>
          <rotate sid="rotationY">0 1 0 0</rotate>
          <rotate sid="rotationX">1 0 0 0</rotate>
          <scale sid="scale">1 1 1</scale>
          <node id="rockflat96" name="rockflat96" type="NODE">
            <translate sid="location">0 0 0.4568638</translate>
            <rotate sid="rotationZ">0 0 1 0</rotate>
            <rotate sid="rotationY">0 1 0 0</rotate>
            <rotate sid="rotationX">1 0 0 0</rotate>
            <scale sid="scale">1 1 1</scale>
            <instance_geometry url="#rockflat96-mesh">
              <bind_material>
                <technique_common>
                  <instance_material symbol="rock_brown_01-material" target="#rock_brown_01-material">
                    <bind_vertex_input semantic="UVMap" input_semantic="TEXCOORD" input_set="0"/>
                  </instance_material>
                </technique_common>
              </bind_material>
            </instance_geometry>
          </node>
          <node id="rockflat8" name="rockflat8" type="NODE">
            <translate sid="location">0 0 0.4568638</translate>
            <rotate sid="rotationZ">0 0 1 0</rotate>
            <rotate sid="rotationY">0 1 0 0</rotate>
            <rotate sid="rotationX">1 0 0 0</rotate>
            <scale sid="scale">1 1 1</scale>
            <instance_geometry url="#rockflat8-mesh">
              <bind_material>
                <technique_common>
                  <instance_material symbol="rock_brown_01-material" target="#rock_brown_01-material">
                    <bind_vertex_input semantic="UVMap" input_semantic="TEXCOORD" input_set="0"/>
                  </instance_material>
                </technique_common>
              </bind_material>
            </instance_geometry>
          </node>
          <node id="collisionmesh-1" name="collisionmesh-1" type="NODE">
            <translate sid="location">0 0 0.4568638</translate>
            <rotate sid="rotationZ">0 0 1 0</rotate>
            <rotate sid="rotationY">0 1 0 0</rotate>
            <rotate sid="rotationX">1 0 0 0</rotate>
            <scale sid="scale">1 1 1</scale>
            <instance_geometry url="#collisionmesh-1-mesh"/>
          </node>
        </node>
        <node id="collision-1" name="collision-1" type="NODE">
          <translate sid="location">0 0 0</translate>
          <rotate sid="rotationZ">0 0 1 0</rotate>
          <rotate sid="rotationY">0 1 0 0</rotate>
          <rotate sid="rotationX">1 0 0 0</rotate>
          <scale sid="scale">1 1 1</scale>
        </node>
      </node>
    </visual_scene>
  </library_visual_scenes>
  <scene>
    <instance_visual_scene url="#Scene"/>
  </scene>
</COLLADA>