<?xml version="1.0" encoding="utf-8"?>
<COLLADA xmlns="http://www.collada.org/2005/11/COLLADASchema" version="1.4.1">
  <asset>
    <contributor>
      <author>Blender User</author>
      <authoring_tool>Blender 2.75.0 commit date:2015-07-07, commit time:14:56, hash:c27589e</authoring_tool>
    </contributor>
    <created>2015-07-26T21:16:42</created>
    <modified>2015-07-26T21:16:42</modified>
    <unit name="meter" meter="1"/>
    <up_axis>Z_UP</up_axis>
  </asset>
  <library_cameras>
    <camera id="Camera-camera" name="Camera">
      <optics>
        <technique_common>
          <perspective>
            <xfov sid="xfov">49.13434</xfov>
            <aspect_ratio>1.777778</aspect_ratio>
            <znear sid="znear">0.1</znear>
            <zfar sid="zfar">100</zfar>
          </perspective>
        </technique_common>
      </optics>
      <extra>
        <technique profile="blender">
          <YF_dofdist>0</YF_dofdist>
          <shiftx>0</shiftx>
          <shifty>0</shifty>
        </technique>
      </extra>
    </camera>
  </library_cameras>
  <library_lights>
    <light id="Lamp-light" name="Lamp">
      <technique_common>
        <point>
          <color sid="color">1 1 1</color>
          <constant_attenuation>1</constant_attenuation>
          <linear_attenuation>0</linear_attenuation>
          <quadratic_attenuation>0.00111109</quadratic_attenuation>
        </point>
      </technique_common>
      <extra>
        <technique profile="blender">
          <adapt_thresh>0.000999987</adapt_thresh>
          <area_shape>1</area_shape>
          <area_size>0.1</area_size>
          <area_sizey>0.1</area_sizey>
          <area_sizez>1</area_sizez>
          <atm_distance_factor>1</atm_distance_factor>
          <atm_extinction_factor>1</atm_extinction_factor>
          <atm_turbidity>2</atm_turbidity>
          <att1>0</att1>
          <att2>1</att2>
          <backscattered_light>1</backscattered_light>
          <bias>1</bias>
          <blue>1</blue>
          <buffers>1</buffers>
          <bufflag>0</bufflag>
          <bufsize>2880</bufsize>
          <buftype>2</buftype>
          <clipend>30.002</clipend>
          <clipsta>1.000799</clipsta>
          <compressthresh>0.04999995</compressthresh>
          <dist sid="blender_dist">29.99998</dist>
          <energy sid="blender_energy">1</energy>
          <falloff_type>2</falloff_type>
          <filtertype>0</filtertype>
          <flag>0</flag>
          <gamma sid="blender_gamma">1</gamma>
          <green>1</green>
          <halo_intensity sid="blnder_halo_intensity">1</halo_intensity>
          <horizon_brightness>1</horizon_brightness>
          <mode>8192</mode>
          <ray_samp>1</ray_samp>
          <ray_samp_method>1</ray_samp_method>
          <ray_samp_type>0</ray_samp_type>
          <ray_sampy>1</ray_sampy>
          <ray_sampz>1</ray_sampz>
          <red>1</red>
          <samp>3</samp>
          <shadhalostep>0</shadhalostep>
          <shadow_b sid="blender_shadow_b">0</shadow_b>
          <shadow_g sid="blender_shadow_g">0</shadow_g>
          <shadow_r sid="blender_shadow_r">0</shadow_r>
          <sky_colorspace>0</sky_colorspace>
          <sky_exposure>1</sky_exposure>
          <skyblendfac>1</skyblendfac>
          <skyblendtype>1</skyblendtype>
          <soft>3</soft>
          <spotblend>0.15</spotblend>
          <spotsize>75</spotsize>
          <spread>1</spread>
          <sun_brightness>1</sun_brightness>
          <sun_effect_type>0</sun_effect_type>
          <sun_intensity>1</sun_intensity>
          <sun_size>1</sun_size>
          <type>0</type>
        </technique>
      </extra>
    </light>
  </library_lights>
  <library_images/>
  <library_effects>
    <effect id="stanca1-effect">
      <profile_COMMON>
        <technique sid="common">
          <phong>
            <emission>
              <color sid="emission">0 0 0 1</color>
            </emission>
            <ambient>
              <color sid="ambient">0 0 0 1</color>
            </ambient>
            <diffuse>
              <color sid="diffuse">0.64 0.64 0.64 1</color>
            </diffuse>
            <specular>
              <color sid="specular">0.5 0.5 0.5 1</color>
            </specular>
            <shininess>
              <float sid="shininess">50</float>
            </shininess>
            <index_of_refraction>
              <float sid="index_of_refraction">1</float>
            </index_of_refraction>
          </phong>
        </technique>
        <extra>
          <technique profile="GOOGLEEARTH">
            <double_sided>1</double_sided>
          </technique>
        </extra>
      </profile_COMMON>
      <extra><technique profile="MAX3D"><double_sided>1</double_sided></technique></extra>
    </effect>
    <effect id="Material-effect">
      <profile_COMMON>
        <technique sid="common">
          <phong>
            <emission>
              <color sid="emission">0 0 0 1</color>
            </emission>
            <ambient>
              <color sid="ambient">0 0 0 1</color>
            </ambient>
            <diffuse>
              <color sid="diffuse">0.64 0.64 0.64 1</color>
            </diffuse>
            <specular>
              <color sid="specular">0.5 0.5 0.5 1</color>
            </specular>
            <shininess>
              <float sid="shininess">50</float>
            </shininess>
            <index_of_refraction>
              <float sid="index_of_refraction">1</float>
            </index_of_refraction>
          </phong>
        </technique>
        <extra>
          <technique profile="GOOGLEEARTH">
            <double_sided>1</double_sided>
          </technique>
        </extra>
      </profile_COMMON>
      <extra><technique profile="MAX3D"><double_sided>1</double_sided></technique></extra>
    </effect>
  </library_effects>
  <library_materials>
    <material id="stanca1-material" name="stanca1">
      <instance_effect url="#stanca1-effect"/>
    </material>
    <material id="Material-material" name="Material">
      <instance_effect url="#Material-effect"/>
    </material>
  </library_materials>
  <library_geometries>
    <geometry id="Cube-mesh" name="Cube">
      <mesh>
        <source id="Cube-mesh-positions">
          <float_array id="Cube-mesh-positions-array" count="171">-0.8903073 -0.7850468 0.7382717 0.8389377 -0.5627418 0.9384982 -0.6979321 -0.6754893 -0.9263263 0.9023274 -0.4726899 -0.9168174 -0.2849125 -0.8880032 0.9781135 -0.8342249 -0.8176904 0.03539371 1.011033 -0.7294401 0.2310124 0.1273415 -0.8572631 -1.150037 -0.1132861 -0.9564957 0.2719633 0.37809 -0.7669432 1.003301 -0.7201127 -0.8281008 -0.5407178 0.9264374 -0.5571061 -0.2771211 0.4755373 -0.7931062 -1.050407 -0.619598 -0.8772769 0.9067077 -0.9543054 -0.9001029 0.3675007 0.9893195 -0.7541829 0.6270968 -0.2713154 -0.8664773 -1.087044 0.4793935 -1.037194 0.376887 -0.5865649 -0.9558229 0.1036421 -0.1901407 -0.9767674 0.6172467 0.003627002 -0.877112 -0.4213875 0.3983141 -0.8886147 -0.4160982 0.4270256 -0.9738246 0.6588626 -0.6498512 -0.9755837 0.5152701 -0.4174723 -0.8569538 -0.4594536 -1.052374 0.001414895 0.8759185 0.9454769 0.00892955 1.091233 -0.9647303 0.02162528 -1.247053 1.093891 -0.03267681 -0.9160876 -0.4449895 0.03043568 1.221621 0.1242943 0.06014043 -1.692143 -1.390407 0.006351768 -0.3258422 1.472959 -0.01832062 0.2246888 -1.032957 -0.4259439 0.8504036 -0.8754292 -0.3595981 -1.075272 0.9228585 -0.3647128 1.034342 1.010685 -0.2293335 -0.86378 0.6174236 0.02424848 1.293968 -0.9956857 0.02116501 1.076887 -0.3252786 -0.6905214 1.174989 0.1069124 -0.5717052 -1.579796 -0.3039041 0.05818921 -1.697721 0.7951666 0.02610218 -1.456299 -1.153997 -0.4313038 -0.1874491 -1.254096 0.04525119 0.3106759 -1.31658 0.02352768 -0.6662924 1.358727 -0.3886033 0.2648177 1.480015 -0.002400696 0.7643848 1.408687 -0.04347926 -0.2564747 0.4410387 -0.5300055 1.188435 0.6838577 -0.4133861 -1.344109 -1.192357 -0.3539304 -0.6948946 -0.8143218 -0.5646753 1.03693 -0.3882101 -0.5068016 -1.50285 -1.14755 -0.4706589 0.3900255 1.39142 -0.4466091 0.7618636 1.330411 -0.3477914 -0.2712408</float_array>
          <technique_common>
            <accessor source="#Cube-mesh-positions-array" count="57" stride="3">
              <param name="X" type="float"/>
              <param name="Y" type="float"/>
              <param name="Z" type="float"/>
            </accessor>
          </technique_common>
        </source>
        <source id="Cube-mesh-normals">
          <float_array id="Cube-mesh-normals-array" count="288">0.608775 -0.7920574 -0.04514634 0.495227 -0.868341 -0.02709496 0.01482319 -0.9988466 -0.04567205 0.01931798 -0.9995266 -0.02394789 0.5624017 -0.7500603 -0.3480143 -0.02734351 -0.9926065 -0.1182569 0.2130168 -0.9696432 -0.1200667 0.3194795 -0.7306098 0.603442 -0.03039467 -0.8587574 0.51148 -0.05735862 -0.967228 0.2473459 -0.3760808 -0.8645991 0.3332141 -0.3808536 -0.855803 -0.350074 -0.03061902 -0.9828648 -0.1817672 -0.09470266 -0.9955054 -7.69386e-4 -0.4343225 -0.8964933 -0.0875436 0.008583903 -0.9983543 -0.0567032 0.9554393 -0.2951635 -0.003784894 0.8053853 -0.444931 -0.3916516 0.3799886 -0.2882774 0.8789225 -0.003855943 -0.06518298 0.9978659 0.3017574 -0.3068512 -0.9026543 0.7613213 -0.4470294 -0.4696326 -0.9320564 -0.2903178 -0.2167636 -0.6991057 -0.4233965 -0.5761828 -0.2962675 -0.1105552 0.948685 -0.7177745 -0.2660933 0.6434238 -0.5445068 -0.1997251 -0.8146302 0.01362103 -0.1754092 -0.9844014 -0.9355369 -0.1435679 0.3227366 -0.8860925 -0.4107024 0.2148573 0.4866987 -0.1019932 0.8675955 0.9632785 -0.2421489 -0.1160101 0.8408339 -0.272457 -0.4677239 0.2991335 -0.7881444 -0.5379105 -0.195442 -0.7682435 -0.6095936 -0.6253976 -0.5914161 -0.5090235 -0.6238134 -0.5914319 -0.5109453 -0.7251538 -0.6759297 -0.1314192 -0.7596668 -0.6493282 -0.03577065 -0.8708828 -0.4063864 0.2764298 -0.7274267 -0.4505656 0.5175338 -0.1680849 -0.7129927 0.6807267 0.1186594 -0.6307318 0.766875 0.3749647 -0.6305817 0.6795353 0.2822543 -0.6698917 0.6867151 0.7003243 -0.7137979 -0.006196975 0.7016258 -0.706728 -0.09086745 0.9169794 -0.3895616 -0.08596855 0.5513989 -0.8241236 -0.129536 0.3636312 -0.8921511 0.2680276 0.009940683 -0.9983587 -0.05640161 -0.04817056 -0.9988315 0.003938853 0.4464428 -0.8701386 -0.2086815 -0.1027405 -0.9795435 -0.1730289 -0.02868676 -0.9990733 -0.03208619 0.4071286 -0.7563044 0.5121036 0.1625148 -0.9474013 0.275717 -0.07785475 -0.9726583 0.2188026 -0.4480758 -0.8582761 0.2501807 -0.203975 -0.9758473 -0.07820773 0.036834 -0.9935183 -0.1075397 -0.4091978 -0.8698275 -0.2756038 0.01001262 -0.9299778 -0.3674793 -0.1649611 -0.968411 0.1869974 0.9770658 -0.1943762 -0.08695131 0.8466765 -0.1937374 -0.4955853 0.513581 -0.1594583 0.8430942 -0.06796103 -0.165698 0.983832 0.4123648 -0.1704693 -0.8949277 0.8351787 -0.3248195 -0.4438117 -0.8789967 -0.476787 -0.006251573 -0.831556 -0.2355518 -0.5030208 -0.2493466 -0.1425248 0.957869 -0.9591462 -0.06008464 0.2764573 -0.6653054 -0.4306471 -0.6098457 -0.1844329 -0.2957604 -0.9372888 -0.9673686 -0.05866903 0.2464872 -0.9792417 -0.2026757 -0.002879679 0.5125255 -0.1594909 0.84373 0.9507411 -0.3012307 -0.07315456 0.6260258 -0.6620953 -0.4119727 0.4281496 -0.6880568 -0.585889 -0.06765484 -0.8324684 -0.5499266 -0.5027136 -0.7187034 -0.4803587 -0.6172399 -0.718772 -0.3199715 -0.6982629 -0.7136454 -0.0560292 -0.8453739 -0.3596939 -0.3949219 -0.8678197 -0.4250738 0.2572959 -0.5616251 -0.5910423 0.5790046 -0.3544175 -0.5390627 0.7640679 0.0992521 -0.6922838 0.7147672 0.4181193 -0.5331538 0.735475 0.5777124 -0.540747 0.6114255 0.6296193 -0.7658165 -0.1307853 0.4344298 -0.8285153 -0.3533173 0.427469 -0.8139556 -0.3933784</float_array>
          <technique_common>
            <accessor source="#Cube-mesh-normals-array" count="96" stride="3">
              <param name="X" type="float"/>
              <param name="Y" type="float"/>
              <param name="Z" type="float"/>
            </accessor>
          </technique_common>
        </source>
        <source id="Cube-mesh-map-0">
          <float_array id="Cube-mesh-map-0-array" count="576">0.5365552 0.3834604 0.4875194 0.246753 0.6056343 0.2012276 0.6177302 0.5432105 0.7326684 0.4651352 0.7547323 0.5551777 0.4145761 0.6659809 0.3845335 0.5839757 0.4932224 0.5721415 0.3405286 0.3104561 0.4122939 0.266081 0.4532911 0.4197943 0.5365552 0.3834604 0.6852747 0.3429698 0.7326684 0.4651352 0.4932224 0.5721415 0.4532911 0.4197943 0.5365552 0.3834604 0.4122939 0.266081 0.4875194 0.246753 0.5365552 0.3834604 0.6308512 0.6036399 0.7547323 0.5551777 0.7705693 0.64906 0.5084723 0.6460039 0.6308512 0.6036399 0.6575462 0.6882426 0.4519711 0.7366296 0.4145761 0.6659809 0.5084723 0.6460039 0.3844681 0.7372092 0.3484119 0.668893 0.4145761 0.6659809 0.3484119 0.668893 0.3186906 0.5978818 0.3845335 0.5839757 0.3845335 0.5839757 0.3607385 0.4515132 0.4532911 0.4197943 0.3186906 0.5978818 0.2888038 0.4641607 0.3607385 0.4515132 0.2488687 0.3735219 0.3405286 0.3104561 0.3607385 0.4515132 0.6308512 0.6036399 0.5084723 0.6460039 0.4932224 0.5721415 0.849956 0.4318985 0.956644 0.3816109 0.9999005 0.5572412 0.6684813 0.1607501 0.7027483 0.1056967 0.8705314 0.2517961 0.8443096 0.8474506 0.7045778 0.745294 0.8250911 0.6786403 0.5338086 0.9909496 0.5300987 0.7825589 0.7045778 0.745294 0.3198823 9.95316e-5 0.5436727 9.96488e-5 0.509878 0.1268923 0.5436727 9.96488e-5 0.7027483 0.1056967 0.6684813 0.1607501 0.01863861 0.605578 9.95316e-5 0.4903097 0.1171463 0.4687226 0.03943246 0.2740581 0.1541296 0.3406911 0.1171463 0.4687226 0.4184909 0.8139139 0.5300987 0.7825589 0.5338086 0.9909496 0.3409922 0.8176708 0.4184909 0.8139139 0.3333434 0.9700282 0.03943246 0.2740581 0.1906072 0.05606979 0.2621176 0.2152477 0.1906072 0.05606979 0.3198823 9.95316e-5 0.3666182 0.1681861 0.2755131 0.9283679 0.1180842 0.8007817 0.2587378 0.7276235 0.1180842 0.8007817 0.01863861 0.605578 0.1774613 0.5966468 0.8250911 0.6786403 0.8674153 0.5526833 0.9999005 0.5572412 0.7944899 0.301654 0.8705314 0.2517961 0.956644 0.3816109 0.509878 0.1268923 0.6684813 0.1607501 0.6056343 0.2012276 0.4875194 0.246753 0.4122939 0.266081 0.3666182 0.1681861 0.3405286 0.3104561 0.2621176 0.2152477 0.3666182 0.1681861 0.2488687 0.3735219 0.1541296 0.3406911 0.2621176 0.2152477 0.1171463 0.4687226 0.1541296 0.3406911 0.2488687 0.3735219 0.2888038 0.4641607 0.3186906 0.5978818 0.1774613 0.5966468 0.2587378 0.7276235 0.1774613 0.5966468 0.3186906 0.5978818 0.2587378 0.7276235 0.3484119 0.668893 0.3844681 0.7372092 0.4184909 0.8139139 0.3409922 0.8176708 0.3844681 0.7372092 0.4519711 0.7366296 0.5187994 0.7240864 0.5300987 0.7825589 0.6575462 0.6882426 0.7045778 0.745294 0.5300987 0.7825589 0.7045778 0.745294 0.6575462 0.6882426 0.7705693 0.64906 0.7547323 0.5551777 0.8674153 0.5526833 0.8250911 0.6786403 0.7547323 0.5551777 0.7326684 0.4651352 0.849956 0.4318985 0.7944899 0.301654 0.849956 0.4318985 0.7326684 0.4651352 0.6852747 0.3429698 0.6056343 0.2012276 0.6684813 0.1607501 0.6852747 0.3429698 0.5365552 0.3834604 0.6056343 0.2012276 0.6308512 0.6036399 0.6177302 0.5432105 0.7547323 0.5551777 0.5084723 0.6460039 0.4145761 0.6659809 0.4932224 0.5721415 0.3607385 0.4515132 0.3405286 0.3104561 0.4532911 0.4197943 0.6177302 0.5432105 0.5365552 0.3834604 0.7326684 0.4651352 0.6177302 0.5432105 0.4932224 0.5721415 0.5365552 0.3834604 0.4532911 0.4197943 0.4122939 0.266081 0.5365552 0.3834604 0.6575462 0.6882426 0.6308512 0.6036399 0.7705693 0.64906 0.5187994 0.7240864 0.5084723 0.6460039 0.6575462 0.6882426 0.5187994 0.7240864 0.4519711 0.7366296 0.5084723 0.6460039 0.4519711 0.7366296 0.3844681 0.7372092 0.4145761 0.6659809 0.4145761 0.6659809 0.3484119 0.668893 0.3845335 0.5839757 0.4932224 0.5721415 0.3845335 0.5839757 0.4532911 0.4197943 0.3845335 0.5839757 0.3186906 0.5978818 0.3607385 0.4515132 0.2888038 0.4641607 0.2488687 0.3735219 0.3607385 0.4515132 0.6177302 0.5432105 0.6308512 0.6036399 0.4932224 0.5721415 0.8674153 0.5526833 0.849956 0.4318985 0.9999005 0.5572412 0.7944899 0.301654 0.6684813 0.1607501 0.8705314 0.2517961 0.9173932 0.7422085 0.8443096 0.8474506 0.8250911 0.6786403 0.8443096 0.8474506 0.5338086 0.9909496 0.7045778 0.745294 0.3666182 0.1681861 0.3198823 9.95316e-5 0.509878 0.1268923 0.509878 0.1268923 0.5436727 9.96488e-5 0.6684813 0.1607501 0.1774613 0.5966468 0.01863861 0.605578 0.1171463 0.4687226 9.95316e-5 0.4903097 0.03943246 0.2740581 0.1171463 0.4687226 0.3333434 0.9700282 0.4184909 0.8139139 0.5338086 0.9909496 0.2755131 0.9283679 0.3409922 0.8176708 0.3333434 0.9700282 0.1541296 0.3406911 0.03943246 0.2740581 0.2621176 0.2152477 0.2621176 0.2152477 0.1906072 0.05606979 0.3666182 0.1681861 0.3409922 0.8176708 0.2755131 0.9283679 0.2587378 0.7276235 0.2587378 0.7276235 0.1180842 0.8007817 0.1774613 0.5966468 0.9173932 0.7422085 0.8250911 0.6786403 0.9999005 0.5572412 0.849956 0.4318985 0.7944899 0.301654 0.956644 0.3816109 0.4875194 0.246753 0.509878 0.1268923 0.6056343 0.2012276 0.509878 0.1268923 0.4875194 0.246753 0.3666182 0.1681861 0.4122939 0.266081 0.3405286 0.3104561 0.3666182 0.1681861 0.3405286 0.3104561 0.2488687 0.3735219 0.2621176 0.2152477 0.2888038 0.4641607 0.1171463 0.4687226 0.2488687 0.3735219 0.1171463 0.4687226 0.2888038 0.4641607 0.1774613 0.5966468 0.3484119 0.668893 0.2587378 0.7276235 0.3186906 0.5978818 0.3409922 0.8176708 0.2587378 0.7276235 0.3844681 0.7372092 0.4519711 0.7366296 0.4184909 0.8139139 0.3844681 0.7372092 0.4184909 0.8139139 0.4519711 0.7366296 0.5300987 0.7825589 0.5187994 0.7240864 0.6575462 0.6882426 0.5300987 0.7825589 0.8250911 0.6786403 0.7045778 0.745294 0.7705693 0.64906 0.7705693 0.64906 0.7547323 0.5551777 0.8250911 0.6786403 0.8674153 0.5526833 0.7547323 0.5551777 0.849956 0.4318985 0.6852747 0.3429698 0.7944899 0.301654 0.7326684 0.4651352 0.7944899 0.301654 0.6852747 0.3429698 0.6684813 0.1607501</float_array>
          <technique_common>
            <accessor source="#Cube-mesh-map-0-array" count="288" stride="2">
              <param name="S" type="float"/>
              <param name="T" type="float"/>
            </accessor>
          </technique_common>
        </source>
        <vertices id="Cube-mesh-vertices">
          <input semantic="POSITION" source="#Cube-mesh-positions"/>
        </vertices>
        <polylist material="stanca1-material" count="96">
          <input semantic="VERTEX" source="#Cube-mesh-vertices" offset="0"/>
          <input semantic="NORMAL" source="#Cube-mesh-normals" offset="1"/>
          <input semantic="TEXCOORD" source="#Cube-mesh-map-0" offset="2" set="0"/>
          <vcount>3 3 3 3 3 3 3 3 3 3 3 3 3 3 3 3 3 3 3 3 3 3 3 3 3 3 3 3 3 3 3 3 3 3 3 3 3 3 3 3 3 3 3 3 3 3 3 3 3 3 3 3 3 3 3 3 3 3 3 3 3 3 3 3 3 3 3 3 3 3 3 3 3 3 3 3 3 3 3 3 3 3 3 3 3 3 3 3 3 3 3 3 3 3 3 3 </vcount>
          <p>21 0 0 12 0 1 3 0 2 17 1 3 6 1 4 15 1 5 23 2 6 18 2 7 8 2 8 16 3 9 7 3 10 20 3 11 21 4 12 11 4 13 6 4 14 8 5 15 20 5 16 21 5 17 7 6 18 12 6 19 21 6 20 22 7 21 15 7 22 1 7 23 19 8 24 22 8 25 9 8 26 13 9 27 23 9 28 19 9 29 0 10 30 14 10 31 23 10 32 14 11 33 5 11 34 18 11 35 18 12 36 24 12 37 20 12 38 5 13 39 10 13 40 24 13 41 2 14 42 16 14 43 24 14 44 22 15 45 19 15 46 8 15 47 46 16 48 32 16 49 47 16 50 36 17 51 28 17 52 48 17 53 37 18 54 49 18 55 35 18 56 29 19 57 39 19 58 49 19 59 30 20 60 42 20 61 50 20 62 42 21 63 28 21 64 36 21 65 31 22 66 45 22 67 51 22 68 27 23 69 34 23 70 51 23 71 52 24 72 39 24 73 29 24 74 33 25 75 52 25 76 38 25 77 27 26 78 41 26 79 53 26 80 41 27 81 30 27 82 40 27 83 25 28 84 44 28 85 54 28 86 44 29 87 31 29 88 43 29 89 35 30 90 55 30 91 47 30 92 56 31 93 48 31 94 32 31 95 50 32 96 36 32 97 3 32 98 12 33 99 7 33 100 40 33 101 16 34 102 53 34 103 40 34 104 2 35 105 34 35 106 53 35 107 51 36 108 34 36 109 2 36 110 10 37 111 5 37 112 43 37 113 54 38 114 43 38 115 5 38 116 54 39 117 14 39 118 0 39 119 52 40 120 33 40 121 0 40 122 13 41 123 4 41 124 39 41 125 9 42 126 49 42 127 39 42 128 49 43 129 9 43 130 1 43 131 15 44 132 55 44 133 35 44 134 15 45 135 6 45 136 46 45 137 56 46 138 46 46 139 6 46 140 11 47 141 3 47 142 36 47 143 11 48 144 21 48 145 3 48 146 22 49 147 17 49 148 15 49 149 19 50 150 23 50 151 8 50 152 24 51 153 16 51 154 20 51 155 17 52 156 21 52 157 6 52 158 17 53 159 8 53 160 21 53 161 20 54 162 7 54 163 21 54 164 9 55 165 22 55 166 1 55 167 4 56 168 19 56 169 9 56 170 4 57 171 13 57 172 19 57 173 13 58 174 0 58 175 23 58 176 23 59 177 14 59 178 18 59 179 8 60 180 18 60 181 20 60 182 18 61 183 5 61 184 24 61 185 10 62 186 2 62 187 24 62 188 17 63 189 22 63 190 8 63 191 55 64 192 46 64 193 47 64 194 56 65 195 36 65 196 48 65 197 26 66 198 37 66 199 35 66 200 37 67 201 29 67 202 49 67 203 40 68 204 30 68 205 50 68 206 50 69 207 42 69 208 36 69 209 43 70 210 31 70 211 51 70 212 45 71 213 27 71 214 51 71 215 38 72 216 52 72 217 29 72 218 25 73 219 33 73 220 38 73 221 34 74 222 27 74 223 53 74 224 53 75 225 41 75 226 40 75 227 33 76 228 25 76 229 54 76 230 54 77 231 44 77 232 43 77 233 26 78 234 35 78 235 47 78 236 46 79 237 56 79 238 32 79 239 12 80 240 50 80 241 3 80 242 50 81 243 12 81 244 40 81 245 7 82 246 16 82 247 40 82 248 16 83 249 2 83 250 53 83 251 10 84 252 51 84 253 2 84 254 51 85 255 10 85 256 43 85 257 14 86 258 54 86 259 5 86 260 33 87 261 54 87 262 0 87 263 13 88 264 52 88 265 0 88 266 52 89 267 13 89 268 39 89 269 4 90 270 9 90 271 39 90 272 35 91 273 49 91 274 1 91 275 1 92 276 15 92 277 35 92 278 55 93 279 15 93 280 46 93 281 11 94 282 56 94 283 6 94 284 56 95 285 11 95 286 36 95 287</p>
        </polylist>
      </mesh>
      <extra><technique profile="MAYA"><double_sided>1</double_sided></technique></extra>
    </geometry>
    <geometry id="Plane-mesh" name="Plane">
      <mesh>
        <source id="Plane-mesh-positions">
          <float_array id="Plane-mesh-positions-array" count="174">0.1588197 -0.5554077 0.1575788 -0.03615742 -0.5387274 0.1600115 0.08934128 -0.2356332 0.190261 -0.136557 -0.2610896 0.1887122 0.08468002 -0.5436675 0.1921344 -0.02976727 -0.2531047 0.2430207 0.1245912 -0.3987969 0.1726518 -0.06071591 -0.4586571 0.1636232 0.04348248 -0.4333688 0.2072204 0.192237 -0.007525086 0.2095871 -0.2238367 -0.05301678 0.1973171 -0.03299903 -0.03874731 0.2943688 0.1118285 0.2314752 0.2748926 -0.2238367 0.2160764 0.2447024 -0.03299903 0.2303459 0.2943686 -0.1514523 0.5023881 0.2640982 -0.1805889 0.3519438 0.2509304 -0.1536532 0.4353551 0.2943685 -0.2587451 0.5862941 0.2664048 -0.3462889 0.5770516 0.2741925 -0.3026053 0.5863563 0.2939069 0.1201357 -0.6910234 0.1575789 -0.03862661 -0.5891308 0.1635805 0.05503815 -0.6342236 0.1921345 0.06985908 -0.5889455 0.1921344 0.2019749 -0.5800356 0.1480496 0.1789236 -0.6661508 0.1353587 0.179974 -0.6189436 0.1810977 0.2707901 -0.6151228 0.1388541 0.2463397 -0.701238 0.1342947 0.2540354 -0.6540308 0.1668662 0.3696209 -0.7215216 0.1327199 0.01910108 -0.7966217 0.1549911 -0.0596469 -0.7338283 0.1519067 -0.02101659 -0.7616176 0.1762867 -0.06298017 -0.86737 0.1461339 -0.1074247 -0.7769877 0.1430495 -0.08433651 -0.8185989 0.1674295 -0.1471642 -0.9192766 0.1423318 -0.1916087 -0.8288943 0.1392475 -0.1685206 -0.8705055 0.1636275 0.0338819 0.4701998 0.2817083 0.2024844 0.3473975 0.3005445 -0.07005411 0.3227063 0.2943685 0.2763366 0.4250053 0.3140302 0.2121769 0.5266599 0.2951628 0.007207036 0.3761947 0.2943685 0.2241325 0.4802002 0.3354364 0.4664487 0.5135464 0.2976843 0.4468169 0.6257022 0.2780372 0.462684 0.5797464 0.3047974 0.6087437 0.5447027 0.2035347 0.6008569 0.5980818 0.2075086 0.6762887 0.5651001 0.1806257 -0.3133601 0.7221448 0.2372038 -0.4011548 0.7023712 0.2375633 -0.3644492 0.7164918 0.2482578 -0.4050232 0.8692412 0.1988426</float_array>
          <technique_common>
            <accessor source="#Plane-mesh-positions-array" count="58" stride="3">
              <param name="X" type="float"/>
              <param name="Y" type="float"/>
              <param name="Z" type="float"/>
            </accessor>
          </technique_common>
        </source>
        <source id="Plane-mesh-normals">
          <float_array id="Plane-mesh-normals-array" count="222">0.3968393 -0.01331788 0.9177916 -0.3043191 -0.3030122 0.9030911 -0.2589025 -0.2251724 0.9392907 0.4231343 0.005276679 0.9060517 -0.4296461 -0.2164775 0.8766651 0.3710559 -0.2433038 0.8961701 0.3649626 -0.1291501 0.9220209 -0.2518633 6.31836e-7 0.9677628 -0.2437995 -0.09781181 0.9648807 -0.4176344 -0.3099348 0.8541206 0.4445721 0.5490289 0.7077591 -0.3310226 -0.323822 0.8863202 -0.2538361 0.08068495 0.9638762 -0.2528692 0.08277267 0.9639533 -0.2537887 0.08307331 0.9636857 0.4927101 -0.6111548 0.6194567 0.4016112 -0.1314595 0.906326 0.3787035 -0.1239614 0.917179 -0.2577355 -0.5199063 0.8144139 0.3393717 0.4489687 0.8265919 0.4237476 0.4351482 0.794408 -0.08109354 -0.557048 0.8265115 0.4592059 0.3802579 0.8028287 0.2576517 -0.2692574 0.9279634 -0.3056755 -0.0323652 0.9515855 0.1844442 -0.3478477 0.9192292 -0.4127602 0.2789891 0.8670606 0.1637899 -0.3336416 0.9283621 -0.2691 0.3713449 0.888644 -0.3491942 0.0683133 0.9345571 8.17139e-7 6.26181e-7 1 0.1334679 -0.03679257 0.99037 0.04447591 0.1209321 0.991664 0 3.63872e-7 1 -0.2759715 0.2047828 0.9390974 0.1079713 -0.2690519 0.9570546 0.1307246 -0.09856379 0.9865071 -0.1613507 0.6223919 0.7658945 0.5595561 -0.05701917 0.8268288 0.469643 0.4598121 0.7536633 0.4943326 0.3680117 0.7875295 -0.4283556 0.1110023 0.8967664 -0.3455166 0.204507 0.9158576 0.1623275 0.342487 0.9253932 0.4069145 -0.01603746 0.9133256 -0.4201189 -0.2712437 0.8659833 -0.3506171 -0.1492419 0.9245511 0.3855689 0.01783883 0.9225066 -0.4296463 -0.2164775 0.8766651 0.4213899 -0.2052475 0.8833482 0.1332762 6.5723e-7 0.991079 -0.4384797 -0.1558634 0.8851227 0.3739488 0.371472 0.8498064 -0.3443615 -0.3437609 0.8736382 0.008772373 -0.3167554 0.9484668 -0.1868671 -0.6814458 0.7076103 0.3753046 0.4675707 0.8003277 0.198114 0.3975993 0.8959161 0.2576525 -0.269258 0.9279631 -0.44465 0.1557299 0.8820628 0.1808433 -0.325981 0.9279181 -0.367456 0.2699925 0.8899889 0.1637895 -0.3336407 0.9283625 -0.2690991 0.371344 0.8886446 -0.05664873 -0.1732745 0.9832431 -0.01502943 0.41192 0.9110961 -0.2468316 0.5976964 0.76278 -0.06649661 -0.2433947 0.9676452 0.2002936 -0.1837838 0.962344 -0.132084 0.4643461 0.8757492 0.4096944 -0.4990209 0.7636286 0.425724 0.560587 0.7102827 0.1530842 0.3910948 0.9075297 -0.3237756 0.1320815 0.9368692</float_array>
          <technique_common>
            <accessor source="#Plane-mesh-normals-array" count="74" stride="3">
              <param name="X" type="float"/>
              <param name="Y" type="float"/>
              <param name="Z" type="float"/>
            </accessor>
          </technique_common>
        </source>
        <source id="Plane-mesh-map-0">
          <float_array id="Plane-mesh-map-0-array" count="444">0.329533 1.069875 0.273677 1.025252 0.3356552 0.8855888 0.4235078 1.11682 0.329533 1.069875 0.424414 0.921281 0.3857571 1.183507 0.2732176 1.161012 0.329533 1.069875 0.2732176 1.161012 0.2134693 1.159087 0.273677 1.025252 0.5265554 0.9541366 0.424414 0.921281 0.4626461 0.726938 0.3356552 0.8855888 0.2913271 0.6599271 0.4626461 0.726938 0.4626461 0.726938 0.2913271 0.6599271 0.3989513 0.4581813 0.4626461 0.726938 0.5203875 0.4870337 0.6931651 0.5421564 0.5203875 0.4870337 0.5723639 0.412194 0.6931651 0.5421564 0.5723639 0.412194 0.6690865 0.3286897 0.6835051 0.4117989 0.6877908 0.2707765 0.7984334 0.2175196 0.8308497 0.2242595 0.6690865 0.3286897 0.8308497 0.2242595 0.8708214 0.2428932 0.2763641 1.204379 0.3857571 1.183507 0.3763499 1.228672 0.2763641 1.204379 0.2732176 1.161012 0.3857571 1.183507 0.2795107 1.247746 0.2763641 1.204379 0.3763499 1.228672 0.2179409 1.287824 0.1768329 1.255432 0.1766366 1.209666 0.2732176 1.161012 0.2763641 1.204379 0.2134693 1.159087 0.2763641 1.204379 0.2795107 1.247746 0.2179409 1.287824 0.1768329 1.255432 0.1110166 1.273145 0.1077634 1.227031 0.1077634 1.227031 0.1073376 1.191075 0.1726944 1.173029 0.1766366 1.209666 0.1726944 1.173029 0.2134693 1.159087 0 1.266388 0.1077634 1.227031 0.1110166 1.273145 0 1.266388 0.1073376 1.191075 0.1077634 1.227031 0.2179409 1.287824 0.2795107 1.247746 0.3214401 1.377921 0.2795107 1.247746 0.3763499 1.228672 0.3659461 1.362815 0.2834964 1.40262 0.3214401 1.377921 0.3659878 1.442212 0.3659461 1.362815 0.3999716 1.411637 0.3659878 1.442212 0.341372 1.482983 0.3659878 1.442212 0.4286909 1.50582 0.3659878 1.442212 0.3999716 1.411637 0.4626745 1.475245 0.5723639 0.412194 0.6835051 0.4117989 0.6931651 0.5421564 0.516791 0.3488653 0.5723639 0.412194 0.5203875 0.4870337 0.516791 0.3488653 0.5203875 0.4870337 0.3989513 0.4581813 0.6690865 0.3286897 0.516791 0.3488653 0.5164186 0.2606161 0.5723639 0.412194 0.516791 0.3488653 0.6690865 0.3286897 0.5164186 0.2606161 0.516791 0.3488653 0.3423984 0.2091103 0.3398708 0.3345351 0.2896561 0.2493714 0.3423984 0.2091103 0.2896561 0.2493714 0.1470324 0.1331835 0.1630405 0.07438737 0.3710327 0.173163 0.3423984 0.2091103 0.1630405 0.07438737 0.1630405 0.07438737 0.1470324 0.1331835 0.04960709 0.08373361 0.1630405 0.07438737 8.10892e-5 0.0536099 0.06708765 0.03744024 0.8308497 0.2242595 0.7984334 0.2175196 0.8809916 0.1096751 0.8708214 0.2428932 0.8308497 0.2242595 0.9218405 0.1242206 0.9218405 0.1242206 1 0 0.9528663 0.1450515 1 0 0.9218405 0.1242206 0.8809916 0.1096751 0.424414 0.921281 0.329533 1.069875 0.3356552 0.8855888 0.5265554 0.9541366 0.4235078 1.11682 0.424414 0.921281 0.4235078 1.11682 0.3857571 1.183507 0.329533 1.069875 0.329533 1.069875 0.2732176 1.161012 0.273677 1.025252 0.645177 0.7856521 0.5265554 0.9541366 0.4626461 0.726938 0.424414 0.921281 0.3356552 0.8855888 0.4626461 0.726938 0.5203875 0.4870337 0.4626461 0.726938 0.3989513 0.4581813 0.645177 0.7856521 0.4626461 0.726938 0.6931651 0.5421564 0.6690865 0.3286897 0.6877908 0.2707765 0.8308497 0.2242595 0.6835051 0.4117989 0.6690865 0.3286897 0.8708214 0.2428932 0.2763641 1.204379 0.2179409 1.287824 0.1766366 1.209666 0.1766366 1.209666 0.1768329 1.255432 0.1077634 1.227031 0.1766366 1.209666 0.1077634 1.227031 0.1726944 1.173029 0.2763641 1.204379 0.1766366 1.209666 0.2134693 1.159087 0.2834964 1.40262 0.2179409 1.287824 0.3214401 1.377921 0.3214401 1.377921 0.2795107 1.247746 0.3659461 1.362815 0.341372 1.482983 0.2834964 1.40262 0.3659878 1.442212 0.3214401 1.377921 0.3659461 1.362815 0.3659878 1.442212 0.4040749 1.546591 0.341372 1.482983 0.4286909 1.50582 0.4286909 1.50582 0.3659878 1.442212 0.4626745 1.475245 0.3398708 0.3345351 0.516791 0.3488653 0.3989513 0.4581813 0.6877908 0.2707765 0.6690865 0.3286897 0.5164186 0.2606161 0.3710327 0.173163 0.5164186 0.2606161 0.3423984 0.2091103 0.516791 0.3488653 0.3398708 0.3345351 0.3423984 0.2091103 0.3423984 0.2091103 0.2896561 0.2493714 0.1630405 0.07438737 0.1921798 0.03865712 0.3710327 0.173163 0.1630405 0.07438737 8.10892e-5 0.0536099 0.1630405 0.07438737 0.04960709 0.08373361 0.1921798 0.03865712 0.1630405 0.07438737 0.06708765 0.03744024 0.9218405 0.1242206 0.8308497 0.2242595 0.8809916 0.1096751 0.9528663 0.1450515 0.8708214 0.2428932 0.9218405 0.1242206</float_array>
          <technique_common>
            <accessor source="#Plane-mesh-map-0-array" count="222" stride="2">
              <param name="S" type="float"/>
              <param name="T" type="float"/>
            </accessor>
          </technique_common>
        </source>
        <vertices id="Plane-mesh-vertices">
          <input semantic="POSITION" source="#Plane-mesh-positions"/>
        </vertices>
        <polylist material="Material-material" count="74">
          <input semantic="VERTEX" source="#Plane-mesh-vertices" offset="0"/>
          <input semantic="NORMAL" source="#Plane-mesh-normals" offset="1"/>
          <input semantic="TEXCOORD" source="#Plane-mesh-map-0" offset="2" set="0"/>
          <vcount>3 3 3 3 3 3 3 3 3 3 3 3 3 3 3 3 3 3 3 3 3 3 3 3 3 3 3 3 3 3 3 3 3 3 3 3 3 3 3 3 3 3 3 3 3 3 3 3 3 3 3 3 3 3 3 3 3 3 3 3 3 3 3 3 3 3 3 3 3 3 3 3 3 3 </vcount>
          <p>8 0 0 6 0 1 2 0 2 7 1 3 8 1 4 5 1 5 1 2 6 4 2 7 8 2 8 4 3 9 0 3 10 6 3 11 3 4 12 5 4 13 11 4 14 2 5 15 9 5 16 11 5 17 11 6 18 9 6 19 12 6 20 11 7 21 14 7 22 13 7 23 14 8 24 43 8 25 13 8 26 43 9 27 17 9 28 16 9 29 15 10 30 18 10 31 20 10 32 17 11 33 20 11 34 19 11 35 24 12 36 1 12 37 22 12 38 24 13 39 4 13 40 1 13 41 23 14 42 24 14 43 22 14 44 21 15 45 26 15 46 27 15 47 4 16 48 24 16 49 0 16 50 24 17 51 23 17 52 21 17 53 26 18 54 29 18 55 30 18 56 30 19 57 28 19 58 25 19 59 27 20 60 25 20 61 0 20 62 31 21 63 30 21 64 29 21 65 31 22 66 28 22 67 30 22 68 21 23 69 23 23 70 34 23 71 23 24 72 22 24 73 33 24 74 32 25 75 34 25 76 37 25 77 33 26 78 36 26 79 37 26 80 35 27 81 37 27 82 40 27 83 37 28 84 36 28 85 39 28 86 43 29 87 16 29 88 13 29 89 46 30 90 43 30 91 14 30 92 46 31 93 14 31 94 12 31 95 17 32 96 46 32 97 41 32 98 43 33 99 46 33 100 17 33 101 41 34 102 46 34 103 47 34 104 42 35 105 44 35 106 47 35 107 44 36 108 48 36 109 50 36 110 45 37 111 47 37 112 50 37 113 50 38 114 48 38 115 51 38 116 50 39 117 53 39 118 52 39 119 20 40 120 18 40 121 54 40 122 19 41 123 20 41 124 56 41 125 56 42 126 57 42 127 55 42 128 57 43 129 56 43 130 54 43 131 5 44 132 8 44 133 2 44 134 3 45 135 7 45 136 5 45 137 7 46 138 1 46 139 8 46 140 8 47 141 4 47 142 6 47 143 10 48 144 3 48 145 11 48 146 5 49 147 2 49 148 11 49 149 14 50 150 11 50 151 12 50 152 10 51 153 11 51 154 13 51 155 17 52 156 15 52 157 20 52 158 16 53 159 17 53 160 19 53 161 24 54 162 21 54 163 27 54 164 27 55 165 26 55 166 30 55 167 27 56 168 30 56 169 25 56 170 24 57 171 27 57 172 0 57 173 32 58 174 21 58 175 34 58 176 34 59 177 23 59 178 33 59 179 35 60 180 32 60 181 37 60 182 34 61 183 33 61 184 37 61 185 38 62 186 35 62 187 40 62 188 40 63 189 37 63 190 39 63 191 42 64 192 46 64 193 12 64 194 15 65 195 17 65 196 41 65 197 45 66 198 41 66 199 47 66 200 46 67 201 42 67 202 47 67 203 47 68 204 44 68 205 50 68 206 49 69 207 45 69 208 50 69 209 53 70 210 50 70 211 51 70 212 49 71 213 50 71 214 52 71 215 56 72 216 20 72 217 54 72 218 55 73 219 19 73 220 56 73 221</p>
        </polylist>
      </mesh>
      <extra><technique profile="MAYA"><double_sided>1</double_sided></technique></extra>
    </geometry>
  </library_geometries>
  <library_controllers/>
  <library_visual_scenes>
    <visual_scene id="Scene" name="Scene">
      <node id="Camera" name="Camera" type="NODE">
        <matrix sid="transform">0.6858805 -0.3173701 0.6548619 7.481132 0.7276338 0.3124686 -0.6106656 -6.50764 -0.01081678 0.8953432 0.4452454 5.343665 0 0 0 1</matrix>
        <instance_camera url="#Camera-camera"/>
      </node>
      <node id="Lamp" name="Lamp" type="NODE">
        <matrix sid="transform">-0.2908646 -0.7711008 0.5663932 4.076245 0.9551712 -0.1998834 0.2183912 1.005454 -0.05518906 0.6045247 0.7946723 5.903862 0 0 0 1</matrix>
        <instance_light url="#Lamp-light"/>
      </node>
      <node id="stone_base" name="stone_base" type="NODE">
        <matrix sid="transform">1 0 0 0 0 1 0 0 0 0 1 0 0 0 0 1</matrix>
        <instance_geometry url="#Cube-mesh" name="stone_base">
          <bind_material>
            <technique_common>
              <instance_material symbol="stanca1-material" target="#stanca1-material"/>
            </technique_common>
          </bind_material>
        </instance_geometry>
      </node>
      <node id="ore_vein" name="ore_vein" type="NODE">
        <matrix sid="transform">1 0 0 -0.01712137 0 -6.39758e-7 -1 -0.6976949 0 1 -6.39758e-7 -0.004280449 0 0 0 1</matrix>
        <instance_geometry url="#Plane-mesh" name="ore_vein">
          <bind_material>
            <technique_common>
              <instance_material symbol="Material-material" target="#Material-material"/>
            </technique_common>
          </bind_material>
        </instance_geometry>
      </node>
    </visual_scene>
  </library_visual_scenes>
  <scene>
    <instance_visual_scene url="#Scene"/>
  </scene>
</COLLADA>