<?xml version="1.0" encoding="utf-8"?>
<COLLADA xmlns="http://www.collada.org/2005/11/COLLADASchema" version="1.4.1">
  <asset>
    <contributor>
      <author>Blender User</author>
      <authoring_tool>Blender 2.75.0 commit date:2015-07-07, commit time:14:56, hash:c27589e</authoring_tool>
    </contributor>
    <created>2015-07-26T21:19:10</created>
    <modified>2015-07-26T21:19:10</modified>
    <unit name="meter" meter="1"/>
    <up_axis>Z_UP</up_axis>
  </asset>
  <library_cameras>
    <camera id="Camera-camera" name="Camera">
      <optics>
        <technique_common>
          <perspective>
            <xfov sid="xfov">49.13434</xfov>
            <aspect_ratio>1.777778</aspect_ratio>
            <znear sid="znear">0.1</znear>
            <zfar sid="zfar">100</zfar>
          </perspective>
        </technique_common>
      </optics>
      <extra>
        <technique profile="blender">
          <YF_dofdist>0</YF_dofdist>
          <shiftx>0</shiftx>
          <shifty>0</shifty>
        </technique>
      </extra>
    </camera>
  </library_cameras>
  <library_lights>
    <light id="Lamp-light" name="Lamp">
      <technique_common>
        <point>
          <color sid="color">1 1 1</color>
          <constant_attenuation>1</constant_attenuation>
          <linear_attenuation>0</linear_attenuation>
          <quadratic_attenuation>0.00111109</quadratic_attenuation>
        </point>
      </technique_common>
      <extra>
        <technique profile="blender">
          <adapt_thresh>0.000999987</adapt_thresh>
          <area_shape>1</area_shape>
          <area_size>0.1</area_size>
          <area_sizey>0.1</area_sizey>
          <area_sizez>1</area_sizez>
          <atm_distance_factor>1</atm_distance_factor>
          <atm_extinction_factor>1</atm_extinction_factor>
          <atm_turbidity>2</atm_turbidity>
          <att1>0</att1>
          <att2>1</att2>
          <backscattered_light>1</backscattered_light>
          <bias>1</bias>
          <blue>1</blue>
          <buffers>1</buffers>
          <bufflag>0</bufflag>
          <bufsize>2880</bufsize>
          <buftype>2</buftype>
          <clipend>30.002</clipend>
          <clipsta>1.000799</clipsta>
          <compressthresh>0.04999995</compressthresh>
          <dist sid="blender_dist">29.99998</dist>
          <energy sid="blender_energy">1</energy>
          <falloff_type>2</falloff_type>
          <filtertype>0</filtertype>
          <flag>0</flag>
          <gamma sid="blender_gamma">1</gamma>
          <green>1</green>
          <halo_intensity sid="blnder_halo_intensity">1</halo_intensity>
          <horizon_brightness>1</horizon_brightness>
          <mode>8192</mode>
          <ray_samp>1</ray_samp>
          <ray_samp_method>1</ray_samp_method>
          <ray_samp_type>0</ray_samp_type>
          <ray_sampy>1</ray_sampy>
          <ray_sampz>1</ray_sampz>
          <red>1</red>
          <samp>3</samp>
          <shadhalostep>0</shadhalostep>
          <shadow_b sid="blender_shadow_b">0</shadow_b>
          <shadow_g sid="blender_shadow_g">0</shadow_g>
          <shadow_r sid="blender_shadow_r">0</shadow_r>
          <sky_colorspace>0</sky_colorspace>
          <sky_exposure>1</sky_exposure>
          <skyblendfac>1</skyblendfac>
          <skyblendtype>1</skyblendtype>
          <soft>3</soft>
          <spotblend>0.15</spotblend>
          <spotsize>75</spotsize>
          <spread>1</spread>
          <sun_brightness>1</sun_brightness>
          <sun_effect_type>0</sun_effect_type>
          <sun_intensity>1</sun_intensity>
          <sun_size>1</sun_size>
          <type>0</type>
        </technique>
      </extra>
    </light>
  </library_lights>
  <library_images/>
  <library_effects>
    <effect id="stalp1-effect">
      <profile_COMMON>
        <newparam sid="lemn_stalpi_png-surface">
          <surface type="2D">
            <init_from>lemn_stalpi_png</init_from>
          </surface>
        </newparam>
        <newparam sid="lemn_stalpi_png-sampler">
          <sampler2D>
            <source>lemn_stalpi_png-surface</source>
          </sampler2D>
        </newparam>
        <technique sid="common">
          <phong>
            <emission>
              <color sid="emission">0 0 0 1</color>
            </emission>
            <ambient>
              <color sid="ambient">0 0 0 1</color>
            </ambient>
            <diffuse>
              <texture texture="lemn_stalpi_png-sampler"/>
            </diffuse>
            <specular>
              <color sid="specular">0.5 0.5 0.5 1</color>
            </specular>
            <shininess>
              <float sid="shininess">50</float>
            </shininess>
            <index_of_refraction>
              <float sid="index_of_refraction">1</float>
            </index_of_refraction>
          </phong>
        </technique>
        <extra>
          <technique profile="GOOGLEEARTH">
            <double_sided>1</double_sided>
          </technique>
        </extra>
      </profile_COMMON>
      <extra><technique profile="MAX3D"><double_sided>1</double_sided></technique></extra>
    </effect>
  </library_effects>
  <library_materials>
    <material id="stalp1-material" name="stalp1">
      <instance_effect url="#stalp1-effect"/>
    </material>
  </library_materials>
  <library_geometries>
    <geometry id="Cube-mesh" name="Cube">
      <mesh>
        <source id="Cube-mesh-positions">
          <float_array id="Cube-mesh-positions-array" count="48">-0.1886655 -0.1068215 -1.347471 -0.1886655 -0.1068215 1.897194 -0.2182973 0.1160138 1.897194 -0.117752 0.2056342 1.897194 0.02288591 0.2177008 1.897194 0.1409026 0.1401832 1.897194 0.1342252 -0.05066972 1.888342 0.1342252 -0.05066972 -1.338618 0.04871535 -0.1466721 -1.338297 0.04871535 -0.1466721 1.888342 -0.1473838 -0.1481032 1.897194 -0.1473838 -0.1481032 -1.347148 -0.117752 0.2056342 -1.347742 -0.2182973 0.1160138 -1.347742 0.1409026 0.1401832 -1.347742 0.02288591 0.2177008 -1.347742</float_array>
          <technique_common>
            <accessor source="#Cube-mesh-positions-array" count="16" stride="3">
              <param name="X" type="float"/>
              <param name="Y" type="float"/>
              <param name="Z" type="float"/>
            </accessor>
          </technique_common>
        </source>
        <source id="Cube-mesh-normals">
          <float_array id="Cube-mesh-normals-array" count="45">0.007297635 -0.9999735 0 0.7467353 -0.6651213 0 -0.6653875 0.7464982 0 -0.08548474 0.9963396 0 -0.7071071 -0.7071066 0 -0.9912742 -0.1318158 0 0.548999 0.835823 0 0.9993885 -0.03496575 0 0.007297635 -0.9999734 0 0.7467353 -0.6651214 0 -0.6653875 0.7464982 0 -0.7071064 -0.7071072 0 -0.9912743 -0.1318157 0 0.548999 0.835823 0 0.9993886 -0.03496563 0</float_array>
          <technique_common>
            <accessor source="#Cube-mesh-normals-array" count="15" stride="3">
              <param name="X" type="float"/>
              <param name="Y" type="float"/>
              <param name="Z" type="float"/>
            </accessor>
          </technique_common>
        </source>
        <source id="Cube-mesh-map-0">
          <float_array id="Cube-mesh-map-0-array" count="96">0 0.4917215 0 0 1 0 1 0.502088 1 0.7662765 0 0.7666826 0 0 1 0 0.9999526 0.2168462 1 0.5174913 0 0.5167446 0 0.2529258 1 0.7478015 0 0.7548518 0 0.5940098 1 1 0 1 0 0.7273225 1 0.7351112 0 0.7352072 0 0.4624164 1 0.6592266 1 1 0 1 1 0.4726119 0 0.4917215 1 0 0 0.5149947 1 0.502088 0 0.7666826 0 0.2199016 0 0 0.9999526 0.2168462 1 0.251113 1 0.5174913 0 0.2529258 1 0.5945112 1 0.7478015 0 0.5940098 1 0.7294371 1 1 0 0.7273225 1 0.4634401 1 0.7351112 0 0.4624164 0 0.6553614 1 0.6592266 0 1</float_array>
          <technique_common>
            <accessor source="#Cube-mesh-map-0-array" count="48" stride="2">
              <param name="S" type="float"/>
              <param name="T" type="float"/>
            </accessor>
          </technique_common>
        </source>
        <vertices id="Cube-mesh-vertices">
          <input semantic="POSITION" source="#Cube-mesh-positions"/>
        </vertices>
        <polylist material="stalp1-material" count="16">
          <input semantic="VERTEX" source="#Cube-mesh-vertices" offset="0"/>
          <input semantic="NORMAL" source="#Cube-mesh-normals" offset="1"/>
          <input semantic="TEXCOORD" source="#Cube-mesh-map-0" offset="2" set="0"/>
          <vcount>3 3 3 3 3 3 3 3 3 3 3 3 3 3 3 3 </vcount>
          <p>9 0 0 10 0 1 11 0 2 6 1 3 9 1 4 8 1 5 3 2 6 12 2 7 13 2 8 4 3 9 15 3 10 12 3 11 1 4 12 0 4 13 11 4 14 2 5 15 13 5 16 0 5 17 5 6 18 14 6 19 15 6 20 5 7 21 6 7 22 7 7 23 8 8 24 9 8 25 11 8 26 7 9 27 6 9 28 8 9 29 2 10 30 3 10 31 13 10 32 3 3 33 4 3 34 12 3 35 10 11 36 1 11 37 11 11 38 1 12 39 2 12 40 0 12 41 4 13 42 5 13 43 15 13 44 14 14 45 5 14 46 7 14 47</p>
        </polylist>
      </mesh>
      <extra><technique profile="MAYA"><double_sided>1</double_sided></technique></extra>
    </geometry>
  </library_geometries>
  <library_controllers/>
  <library_visual_scenes>
    <visual_scene id="Scene" name="Scene">
      <node id="Camera" name="Camera" type="NODE">
        <matrix sid="transform">0.6858805 -0.3173701 0.6548619 7.481132 0.7276338 0.3124686 -0.6106656 -7.522502 -0.01081678 0.8953432 0.4452454 5.389324 0 0 0 1</matrix>
        <instance_camera url="#Camera-camera"/>
      </node>
      <node id="Lamp" name="Lamp" type="NODE">
        <matrix sid="transform">-0.2908646 -0.7711008 0.5663932 4.076245 0.9551712 -0.1998834 0.2183912 -0.009408712 -0.05518906 0.6045247 0.7946723 5.949521 0 0 0 1</matrix>
        <instance_light url="#Lamp-light"/>
      </node>
      <node id="Cube" name="Cube" type="NODE">
        <matrix sid="transform">1 0 0 0 0 1 0 0 0 0 1 0 0 0 0 1</matrix>
        <instance_geometry url="#Cube-mesh" name="Cube">
          <bind_material>
            <technique_common>
              <instance_material symbol="stalp1-material" target="#stalp1-material"/>
            </technique_common>
          </bind_material>
        </instance_geometry>
      </node>
    </visual_scene>
  </library_visual_scenes>
  <scene>
    <instance_visual_scene url="#Scene"/>
  </scene>
</COLLADA>