<?xml version="1.0" encoding="utf-8"?>
<COLLADA xmlns="http://www.collada.org/2005/11/COLLADASchema" version="1.4.1">
  <asset>
    <contributor>
      <author>Joe Espinoza</author>
      <authoring_tool>OpenCOLLADA for 3ds Max;  Version: 1.3.0;  Revision: 788M;  Platform: x64;  Configuration: Release_Max2011_static</authoring_tool>
      <source_data>file:///D:/Projects/TorqueCrysis/11_Structures/Bridge/bridge_10_2011.max</source_data>
    </contributor>
    <created>2011-05-10T17:52:44</created>
    <modified>2011-05-10T17:52:44</modified>
    <unit name="meter" meter="1"/>
    <up_axis>Z_UP</up_axis>
  </asset>
  <library_effects>
    <effect id="ColorEffectR228G214B153">
      <profile_COMMON>
        <technique sid="common">
          <phong>
            <ambient>
              <color>0.8941177 0.8392157 0.6 1</color>
            </ambient>
            <diffuse>
              <color>0.8941177 0.8392157 0.6 1</color>
            </diffuse>
            <specular>
              <color>1 1 1 1</color>
            </specular>
            <shininess>
              <float>10</float>
            </shininess>
            <reflective>
              <color>0 0 0 1</color>
            </reflective>
            <transparent>
              <color>1 1 1 1</color>
            </transparent>
            <transparency>
              <float>1</float>
            </transparency>
          </phong>
        </technique>
      </profile_COMMON>
    </effect>
    <effect id="tex_bridge">
      <profile_COMMON>
        <newparam sid="tex_bridge_dif_png-surface">
          <surface type="2D">
            <init_from>tex_bridge_dif_png</init_from>
          </surface>
        </newparam>
        <newparam sid="tex_bridge_dif_png-sampler">
          <sampler2D>
            <source>tex_bridge_dif_png-surface</source>
          </sampler2D>
        </newparam>
        <newparam sid="tex_bridge_nrm_png-surface">
          <surface type="2D">
            <init_from>tex_bridge_nrm_png</init_from>
          </surface>
        </newparam>
        <newparam sid="tex_bridge_nrm_png-sampler">
          <sampler2D>
            <source>tex_bridge_nrm_png-surface</source>
          </sampler2D>
        </newparam>
        <technique sid="common">
          <blinn>
            <emission>
              <color>0 0 0 1</color>
            </emission>
            <ambient>
              <color>0.588 0.588 0.588 1</color>
            </ambient>
            <diffuse>
              <texture texture="tex_bridge_dif_png-sampler" texcoord="CHANNEL1"/>
            </diffuse>
            <specular>
              <color>0.9 0.9 0.9 1</color>
            </specular>
            <shininess>
              <float>10</float>
            </shininess>
            <reflective>
              <color>0 0 0 1</color>
            </reflective>
            <transparent opaque="A_ONE">
              <texture texture="tex_bridge_dif_png-sampler" texcoord="CHANNEL1"/>
            </transparent>
            <transparency>
              <float>1</float>
            </transparency>
          </blinn>
          <extra>
            <technique profile="OpenCOLLADA3dsMax">
              <bump bumptype="HEIGHTFIELD">
                <texture texture="tex_bridge_nrm_png-sampler" texcoord="CHANNEL1"/>
              </bump>
            </technique>
          </extra>
        </technique>
      </profile_COMMON>
      <extra>
        <technique profile="OpenCOLLADA3dsMax">
          <extended_shader>
            <apply_reflection_dimming>0</apply_reflection_dimming>
            <dim_level>0</dim_level>
            <falloff_type>0</falloff_type>
            <index_of_refraction>1.5</index_of_refraction>
            <opacity_type>0</opacity_type>
            <reflection_level>3</reflection_level>
            <wire_size>1</wire_size>
            <wire_units>0</wire_units>
          </extended_shader>
          <shader>
            <ambient_diffuse_lock>1</ambient_diffuse_lock>
            <ambient_diffuse_texture_lock>1</ambient_diffuse_texture_lock>
            <diffuse_specular_lock>0</diffuse_specular_lock>
            <soften>0.1</soften>
            <use_self_illum_color>0</use_self_illum_color>
          </shader>
        </technique>
      </extra>
    </effect>
  </library_effects>
  <library_materials>
    <material id="ColorEffectR228G214B153-material" name="ColorEffectR228G214B153-material">
      <instance_effect url="#ColorEffectR228G214B153"/>
    </material>
    <material id="tex_bridge-material" name="tex_bridge">
      <instance_effect url="#tex_bridge"/>
    </material>
  </library_materials>
  <library_geometries>
    <geometry id="geom-bounds_1" name="bounds">
      <mesh>
        <source id="geom-bounds_1-positions">
          <float_array id="geom-bounds_1-positions-array" count="24">-4.151243 -0.2515225 0 4.151243 -0.2515225 0 -4.151243 0.2515225 0 4.151243 0.2515225 0 -4.151243 -0.2515225 7.058595 4.151243 -0.2515225 7.058595 -4.151243 0.2515225 7.058595 4.151243 0.2515225 7.058595</float_array>
          <technique_common>
            <accessor source="#geom-bounds_1-positions-array" count="8" stride="3">
              <param name="X" type="float"/>
              <param name="Y" type="float"/>
              <param name="Z" type="float"/>
            </accessor>
          </technique_common>
        </source>
        <source id="geom-bounds_1-normals">
          <float_array id="geom-bounds_1-normals-array" count="72">0 0 -1 0 0 -1 0 0 -1 0 0 -1 0 0 1 0 0 1 0 0 1 0 0 1 0 -1 0 0 -1 0 0 -1 0 0 -1 0 1 0 0 1 0 0 1 0 0 1 0 0 0 1 0 0 1 0 0 1 0 0 1 0 -1 0 0 -1 0 0 -1 0 0 -1 0 0</float_array>
          <technique_common>
            <accessor source="#geom-bounds_1-normals-array" count="24" stride="3">
              <param name="X" type="float"/>
              <param name="Y" type="float"/>
              <param name="Z" type="float"/>
            </accessor>
          </technique_common>
        </source>
        <vertices id="geom-bounds_1-vertices">
          <input semantic="POSITION" source="#geom-bounds_1-positions"/>
        </vertices>
        <triangles material="ColorMaterial" count="12">
          <input semantic="VERTEX" source="#geom-bounds_1-vertices" offset="0"/>
          <input semantic="NORMAL" source="#geom-bounds_1-normals" offset="1"/>
          <p>0 0 2 1 3 2 3 2 1 3 0 0 4 4 5 5 7 6 7 6 6 7 4 4 0 8 1 9 5 10 5 10 4 11 0 8 1 12 3 13 7 14 7 14 5 15 1 12 3 16 2 17 6 18 6 18 7 19 3 16 2 20 0 21 4 22 4 22 6 23 2 20</p>
        </triangles>
      </mesh>
      <extra>
        <technique profile="OpenCOLLADA3dsMax">
          <max_box>
            <generateuvs>0</generateuvs>
            <height>7.058595</height>
            <heightsegments>1</heightsegments>
            <length>0.5030451</length>
            <lengthsegments>1</lengthsegments>
            <width>8.302486</width>
            <widthsegments>1</widthsegments>
          </max_box>
        </technique>
      </extra>
    </geometry>
    <geometry id="geom-rope_seg_1A100" name="rope_seg_1A100">
      <mesh>
        <source id="geom-rope_seg_1A100-positions">
          <float_array id="geom-rope_seg_1A100-positions-array" count="105">1.027013 -0.3888109 6.455704 1.02016 -0.3645627 6.471808 1.00908 -0.3731354 6.497134 1.00908 -0.4026805 6.496663 1.020164 -0.4123697 6.471045 4.346951 -0.4266461 9.44559 4.33714 -0.4041246 9.458917 4.321262 -0.4136009 9.480472 4.321262 -0.4419823 9.480472 4.337138 -0.4500471 9.458917 1.884774 -0.4196631 7.063594 1.877195 -0.3958143 7.079014 1.864941 -0.404612 7.103487 1.864942 -0.4339076 7.103162 1.8772 -0.4432076 7.078502 3.514431 -0.4042411 8.620178 3.523499 -0.4271242 8.60614 3.499758 -0.4135859 8.642757 3.499758 -0.4422554 8.642673 3.514431 -0.4506218 8.620044 0.4760721 -0.3807831 6.197682 0.4657212 -0.3710548 6.223771 0.4657217 -0.3416681 6.224272 0.4760711 -0.3332303 6.198486 0.4824694 -0.3574065 6.18208 3.103077 -0.4042993 8.200809 3.089006 -0.4135784 8.2239 3.089006 -0.4423919 8.223774 3.103077 -0.4509092 8.200607 3.111774 -0.4273632 8.186416 2.292411 -0.4236327 7.415143 2.284459 -0.4000859 7.430226 2.271597 -0.4090915 7.454265 2.271598 -0.438218 7.454018 2.284462 -0.4472021 7.429836</float_array>
          <technique_common>
            <accessor source="#geom-rope_seg_1A100-positions-array" count="35" stride="3">
              <param name="X" type="float"/>
              <param name="Y" type="float"/>
              <param name="Z" type="float"/>
            </accessor>
          </technique_common>
        </source>
        <source id="geom-rope_seg_1A100-normals">
          <float_array id="geom-rope_seg_1A100-normals-array" count="105">0.6135918 -0.002516363 -0.7896194 0.511755 -0.003466719 -0.8591245 0.2138169 0.9368679 -0.2766963 0.2226474 0.9421912 -0.2504072 -0.391826 0.5995408 0.6978704 -0.4901872 0.5901301 0.6414539 -0.4350412 -0.5976562 0.6734585 -0.5051042 -0.5936514 0.6264566 0.1377901 -0.9448074 -0.2972424 0.1875508 -0.9462706 -0.2634324 0.6681349 0.003184405 -0.7440333 0.219089 0.9477014 -0.2320821 0.2194018 0.9506459 -0.2193972 0.6986188 0.006111544 -0.7154679 -0.541788 0.5833296 0.6051382 -0.5700868 0.5795854 0.5823072 -0.543822 -0.5892938 0.5974868 -0.5640622 -0.5937237 0.5738694 0.2126125 -0.9467764 -0.2416825 0.2297124 -0.9445702 -0.2345622 0.6012212 0.7711352 0.2094842 0.02589003 0.461389 0.8868201 0.02943517 -0.4772198 0.8782909 0.6196682 -0.7612021 0.1912659 0.9756962 0.007383317 -0.2190033 0.4497354 0.01777877 -0.8929848 0.1979559 0.9375606 -0.2859959 -0.3246722 0.6162264 0.7175326 -0.3903205 -0.5870441 0.7092455 0.1060117 -0.9416491 -0.3194656 0.2143142 0.9538321 -0.2104132 0.7139298 0.007599022 -0.7001761 -0.5837667 0.5757968 0.5724286 -0.5756633 -0.5912687 0.5648125 0.2312784 -0.9461862 -0.226367</float_array>
          <technique_common>
            <accessor source="#geom-rope_seg_1A100-normals-array" count="35" stride="3">
              <param name="X" type="float"/>
              <param name="Y" type="float"/>
              <param name="Z" type="float"/>
            </accessor>
          </technique_common>
        </source>
        <source id="geom-rope_seg_1A100-map-1">
          <float_array id="geom-rope_seg_1A100-map-1-array" count="105">1 1 1 1 1 1 1 1 1 1 1 1 1 1 1 1 1 1 1 1 1 1 1 1 1 1 1 1 1 1 1 1 1 1 1 1 1 1 1 1 1 1 1 1 1 1 1 1 1 1 1 1 1 1 1 1 1 1 1 1 1 1 1 1 1 1 1 1 1 1 1 1 1 1 1 1 1 1 1 1 1 1 1 1 1 1 1 1 1 1 1 1 1 1 1 1 1 1 1 1 1 1 1 1 1</float_array>
          <technique_common>
            <accessor source="#geom-rope_seg_1A100-map-1-array" count="35" stride="3">
              <param name="R" type="float"/>
              <param name="G" type="float"/>
              <param name="B" type="float"/>
            </accessor>
          </technique_common>
        </source>
        <source id="geom-rope_seg_1A100-map0">
          <float_array id="geom-rope_seg_1A100-map0-array" count="105">1 1 1 1 1 1 1 1 1 1 1 1 1 1 1 1 1 1 1 1 1 1 1 1 1 1 1 1 1 1 1 1 1 1 1 1 1 1 1 1 1 1 1 1 1 1 1 1 1 1 1 1 1 1 1 1 1 1 1 1 1 1 1 1 1 1 1 1 1 1 1 1 1 1 1 1 1 1 1 1 1 1 1 1 1 1 1 1 1 1 1 1 1 1 1 1 1 1 1 1 1 1 1 1 1</float_array>
          <technique_common>
            <accessor source="#geom-rope_seg_1A100-map0-array" count="35" stride="3">
              <param name="R" type="float"/>
              <param name="G" type="float"/>
              <param name="B" type="float"/>
            </accessor>
          </technique_common>
        </source>
        <source id="geom-rope_seg_1A100-map1">
          <float_array id="geom-rope_seg_1A100-map1-array" count="168">0.6390182 0.9587184 1 0.6390182 0.9485197 1 0.6390182 0.9893143 0.9999999 0.6390182 0.9791157 1 0.6390182 0.968917 0.9999999 0.999819 0.9589267 1 0.999819 0.9485317 1 0.999819 0.9893388 0.9999999 0.999819 0.9789933 1 0.999819 0.9689827 0.9999999 0.9998257 0.9995129 1 0.6390182 0.9995129 1 0.999819 0.9995322 1 0.9998257 0.9587184 1 0.9998257 0.9485197 1 0.9998257 0.9893143 0.9999999 0.9998257 0.9791157 1 0.9998257 0.968917 0.9999999 1.010938 0.9486339 -0.3817984 1.01094 0.96886 -1.235823 0.8194205 0.9587184 1 0.8194205 0.9485197 1 0.8194205 0.9995129 1 0.8194205 0.9893143 0.9999999 0.8194205 0.9791157 1 0.8194205 0.968917 0.9999999 0.8548411 0.9485317 1 0.8548411 0.9995322 1 0.8548411 0.9589267 1 0.8548411 0.9893388 0.9999999 0.8548411 0.9789933 1 0.8548411 0.9689827 0.9999999 0.8881025 0.968917 0.9999999 0.8881025 0.9791157 1 0.8881025 0.9893143 0.9999999 0.8881025 0.9995129 1 0.8881025 0.9485197 1 0.8881025 0.9587184 1 0.7881991 0.9485317 1 0.7881991 0.9995322 1 0.7881991 0.9893388 0.9999999 0.7881991 0.9789933 1 0.7881991 0.9689827 0.9999999 0.7881991 0.9589267 1 0.9096216 0.9587184 1 0.9096216 0.9485197 1 0.9096216 0.9995129 1 0.9096216 0.9893143 0.9999999 0.9096216 0.9791157 1 0.9096216 0.968917 0.9999999 0.6390182 0.9589267 1 0.6390182 0.9485317 1 0.6390182 0.9994928 0.9999999 0.6390182 0.9893388 0.9999999 0.6390182 0.9789933 1 0.6390182 0.9689827 1</float_array>
          <technique_common>
            <accessor source="#geom-rope_seg_1A100-map1-array" count="56" stride="3">
              <param name="S" type="float"/>
              <param name="T" type="float"/>
              <param name="P" type="float"/>
            </accessor>
          </technique_common>
        </source>
        <vertices id="geom-rope_seg_1A100-vertices">
          <input semantic="POSITION" source="#geom-rope_seg_1A100-positions"/>
        </vertices>
        <triangles material="tex_bridge" count="63">
          <input semantic="VERTEX" source="#geom-rope_seg_1A100-vertices" offset="0"/>
          <input semantic="NORMAL" source="#geom-rope_seg_1A100-normals" offset="1"/>
          <input semantic="COLOR" source="#geom-rope_seg_1A100-map-1" offset="2"/>
          <input semantic="COLOR" source="#geom-rope_seg_1A100-map0" offset="3" set="0"/>
          <input semantic="TEXCOORD" source="#geom-rope_seg_1A100-map1" offset="4" set="0"/>
          <p>10 0 10 10 20 0 1 0 0 0 1 2 1 1 1 1 2 1 1 1 11 3 11 11 21 10 0 10 10 20 11 3 11 11 22 1 2 1 1 11 2 4 2 2 2 2 4 2 2 2 12 5 12 12 23 11 3 11 11 22 12 5 12 12 23 2 4 2 2 2 3 6 3 3 3 3 6 3 3 3 13 7 13 13 24 12 5 12 12 23 13 7 13 13 24 3 6 3 3 3 4 8 4 4 4 4 8 4 4 4 14 9 14 14 25 13 7 13 13 24 14 9 14 14 25 4 8 4 4 4 0 1 0 0 0 0 1 0 0 0 10 0 10 10 20 14 9 14 14 25 30 10 30 30 50 31 11 31 31 51 25 12 25 25 38 25 12 25 25 38 29 13 29 29 43 30 10 30 30 50 32 14 32 32 53 26 15 26 26 40 25 12 25 25 39 25 12 25 25 39 31 11 31 31 52 32 14 32 32 53 33 16 33 33 54 27 17 27 27 41 26 15 26 26 40 26 15 26 26 40 32 14 32 32 53 33 16 33 33 54 34 18 34 34 55 28 19 28 28 42 27 17 27 27 41 27 17 27 27 41 33 16 33 33 54 34 18 34 34 55 34 18 34 34 55 30 10 30 30 50 29 13 29 29 43 29 13 29 29 43 28 19 28 28 42 34 18 34 34 55 6 20 6 6 6 7 21 7 7 18 8 22 8 8 19 8 22 8 8 19 9 23 9 9 9 5 24 5 5 5 6 20 6 6 6 8 22 8 8 19 5 24 5 5 5 0 1 0 0 13 24 25 24 24 37 23 26 23 23 36 23 26 23 23 36 1 2 1 1 14 0 1 0 0 13 23 26 23 23 35 22 27 22 22 34 2 4 2 2 15 2 4 2 2 15 1 2 1 1 10 23 26 23 23 35 22 27 22 22 34 21 28 21 21 33 3 6 3 3 16 3 6 3 3 16 2 4 2 2 15 22 27 22 22 34 21 28 21 21 33 20 29 20 20 32 4 8 4 4 17 4 8 4 4 17 3 6 3 3 16 21 28 21 21 33 20 29 20 20 32 24 25 24 24 37 0 1 0 0 13 0 1 0 0 13 4 8 4 4 17 20 29 20 20 32 15 30 15 15 26 6 20 6 6 6 5 24 5 5 5 5 24 5 5 5 16 31 16 16 28 15 30 15 15 26 17 32 17 17 29 7 21 7 7 7 6 20 6 6 12 6 20 6 6 12 15 30 15 15 27 17 32 17 17 29 8 22 8 8 8 7 21 7 7 7 17 32 17 17 29 17 32 17 17 29 18 33 18 18 30 8 22 8 8 8 9 23 9 9 9 8 22 8 8 8 18 33 18 18 30 18 33 18 18 30 19 34 19 19 31 9 23 9 9 9 5 24 5 5 5 9 23 9 9 9 19 34 19 19 31 19 34 19 19 31 16 31 16 16 28 5 24 5 5 5 25 12 25 25 38 15 30 15 15 26 16 31 16 16 28 16 31 16 16 28 29 13 29 29 43 25 12 25 25 38 26 15 26 26 40 17 32 17 17 29 15 30 15 15 27 15 30 15 15 27 25 12 25 25 39 26 15 26 26 40 18 33 18 18 30 17 32 17 17 29 26 15 26 26 40 26 15 26 26 40 27 17 27 27 41 18 33 18 18 30 19 34 19 19 31 18 33 18 18 30 27 17 27 27 41 27 17 27 27 41 28 19 28 28 42 19 34 19 19 31 16 31 16 16 28 19 34 19 19 31 28 19 28 28 42 28 19 28 28 42 29 13 29 29 43 16 31 16 16 28 30 10 30 30 44 10 0 10 10 20 11 3 11 11 21 11 3 11 11 21 31 11 31 31 45 30 10 30 30 44 31 11 31 31 46 11 3 11 11 22 12 5 12 12 23 12 5 12 12 23 32 14 32 32 47 31 11 31 31 46 12 5 12 12 23 13 7 13 13 24 33 16 33 33 48 33 16 33 33 48 32 14 32 32 47 12 5 12 12 23 13 7 13 13 24 14 9 14 14 25 34 18 34 34 49 34 18 34 34 49 33 16 33 33 48 13 7 13 13 24 14 9 14 14 25 10 0 10 10 20 30 10 30 30 44 30 10 30 30 44 34 18 34 34 49 14 9 14 14 25</p>
        </triangles>
      </mesh>
    </geometry>
  </library_geometries>
  <library_controllers>
    <controller id="geom-rope_seg_1A100-skin1">
      <skin source="#geom-rope_seg_1A100">
        <bind_shape_matrix>2.13 0 0 0 0 2.13 0 0 0 0 2.13 0 0 0 0 1</bind_shape_matrix>
        <source id="geom-rope_seg_1A100-skin1-joints">
          <Name_array id="geom-rope_seg_1A100-skin1-joints-array" count="5">joint0 joint1 joint2 joint3 joint4</Name_array>
          <technique_common>
            <accessor source="#geom-rope_seg_1A100-skin1-joints-array" count="5" stride="1">
              <param name="JOINT" type="name"/>
            </accessor>
          </technique_common>
        </source>
        <source id="geom-rope_seg_1A100-skin1-bind_poses">
          <float_array id="geom-rope_seg_1A100-skin1-bind_poses-array" count="80">-0.6465222 -3.08286e-7 0.7628952 -8.178467 -0.7628952 -2.88279e-7 -0.6465222 15.0811 4.1924e-7 -1 -4.88111e-8 -0.9183261 0 0 0 1 0.7019739 -1.8814e-5 0.7122027 -15.82086 -0.7122027 1.43989e-7 0.7019739 -7.556453 -1.33095e-5 -1 -1.32983e-5 -0.9180278 0 0 0 1 0.7019739 -1.8814e-5 0.7122027 -20.79857 -0.7122027 1.43989e-7 0.7019739 -7.556452 -1.33095e-5 -1 -1.32983e-5 -0.9180267 0 0 0 1 -0.8098327 0.02743919 -0.5860188 14.37231 0.5862395 -1.38433e-7 -0.8101377 10.06998 -0.02222961 -0.9996235 -0.01608583 -0.5241587 0 0 0 1 -0.8098327 0.02743919 -0.5860188 8.595819 0.5862395 -1.38433e-7 -0.8101377 10.06998 -0.02222961 -0.9996235 -0.01608583 -0.5241587 0 0 0 1</float_array>
          <technique_common>
            <accessor source="#geom-rope_seg_1A100-skin1-bind_poses-array" count="5" stride="16">
              <param name="TRANSFORM" type="float4x4"/>
            </accessor>
          </technique_common>
        </source>
        <source id="geom-rope_seg_1A100-skin1-weights">
          <float_array id="geom-rope_seg_1A100-skin1-weights-array" count="21">1 0.5 0.5 0.5 0.5 0.5 0.5 0.5 0.5 0.5 0.5 0.5 0.5 0.5 0.5 0.4998216 0.5001783 0.5 0.5 0.5 0.5</float_array>
          <technique_common>
            <accessor source="#geom-rope_seg_1A100-skin1-weights-array" count="21" stride="1">
              <param name="WEIGHT" type="float"/>
            </accessor>
          </technique_common>
        </source>
        <joints>
          <input semantic="JOINT" source="#geom-rope_seg_1A100-skin1-joints"/>
          <input semantic="INV_BIND_MATRIX" source="#geom-rope_seg_1A100-skin1-bind_poses"/>
        </joints>
        <vertex_weights count="35">
          <input semantic="JOINT" source="#geom-rope_seg_1A100-skin1-joints" offset="0"/>
          <input semantic="WEIGHT" source="#geom-rope_seg_1A100-skin1-weights" offset="1"/>
          <vcount>1 1 1 1 1 2 2 2 2 2 1 1 1 1 1 1 1 1 1 1 2 2 2 2 2 1 1 1 1 1 1 1 1 1 1</vcount>
          <v>3 0 3 0 3 0 3 0 3 0 1 1 2 2 1 3 2 4 1 5 2 6 1 7 2 8 1 9 2 10 3 0 3 0 3 0 3 0 3 0 1 0 1 0 1 0 1 0 1 0 3 11 4 12 3 13 4 14 3 15 4 16 3 17 4 18 3 19 4 20 1 0 1 0 1 0 1 0 1 0 3 0 3 0 3 0 3 0 3 0</v>
        </vertex_weights>
      </skin>
    </controller>
  </library_controllers>
  <library_lights>
    <light id="EnvironmentAmbientLight" name="EnvironmentAmbientLight">
      <technique_common>
        <ambient>
          <color>0 0 0</color>
        </ambient>
      </technique_common>
    </light>
  </library_lights>
  <library_images>
    <image id="tex_bridge_dif_png">
      <init_from>file:///D:/Projects/TorqueCrysis/11_Structures/Bridge/Textures/tex_bridge_dif.png</init_from>
    </image>
    <image id="tex_bridge_nrm_png">
      <init_from>file:///D:/Projects/TorqueCrysis/11_Structures/Bridge/Textures/tex_bridge_nrm.png</init_from>
    </image>
  </library_images>
  <library_visual_scenes>
    <visual_scene id="MaxScene">
      <node name="EnvironmentAmbientLight">
        <instance_light url="#EnvironmentAmbientLight"/>
      </node>
      <node id="node-bounds_1" name="bounds">
        <translate>-0.001583342 -0.01247187 -0.001180406</translate>
        <scale>0.6200319 0.6200319 0.6200319</scale>
        <node>
          <matrix>1 0 0 5.145465 0 1 0 -0.7733835 0 0 1 13.16847 0 0 0 1</matrix>
          <instance_geometry url="#geom-bounds_1">
            <bind_material>
              <technique_common>
                <instance_material symbol="ColorMaterial" target="#ColorEffectR228G214B153-material"/>
              </technique_common>
            </bind_material>
          </instance_geometry>
        </node>
      </node>
      <node id="node-base_1" name="base">
        <translate>-0.001583342 -0.01247187 -0.001180406</translate>
        <scale>0.6200319 0.6200319 0.6200319</scale>
        <node id="node-detail100_1" name="detail100"/>
        <node id="node-start_1" name="start">
          <node id="node-rope_seg_1A100" name="rope_seg_1A100">
            <instance_controller url="#geom-rope_seg_1A100-skin1">
              <skeleton>#node-Bone_seg_1A-01</skeleton>
              <bind_material>
                <technique_common>
                  <instance_material symbol="tex_bridge" target="#tex_bridge-material">
                    <bind_vertex_input semantic="CHANNEL1" input_semantic="TEXCOORD" input_set="0"/>
                    <bind_vertex_input semantic="CHANNEL1" input_semantic="TEXCOORD" input_set="0"/>
                    <bind_vertex_input semantic="CHANNEL1" input_semantic="TEXCOORD" input_set="0"/>
                  </instance_material>
                </technique_common>
              </bind_material>
            </instance_controller>
          </node>
        </node>
        <node id="node-Bone_seg_1A-01" name="Bone_seg_1A-01" sid="joint0" type="JOINT">
          <translate sid="translation">6.21774 -0.5740739 15.98958</translate>
          <rotate sid="rotationZ">0 0 1 -180</rotate>
          <rotate sid="rotationY">0 1 0 -49.72008</rotate>
          <rotate sid="rotationX">1 0 0 -90</rotate>
          <rotate sid="InverseScaleAxisRotation">0 0 0 0</rotate>
          <scale sid="scale">1 1 1</scale>
          <rotate sid="ScaleAxisRotation">0 0 0 0</rotate>
          <node id="node-Bone_seg_1A-02" name="Bone_seg_1A-02" sid="joint1" type="JOINT">
            <matrix sid="matrix">0.08906168 0.9960091 -0.005814984 0.7635422 -0.9936337 0.08925068 0.06874845 9.53674e-7 0.06899307 -3.44883e-4 0.9976171 -2.38419e-7 0 0 0 1</matrix>
            <node id="node-Bone_seg_1A-03" name="Bone_seg_1A-03" sid="joint2" type="JOINT">
              <matrix>0.9999999 -5.96046e-8 3.72529e-9 4.977713 -8.9407e-8 0.9999999 3.72529e-9 -1.43051e-6 0 -3.72529e-9 0.9999999 -1.04308e-6 0 0 0 1</matrix>
            </node>
          </node>
          <node id="node-Bone_seg_1A-04" name="Bone_seg_1A-04" sid="joint3" type="JOINT">
            <matrix sid="matrix">0.07649419 -0.997067 -0.002460158 0.763545 0.9965515 0.07653376 -0.03205619 -9.53674e-7 0.03215045 4.37722e-7 0.9994831 -1.19209e-7 0 0 0 1</matrix>
            <node id="node-Bone_seg_1A-05" name="Bone_seg_1A-05" sid="joint4" type="JOINT">
              <matrix>1 -2.98023e-8 -9.31323e-10 5.776489 -2.98023e-8 1 9.31323e-10 1.90735e-6 -1.86265e-9 0 1 0 0 0 0 1</matrix>
            </node>
          </node>
        </node>
      </node>
      <node id="node-ambient" name="ambient">
        <translate>-0.001583342 -0.01247187 -0.001180406</translate>
        <scale>0.6200319 0.6200319 0.6200319</scale>
      </node>
      <node id="node-IK_Chain016" name="IK_Chain016">
        <matrix>0.0427822 0 0 5.71455 0 0.0427822 0 -0.5818622 0 0 0.0427822 12.47166 0 0 0 1</matrix>
      </node>
      <node id="node-IK_Chain017" name="IK_Chain017">
        <matrix>0.0427822 0 0 0.6470335 0 0.0427822 0 -0.4835858 0 0 0.0427822 8.175152 0 0 0 1</matrix>
      </node>
    </visual_scene>
  </library_visual_scenes>
  <library_animations>
    <animation>
      <source id="node-Bone_seg_1A-01_translation.X-input">
        <float_array id="node-Bone_seg_1A-01_translation.X-input-array" count="5">0 0.8333334 1.666667 2.5 3.333333</float_array>
        <technique_common>
          <accessor source="#node-Bone_seg_1A-01_translation.X-input-array" count="5" stride="1">
            <param name="TIME" type="float"/>
          </accessor>
        </technique_common>
      </source>
      <source id="node-Bone_seg_1A-01_translation.X-output">
        <float_array id="node-Bone_seg_1A-01_translation.X-output-array" count="5">6.21774 6.21774 6.21774 6.21774 6.21774</float_array>
        <technique_common>
          <accessor source="#node-Bone_seg_1A-01_translation.X-output-array" count="5" stride="1">
            <param name="X" type="float"/>
          </accessor>
        </technique_common>
      </source>
      <source id="node-Bone_seg_1A-01_translation.X-intangent">
        <float_array id="node-Bone_seg_1A-01_translation.X-intangent-array" count="10">-0.333 6.21774 0.5558333 6.21774 1.389167 6.21774 2.2225 6.21774 3.055833 6.21774</float_array>
        <technique_common>
          <accessor source="#node-Bone_seg_1A-01_translation.X-intangent-array" count="5" stride="2">
            <param name="X" type="float"/>
            <param name="Y" type="float"/>
          </accessor>
        </technique_common>
      </source>
      <source id="node-Bone_seg_1A-01_translation.X-outtangent">
        <float_array id="node-Bone_seg_1A-01_translation.X-outtangent-array" count="10">0.2775 6.21774 1.110833 6.21774 1.944167 6.21774 2.7775 6.21774 3.666333 6.21774</float_array>
        <technique_common>
          <accessor source="#node-Bone_seg_1A-01_translation.X-outtangent-array" count="5" stride="2">
            <param name="X" type="float"/>
            <param name="Y" type="float"/>
          </accessor>
        </technique_common>
      </source>
      <source id="node-Bone_seg_1A-01_translation.X-interpolation">
        <Name_array id="node-Bone_seg_1A-01_translation.X-interpolation-array" count="5">BEZIER BEZIER BEZIER BEZIER BEZIER</Name_array>
        <technique_common>
          <accessor source="#node-Bone_seg_1A-01_translation.X-interpolation-array" count="5" stride="1">
            <param name="INTERPOLATION" type="name"/>
          </accessor>
        </technique_common>
      </source>
      <source id="node-Bone_seg_1A-01_translation.Y-input">
        <float_array id="node-Bone_seg_1A-01_translation.Y-input-array" count="5">0 0.8333334 1.666667 2.5 3.333333</float_array>
        <technique_common>
          <accessor source="#node-Bone_seg_1A-01_translation.Y-input-array" count="5" stride="1">
            <param name="TIME" type="float"/>
          </accessor>
        </technique_common>
      </source>
      <source id="node-Bone_seg_1A-01_translation.Y-output">
        <float_array id="node-Bone_seg_1A-01_translation.Y-output-array" count="5">-0.5740739 -0.9023119 -1.112215 -0.9040878 -0.5740739</float_array>
        <technique_common>
          <accessor source="#node-Bone_seg_1A-01_translation.Y-output-array" count="5" stride="1">
            <param name="Y" type="float"/>
          </accessor>
        </technique_common>
      </source>
      <source id="node-Bone_seg_1A-01_translation.Y-intangent">
        <float_array id="node-Bone_seg_1A-01_translation.Y-intangent-array" count="10">1 -0.5740739 0.5405255 -0.6835085 1.389167 -1.112215 2.288505 -1.050919 2.989329 -0.5592359</float_array>
        <technique_common>
          <accessor source="#node-Bone_seg_1A-01_translation.Y-intangent-array" count="5" stride="2">
            <param name="X" type="float"/>
            <param name="Y" type="float"/>
          </accessor>
        </technique_common>
      </source>
      <source id="node-Bone_seg_1A-01_translation.Y-outtangent">
        <float_array id="node-Bone_seg_1A-01_translation.Y-outtangent-array" count="10">0.3741205 -0.5632827 1.050852 -1.053025 1.944167 -1.112215 2.77775 -0.6841005 2.333333 -0.5740739</float_array>
        <technique_common>
          <accessor source="#node-Bone_seg_1A-01_translation.Y-outtangent-array" count="5" stride="2">
            <param name="X" type="float"/>
            <param name="Y" type="float"/>
          </accessor>
        </technique_common>
      </source>
      <source id="node-Bone_seg_1A-01_translation.Y-interpolation">
        <Name_array id="node-Bone_seg_1A-01_translation.Y-interpolation-array" count="5">BEZIER BEZIER BEZIER BEZIER BEZIER</Name_array>
        <technique_common>
          <accessor source="#node-Bone_seg_1A-01_translation.Y-interpolation-array" count="5" stride="1">
            <param name="INTERPOLATION" type="name"/>
          </accessor>
        </technique_common>
      </source>
      <source id="node-Bone_seg_1A-01_translation.Z-input">
        <float_array id="node-Bone_seg_1A-01_translation.Z-input-array" count="5">0 0.8333334 1.666667 2.5 3.333333</float_array>
        <technique_common>
          <accessor source="#node-Bone_seg_1A-01_translation.Z-input-array" count="5" stride="1">
            <param name="TIME" type="float"/>
          </accessor>
        </technique_common>
      </source>
      <source id="node-Bone_seg_1A-01_translation.Z-output">
        <float_array id="node-Bone_seg_1A-01_translation.Z-output-array" count="5">15.98958 15.98958 15.98958 15.98958 15.98958</float_array>
        <technique_common>
          <accessor source="#node-Bone_seg_1A-01_translation.Z-output-array" count="5" stride="1">
            <param name="Z" type="float"/>
          </accessor>
        </technique_common>
      </source>
      <source id="node-Bone_seg_1A-01_translation.Z-intangent">
        <float_array id="node-Bone_seg_1A-01_translation.Z-intangent-array" count="10">-0.333 15.98958 0.5558333 15.98958 1.389167 15.98958 2.2225 15.98958 3.055833 15.98958</float_array>
        <technique_common>
          <accessor source="#node-Bone_seg_1A-01_translation.Z-intangent-array" count="5" stride="2">
            <param name="X" type="float"/>
            <param name="Y" type="float"/>
          </accessor>
        </technique_common>
      </source>
      <source id="node-Bone_seg_1A-01_translation.Z-outtangent">
        <float_array id="node-Bone_seg_1A-01_translation.Z-outtangent-array" count="10">0.2775 15.98958 1.110833 15.98958 1.944167 15.98958 2.7775 15.98958 3.666333 15.98958</float_array>
        <technique_common>
          <accessor source="#node-Bone_seg_1A-01_translation.Z-outtangent-array" count="5" stride="2">
            <param name="X" type="float"/>
            <param name="Y" type="float"/>
          </accessor>
        </technique_common>
      </source>
      <source id="node-Bone_seg_1A-01_translation.Z-interpolation">
        <Name_array id="node-Bone_seg_1A-01_translation.Z-interpolation-array" count="5">BEZIER BEZIER BEZIER BEZIER BEZIER</Name_array>
        <technique_common>
          <accessor source="#node-Bone_seg_1A-01_translation.Z-interpolation-array" count="5" stride="1">
            <param name="INTERPOLATION" type="name"/>
          </accessor>
        </technique_common>
      </source>
      <source id="node-Bone_seg_1A-01_rotationZ.ANGLE-input">
        <float_array id="node-Bone_seg_1A-01_rotationZ.ANGLE-input-array" count="5">0 0.8333334 1.666667 2.5 3.333333</float_array>
        <technique_common>
          <accessor source="#node-Bone_seg_1A-01_rotationZ.ANGLE-input-array" count="5" stride="1">
            <param name="TIME" type="float"/>
          </accessor>
        </technique_common>
      </source>
      <source id="node-Bone_seg_1A-01_rotationZ.ANGLE-output">
        <float_array id="node-Bone_seg_1A-01_rotationZ.ANGLE-output-array" count="5">2.73208e-5 2.73208e-5 2.73208e-5 2.73208e-5 2.73208e-5</float_array>
        <technique_common>
          <accessor source="#node-Bone_seg_1A-01_rotationZ.ANGLE-output-array" count="5" stride="1">
            <param name="ANGLE" type="float"/>
          </accessor>
        </technique_common>
      </source>
      <source id="node-Bone_seg_1A-01_rotationZ.ANGLE-intangent">
        <float_array id="node-Bone_seg_1A-01_rotationZ.ANGLE-intangent-array" count="10">-0.333 2.73208e-5 0.5558333 2.73208e-5 1.389167 2.73208e-5 2.2225 2.73208e-5 3.055833 2.73208e-5</float_array>
        <technique_common>
          <accessor source="#node-Bone_seg_1A-01_rotationZ.ANGLE-intangent-array" count="5" stride="2">
            <param name="X" type="float"/>
            <param name="Y" type="float"/>
          </accessor>
        </technique_common>
      </source>
      <source id="node-Bone_seg_1A-01_rotationZ.ANGLE-outtangent">
        <float_array id="node-Bone_seg_1A-01_rotationZ.ANGLE-outtangent-array" count="10">0.2775 2.73208e-5 1.110833 2.73208e-5 1.944167 2.73208e-5 2.7775 2.73208e-5 3.666333 2.73208e-5</float_array>
        <technique_common>
          <accessor source="#node-Bone_seg_1A-01_rotationZ.ANGLE-outtangent-array" count="5" stride="2">
            <param name="X" type="float"/>
            <param name="Y" type="float"/>
          </accessor>
        </technique_common>
      </source>
      <source id="node-Bone_seg_1A-01_rotationZ.ANGLE-interpolation">
        <Name_array id="node-Bone_seg_1A-01_rotationZ.ANGLE-interpolation-array" count="5">BEZIER BEZIER BEZIER BEZIER BEZIER</Name_array>
        <technique_common>
          <accessor source="#node-Bone_seg_1A-01_rotationZ.ANGLE-interpolation-array" count="5" stride="1">
            <param name="INTERPOLATION" type="name"/>
          </accessor>
        </technique_common>
      </source>
      <source id="node-Bone_seg_1A-01_rotationY.ANGLE-input">
        <float_array id="node-Bone_seg_1A-01_rotationY.ANGLE-input-array" count="5">0 0.8333334 1.666667 2.5 3.333333</float_array>
        <technique_common>
          <accessor source="#node-Bone_seg_1A-01_rotationY.ANGLE-input-array" count="5" stride="1">
            <param name="TIME" type="float"/>
          </accessor>
        </technique_common>
      </source>
      <source id="node-Bone_seg_1A-01_rotationY.ANGLE-output">
        <float_array id="node-Bone_seg_1A-01_rotationY.ANGLE-output-array" count="5">-130.2799 -130.2799 -130.2799 -130.2799 -130.2799</float_array>
        <technique_common>
          <accessor source="#node-Bone_seg_1A-01_rotationY.ANGLE-output-array" count="5" stride="1">
            <param name="ANGLE" type="float"/>
          </accessor>
        </technique_common>
      </source>
      <source id="node-Bone_seg_1A-01_rotationY.ANGLE-intangent">
        <float_array id="node-Bone_seg_1A-01_rotationY.ANGLE-intangent-array" count="10">-0.333 -130.2799 0.5558333 -130.2799 1.389167 -130.2799 2.2225 -130.2799 3.055833 -130.2799</float_array>
        <technique_common>
          <accessor source="#node-Bone_seg_1A-01_rotationY.ANGLE-intangent-array" count="5" stride="2">
            <param name="X" type="float"/>
            <param name="Y" type="float"/>
          </accessor>
        </technique_common>
      </source>
      <source id="node-Bone_seg_1A-01_rotationY.ANGLE-outtangent">
        <float_array id="node-Bone_seg_1A-01_rotationY.ANGLE-outtangent-array" count="10">0.2775 -130.2799 1.110833 -130.2799 1.944167 -130.2799 2.7775 -130.2799 3.666333 -130.2799</float_array>
        <technique_common>
          <accessor source="#node-Bone_seg_1A-01_rotationY.ANGLE-outtangent-array" count="5" stride="2">
            <param name="X" type="float"/>
            <param name="Y" type="float"/>
          </accessor>
        </technique_common>
      </source>
      <source id="node-Bone_seg_1A-01_rotationY.ANGLE-interpolation">
        <Name_array id="node-Bone_seg_1A-01_rotationY.ANGLE-interpolation-array" count="5">BEZIER BEZIER BEZIER BEZIER BEZIER</Name_array>
        <technique_common>
          <accessor source="#node-Bone_seg_1A-01_rotationY.ANGLE-interpolation-array" count="5" stride="1">
            <param name="INTERPOLATION" type="name"/>
          </accessor>
        </technique_common>
      </source>
      <source id="node-Bone_seg_1A-01_rotationX.ANGLE-input">
        <float_array id="node-Bone_seg_1A-01_rotationX.ANGLE-input-array" count="5">0 0.8333334 1.666667 2.5 3.333333</float_array>
        <technique_common>
          <accessor source="#node-Bone_seg_1A-01_rotationX.ANGLE-input-array" count="5" stride="1">
            <param name="TIME" type="float"/>
          </accessor>
        </technique_common>
      </source>
      <source id="node-Bone_seg_1A-01_rotationX.ANGLE-output">
        <float_array id="node-Bone_seg_1A-01_rotationX.ANGLE-output-array" count="5">89.99999 89.99999 89.99999 89.99999 89.99999</float_array>
        <technique_common>
          <accessor source="#node-Bone_seg_1A-01_rotationX.ANGLE-output-array" count="5" stride="1">
            <param name="ANGLE" type="float"/>
          </accessor>
        </technique_common>
      </source>
      <source id="node-Bone_seg_1A-01_rotationX.ANGLE-intangent">
        <float_array id="node-Bone_seg_1A-01_rotationX.ANGLE-intangent-array" count="10">-0.333 89.99999 0.5558333 89.99999 1.389167 89.99999 2.2225 89.99999 3.055833 89.99999</float_array>
        <technique_common>
          <accessor source="#node-Bone_seg_1A-01_rotationX.ANGLE-intangent-array" count="5" stride="2">
            <param name="X" type="float"/>
            <param name="Y" type="float"/>
          </accessor>
        </technique_common>
      </source>
      <source id="node-Bone_seg_1A-01_rotationX.ANGLE-outtangent">
        <float_array id="node-Bone_seg_1A-01_rotationX.ANGLE-outtangent-array" count="10">0.2775 89.99999 1.110833 89.99999 1.944167 89.99999 2.7775 89.99999 3.666333 89.99999</float_array>
        <technique_common>
          <accessor source="#node-Bone_seg_1A-01_rotationX.ANGLE-outtangent-array" count="5" stride="2">
            <param name="X" type="float"/>
            <param name="Y" type="float"/>
          </accessor>
        </technique_common>
      </source>
      <source id="node-Bone_seg_1A-01_rotationX.ANGLE-interpolation">
        <Name_array id="node-Bone_seg_1A-01_rotationX.ANGLE-interpolation-array" count="5">BEZIER BEZIER BEZIER BEZIER BEZIER</Name_array>
        <technique_common>
          <accessor source="#node-Bone_seg_1A-01_rotationX.ANGLE-interpolation-array" count="5" stride="1">
            <param name="INTERPOLATION" type="name"/>
          </accessor>
        </technique_common>
      </source>
      <source id="node-Bone_seg_1A-01_scale-input">
        <float_array id="node-Bone_seg_1A-01_scale-input-array" count="5">0 0.8333334 1.666667 2.5 3.333333</float_array>
        <technique_common>
          <accessor source="#node-Bone_seg_1A-01_scale-input-array" count="5" stride="1">
            <param name="TIME" type="float"/>
          </accessor>
        </technique_common>
      </source>
      <source id="node-Bone_seg_1A-01_scale-output">
        <float_array id="node-Bone_seg_1A-01_scale-output-array" count="15">1 1 1 1 1 1 1 1 1 1 1 1 1 1 1</float_array>
        <technique_common>
          <accessor source="#node-Bone_seg_1A-01_scale-output-array" count="5" stride="3">
            <param name="X" type="float"/>
            <param name="Y" type="float"/>
            <param name="Z" type="float"/>
          </accessor>
        </technique_common>
      </source>
      <source id="node-Bone_seg_1A-01_scale-intangent">
        <float_array id="node-Bone_seg_1A-01_scale-intangent-array" count="30">-0.333 1 -0.333 1 -0.333 1 0.5558333 1 0.5558333 1 0.5558333 1 1.389167 1 1.389167 1 1.389167 1 2.2225 1 2.2225 1 2.2225 1 3.055833 1 3.055833 1 3.055833 1</float_array>
        <technique_common>
          <accessor source="#node-Bone_seg_1A-01_scale-intangent-array" count="5" stride="6">
            <param name="X" type="float"/>
            <param name="Y" type="float"/>
            <param name="X" type="float"/>
            <param name="Y" type="float"/>
            <param name="X" type="float"/>
            <param name="Y" type="float"/>
          </accessor>
        </technique_common>
      </source>
      <source id="node-Bone_seg_1A-01_scale-outtangent">
        <float_array id="node-Bone_seg_1A-01_scale-outtangent-array" count="30">0.2775 1 0.2775 1 0.2775 1 1.110833 1 1.110833 1 1.110833 1 1.944167 1 1.944167 1 1.944167 1 2.7775 1 2.7775 1 2.7775 1 3.666333 1 3.666333 1 3.666333 1</float_array>
        <technique_common>
          <accessor source="#node-Bone_seg_1A-01_scale-outtangent-array" count="5" stride="6">
            <param name="X" type="float"/>
            <param name="Y" type="float"/>
            <param name="X" type="float"/>
            <param name="Y" type="float"/>
            <param name="X" type="float"/>
            <param name="Y" type="float"/>
          </accessor>
        </technique_common>
      </source>
      <source id="node-Bone_seg_1A-01_scale-interpolation">
        <Name_array id="node-Bone_seg_1A-01_scale-interpolation-array" count="5">BEZIER BEZIER BEZIER BEZIER BEZIER</Name_array>
        <technique_common>
          <accessor source="#node-Bone_seg_1A-01_scale-interpolation-array" count="5" stride="1">
            <param name="INTERPOLATION" type="name"/>
          </accessor>
        </technique_common>
      </source>
      <source id="node-Bone_seg_1A-01_InverseScaleAxisRotation-input">
        <float_array id="node-Bone_seg_1A-01_InverseScaleAxisRotation-input-array" count="5">0 0.8333334 1.666667 2.5 3.333333</float_array>
        <technique_common>
          <accessor source="#node-Bone_seg_1A-01_InverseScaleAxisRotation-input-array" count="5" stride="1">
            <param name="TIME" type="float"/>
          </accessor>
        </technique_common>
      </source>
      <source id="node-Bone_seg_1A-01_InverseScaleAxisRotation-output">
        <float_array id="node-Bone_seg_1A-01_InverseScaleAxisRotation-output-array" count="20">0 0 0 0 0 0 0 0 0 0 0 0 0 0 0 0 0 0 0 0</float_array>
        <technique_common>
          <accessor source="#node-Bone_seg_1A-01_InverseScaleAxisRotation-output-array" count="5" stride="4">
            <param name="X" type="float"/>
            <param name="Y" type="float"/>
            <param name="Z" type="float"/>
            <param name="ANGLE" type="float"/>
          </accessor>
        </technique_common>
      </source>
      <source id="node-Bone_seg_1A-01_InverseScaleAxisRotation-interpolation">
        <Name_array id="node-Bone_seg_1A-01_InverseScaleAxisRotation-interpolation-array" count="5">LINEAR LINEAR LINEAR LINEAR LINEAR</Name_array>
        <technique_common>
          <accessor source="#node-Bone_seg_1A-01_InverseScaleAxisRotation-interpolation-array" count="5" stride="1">
            <param name="INTERPOLATION" type="name"/>
          </accessor>
        </technique_common>
      </source>
      <source id="node-Bone_seg_1A-01_ScaleAxisRotation-input">
        <float_array id="node-Bone_seg_1A-01_ScaleAxisRotation-input-array" count="5">0 0.8333334 1.666667 2.5 3.333333</float_array>
        <technique_common>
          <accessor source="#node-Bone_seg_1A-01_ScaleAxisRotation-input-array" count="5" stride="1">
            <param name="TIME" type="float"/>
          </accessor>
        </technique_common>
      </source>
      <source id="node-Bone_seg_1A-01_ScaleAxisRotation-output">
        <float_array id="node-Bone_seg_1A-01_ScaleAxisRotation-output-array" count="20">0 0 0 0 0 0 0 0 0 0 0 0 0 0 0 0 0 0 0 0</float_array>
        <technique_common>
          <accessor source="#node-Bone_seg_1A-01_ScaleAxisRotation-output-array" count="5" stride="4">
            <param name="X" type="float"/>
            <param name="Y" type="float"/>
            <param name="Z" type="float"/>
            <param name="ANGLE" type="float"/>
          </accessor>
        </technique_common>
      </source>
      <source id="node-Bone_seg_1A-01_ScaleAxisRotation-interpolation">
        <Name_array id="node-Bone_seg_1A-01_ScaleAxisRotation-interpolation-array" count="5">LINEAR LINEAR LINEAR LINEAR LINEAR</Name_array>
        <technique_common>
          <accessor source="#node-Bone_seg_1A-01_ScaleAxisRotation-interpolation-array" count="5" stride="1">
            <param name="INTERPOLATION" type="name"/>
          </accessor>
        </technique_common>
      </source>
      <source id="node-Bone_seg_1A-02_matrix-input">
        <float_array id="node-Bone_seg_1A-02_matrix-input-array" count="101">0 0.03333334 0.06666667 0.1 0.1333333 0.1666667 0.2 0.2333333 0.2666667 0.3 0.3333333 0.3666667 0.4 0.4333333 0.4666667 0.5 0.5333334 0.5666667 0.6 0.6333333 0.6666667 0.7 0.7333333 0.7666667 0.8 0.8333333 0.8666667 0.9 0.9333333 0.9666666 1 1.033333 1.066667 1.1 1.133333 1.166667 1.2 1.233333 1.266667 1.3 1.333333 1.366667 1.4 1.433333 1.466667 1.5 1.533333 1.566667 1.6 1.633333 1.666667 1.7 1.733333 1.766667 1.8 1.833333 1.866667 1.9 1.933333 1.966667 2 2.033333 2.066667 2.1 2.133333 2.166667 2.2 2.233333 2.266667 2.3 2.333333 2.366667 2.4 2.433333 2.466667 2.5 2.533333 2.566667 2.6 2.633333 2.666667 2.7 2.733333 2.766667 2.8 2.833333 2.866667 2.9 2.933333 2.966667 3 3.033333 3.066667 3.1 3.133333 3.166667 3.2 3.233333 3.266667 3.3 3.333333</float_array>
        <technique_common>
          <accessor source="#node-Bone_seg_1A-02_matrix-input-array" count="101" stride="1">
            <param name="TIME" type="float"/>
          </accessor>
        </technique_common>
      </source>
      <source id="node-Bone_seg_1A-02_matrix-output">
        <float_array id="node-Bone_seg_1A-02_matrix-output-array" count="1616">0.08906167 0.9960091 -0.005814969 0.7635422 -0.9936337 0.08925068 0.06874841 9.53674e-7 0.06899303 -3.44883e-4 0.9976171 -2.38419e-7 0 0 0 1 0.08906137 0.9960069 -0.006169974 0.7635422 -0.993625 0.08927488 0.06884175 9.53674e-7 0.06911766 -4.75697e-7 0.9976086 -2.38419e-7 0 0 0 1 0.08906155 0.9960069 -0.006167948 0.7635422 -0.9936266 0.08927488 0.06881898 9.53674e-7 0.06909483 -4.75697e-7 0.9976102 -1.78814e-7 0 0 0 1 0.08906215 0.996007 -0.006151854 0.7635422 -0.9936391 0.08927434 0.06863993 9.53674e-7 0.06891506 -4.75703e-7 0.9976227 -2.38419e-7 0 0 0 1 0.0890643 0.996007 -0.006120204 0.7635422 -0.9936633 0.08927434 0.06828695 9.53674e-7 0.06856065 -4.75715e-7 0.997647 -1.78814e-7 0 0 0 1 0.08906763 0.996007 -0.006071448 0.7635422 -0.9937006 0.08927434 0.06774294 9.53674e-7 0.0680145 -4.75733e-7 0.9976845 -2.38419e-7 0 0 0 1 0.08907222 0.996007 -0.006003975 0.7635422 -0.9937517 0.08927434 0.06699001 9.53674e-7 0.06725853 -4.75757e-7 0.9977356 -1.78814e-7 0 0 0 1 0.08907812 0.996007 -0.005916357 0.7635422 -0.9938171 0.08927434 0.06601291 9.53674e-7 0.0662775 -4.75789e-7 0.9978014 -2.38419e-7 0 0 0 1 0.08908528 0.996007 -0.005806565 0.7635422 -0.9938977 0.08927434 0.06478786 9.53674e-7 0.0650475 -4.75827e-7 0.9978823 -2.38419e-7 0 0 0 1 0.08909392 0.996007 -0.00567317 0.7635422 -0.9939936 0.08927434 0.06329965 9.53674e-7 0.06355333 -4.75873e-7 0.9979785 -2.98023e-7 0 0 0 1 0.08910381 0.9960088 -0.005170881 0.7635422 -0.9941045 0.08925312 0.06156241 9.53674e-7 0.06177824 -3.45047e-4 0.9980899 -2.38419e-7 0 0 0 1 0.08911508 0.996007 -0.005329608 0.7635422 -0.9942302 0.08927434 0.05946618 9.53674e-7 0.05970454 -4.75986e-7 0.9982162 -2.38419e-7 0 0 0 1 0.0891276 0.9960087 -0.00477302 0.7635422 -0.9943693 0.08925461 0.05712401 9.53674e-7 0.05732202 -3.45138e-4 0.9983558 -2.98023e-7 0 0 0 1 0.08914113 0.9960086 -0.004531919 0.7635422 -0.9945201 0.08925557 0.05443394 9.53674e-7 0.05462116 -3.45191e-4 0.9985072 -1.78814e-7 0 0 0 1 0.08915543 0.996007 -0.004606366 0.7635422 -0.99468 0.08927434 0.05139726 9.53674e-7 0.05160325 -4.76202e-7 0.9986677 -1.78814e-7 0 0 0 1 0.08917033 0.996007 -0.004309058 0.7635422 -0.9948459 0.08927434 0.0480802 9.53674e-7 0.0482729 -4.76281e-7 0.9988343 -1.78814e-7 0 0 0 1 0.08918535 0.9960083 -0.003641128 0.7635422 -0.995014 0.08925896 0.04449594 9.53674e-7 0.04464334 -3.45362e-4 0.999003 -2.38419e-7 0 0 0 1 0.08920079 0.9960069 -0.003636479 0.7635422 -0.9951801 0.08927488 0.04057657 9.53674e-7 0.04073917 -4.76441e-7 0.9991699 -1.78814e-7 0 0 0 1 0.08921468 0.996007 -0.003265202 0.7635422 -0.9953404 0.08927434 0.03643447 9.53674e-7 0.0365805 -4.76518e-7 0.9993308 -2.38419e-7 0 0 0 1 0.08922863 0.9960069 -0.002874195 0.7635422 -0.9954904 0.08927488 0.03207194 9.53674e-7 0.03220045 -4.7659e-7 0.9994816 -1.78814e-7 0 0 0 1 0.08924025 0.996007 -0.002466917 0.7635422 -0.9956265 0.08927434 0.0275284 9.53674e-7 0.02763873 -4.76655e-7 0.9996181 -2.38419e-7 0 0 0 1 0.08925098 0.9960076 -0.001701712 0.7635422 -0.9957454 0.08926647 0.02285838 9.53674e-7 0.02291905 -3.45616e-4 0.9997373 -2.98023e-7 0 0 0 1 0.08926022 0.9960075 -0.001271009 0.7635422 -0.9958438 0.08926862 0.01805311 0 0.01809448 -3.4565e-4 0.9998363 -2.98023e-7 0 0 0 1 0.08926665 0.996007 -0.001176238 0.7635422 -0.9959204 0.08927434 0.01312869 0 0.01318126 -4.76796e-7 0.9999132 -1.78814e-7 0 0 0 1 0.08927136 0.996007 -7.32348e-4 0.7635422 -0.9959734 0.08927434 0.008175909 0 0.008208632 -4.76821e-7 0.9999665 -1.78814e-7 0 0 0 1 0.08927392 0.996007 6.03894e-5 0.7635422 -0.996002 0.08927327 0.003198623 0 0.003180444 -3.45705e-4 0.9999949 -1.78814e-7 0 0 0 1 0.08927428 0.996007 1.04514e-4 0.7635422 -0.9960063 0.08927434 -0.001160681 0 -0.00116539 -4.76837e-7 0.9999994 -2.98023e-7 0 0 0 1 0.08927321 0.996007 1.10368e-4 0.7635422 -0.9959941 0.08927261 -0.005093038 0 -0.005082547 3.44749e-4 0.999987 -1.78814e-7 0 0 0 1 0.08927154 0.9960069 7.71741e-4 0.7635422 -0.9959698 0.08927488 -0.008604645 0 -0.008639216 -4.76819e-7 0.9999628 -1.78814e-7 0 0 0 1 0.08926808 0.996007 0.00105971 0.7635422 -0.9959369 0.08927434 -0.01181787 0 -0.01186531 -4.76804e-7 0.9999297 -2.98023e-7 0 0 0 1 0.08926457 0.996007 0.001321911 0.7635422 -0.9958979 0.08927434 -0.0147432 0 -0.01480239 -4.76785e-7 0.9998905 -1.19209e-7 0 0 0 1 0.08926069 0.996007 0.00156182 0.7635422 -0.9958547 0.08927434 -0.01741957 0 -0.01748949 -4.76764e-7 0.9998471 -1.19209e-7 0 0 0 1 0.08925658 0.9960076 0.001437246 0.7635422 -0.9958088 0.08926755 -0.01989686 0 -0.01994568 3.44685e-4 0.999801 -1.19209e-7 0 0 0 1 0.08925235 0.996007 0.00198245 0.7635422 -0.9957615 0.08927434 -0.02211242 0 -0.02220112 -4.7672e-7 0.9997536 -1.19209e-7 0 0 0 1 0.08924812 0.996007 0.002166807 0.7635422 -0.9957137 0.08927434 -0.02416926 0 -0.02426624 -4.76697e-7 0.9997056 -2.38419e-7 0 0 0 1 0.08924382 0.996007 0.002335846 0.7635422 -0.9956662 0.08927434 -0.02605557 0 -0.02616012 -4.76674e-7 0.9996579 -1.19209e-7 0 0 0 1 0.08923965 0.996007 0.002490699 0.7635422 -0.9956194 0.08927434 -0.02778279 0 -0.02789419 -4.76652e-7 0.999611 -1.19209e-7 0 0 0 1 0.0892356 0.996007 0.002632141 0.7635422 -0.9955741 0.08927434 -0.02936077 0 -0.02947854 -4.7663e-7 0.9995655 -2.38419e-7 0 0 0 1 0.08923172 0.996007 0.002760767 0.7635422 -0.9955307 0.08927434 -0.03079587 0 -0.03091937 -4.76609e-7 0.9995219 -1.19209e-7 0 0 0 1 0.08922803 0.996007 0.002877712 0.7635422 -0.9954895 0.08927434 -0.03210079 0 -0.03222954 -4.76589e-7 0.9994806 -1.19209e-7 0 0 0 1 0.08922457 0.996007 0.002982795 0.7635422 -0.9954511 0.08927434 -0.03327327 0 -0.03340667 -4.76571e-7 0.9994419 -1.19209e-7 0 0 0 1 0.08922135 0.996007 0.003077149 0.7635422 -0.9954152 0.08927434 -0.03432607 0 -0.0344637 -4.76554e-7 0.999406 -2.38419e-7 0 0 0 1 0.08921843 0.996007 0.003160893 0.7635422 -0.9953827 0.08927434 -0.03526014 0 -0.03540152 -4.76538e-7 0.9993733 -1.19209e-7 0 0 0 1 0.08921581 0.996007 0.003234624 0.7635422 -0.9953532 0.08927434 -0.03608268 0 -0.0362274 -4.76524e-7 0.9993437 -1.19209e-7 0 0 0 1 0.08921343 0.996007 0.003298282 0.7635422 -0.9953271 0.08927434 -0.03679317 0 -0.03694069 -4.76512e-7 0.9993175 -1.19209e-7 0 0 0 1 0.08921194 0.996008 0.003008127 0.7635422 -0.9953048 0.089262 -0.03742247 0 -0.03754162 3.4451e-4 0.9992951 -1.19209e-7 0 0 0 1 0.08920973 0.996007 0.003395915 0.7635422 -0.9952864 0.08927434 -0.03788238 0 -0.03803431 -4.76492e-7 0.9992765 -1.19209e-7 0 0 0 1 0.08920842 0.996007 0.003430366 0.7635422 -0.9952716 0.08927434 -0.0382663 0 -0.03841978 -4.76485e-7 0.9992618 -1.19209e-7 0 0 0 1 0.08920747 0.996007 0.003455042 0.7635422 -0.995261 0.08927434 -0.03854203 0 -0.03869658 -4.7648e-7 0.9992511 -1.19209e-7 0 0 0 1 0.08920687 0.996007 0.003470063 0.7635422 -0.9952544 0.08927434 -0.03870958 0 -0.03886479 -4.76477e-7 0.9992445 -1.19209e-7 0 0 0 1 0.08920675 0.996007 0.003475189 0.7635422 -0.9952523 0.08927434 -0.0387665 0 -0.03892201 -4.76476e-7 0.9992424 -2.38419e-7 0 0 0 1 0.08920693 0.996007 0.003469884 0.7635422 -0.9952545 0.08927434 -0.03870767 0 -0.03886288 -4.76477e-7 0.9992447 -2.38419e-7 0 0 0 1 0.08920753 0.996007 0.003454387 0.7635422 -0.9952613 0.08927434 -0.03853446 0 -0.03868895 -4.7648e-7 0.9992514 -2.38419e-7 0 0 0 1 0.08920896 0.9960069 0.003429174 0.7635422 -0.995272 0.08927488 -0.038253 0 -0.03840643 -4.76485e-7 0.9992623 -1.19209e-7 0 0 0 1 0.08920985 0.996007 0.003394186 0.7635422 -0.9952871 0.08927434 -0.03786295 0 -0.03801476 -4.76492e-7 0.9992773 -2.38419e-7 0 0 0 1 0.08921205 0.996008 0.003005802 0.7635422 -0.9953057 0.089262 -0.03739684 0 -0.03751587 3.44511e-4 0.999296 -1.19209e-7 0 0 0 1 0.08921355 0.996007 0.003295242 0.7635422 -0.9953284 0.08927434 -0.03675901 0 -0.03690642 -4.76512e-7 0.9993188 -1.19209e-7 0 0 0 1 0.08921593 0.996008 0.002887487 0.7635422 -0.9953545 0.08926194 -0.03607696 0 -0.03619068 3.44527e-4 0.9993448 -1.19209e-7 0 0 0 1 0.08921855 0.996007 0.003157556 0.7635422 -0.995384 0.08927434 -0.03522264 0 -0.03536391 -4.76539e-7 0.9993746 -1.19209e-7 0 0 0 1 0.08922147 0.996007 0.003073751 0.7635422 -0.9954167 0.08927434 -0.03428763 0 -0.03442507 -4.76554e-7 0.9994074 -1.19209e-7 0 0 0 1 0.08922469 0.996007 0.002979218 0.7635422 -0.9954524 0.08927434 -0.0332334 0 -0.03336668 -4.76572e-7 0.9994433 -2.38419e-7 0 0 0 1 0.08922809 0.996007 0.002874433 0.7635422 -0.9954907 0.08927434 -0.03206425 0 -0.03219282 -4.7659e-7 0.9994817 -1.19209e-7 0 0 0 1 0.08923226 0.9960069 0.002758443 0.7635422 -0.9955316 0.08927488 -0.03076976 0 -0.03089314 -4.7661e-7 0.9995228 -2.38419e-7 0 0 0 1 0.0892356 0.9960078 0.002286911 0.7635422 -0.9955745 0.08926433 -0.02937644 0 -0.02946329 3.44604e-4 0.9995658 -1.19209e-7 0 0 0 1 0.08923959 0.996007 0.002491176 0.7635422 -0.9956193 0.08927434 -0.02778798 0 -0.02789944 -4.76652e-7 0.9996109 -1.19209e-7 0 0 0 1 0.08924376 0.996007 0.002338171 0.7635422 -0.9956654 0.08927434 -0.0260812 0 -0.02618581 -4.76674e-7 0.9996572 -1.19209e-7 0 0 0 1 0.089248 0.9960077 0.001827597 0.7635422 -0.9957124 0.08926606 -0.02425187 0 -0.02431815 3.44651e-4 0.9997042 -1.19209e-7 0 0 0 1 0.08925223 0.996007 0.001989603 0.7635422 -0.9957597 0.08927434 -0.02219218 0 -0.02228122 -4.76719e-7 0.9997519 -1.19209e-7 0 0 0 1 0.0892564 0.996007 0.001791357 0.7635422 -0.9958066 0.08927434 -0.01998043 0 -0.02006059 -4.76741e-7 0.9997989 -1.19209e-7 0 0 0 1 0.08926045 0.996007 0.00157535 0.7635422 -0.995852 0.08927434 -0.01757061 0 -0.01764106 -4.76763e-7 0.9998444 -2.38419e-7 0 0 0 1 0.08926486 0.9960073 9.9543e-4 0.7635422 -0.9958949 0.08926969 -0.01496732 0 -0.0149964 3.44714e-4 0.9998875 -1.19209e-7 0 0 0 1 0.08926784 0.996007 0.001081228 0.7635422 -0.995934 0.08927434 -0.01205819 0 -0.01210659 -4.76802e-7 0.9999268 -1.78814e-7 0 0 0 1 0.0892713 0.9960069 7.96601e-4 0.7635422 -0.9959673 0.08927488 -0.008881986 0 -0.008917689 -4.76818e-7 0.9999603 -1.78814e-7 0 0 0 1 0.08927303 0.996007 4.83252e-4 0.7635422 -0.9959924 0.08927434 -0.005386114 0 -0.00540775 -4.7683e-7 0.9999855 -1.78814e-7 0 0 0 1 0.08927428 0.996007 -2.09539e-4 0.7635422 -0.9960059 0.08927386 -0.001523911 0 -0.001499116 3.44753e-4 0.9999988 -1.78814e-7 0 0 0 1 0.08927398 0.996007 -2.52642e-4 0.7635422 -0.996003 0.08927434 0.002823948 0 0.002835214 -4.76835e-7 0.9999961 -2.98023e-7 0 0 0 1 0.08927142 0.996007 -7.24218e-4 0.7635422 -0.9959742 0.08927434 0.008085191 0 0.008117556 -4.76821e-7 0.9999671 -1.78814e-7 0 0 0 1 0.08926653 0.996007 -0.001184225 0.7635422 -0.9959194 0.08927434 0.01321798 0 0.01327091 -4.76795e-7 0.999912 -2.98023e-7 0 0 0 1 0.08925944 0.996007 -0.001633107 0.7635422 -0.9958402 0.08927434 0.01822549 0 0.0182985 -4.76757e-7 0.9998326 -1.78814e-7 0 0 0 1 0.08925086 0.9960069 -0.002068579 0.7635422 -0.9957394 0.08927488 0.02308398 9.53674e-7 0.02317649 -4.76709e-7 0.9997315 -2.98023e-7 0 0 0 1 0.08923965 0.996007 -0.002489089 0.7635422 -0.9956197 0.08927434 0.02777576 9.53674e-7 0.02788704 -4.76652e-7 0.9996111 -2.98023e-7 0 0 0 1 0.08922749 0.996007 -0.0028916 0.7635422 -0.9954842 0.08927434 0.03226655 9.53674e-7 0.03239583 -4.76587e-7 0.9994752 -2.38419e-7 0 0 0 1 0.08921426 0.996007 -0.003274977 0.7635422 -0.9953364 0.08927434 0.0365436 9.53674e-7 0.03669005 -4.76516e-7 0.9993268 -2.38419e-7 0 0 0 1 0.08920019 0.996007 -0.003637254 0.7635422 -0.9951798 0.08927434 0.04058557 9.53674e-7 0.04074823 -4.76441e-7 0.9991695 -1.78814e-7 0 0 0 1 0.08918571 0.9960083 -0.003633141 0.7635422 -0.9950179 0.08925902 0.04440623 9.53674e-7 0.04455327 -3.45364e-4 0.9990069 -2.38419e-7 0 0 0 1 0.08917158 0.9960083 -0.003948867 0.7635422 -0.9948546 0.08925837 0.04792881 9.53674e-7 0.04808998 -3.45307e-4 0.998843 -2.38419e-7 0 0 0 1 0.08915662 0.996007 -0.004583716 0.7635422 -0.9946929 0.08927434 0.05114489 9.53674e-7 0.05134993 -4.76208e-7 0.9986808 -1.78814e-7 0 0 0 1 0.08914256 0.996007 -0.004849553 0.7635422 -0.9945361 0.08927434 0.05411052 9.53674e-7 0.05432742 -4.76133e-7 0.9985232 -2.98023e-7 0 0 0 1 0.08912914 0.9960086 -0.004745602 0.7635422 -0.9943868 0.08925479 0.05681818 9.53674e-7 0.057015 -3.45145e-4 0.9983733 -1.78814e-7 0 0 0 1 0.08911663 0.996007 -0.00530374 0.7635422 -0.9942474 0.08927434 0.05917793 9.53674e-7 0.0594151 -4.75995e-7 0.9982335 -1.78814e-7 0 0 0 1 0.08910524 0.9960088 -0.00514853 0.7635422 -0.99412 0.08925318 0.06131356 9.53674e-7 0.06152838 -3.45052e-4 0.9981054 -2.38419e-7 0 0 0 1 0.08909499 0.9960089 -0.005312442 0.7635422 -0.9940055 0.08925253 0.06314229 9.53674e-7 0.06336444 -3.45012e-4 0.9979904 -2.38419e-7 0 0 0 1 0.08908605 0.996007 -0.005796015 0.7635422 -0.9939054 0.08927434 0.06467032 9.53674e-7 0.06492954 -4.75831e-7 0.99789 -1.78814e-7 0 0 0 1 0.08907884 0.9960069 -0.005912184 0.7635422 -0.9938201 0.08927488 0.06596601 9.53674e-7 0.06623041 -4.7579e-7 0.9978044 -2.38419e-7 0 0 0 1 0.08907204 0.996009 -0.005662262 0.7635422 -0.99375 0.08925122 0.06704503 9.53674e-7 0.06728279 -3.44924e-4 0.997734 -2.98023e-7 0 0 0 1 0.08906716 0.996007 -0.0060786 0.7635422 -0.9936952 0.08927434 0.06782305 9.53674e-7 0.0680949 -4.7573e-7 0.997679 -2.38419e-7 0 0 0 1 0.08906406 0.9960069 -0.006130874 0.7635422 -0.9936552 0.08927488 0.06840538 9.53674e-7 0.06867957 -4.75711e-7 0.9976388 -2.38419e-7 0 0 0 1 0.08906131 0.996007 -0.006163895 0.7635422 -0.9936298 0.08927434 0.06877446 9.53674e-7 0.06905013 -4.75699e-7 0.9976133 -2.38419e-7 0 0 0 1 0.08906078 0.9960069 -0.006178915 0.7635422 -0.9936181 0.08927488 0.06894171 9.53674e-7 0.06921803 -4.75693e-7 0.9976017 -2.98023e-7 0 0 0 1 0.08906042 0.996009 -0.005833029 0.7635422 -0.9936197 0.08925056 0.06895029 9.53674e-7 0.06919568 -3.44878e-4 0.9976031 -2.38419e-7 0 0 0 1 0.08906167 0.9960091 -0.005814969 0.7635422 -0.9936337 0.08925068 0.06874841 9.53674e-7 0.06899303 -3.44883e-4 0.9976171 -2.38419e-7 0 0 0 1</float_array>
        <technique_common>
          <accessor source="#node-Bone_seg_1A-02_matrix-output-array" count="101" stride="16">
            <param name="TRANSFORM" type="float4x4"/>
          </accessor>
        </technique_common>
      </source>
      <source id="node-Bone_seg_1A-02_matrix-interpolation">
        <Name_array id="node-Bone_seg_1A-02_matrix-interpolation-array" count="101">LINEAR LINEAR LINEAR LINEAR LINEAR LINEAR LINEAR LINEAR LINEAR LINEAR LINEAR LINEAR LINEAR LINEAR LINEAR LINEAR LINEAR LINEAR LINEAR LINEAR LINEAR LINEAR LINEAR LINEAR LINEAR LINEAR LINEAR LINEAR LINEAR LINEAR LINEAR LINEAR LINEAR LINEAR LINEAR LINEAR LINEAR LINEAR LINEAR LINEAR LINEAR LINEAR LINEAR LINEAR LINEAR LINEAR LINEAR LINEAR LINEAR LINEAR LINEAR LINEAR LINEAR LINEAR LINEAR LINEAR LINEAR LINEAR LINEAR LINEAR LINEAR LINEAR LINEAR LINEAR LINEAR LINEAR LINEAR LINEAR LINEAR LINEAR LINEAR LINEAR LINEAR LINEAR LINEAR LINEAR LINEAR LINEAR LINEAR LINEAR LINEAR LINEAR LINEAR LINEAR LINEAR LINEAR LINEAR LINEAR LINEAR LINEAR LINEAR LINEAR LINEAR LINEAR LINEAR LINEAR LINEAR LINEAR LINEAR LINEAR LINEAR</Name_array>
        <technique_common>
          <accessor source="#node-Bone_seg_1A-02_matrix-interpolation-array" count="101" stride="1">
            <param name="INTERPOLATION" type="name"/>
          </accessor>
        </technique_common>
      </source>
      <source id="node-Bone_seg_1A-04_matrix-input">
        <float_array id="node-Bone_seg_1A-04_matrix-input-array" count="101">0 0.03333334 0.06666667 0.1 0.1333333 0.1666667 0.2 0.2333333 0.2666667 0.3 0.3333333 0.3666667 0.4 0.4333333 0.4666667 0.5 0.5333334 0.5666667 0.6 0.6333333 0.6666667 0.7 0.7333333 0.7666667 0.8 0.8333333 0.8666667 0.9 0.9333333 0.9666666 1 1.033333 1.066667 1.1 1.133333 1.166667 1.2 1.233333 1.266667 1.3 1.333333 1.366667 1.4 1.433333 1.466667 1.5 1.533333 1.566667 1.6 1.633333 1.666667 1.7 1.733333 1.766667 1.8 1.833333 1.866667 1.9 1.933333 1.966667 2 2.033333 2.066667 2.1 2.133333 2.166667 2.2 2.233333 2.266667 2.3 2.333333 2.366667 2.4 2.433333 2.466667 2.5 2.533333 2.566667 2.6 2.633333 2.666667 2.7 2.733333 2.766667 2.8 2.833333 2.866667 2.9 2.933333 2.966667 3 3.033333 3.066667 3.1 3.133333 3.166667 3.2 3.233333 3.266667 3.3 3.333333</float_array>
        <technique_common>
          <accessor source="#node-Bone_seg_1A-04_matrix-input-array" count="101" stride="1">
            <param name="TIME" type="float"/>
          </accessor>
        </technique_common>
      </source>
      <source id="node-Bone_seg_1A-04_matrix-output">
        <float_array id="node-Bone_seg_1A-04_matrix-output-array" count="1616">0.07649415 -0.997067 -0.002460122 0.763545 0.9965515 0.07653373 -0.03205615 -9.53674e-7 0.03215044 4.37722e-7 0.9994831 -1.19209e-7 0 0 0 1 0.07649385 -0.997067 -0.002468347 0.763545 0.9965482 0.07653373 -0.03216308 -9.53674e-7 0.03225767 4.39584e-7 0.9994797 -1.19209e-7 0 0 0 1 0.07649397 -0.997067 -0.002466857 0.763545 0.9965488 0.07653373 -0.03214359 -9.53674e-7 0.03223812 4.39584e-7 0.9994803 -1.19209e-7 0 0 0 1 0.07649439 -0.997067 -0.002454936 0.763545 0.9965538 0.07653373 -0.0319882 -9.53674e-7 0.03208225 4.39584e-7 0.9994853 -1.19209e-7 0 0 0 1 0.07649511 -0.997067 -0.002431333 0.763545 0.9965636 0.07653373 -0.03168076 -9.53674e-7 0.03177392 4.39584e-7 0.9994952 -1.19209e-7 0 0 0 1 0.07649618 -0.9970661 -0.00273925 0.763545 0.9965785 0.07654452 -0.03118246 -9.53674e-7 0.03130066 -3.44584e-4 0.99951 -1.19209e-7 0 0 0 1 0.07649785 -0.997067 -0.002344965 0.763545 0.9965987 0.07653373 -0.03055596 -9.53674e-7 0.03064578 4.33996e-7 0.9995304 0 0 0 0 1 0.07649928 -0.9970661 -0.002624034 0.763545 0.9966243 0.0765435 -0.02968126 -9.53674e-7 0.02979505 -3.446e-4 0.999556 -1.19209e-7 0 0 0 1 0.07650208 -0.997067 -0.002198278 0.763545 0.9966555 0.07653373 -0.02864503 -9.53674e-7 0.02872925 4.37722e-7 0.9995873 -1.19209e-7 0 0 0 1 0.07650488 -0.997067 -0.002099394 0.763545 0.9966916 0.07653373 -0.02735662 -9.53674e-7 0.02743709 4.3679e-7 0.9996237 -1.19209e-7 0 0 0 1 0.07650804 -0.997067 -0.001981735 0.763545 0.9967326 0.07653373 -0.02582389 -9.53674e-7 0.02589982 4.32134e-7 0.9996646 -1.19209e-7 0 0 0 1 0.0765115 -0.997067 -0.001844048 0.763545 0.9967774 0.07653373 -0.02403014 -9.53674e-7 0.02410078 4.35859e-7 0.9997097 -1.19209e-7 0 0 0 1 0.07651513 -0.997067 -0.001686394 0.763545 0.9968249 0.07653373 -0.02197587 -9.53674e-7 0.02204048 4.35859e-7 0.9997572 -1.19209e-7 0 0 0 1 0.07651889 -0.997067 -0.001507401 0.763545 0.9968735 0.07653373 -0.01964384 -9.53674e-7 0.0197016 4.33996e-7 0.999806 0 0 0 0 1 0.07652252 -0.997067 -0.001307487 0.763545 0.9969214 0.07653373 -0.01703935 -9.53674e-7 0.01708948 4.31202e-7 0.999854 -1.19209e-7 0 0 0 1 0.07652604 -0.997067 -0.001087188 0.763545 0.9969664 0.07653373 -0.01416999 -9.53674e-7 0.01421165 4.28408e-7 0.9998992 -1.19209e-7 0 0 0 1 0.07652908 -0.9970666 -0.001191258 0.763545 0.9970058 0.07653748 -0.01101493 -9.53674e-7 0.01107382 -3.44732e-4 0.9999387 -1.19209e-7 0 0 0 1 0.07653141 -0.997067 -5.88585e-4 0.763545 0.9970375 0.07653373 -0.007673501 -9.53674e-7 0.007696032 4.2608e-7 0.9999705 0 0 0 0 1 0.07653313 -0.997067 -3.13647e-4 0.763545 0.9970586 0.07653373 -0.00409162 -9.53674e-7 0.0041036 4.22122e-7 0.9999917 -1.19209e-7 0 0 0 1 0.07653373 -0.997067 -2.42135e-5 0.763545 0.9970669 0.07653373 -3.20953e-4 -9.53674e-7 3.21865e-4 4.21249e-7 1 0 0 0 0 1 0.07653331 -0.997067 -6.67439e-5 0.763545 0.9970605 0.07653242 0.003635048 -9.53674e-7 -0.003619253 -3.44751e-4 0.9999935 -1.19209e-7 0 0 0 1 0.07653146 -0.997067 5.88596e-4 0.763545 0.9970376 0.07653373 0.007662594 -9.53674e-7 -0.007685184 4.18164e-7 0.9999706 -2.38419e-7 0 0 0 1 0.07652842 -0.997067 9.07648e-4 0.763546 0.996997 0.07653373 0.01181918 -1.90735e-6 -0.01185399 4.16767e-7 0.9999298 -2.38419e-7 0 0 0 1 0.07652336 -0.9970673 8.87655e-4 0.763546 0.9969379 0.07652771 0.01606887 -1.90735e-6 -0.01608967 -3.44709e-4 0.9998705 -1.78814e-7 0 0 0 1 0.07651782 -0.997067 0.00156033 0.763546 0.9968599 0.07653373 0.02032262 -1.90735e-6 -0.02038246 4.14439e-7 0.9997923 -1.78814e-7 0 0 0 1 0.07651036 -0.997067 0.001892507 0.763546 0.9967623 0.07653373 0.0246523 -1.90735e-6 -0.02472484 2.37487e-7 0.9996944 -1.78814e-7 0 0 0 1 0.0765025 -0.9970671 0.002173006 0.763546 0.9966652 0.07653331 0.02830427 -1.90735e-6 -0.02838754 4.14439e-7 0.9995971 -2.38419e-7 0 0 0 1 0.07649463 -0.9970671 0.002433955 0.763546 0.9965628 0.07653331 0.03170686 -1.90735e-6 -0.03180021 2.32831e-7 0.9994943 -1.78814e-7 0 0 0 1 0.07648718 -0.997067 0.002669394 0.763546 0.9964604 0.07653373 0.03477394 -1.90735e-6 -0.03487628 2.32831e-7 0.9993917 0 0 0 0 1 0.07647907 -0.9970659 0.003225147 0.763546 0.9963605 0.07654619 0.03750258 -1.90735e-6 -0.03763943 3.45256e-4 0.9992913 -2.38419e-7 0 0 0 1 0.07647198 -0.997067 0.003074884 0.763546 0.9962622 0.07653373 0.04005646 -1.90735e-6 -0.0401743 2.29105e-7 0.9991928 -1.19209e-7 0 0 0 1 0.07646465 -0.997067 0.003252148 0.763546 0.9961666 0.07653373 0.04236572 -1.90735e-6 -0.04249036 2.2538e-7 0.9990969 -1.19209e-7 0 0 0 1 0.07645708 -0.9970671 0.003413736 0.763546 0.9960747 0.07653331 0.04447102 -1.90735e-6 -0.04460185 2.34693e-7 0.9990049 -1.19209e-7 0 0 0 1 0.0764504 -0.9970671 0.003561913 0.763546 0.9959867 0.07653331 0.04640126 -1.90735e-6 -0.04653781 2.40281e-7 0.9989166 0 0 0 0 1 0.07644391 -0.9970671 0.00369817 0.763546 0.9959025 0.07653331 0.0481767 -1.90735e-6 -0.04831838 2.36556e-7 0.9988321 -2.38419e-7 0 0 0 1 0.07643777 -0.9970671 0.003822565 0.763546 0.9958227 0.07653331 0.04979681 -1.90735e-6 -0.04994332 2.40281e-7 0.9987521 -1.19209e-7 0 0 0 1 0.07643198 -0.9970671 0.003936588 0.763546 0.9957474 0.07653331 0.05128288 -1.90735e-6 -0.05143374 2.34693e-7 0.9986765 0 0 0 0 1 0.07642656 -0.9970671 0.004040956 0.763546 0.9956764 0.07653331 0.05264204 -1.90735e-6 -0.05279695 2.34693e-7 0.9986053 -2.38419e-7 0 0 0 1 0.07642149 -0.9970671 0.004135549 0.763546 0.9956105 0.07653331 0.0538749 -1.90735e-6 -0.05403339 2.38419e-7 0.9985393 0 0 0 0 1 0.07641679 -0.9970671 0.004221796 0.763546 0.995549 0.07653331 0.05499839 -1.90735e-6 -0.05516022 2.34693e-7 0.9984776 0 0 0 0 1 0.07641243 -0.9970671 0.004299521 0.763546 0.9954925 0.07653331 0.05601072 -1.90735e-6 -0.05617552 2.30968e-7 0.998421 -1.19209e-7 0 0 0 1 0.0764085 -0.9970671 0.004368901 0.763546 0.9954414 0.07653331 0.05691212 -1.90735e-6 -0.05707961 4.1537e-7 0.9983697 -2.38419e-7 0 0 0 1 0.07640492 -0.9970654 0.004775047 0.763546 0.9953948 0.07655322 0.05769443 -1.90735e-6 -0.05789065 3.44925e-4 0.9983229 0 0 0 0 1 0.07640177 -0.9970654 0.004829287 0.763546 0.9953536 0.0765534 0.05840134 -1.90735e-6 -0.05859971 3.44915e-4 0.9982815 0 0 0 0 1 0.07639902 -0.9970671 0.004531621 0.763546 0.9953178 0.07653331 0.05903458 -1.90735e-6 -0.05920827 2.40281e-7 0.9982458 0 0 0 0 1 0.0763967 -0.9970671 0.004571318 0.763546 0.995287 0.07653331 0.05955213 -1.90735e-6 -0.05972731 2.30968e-7 0.9982149 0 0 0 0 1 0.07639473 -0.9970671 0.004603743 0.763546 0.9952617 0.07653331 0.05997419 -1.90735e-6 -0.06015062 2.36556e-7 0.9981895 -1.19209e-7 0 0 0 1 0.07639324 -0.9970653 0.004973173 0.763546 0.9952418 0.07655405 0.06027561 -1.90735e-6 -0.0604794 3.44869e-4 0.9981694 0 0 0 0 1 0.07639205 -0.9970671 0.004647433 0.763546 0.9952272 0.07653331 0.06054335 -1.90735e-6 -0.06072151 2.32831e-7 0.9981548 -1.19209e-7 0 0 0 1 0.07639139 -0.9970671 0.00465846 0.763546 0.9952185 0.07653331 0.06068742 -1.90735e-6 -0.06086593 2.36556e-7 0.998146 0 0 0 0 1 0.07639122 -0.9970671 0.004661977 0.763546 0.9952157 0.07653331 0.06073272 -1.90735e-6 -0.06091135 2.38419e-7 0.9981433 -2.38419e-7 0 0 0 1 0.07639145 -0.9970653 0.005002319 0.763546 0.9952188 0.07655417 0.06065583 -1.90735e-6 -0.06086081 3.44858e-4 0.9981462 -2.38419e-7 0 0 0 1 0.07639205 -0.9970653 0.004991292 0.763546 0.9952275 0.07655417 0.06051158 -1.90735e-6 -0.06071609 3.44861e-4 0.998155 -2.38419e-7 0 0 0 1 0.07639324 -0.9970671 0.004628241 0.763546 0.9952424 0.07653331 0.06029379 -1.90735e-6 -0.06047117 2.32831e-7 0.99817 0 0 0 0 1 0.07639479 -0.9970685 0.004258513 0.763546 0.9952627 0.07651263 0.05998432 -1.90735e-6 -0.06013429 -3.44129e-4 0.9981903 -2.38419e-7 0 0 0 1 0.0763967 -0.9970653 0.004913687 0.763546 0.9952885 0.07655388 0.05950087 -1.90735e-6 -0.05970245 3.44889e-4 0.9982162 0 0 0 0 1 0.0763992 -0.9970671 0.004529654 0.763546 0.9953193 0.07653331 0.05900913 -1.90735e-6 -0.05918276 2.34693e-7 0.9982472 -1.19209e-7 0 0 0 1 0.07640194 -0.9970654 0.004826664 0.763546 0.9953556 0.0765534 0.05836719 -1.90735e-6 -0.05856537 3.44915e-4 0.9982836 0 0 0 0 1 0.0764051 -0.9970671 0.004428088 0.763546 0.995397 0.07653331 0.05768561 -1.90735e-6 -0.05785536 2.34693e-7 0.9983251 0 0 0 0 1 0.07640862 -0.9970671 0.004365921 0.763546 0.9954436 0.07653331 0.05687594 -1.90735e-6 -0.05704331 2.34693e-7 0.9983718 0 0 0 0 1 0.07641261 -0.9970671 0.004296898 0.763546 0.9954945 0.07653331 0.05597651 -1.90735e-6 -0.05614119 2.38419e-7 0.9984229 -2.38419e-7 0 0 0 1 0.0764169 -0.9970671 0.004219591 0.763546 0.9955506 0.07653331 0.05496925 -1.90735e-6 -0.05513095 2.32831e-7 0.9984792 0 0 0 0 1 0.07642155 -0.9970671 0.004134237 0.763546 0.9956113 0.07653331 0.05385768 -1.90735e-6 -0.05401611 2.34693e-7 0.9985401 -2.38419e-7 0 0 0 1 0.07642662 -0.9970671 0.004040122 0.763546 0.995677 0.07653331 0.05263131 -1.90735e-6 -0.05278617 2.36556e-7 0.9986059 0 0 0 0 1 0.07643193 -0.9970656 0.004281401 0.763546 0.995747 0.07655096 0.05126374 -1.90735e-6 -0.05144107 3.45046e-4 0.998676 0 0 0 0 1 0.07643771 -0.9970671 0.003824353 0.763546 0.9958216 0.07653331 0.04982078 -1.90735e-6 -0.04996734 2.36556e-7 0.9987509 0 0 0 0 1 0.07644373 -0.9970671 0.003701508 0.763546 0.9959004 0.07653331 0.04822009 -1.90735e-6 -0.04836195 2.36556e-7 0.99883 0 0 0 0 1 0.07645016 -0.9970671 0.003567039 0.763546 0.9959836 0.07653331 0.04646837 -1.90735e-6 -0.04660505 2.38419e-7 0.9989135 0 0 0 0 1 0.07645684 -0.9970682 0.003077149 0.763546 0.9960705 0.07651793 0.04459398 -1.90735e-6 -0.04469871 -3.44409e-4 0.9990005 0 0 0 0 1 0.07646423 -0.9970659 0.003605902 0.763546 0.9961612 0.07654845 0.04246318 -1.90735e-6 -0.04261463 3.45176e-4 0.9990916 -2.38419e-7 0 0 0 1 0.07647103 -0.9970671 0.003087878 0.763546 0.9962553 0.07653331 0.04022592 -1.90735e-6 -0.04034429 2.30968e-7 0.9991859 0 0 0 0 1 0.07647848 -0.9970671 0.002896726 0.763546 0.9963527 0.07653331 0.03773564 -1.90735e-6 -0.03784668 2.34693e-7 0.9992836 -1.78814e-7 0 0 0 1 0.07648658 -0.997066 0.003031432 0.763546 0.9964523 0.07654577 0.03497862 -1.90735e-6 -0.03510802 3.45284e-4 0.9993835 0 0 0 0 1 0.07649445 -0.9970678 0.002110242 0.763546 0.9965544 0.07652276 0.0319966 -1.90735e-6 -0.03206425 -3.44576e-4 0.9994858 0 0 0 0 1 0.07650172 -0.9970671 0.002197206 0.763546 0.9966561 0.07653331 0.02862221 -1.90735e-6 -0.02870637 2.35625e-7 0.999588 -1.78814e-7 0 0 0 1 0.07650935 -0.9970671 0.001915156 0.763546 0.996755 0.07653331 0.02494746 -1.90735e-6 -0.02502083 2.37487e-7 0.9996871 -2.38419e-7 0 0 0 1 0.07651776 -0.997067 0.001565873 0.763546 0.9968584 0.07653373 0.02039474 -1.90735e-6 -0.02045476 4.14439e-7 0.9997909 -1.78814e-7 0 0 0 1 0.07652348 -0.9970673 8.82479e-4 0.763546 0.996939 0.07652771 0.01600146 -1.90735e-6 -0.01602202 -3.44709e-4 0.9998716 -2.38419e-7 0 0 0 1 0.07652854 -0.997067 8.93949e-4 0.763546 0.9969992 0.07653373 0.01164066 -1.90735e-6 -0.01167494 4.1863e-7 0.9999319 -1.78814e-7 0 0 0 1 0.07653117 -0.9970671 2.27193e-4 0.763545 0.9970393 0.07653069 0.007464408 -9.53674e-7 -0.007459938 -3.44744e-4 0.9999721 -2.38419e-7 0 0 0 1 0.07653331 -0.997067 2.60876e-4 0.763545 0.9970613 0.07653373 0.003393113 -9.53674e-7 -0.003403127 4.18746e-7 0.9999943 -1.19209e-7 0 0 0 1 0.07653373 -0.997067 -3.73882e-5 0.763545 0.9970669 0.07653373 -4.92587e-4 -9.53674e-7 4.94003e-4 4.20929e-7 1 -1.19209e-7 0 0 0 1 0.07653313 -0.997067 -3.2109e-4 0.763545 0.9970583 0.07653373 -0.004188597 -9.53674e-7 0.004200875 4.23519e-7 0.9999912 -1.19209e-7 0 0 0 1 0.07653146 -0.997067 -5.89316e-4 0.763545 0.9970375 0.07653373 -0.007683038 -9.53674e-7 0.007705569 4.24683e-7 0.9999704 0 0 0 0 1 0.07652908 -0.997067 -8.40782e-4 0.763545 0.9970068 0.07653373 -0.01095914 -9.53674e-7 0.01099133 4.27943e-7 0.9999397 -1.19209e-7 0 0 0 1 0.07652622 -0.9970666 -0.001419246 0.763545 0.9969686 0.07653856 -0.01398527 -9.53674e-7 0.01405286 -3.44719e-4 0.9999012 -1.19209e-7 0 0 0 1 0.07652282 -0.9970664 -0.001634836 0.763545 0.9969251 0.07653945 -0.01679426 -9.53674e-7 0.01687014 -3.44704e-4 0.9998576 -1.19209e-7 0 0 0 1 0.07651931 -0.997067 -0.001487851 0.763545 0.9968785 0.07653373 -0.01938909 -9.53674e-7 0.01944607 4.31202e-7 0.999811 -1.19209e-7 0 0 0 1 0.07651567 -0.997067 -0.001666009 0.763545 0.9968307 0.07653373 -0.02171063 -9.53674e-7 0.02177447 4.31202e-7 0.999763 -1.19209e-7 0 0 0 1 0.07651191 -0.9970663 -0.002169072 0.763545 0.9967834 0.07654196 -0.02375417 -9.53674e-7 0.02385056 -3.44655e-4 0.9997155 0 0 0 0 1 0.07650846 -0.997067 -0.001965165 0.763545 0.9967382 0.07653373 -0.02560764 -9.53674e-7 0.02568292 4.35859e-7 0.9996703 -1.19209e-7 0 0 0 1 0.0765053 -0.9970662 -0.002430975 0.763545 0.9966961 0.07654303 -0.02716624 -9.53674e-7 0.02727264 -3.44625e-4 0.999628 -1.19209e-7 0 0 0 1 0.07650238 -0.997067 -0.00219047 0.763545 0.9966585 0.07653373 -0.02854335 -9.53674e-7 0.02862727 4.3679e-7 0.9995903 -1.19209e-7 0 0 0 1 0.07649981 -0.997067 -0.002276897 0.763545 0.9966255 0.07653373 -0.02966916 -9.53674e-7 0.02975642 4.37722e-7 0.9995573 -1.19209e-7 0 0 0 1 0.07649779 -0.997067 -0.002346634 0.763545 0.996598 0.07653373 -0.0305773 -9.53674e-7 0.03066724 4.39584e-7 0.9995297 -1.19209e-7 0 0 0 1 0.07649606 -0.997067 -0.002400517 0.763545 0.9965763 0.07653373 -0.0312792 -9.53674e-7 0.03137117 4.37722e-7 0.9995079 -1.19209e-7 0 0 0 1 0.07649487 -0.9970661 -0.002783417 0.763545 0.9965603 0.0765447 -0.03175795 -9.53674e-7 0.03187781 -3.44578e-4 0.9994918 -1.19209e-7 0 0 0 1 0.07649409 -0.997067 -0.002463936 0.763545 0.99655 0.07653373 -0.03210556 -9.53674e-7 0.03219997 4.37722e-7 0.9994816 -1.19209e-7 0 0 0 1 0.07649368 -0.997067 -0.002474963 0.763545 0.9965454 0.07653373 -0.03224909 -9.53674e-7 0.03234392 4.39584e-7 0.9994769 -1.19209e-7 0 0 0 1 0.07649379 -0.997067 -0.002473533 0.763545 0.996546 0.07653373 -0.03223055 -9.53674e-7 0.03232532 4.41447e-7 0.9994775 -1.19209e-7 0 0 0 1 0.07649415 -0.997067 -0.002460122 0.763545 0.9965515 0.07653373 -0.03205615 -9.53674e-7 0.03215044 4.37722e-7 0.9994831 -1.19209e-7 0 0 0 1</float_array>
        <technique_common>
          <accessor source="#node-Bone_seg_1A-04_matrix-output-array" count="101" stride="16">
            <param name="TRANSFORM" type="float4x4"/>
          </accessor>
        </technique_common>
      </source>
      <source id="node-Bone_seg_1A-04_matrix-interpolation">
        <Name_array id="node-Bone_seg_1A-04_matrix-interpolation-array" count="101">LINEAR LINEAR LINEAR LINEAR LINEAR LINEAR LINEAR LINEAR LINEAR LINEAR LINEAR LINEAR LINEAR LINEAR LINEAR LINEAR LINEAR LINEAR LINEAR LINEAR LINEAR LINEAR LINEAR LINEAR LINEAR LINEAR LINEAR LINEAR LINEAR LINEAR LINEAR LINEAR LINEAR LINEAR LINEAR LINEAR LINEAR LINEAR LINEAR LINEAR LINEAR LINEAR LINEAR LINEAR LINEAR LINEAR LINEAR LINEAR LINEAR LINEAR LINEAR LINEAR LINEAR LINEAR LINEAR LINEAR LINEAR LINEAR LINEAR LINEAR LINEAR LINEAR LINEAR LINEAR LINEAR LINEAR LINEAR LINEAR LINEAR LINEAR LINEAR LINEAR LINEAR LINEAR LINEAR LINEAR LINEAR LINEAR LINEAR LINEAR LINEAR LINEAR LINEAR LINEAR LINEAR LINEAR LINEAR LINEAR LINEAR LINEAR LINEAR LINEAR LINEAR LINEAR LINEAR LINEAR LINEAR LINEAR LINEAR LINEAR LINEAR</Name_array>
        <technique_common>
          <accessor source="#node-Bone_seg_1A-04_matrix-interpolation-array" count="101" stride="1">
            <param name="INTERPOLATION" type="name"/>
          </accessor>
        </technique_common>
      </source>
      <sampler id="node-Bone_seg_1A-01_translation.X-sampler">
        <input semantic="INPUT" source="#node-Bone_seg_1A-01_translation.X-input"/>
        <input semantic="OUTPUT" source="#node-Bone_seg_1A-01_translation.X-output"/>
        <input semantic="IN_TANGENT" source="#node-Bone_seg_1A-01_translation.X-intangent"/>
        <input semantic="OUT_TANGENT" source="#node-Bone_seg_1A-01_translation.X-outtangent"/>
        <input semantic="INTERPOLATION" source="#node-Bone_seg_1A-01_translation.X-interpolation"/>
      </sampler>
      <sampler id="node-Bone_seg_1A-01_translation.Y-sampler">
        <input semantic="INPUT" source="#node-Bone_seg_1A-01_translation.Y-input"/>
        <input semantic="OUTPUT" source="#node-Bone_seg_1A-01_translation.Y-output"/>
        <input semantic="IN_TANGENT" source="#node-Bone_seg_1A-01_translation.Y-intangent"/>
        <input semantic="OUT_TANGENT" source="#node-Bone_seg_1A-01_translation.Y-outtangent"/>
        <input semantic="INTERPOLATION" source="#node-Bone_seg_1A-01_translation.Y-interpolation"/>
      </sampler>
      <sampler id="node-Bone_seg_1A-01_translation.Z-sampler">
        <input semantic="INPUT" source="#node-Bone_seg_1A-01_translation.Z-input"/>
        <input semantic="OUTPUT" source="#node-Bone_seg_1A-01_translation.Z-output"/>
        <input semantic="IN_TANGENT" source="#node-Bone_seg_1A-01_translation.Z-intangent"/>
        <input semantic="OUT_TANGENT" source="#node-Bone_seg_1A-01_translation.Z-outtangent"/>
        <input semantic="INTERPOLATION" source="#node-Bone_seg_1A-01_translation.Z-interpolation"/>
      </sampler>
      <sampler id="node-Bone_seg_1A-01_rotationZ.ANGLE-sampler">
        <input semantic="INPUT" source="#node-Bone_seg_1A-01_rotationZ.ANGLE-input"/>
        <input semantic="OUTPUT" source="#node-Bone_seg_1A-01_rotationZ.ANGLE-output"/>
        <input semantic="IN_TANGENT" source="#node-Bone_seg_1A-01_rotationZ.ANGLE-intangent"/>
        <input semantic="OUT_TANGENT" source="#node-Bone_seg_1A-01_rotationZ.ANGLE-outtangent"/>
        <input semantic="INTERPOLATION" source="#node-Bone_seg_1A-01_rotationZ.ANGLE-interpolation"/>
      </sampler>
      <sampler id="node-Bone_seg_1A-01_rotationY.ANGLE-sampler">
        <input semantic="INPUT" source="#node-Bone_seg_1A-01_rotationY.ANGLE-input"/>
        <input semantic="OUTPUT" source="#node-Bone_seg_1A-01_rotationY.ANGLE-output"/>
        <input semantic="IN_TANGENT" source="#node-Bone_seg_1A-01_rotationY.ANGLE-intangent"/>
        <input semantic="OUT_TANGENT" source="#node-Bone_seg_1A-01_rotationY.ANGLE-outtangent"/>
        <input semantic="INTERPOLATION" source="#node-Bone_seg_1A-01_rotationY.ANGLE-interpolation"/>
      </sampler>
      <sampler id="node-Bone_seg_1A-01_rotationX.ANGLE-sampler">
        <input semantic="INPUT" source="#node-Bone_seg_1A-01_rotationX.ANGLE-input"/>
        <input semantic="OUTPUT" source="#node-Bone_seg_1A-01_rotationX.ANGLE-output"/>
        <input semantic="IN_TANGENT" source="#node-Bone_seg_1A-01_rotationX.ANGLE-intangent"/>
        <input semantic="OUT_TANGENT" source="#node-Bone_seg_1A-01_rotationX.ANGLE-outtangent"/>
        <input semantic="INTERPOLATION" source="#node-Bone_seg_1A-01_rotationX.ANGLE-interpolation"/>
      </sampler>
      <sampler id="node-Bone_seg_1A-01_scale-sampler">
        <input semantic="INPUT" source="#node-Bone_seg_1A-01_scale-input"/>
        <input semantic="OUTPUT" source="#node-Bone_seg_1A-01_scale-output"/>
        <input semantic="IN_TANGENT" source="#node-Bone_seg_1A-01_scale-intangent"/>
        <input semantic="OUT_TANGENT" source="#node-Bone_seg_1A-01_scale-outtangent"/>
        <input semantic="INTERPOLATION" source="#node-Bone_seg_1A-01_scale-interpolation"/>
      </sampler>
      <sampler id="node-Bone_seg_1A-01_InverseScaleAxisRotation-sampler">
        <input semantic="INPUT" source="#node-Bone_seg_1A-01_InverseScaleAxisRotation-input"/>
        <input semantic="OUTPUT" source="#node-Bone_seg_1A-01_InverseScaleAxisRotation-output"/>
        <input semantic="INTERPOLATION" source="#node-Bone_seg_1A-01_InverseScaleAxisRotation-interpolation"/>
      </sampler>
      <sampler id="node-Bone_seg_1A-01_ScaleAxisRotation-sampler">
        <input semantic="INPUT" source="#node-Bone_seg_1A-01_ScaleAxisRotation-input"/>
        <input semantic="OUTPUT" source="#node-Bone_seg_1A-01_ScaleAxisRotation-output"/>
        <input semantic="INTERPOLATION" source="#node-Bone_seg_1A-01_ScaleAxisRotation-interpolation"/>
      </sampler>
      <sampler id="node-Bone_seg_1A-02_matrix-sampler">
        <input semantic="INPUT" source="#node-Bone_seg_1A-02_matrix-input"/>
        <input semantic="OUTPUT" source="#node-Bone_seg_1A-02_matrix-output"/>
        <input semantic="INTERPOLATION" source="#node-Bone_seg_1A-02_matrix-interpolation"/>
      </sampler>
      <sampler id="node-Bone_seg_1A-04_matrix-sampler">
        <input semantic="INPUT" source="#node-Bone_seg_1A-04_matrix-input"/>
        <input semantic="OUTPUT" source="#node-Bone_seg_1A-04_matrix-output"/>
        <input semantic="INTERPOLATION" source="#node-Bone_seg_1A-04_matrix-interpolation"/>
      </sampler>
      <channel source="#node-Bone_seg_1A-01_translation.X-sampler" target="node-Bone_seg_1A-01/translation.X"/>
      <channel source="#node-Bone_seg_1A-01_translation.Y-sampler" target="node-Bone_seg_1A-01/translation.Y"/>
      <channel source="#node-Bone_seg_1A-01_translation.Z-sampler" target="node-Bone_seg_1A-01/translation.Z"/>
      <channel source="#node-Bone_seg_1A-01_rotationZ.ANGLE-sampler" target="node-Bone_seg_1A-01/rotationZ.ANGLE"/>
      <channel source="#node-Bone_seg_1A-01_rotationY.ANGLE-sampler" target="node-Bone_seg_1A-01/rotationY.ANGLE"/>
      <channel source="#node-Bone_seg_1A-01_rotationX.ANGLE-sampler" target="node-Bone_seg_1A-01/rotationX.ANGLE"/>
      <channel source="#node-Bone_seg_1A-01_scale-sampler" target="node-Bone_seg_1A-01/scale"/>
      <channel source="#node-Bone_seg_1A-01_InverseScaleAxisRotation-sampler" target="node-Bone_seg_1A-01/InverseScaleAxisRotation"/>
      <channel source="#node-Bone_seg_1A-01_ScaleAxisRotation-sampler" target="node-Bone_seg_1A-01/ScaleAxisRotation"/>
      <channel source="#node-Bone_seg_1A-02_matrix-sampler" target="node-Bone_seg_1A-02/matrix"/>
      <channel source="#node-Bone_seg_1A-04_matrix-sampler" target="node-Bone_seg_1A-04/matrix"/>
    </animation>
  </library_animations>
  <scene>
    <instance_visual_scene url="#MaxScene"/>
  </scene>
</COLLADA>