<?xml version="1.0" encoding="utf-8"?>
<COLLADA xmlns="http://www.collada.org/2005/11/COLLADASchema" version="1.4.1">
  <asset>
    <contributor>
      <author>Blender User</author>
      <authoring_tool>Blender 2.71.0 commit date:2014-06-25, commit time:18:36, hash:9337574</authoring_tool>
    </contributor>
    <created>2014-10-23T23:21:20</created>
    <modified>2014-10-23T23:21:20</modified>
    <unit name="meter" meter="1"/>
    <up_axis>Z_UP</up_axis>
  </asset>
  <library_cameras>
    <camera id="Camera-camera" name="Camera">
      <optics>
        <technique_common>
          <perspective>
            <xfov sid="xfov">49.13434</xfov>
            <aspect_ratio>1.777778</aspect_ratio>
            <znear sid="znear">0.1</znear>
            <zfar sid="zfar">100</zfar>
          </perspective>
        </technique_common>
      </optics>
      <extra>
        <technique profile="blender">
          <YF_dofdist>0</YF_dofdist>
          <shiftx>0</shiftx>
          <shifty>0</shifty>
        </technique>
      </extra>
    </camera>
  </library_cameras>
  <library_lights>
    <light id="Lamp-light" name="Lamp">
      <technique_common>
        <directional>
          <color sid="color">1 1 1</color>
        </directional>
      </technique_common>
      <extra>
        <technique profile="blender">
          <adapt_thresh>0.000999987</adapt_thresh>
          <area_shape>0</area_shape>
          <area_size>1</area_size>
          <area_sizey>1</area_sizey>
          <area_sizez>1</area_sizez>
          <atm_distance_factor>1</atm_distance_factor>
          <atm_extinction_factor>1</atm_extinction_factor>
          <atm_turbidity>2</atm_turbidity>
          <att1>0</att1>
          <att2>1</att2>
          <backscattered_light>1</backscattered_light>
          <bias>1</bias>
          <blue>1</blue>
          <buffers>1</buffers>
          <bufflag>0</bufflag>
          <bufsize>2880</bufsize>
          <buftype>2</buftype>
          <clipend>30.002</clipend>
          <clipsta>1.000799</clipsta>
          <compressthresh>0.04999995</compressthresh>
          <dist sid="blender_dist">29.99998</dist>
          <energy sid="blender_energy">1</energy>
          <falloff_type>2</falloff_type>
          <filtertype>0</filtertype>
          <flag>0</flag>
          <gamma sid="blender_gamma">1</gamma>
          <green>1</green>
          <halo_intensity sid="blnder_halo_intensity">1</halo_intensity>
          <horizon_brightness>1</horizon_brightness>
          <mode>8192</mode>
          <ray_samp>1</ray_samp>
          <ray_samp_method>1</ray_samp_method>
          <ray_samp_type>0</ray_samp_type>
          <ray_sampy>1</ray_sampy>
          <ray_sampz>1</ray_sampz>
          <red>1</red>
          <samp>3</samp>
          <shadhalostep>0</shadhalostep>
          <shadow_b sid="blender_shadow_b">0</shadow_b>
          <shadow_g sid="blender_shadow_g">0</shadow_g>
          <shadow_r sid="blender_shadow_r">0</shadow_r>
          <sky_colorspace>0</sky_colorspace>
          <sky_exposure>1</sky_exposure>
          <skyblendfac>1</skyblendfac>
          <skyblendtype>1</skyblendtype>
          <soft>3</soft>
          <spotblend>0.15</spotblend>
          <spotsize>75</spotsize>
          <spread>1</spread>
          <sun_brightness>1</sun_brightness>
          <sun_effect_type>0</sun_effect_type>
          <sun_intensity>1</sun_intensity>
          <sun_size>1</sun_size>
          <type>1</type>
        </technique>
      </extra>
    </light>
  </library_lights>
  <library_images>
    <image id="Wood_jpg" name="Wood_jpg">
      <init_from>Wood.jpg</init_from>
    </image>
  </library_images>
  <library_effects>
    <effect id="Wood2-effect">
      <profile_COMMON>
        <newparam sid="Wood_jpg-surface">
          <surface type="2D">
            <init_from>Wood_jpg</init_from>
          </surface>
        </newparam>
        <newparam sid="Wood_jpg-sampler">
          <sampler2D>
            <source>Wood_jpg-surface</source>
          </sampler2D>
        </newparam>
        <technique sid="common">
          <phong>
            <emission>
              <color sid="emission">0 0 0 1</color>
            </emission>
            <ambient>
              <color sid="ambient">0 0 0 1</color>
            </ambient>
            <diffuse>
              <texture texture="Wood_jpg-sampler"/>
            </diffuse>
            <specular>
              <color sid="specular">0.08 0.08 0.08 1</color>
            </specular>
            <shininess>
              <float sid="shininess">50</float>
            </shininess>
            <index_of_refraction>
              <float sid="index_of_refraction">1</float>
            </index_of_refraction>
          </phong>
          <extra>
            <technique profile="FCOLLADA">
              <bump>
                <texture texture="Wood_jpg-sampler"/>
              </bump>
            </technique>
          </extra>
        </technique>
        <extra>
          <technique profile="GOOGLEEARTH">
            <double_sided>1</double_sided>
          </technique>
        </extra>
      </profile_COMMON>
      <extra><technique profile="MAX3D"><double_sided>1</double_sided></technique></extra>
    </effect>
  </library_effects>
  <library_materials>
    <material id="Wood2-material" name="Wood2">
      <instance_effect url="#Wood2-effect"/>
    </material>
  </library_materials>
  <library_geometries>
    <geometry id="Cube_001-mesh" name="Cube.001">
      <mesh>
        <source id="Cube_001-mesh-positions">
          <float_array id="Cube_001-mesh-positions-array" count="1092">-0.5735933 3.83089 -0.6965373 -0.4735933 3.83089 -0.6965373 -0.4735932 3.83089 0.7012395 -0.5735932 3.83089 0.7012395 -0.5735933 3.86089 -0.6965373 -0.4735933 3.86089 -0.6965373 -0.4735932 3.86089 0.7012395 -0.5735932 3.86089 0.7012395 -0.4635933 3.83089 -0.7068045 -0.3635933 3.83089 -0.7068045 -0.3635932 3.83089 0.7142531 -0.4635932 3.83089 0.7142531 -0.4635933 3.86089 -0.7068045 -0.3635933 3.86089 -0.7068045 -0.3635932 3.86089 0.7142531 -0.4635932 3.86089 0.7142531 -0.3535933 3.83089 -0.7012398 -0.2535933 3.83089 -0.7012398 -0.2535932 3.83089 0.7012395 -0.3535932 3.83089 0.7012395 -0.3535933 3.86089 -0.7012398 -0.2535933 3.86089 -0.7012398 -0.2535932 3.86089 0.7012395 -0.3535932 3.86089 0.7012395 -0.2435932 3.83089 -0.7052767 -0.1435932 3.83089 -0.7052767 -0.1435931 3.83089 0.7207599 -0.2435931 3.83089 0.7207599 -0.2435932 3.86089 -0.7052767 -0.1435932 3.86089 -0.7052767 -0.1435931 3.86089 0.7207599 -0.2435931 3.86089 0.7207599 -0.7965964 1.342016 -0.7843559 -0.7965964 1.343166 -0.8043228 0.7153807 2.627781 -0.7373819 0.7153807 2.626631 -0.7174149 -0.7942818 1.461943 -0.7799746 -0.7942818 1.463093 -0.7999416 0.7100762 2.742669 -0.7330006 0.7100762 2.741518 -0.7130337 -0.7825787 1.349757 0.7914365 -0.8025456 1.350907 0.7914365 -0.7356609 2.64674 -0.7452582 -0.7156939 2.64559 -0.7452582 -0.7781973 1.461943 0.7942822 -0.7981643 1.463093 0.7942823 -0.7312796 2.756345 -0.7295116 -0.7113126 2.755195 -0.7295116 0.8116473 1.186867 0.7892894 0.8117423 1.188207 0.8126016 -0.7224198 2.71233 0.7344462 -0.7225148 2.71099 0.7111338 0.8041729 1.329564 0.7841739 0.8042679 1.330903 0.8074862 -0.7187464 2.858742 0.7293307 -0.7188413 2.857403 0.7060185 0.816336 0.5970438 -0.03394025 0.8363029 0.5980753 -0.03444898 0.7492169 2.411363 0.7524378 0.7292499 2.409791 0.7524886 0.8119545 0.7002776 -0.0823642 0.8319215 0.7013091 -0.08287292 0.7448354 2.565692 0.7415126 0.7248685 2.564121 0.7415634 0.8341122 0.5942135 -0.08059442 0.8141453 0.5931819 -0.08008569 0.7470262 2.488527 0.7469752 0.7270592 2.486956 0.747026 -0.6456291 4.074836 0.6773168 -0.6457087 4.074571 0.6473181 0.679765 4.074464 0.6473145 0.679765 4.074732 0.6773133 -0.6387991 4.185396 0.6724874 -0.6388787 4.185132 0.6424887 0.679765 4.185236 0.6424922 0.679765 4.185503 0.672491 -0.6765205 4.076571 -0.6410029 -0.6465238 4.07613 -0.6410029 -0.6465237 4.07613 0.6797649 -0.6765204 4.076571 0.6797649 -0.671056 4.187313 -0.6410029 -0.6410592 4.186872 -0.6410029 -0.6410591 4.186872 0.6797649 -0.6710559 4.187313 0.6797649 0.6617661 4.074959 -0.6781707 0.6617661 4.074307 -0.6481778 -0.6762622 4.074307 -0.6481776 -0.6762622 4.074959 -0.6781705 0.6617661 4.18566 -0.6719284 0.6617661 4.185008 -0.6419355 -0.6762622 4.185008 -0.6419352 -0.6762622 4.18566 -0.6719281 0.6768836 4.074676 0.6410024 0.6468842 4.074505 0.6410024 0.6468838 4.074505 -0.05497211 0.6768833 4.074676 -0.05497211 0.6724194 4.185462 0.6410024 0.6424199 4.185292 0.6410024 0.6424195 4.185292 -0.05497211 0.672419 4.185462 -0.05497211 0.8058485 0.9110879 -0.8189272 0.8357633 0.913347 -0.8189272 0.8357633 0.913347 0.008540749 0.8058485 0.911088 0.008540749 0.8000113 1.032954 -0.8189272 0.8299261 1.035213 -0.8189272 0.8299261 1.035213 0.06079304 0.8000113 1.032954 0.06079304 0.7820848 1.357314 -0.7952834 0.8119996 1.359574 -0.7952834 0.8119997 1.359574 0.05780714 0.7820849 1.357314 0.05780714 0.7762476 1.47918 -0.7952834 0.8061624 1.481439 -0.7952834 0.8061625 1.481439 0.05780714 0.7762477 1.47918 0.05780714 0.7589763 1.803545 -0.7759386 0.7888911 1.805804 -0.7759386 0.7888911 1.805804 0.05780714 0.7589763 1.803545 0.05780714 0.7531391 1.92541 -0.7759386 0.7830539 1.927669 -0.7759386 0.7830539 1.927669 0.05780714 0.7531391 1.92541 0.05780714 0.7388189 2.249791 -0.7587432 0.7687337 2.25205 -0.7587432 0.7687337 2.25205 0.05780714 0.738819 2.249791 0.05780714 0.7329817 2.371657 -0.7587432 0.7628965 2.373916 -0.7587432 0.7628965 2.373916 0.05780714 0.7329818 2.371657 0.05780714 0.7160659 2.696023 -0.7436972 0.7459807 2.698283 -0.7436972 0.7459807 2.698283 0.05780708 0.716066 2.696023 0.05780708 0.7102287 2.817889 -0.7436972 0.7401434 2.820148 -0.7436972 0.7401435 2.820148 0.05780708 0.7102288 2.817889 0.05780708 -0.654031 3.70667 0.6957502 -0.654031 3.706001 0.6657578 0.6927932 3.706001 0.6657578 0.6927932 3.70667 0.6957502 -0.654031 3.828524 0.6896768 -0.654031 3.827855 0.6596843 0.6927932 3.827855 0.6596843 0.6927932 3.828524 0.6896768 -0.6952736 3.706683 -0.6540311 -0.6652817 3.705993 -0.6540311 -0.6652815 3.705993 0.6927931 -0.6952735 3.706683 0.6927931 -0.6891112 3.828533 -0.6540311 -0.6591193 3.827842 -0.6540311 -0.6591191 3.827842 0.6927931 -0.6891111 3.828533 0.6927931 0.6798531 3.70663 -0.6951997 0.6798531 3.706028 -0.6652058 -0.6927933 3.706028 -0.6652055 -0.6927933 3.70663 -0.6951995 0.6798531 3.828497 -0.6893959 0.6798531 3.827895 -0.6594019 -0.6927933 3.827895 -0.6594017 -0.6927933 3.828497 -0.6893956 0.6953028 3.706661 0.6540306 0.6653099 3.706007 0.6540306 0.6653096 3.706007 -0.06790131 0.6953024 3.706661 -0.06790131 0.6892917 3.828518 0.6540306 0.6592988 3.827865 0.6540306 0.6592985 3.827865 -0.06790131 0.6892914 3.828518 -0.06790131 -0.6004859 3.203891 -0.7650435 -0.5004858 3.203891 -0.7650435 -0.5004857 3.203891 0.7737469 -0.6004858 3.203891 0.7737469 -0.6004859 3.233891 -0.7650435 -0.5004858 3.233891 -0.7650435 -0.5004857 3.233891 0.7737469 -0.6004858 3.233891 0.7737469 -0.4904859 3.203891 -0.7590216 -0.3904858 3.203891 -0.7590216 -0.3904857 3.203891 0.7650433 -0.4904857 3.203891 0.7650434 -0.4904859 3.233891 -0.7590216 -0.3904858 3.233891 -0.7590216 -0.3904857 3.233891 0.7650433 -0.4904857 3.233891 0.7650434 -0.3804858 3.203891 -0.7650436 -0.2804858 3.203891 -0.7650436 -0.2804857 3.203891 0.7813243 -0.3804857 3.203891 0.7813243 -0.3804858 3.233891 -0.7650436 -0.2804858 3.233891 -0.7650436 -0.2804857 3.233891 0.7813243 -0.3804857 3.233891 0.7813243 -0.2704858 3.203891 -0.7684847 -0.1704857 3.203891 -0.7684847 -0.1704856 3.203891 0.7650433 -0.2704857 3.203891 0.7650433 -0.2704858 3.233891 -0.7684847 -0.1704857 3.233891 -0.7684847 -0.1704856 3.233891 0.7650433 -0.2704857 3.233891 0.7650433 -0.1604858 3.203891 -0.7650436 -0.06048572 3.203891 -0.7650436 -0.0604856 3.203891 0.7519464 -0.1604856 3.203891 0.7519464 -0.1604858 3.233891 -0.7650436 -0.06048572 3.233891 -0.7650436 -0.0604856 3.233891 0.7519464 -0.1604856 3.233891 0.7519464 -0.05048573 3.203891 -0.7590216 0.04951423 3.203891 -0.7590216 0.04951435 3.203891 0.7650433 -0.05048561 3.203891 0.7650433 -0.05048573 3.233891 -0.7590216 0.04951423 3.233891 -0.7590216 0.04951435 3.233891 0.7650433 -0.05048561 3.233891 0.7650433 0.05951422 3.203891 -0.7650436 0.1595143 3.203891 -0.7650436 0.1595144 3.203891 0.777089 0.05951434 3.203891 0.777089 0.05951422 3.233891 -0.7650436 0.1595143 3.233891 -0.7650436 0.1595144 3.233891 0.777089 0.05951434 3.233891 0.777089 0.1695142 3.203891 -0.7684847 0.2695143 3.203891 -0.7684847 0.2695145 3.203891 0.7650433 0.1695144 3.203891 0.7650433 0.1695142 3.233891 -0.7684847 0.2695143 3.233891 -0.7684847 0.2695145 3.233891 0.7650433 0.1695144 3.233891 0.7650433 0.2795143 3.203891 -0.7650436 0.3795143 3.203891 -0.7650436 0.3795145 3.203891 0.7769864 0.2795144 3.203891 0.7769864 0.2795143 3.233891 -0.7650436 0.3795143 3.233891 -0.7650436 0.3795145 3.233891 0.7769864 0.2795144 3.233891 0.7769864 0.3895143 3.203891 -0.7609908 0.4895144 3.203891 -0.7609909 0.4895145 3.203891 0.7650433 0.3895145 3.203891 0.7650433 0.3895143 3.233891 -0.7609908 0.4895144 3.233891 -0.7609909 0.4895145 3.233891 0.7650433 0.3895145 3.233891 0.7650433 0.4995144 3.203891 -0.7650436 0.5995144 3.203891 -0.7650436 0.5995145 3.203891 0.7813243 0.4995145 3.203891 0.7813243 0.4995144 3.233891 -0.7650436 0.5995144 3.233891 -0.7650436 0.5995145 3.233891 0.7813243 0.4995145 3.233891 0.7813243 -0.6895573 3.083735 0.7272462 -0.6895573 3.083318 0.6972492 0.7283195 3.083318 0.6972492 0.7283195 3.083735 0.7272462 -0.6895573 3.203405 0.722128 -0.6895573 3.202987 0.692131 0.7283195 3.202987 0.692131 0.7283195 3.203405 0.722128 -0.7266294 3.083748 -0.6895573 -0.6966327 3.083309 -0.6895573 -0.6966326 3.083309 0.7283194 -0.7266293 3.083748 0.7283194 -0.721424 3.203414 -0.6895573 -0.6914273 3.202974 -0.6895573 -0.6914272 3.202974 0.7283194 -0.7214239 3.203414 0.7283194 0.6895571 3.083866 -0.7271003 0.6895571 3.083228 -0.6971071 -0.7283196 3.083228 -0.6971068 -0.7283196 3.083866 -0.7271 0.6895571 3.203494 -0.7211037 0.6895571 3.202857 -0.6911105 -0.7283196 3.202857 -0.6911103 -0.7283196 3.203494 -0.7211034 0.727514 3.083815 0.689557 0.6975191 3.083263 0.689557 0.6975188 3.083263 -0.7283198 0.7275137 3.083815 -0.7283198 0.7218585 3.20346 0.689557 0.6918635 3.202908 0.689557 0.6918632 3.202908 -0.7283198 0.7218581 3.20346 -0.7283198 -0.8171222 0.4903607 0.8565492 -0.8171222 0.4906472 0.8265714 0.8408883 0.4906472 0.8265714 0.8408883 0.4903607 0.8565492 -0.8171222 0.5899381 0.8510334 -0.8171222 0.5902246 0.8210557 0.8408883 0.5902246 0.8210557 0.8408883 0.5899381 0.8510334 -0.856878 0.4903515 -0.8155589 -0.8269004 0.4906536 -0.8155589 -0.8269003 0.4906536 0.8408883 -0.8568779 0.4903516 0.8408883 -0.8514142 0.5899317 -0.8155589 -0.8214366 0.5902338 -0.8155589 -0.8214365 0.5902339 0.8408883 -0.8514141 0.5899318 0.8408883 0.8145989 0.4902747 -0.8564945 0.8145989 0.4907075 -0.8265185 -0.8408884 0.4907075 -0.8265182 -0.8408884 0.4902747 -0.8564943 0.8145989 0.5898777 -0.8514647 0.8145989 0.5903105 -0.8214887 -0.8408884 0.5903105 -0.8214884 -0.8408884 0.5898778 -0.8514645 0.8562584 0.4904881 0.8170623 0.8262794 0.4905616 0.8170623 0.826279 0.4905616 -0.8408885 0.856258 0.490488 -0.8408885 0.8500356 0.5900237 0.8170623 0.8200566 0.5900973 0.8170623 0.8200562 0.5900971 -0.8408885 0.8500352 0.5900236 -0.8408885 0.76 0.1988453 0.007906973 0.76 0.1953351 -0.07201588 0.84 0.1953351 -0.07201588 0.84 0.1988453 0.007906973 0.5600001 4.203769 0.03220349 0.5600001 4.200258 -0.04771941 0.6400001 4.200258 -0.04771941 0.6400001 4.203769 0.03220349 0.76 0.1995519 -0.76 0.76 0.1995519 -0.84 0.84 0.1995519 -0.84 0.84 0.1995519 -0.76 0.5600001 4.199552 -0.5600002 0.5600001 4.199552 -0.6400002 0.6400001 4.199552 -0.6400002 0.6400001 4.199552 -0.5600002 0.7600001 0.1995519 0.7599999 0.84 0.1995519 0.7599999 0.84 0.1995519 0.8399999 0.7600001 0.1995519 0.8399999 0.5600001 4.205741 0.5599998 0.6400001 4.205741 0.5599998 0.6400001 4.205741 0.6399998 0.5600001 4.205741 0.6399998 -0.7599999 0.1995519 0.7600001 -0.7599999 0.1995519 0.8400001 -0.8399999 0.1995519 0.8400001 -0.8399999 0.1995519 0.7600001 -0.56 4.199552 0.56 -0.56 4.199552 0.6399999 -0.6399999 4.199552 0.6399999 -0.6399999 4.199552 0.56 -0.7600002 0.1995519 -0.7599998 -0.8400002 0.1995519 -0.7599998 -0.8400002 0.1995519 -0.8399998 -0.7600002 0.1995519 -0.8399998 -0.5600002 4.199552 -0.5600001 -0.6400002 4.199552 -0.5600001 -0.6400002 4.199552 -0.6400001 -0.5600002 4.199552 -0.6400001</float_array>
          <technique_common>
            <accessor source="#Cube_001-mesh-positions-array" count="364" stride="3">
              <param name="X" type="float"/>
              <param name="Y" type="float"/>
              <param name="Z" type="float"/>
            </accessor>
          </technique_common>
        </source>
        <source id="Cube_001-mesh-normals">
          <float_array id="Cube_001-mesh-normals-array" count="1644">0 0 -1 1 0 0 0 0 1 -1 0 0 0 -1 0 0 1 0 0 0 -1 1 0 0 0 0 1 -1 0 0 0 -1 0 0 1 0 0 0 -1 1 0 0 0 0 1 -1 0 0 0 -1 0 0 1 0 0 0 -1 1 0 0 0 0 1 -1 0 0 0 -1 0 0 1 0 -0.9998139 0.01925623 0.001109182 0.0115959 0.03863936 -0.999186 0.9989369 0.04602068 0.002650856 -0.01344484 -0.03624641 0.9992524 0.6479871 -0.7603909 -0.04379981 -0.648413 0.7600289 0.04377895 -0.001454412 -0.02530151 0.9996788 -0.999111 0.04121303 -0.008876681 0.008172571 0.1418811 -0.98985 0.9991744 -0.039285 0.01036161 -0.04393821 -0.7627944 -0.6451465 0.04382014 0.7607439 0.6475713 0.9986193 0.05205434 -0.007060706 -0.01585566 0.03531026 0.9992506 -0.9996797 0.02517384 0.002627789 0.01615864 -0.03497582 -0.9992576 -0.705229 -0.7076418 0.04353249 0.7086662 0.7042111 -0.04334586 0.05347597 -0.9952983 0.08075505 0.9989263 0.03080898 0.03459602 -0.003017425 0.0705288 0.9975053 -0.9960595 -0.07094192 0.05322402 0.03354084 -0.3965082 0.9174183 -0.03402537 0.4028414 -0.9146371 -0.02434051 -0.02176207 -0.9994668 0.9988862 0.03088378 0.03567475 -0.003011167 0.0705294 0.9975051 -0.9982172 -0.0216034 -0.05563795 -0.9980894 0.06174963 0.002105653 6.09291e-6 -0.04349207 -0.9990538 1 0 0 6.07339e-6 0.04363912 0.9990474 -8.05563e-5 -0.9999611 0.008821725 -7.88048e-5 0.9999612 -0.008805394 0 0 -1 0.9987848 -0.04928487 0 0 0 1 -0.9987847 0.04928511 0 -0.01471835 -0.9998916 0 0.01470243 0.9998919 0 1 0 0 1.77904e-7 -0.05629986 0.9984139 -1 0 0 -1.77904e-7 0.05629962 -0.9984139 0 -0.9997639 -0.02172785 0 0.9997636 0.02174377 0 0 1 -0.9991891 -0.04026329 5.13435e-7 0 0 -1 0.9991891 0.04026347 -5.13435e-7 0.005674362 -0.9999839 0 -0.005658447 0.999984 0 0 0 -1 0.9988548 0.04784381 0 0.02965468 -0.3926997 0.9191884 -0.9988549 -0.04784375 0 0.07530057 -0.9971609 0 -0.07530057 0.9971609 0 0 0 -1 0.9988548 0.04784387 0 0 0 1 -0.9988548 -0.04784381 0 0.07530456 -0.9971606 0 -0.07530057 0.9971608 0 0 0 -1 0.9988548 0.04784381 0 0 0 1 -0.9988548 -0.04784381 0 0.07530456 -0.9971606 0 -0.07530057 0.9971608 0 0 0 -1 0.9988548 0.04784387 0 0 0 1 -0.9988548 -0.04784387 0 0.07530075 -0.9971609 0 -0.07530057 0.9971609 0 0 0 -1 0.9988548 0.04784387 0 0 0 1 -0.9988548 -0.04784375 0 0.0753085 -0.9971603 0 -0.07530057 0.9971609 0 -1 0 0 0 -0.04978036 -0.9987602 1 0 0 0 0.04978036 0.9987602 0 -0.9997515 0.02229219 0 0.9997515 -0.02229219 0 0 -1 0.9987236 -0.05050933 0 0 0 1 -0.9987236 0.05050933 0 -0.02301537 -0.9997351 0 0.02301537 0.9997351 0 1 0 0 1.73496e-7 -0.0475707 0.9988679 -1 0 0 -1.73496e-7 0.0475707 -0.9988679 0 -0.9997985 -0.02007484 0 0.9997985 0.02007484 0 0 1 -0.9987856 -0.0492689 4.94774e-7 0 0 -1 0.9987856 0.0492689 -4.94774e-7 0.02177554 -0.9997629 0 -0.02177554 0.9997629 0 0 0 -1 1 0 0 0 0 1 -1 0 0 0 -1 0 0 1 0 -5.96046e-7 0 -1 1 0 0 5.96046e-7 0 1 -1 0 0 0 -1 0 0 1 0 0 0 -1 1 0 0 0 0 1 -1 0 0 0 -1 0 0 1 0 0 0 -1 1 0 0 0 0 1 -1 0 0 0 -1 0 0 1 0 0 0 -1 1 0 0 0 0 1 -1 0 0 0 -1 0 0 1 0 0 0 -1 1 0 0 0 0 1 -1 0 0 0 -1 0 0 1 0 0 0 -1 1 0 0 0 0 1 -1 0 0 0 -1 0 0 1 0 0 0 -1 1 0 0 0 0 1 -1 0 0 0 -1 0 0 1 0 0 0 -1 1 0 0 0 0 1 -1 0 0 0 -1 0 0 1 0 -5.96046e-7 0 -1 1 0 0 5.96046e-7 0 1 -1 0 0 0 -1 0 0 1 0 0 0 -1 1 0 0 0 0 1 -1 0 0 0 -1 0 0 1 0 -1 0 0 0 -0.04273051 -0.9990866 1 0 0 0 0.04273039 0.9990866 0 -0.9999032 0.01391571 0 0.9999031 -0.01392364 0 0 -1 0.9990552 -0.04345893 0 0 0 1 -0.9990552 0.04345893 0 -0.01464682 -0.9998928 0 0.01464682 0.9998928 0 1 0 0 1.67941e-7 -0.05006396 0.998746 -1 0 0 -1.67941e-7 0.05006396 -0.998746 0 -0.999774 -0.021259 0 0.999774 0.021259 0 0 1 -0.9988846 -0.04721713 2.51946e-7 0 0 -1 0.9988846 0.04721713 -2.51946e-7 0.01840591 -0.9998306 0 -0.01840591 0.9998306 0 -1 0 0 0 -0.05530685 -0.9984694 1 0 0 0 0.05530685 0.9984694 0 -0.9999544 -0.00955528 0 0.9999544 0.00955528 0 0 -1 0.9984981 -0.05478626 0 0 0 1 -0.9984981 0.05478632 0 0.01007616 -0.9999492 0 -0.01007616 0.9999492 0 1 0 0 1.43834e-7 -0.05043417 0.9987275 -1 0 0 -1.40202e-7 0.05043423 -0.9987275 0 -0.9998958 0.01443433 0 0.9998958 -0.01443433 0 0 1 -0.9980515 -0.06239634 2.19771e-7 0 0 -1 0.9980515 0.06239634 -2.55652e-7 -0.002453446 -0.999997 0 0.002453446 0.999997 0 -0.9987523 -0.0498895 0.002191126 0 0.006066501 -0.9999816 0.9987524 0.0498895 -0.002191305 0 -0.006066501 0.9999816 0 -0.9990369 0.04387795 0 0.9990368 -0.04388093 -0.9987524 -0.0499376 0 0 0.04993754 -0.9987524 0.9987524 0.0499376 0 0 -0.04993754 0.9987524 0 -1 0 0 1 0 0 -0.04986065 -0.9987561 0.9987561 0.04986065 0 0 0.04986065 0.9987561 -0.9987561 -0.04986065 0 0 -1 0 0 1 0 0.9987524 -0.0499376 0 0 0.04993766 0.9987524 -0.9987524 0.0499376 0 0 -0.04993766 -0.9987524 0 -1 0 0 1 0 0 -0.04993754 0.9987524 -0.9987524 0.0499376 0 0 0.04993754 -0.9987524 0.9987524 -0.0499376 0 0 -1 0 0 1 0 0 0 -1 1 0 0 0 0 1 -1 0 0 0 -1 0 0 1 0 0 0 -1 1 0 0 0 0 1 -1 0 0 0 -1 0 0 1 0 0 0 -1 1 0 0 0 0 1 -1 0 0 0 -1 0 0 1 0 0 0 -1 1 0 0 0 0 1 -1 0 0 0 -1 0 0 1 0 -0.9998139 0.01925623 0.001109182 0.01344519 0.03624588 -0.9992524 0.998937 0.04602068 0.002650856 -0.0115959 -0.03863936 0.9991859 0.6479871 -0.7603909 -0.04379993 -0.6484132 0.7600288 0.04377883 -0.001457333 -0.02530086 0.9996788 -0.9991744 0.03928446 -0.01036202 0.008172571 0.1418811 -0.98985 0.9991109 -0.04121309 0.00887674 -0.04393839 -0.7627945 -0.6451465 0.04382443 0.7607436 0.6475713 0.9986193 0.05205434 -0.007060766 -0.01615941 0.03497493 0.9992575 -0.9996797 0.02517282 0.002622723 0.01585596 -0.03530991 -0.9992506 -0.7052291 -0.7076418 0.04353272 0.7086663 0.7042109 -0.04334872 0.05348199 -0.995298 0.08075731 0.9960601 0.07093387 -0.05322319 -0.003011226 0.07053059 0.9975051 -0.9989251 -0.03081101 -0.03463047 0.04382026 -0.3958382 0.9172742 -0.04407668 0.402199 -0.9144906 -0.02434045 -0.02176201 -0.9994668 0.9982196 0.02160203 0.05559641 -0.003012776 0.07052892 0.9975053 -0.9988849 -0.03088629 -0.0357089 -0.9980895 0.06174987 0.00210464 -6.25703e-6 -0.04363894 -0.9990473 1 0 0 -6.27798e-6 0.04349225 0.9990537 -7.84031e-5 -0.9999603 0.008916854 -8.09782e-5 0.9999603 -0.00890094 0 0 -1 0.9987848 -0.04928487 0 0 0 1 -0.9987847 0.04928511 0 -0.01471835 -0.9998916 0 0.01470243 0.9998919 0 1 0 0 1.77735e-7 -0.05629986 0.9984139 -1 0 0 -1.77735e-7 0.05629962 -0.9984139 0 -0.9997639 -0.02172785 0 0.9997636 0.02174377 0 0 1 -0.9991891 -0.04026329 5.13681e-7 0 0 -1 0.9991891 0.04026347 -5.13435e-7 0.005674362 -0.9999839 0 -0.005658447 0.999984 0 0 0 -1 0.9988549 0.04784375 0 0.02965468 -0.3926997 0.9191885 -0.9988548 -0.04784381 0 0.07530057 -0.9971609 0 -0.07530057 0.9971609 0 0 0 -1 0.9988548 0.04784387 0 0 0 1 -0.9988548 -0.04784381 0 0.07530456 -0.9971606 0 -0.07530057 0.9971608 0 0 0 -1 0.9988548 0.04784381 0 0 0 1 -0.9988548 -0.04784381 0 0.07530456 -0.9971606 0 -0.07530057 0.9971609 0 0 0 -1 0.9988548 0.04784387 0 0 0 1 -0.9988548 -0.04784435 1.46069e-7 0.07530057 -0.9971609 0 -0.07530057 0.997161 0 0 0 -1 0.9988548 0.04784435 -1.48562e-7 0 0 1 -0.9988548 -0.04784375 0 0.0753085 -0.9971603 0 -0.07530075 0.9971608 0 -1 0 0 0 -0.04978036 -0.9987602 1 0 0 0 0.04978036 0.9987602 0 -0.9997515 0.02229219 0 0.9997515 -0.02229219 0 0 -1 0.9987236 -0.05050933 0 0 0 1 -0.9987236 0.05050933 0 -0.02301537 -0.9997351 0 0.02301537 0.9997351 0 1 0 0 1.73785e-7 -0.0475707 0.9988679 -1 0 0 -1.73438e-7 0.0475707 -0.9988679 0 -0.9997986 -0.02007484 0 0.9997985 0.02007484 0 0 1 -0.9987856 -0.0492689 4.94979e-7 0 0 -1 0.9987856 0.0492689 -4.94318e-7 0.02177554 -0.9997629 0 -0.02177554 0.999763 0 0 0 -1 1 0 0 0 0 1 -1 0 0 0 -1 0 0 1 0 -5.96046e-7 0 -1 1 0 0 5.96046e-7 0 1 -1 0 0 0 -1 0 0 1 0 0 0 -1 1 0 0 0 0 1 -1 0 0 0 -1 0 0 1 0 0 0 -1 1 0 0 0 0 1 -1 0 0 0 -1 0 0 1 0 0 0 -1 1 0 0 0 0 1 -1 0 0 0 -1 0 0 1 0 0 0 -1 1 0 0 0 0 1 -1 0 0 0 -1 0 0 1 0 0 0 -1 1 0 0 0 0 1 -1 0 0 0 -1 0 0 1 0 0 0 -1 1 0 0 0 0 1 -1 0 0 0 -1 0 0 1 0 0 0 -1 1 0 0 0 0 1 -1 0 0 0 -1 0 0 1 0 -5.96046e-7 0 -1 1 0 0 5.96046e-7 0 1 -1 0 0 0 -1 0 0 1 0 0 0 -1 1 0 0 0 0 1 -1 0 0 0 -1 0 0 1 0 -1 0 0 0 -0.04273051 -0.9990866 1 0 0 0 0.04273039 0.9990866 0 -0.9999032 0.01391571 0 0.9999031 -0.01392364 0 0 -1 0.9990553 -0.04345846 0 0 0 1 -0.9990553 0.04345846 0 -0.01464688 -0.9998927 0 0.01464688 0.9998927 0 1 0 0 1.67942e-7 -0.05006396 0.998746 -1 0 0 -1.67942e-7 0.05006396 -0.998746 0 -0.999774 -0.021259 0 0.999774 0.021259 0 0 1 -0.9988846 -0.04721713 2.51913e-7 0 0 -1 0.9988846 0.04721713 -2.52256e-7 0.01840591 -0.9998306 0 -0.01840591 0.9998306 0 -1 0 0 0 -0.05530685 -0.9984694 1 0 0 0 0.05530685 0.9984694 0 -0.9999544 -0.00955528 0 0.9999544 0.00955528 0 0 -1 0.9984982 -0.05478572 0 0 0 1 -0.9984982 0.05478566 0 0.01007622 -0.9999493 0 -0.01007622 0.9999493 0 1 0 0 1.43843e-7 -0.05043417 0.9987275 -1 0 0 -1.43843e-7 0.05043417 -0.9987275 0 -0.9998958 0.01443433 0 0.9998958 -0.01443833 0 0 1 -0.9980515 -0.06239694 2.53464e-7 0 0 -1 0.9980515 0.06239694 -2.17556e-7 -0.002453386 -0.999997 0 0.002453386 0.999997 0 -0.9987524 -0.0498895 0.002191305 0 0.006066501 -0.9999816 0.9987523 0.0498895 -0.002190887 0 -0.006066501 0.9999816 0 -0.9990369 0.04387795 0 0.9990368 -0.04388093 -0.9987524 -0.0499376 0 0 0.04993754 -0.9987524 0.9987524 0.0499376 0 0 -0.04993754 0.9987524 0 -1 0 0 1 0 0 -0.04986065 -0.9987561 0.9987561 0.04986065 0 0 0.04986065 0.9987562 -0.9987562 -0.04986065 0 0 -1 0 0 1 0 0.9987524 -0.0499376 0 0 0.04993766 0.9987524 -0.9987524 0.0499376 0 0 -0.04993766 -0.9987524 0 -1 0 0 1 0 0 -0.04993754 0.9987524 -0.9987524 0.0499376 0 0 0.04993754 -0.9987524 0.9987524 -0.0499376 0 0 -1 0 0 1 0</float_array>
          <technique_common>
            <accessor source="#Cube_001-mesh-normals-array" count="548" stride="3">
              <param name="X" type="float"/>
              <param name="Y" type="float"/>
              <param name="Z" type="float"/>
            </accessor>
          </technique_common>
        </source>
        <source id="Cube_001-mesh-map-0">
          <float_array id="Cube_001-mesh-map-0-array" count="3288">1.362407 -0.29061 1.362253 -0.2402681 1.347152 -0.2403146 -0.7312429 -0.3103153 -0.7290899 0.3933469 -0.7441919 0.3933932 1.394042 -0.3601173 1.394196 -0.309776 1.379095 -0.3097295 -0.7424022 1.648011 -0.7402459 0.9443492 -0.7251436 0.9443957 0.3089997 -0.1251013 0.3593387 -0.1250286 0.3583035 0.5786339 -0.3900434 1.169917 -0.3397039 1.169994 -0.3407782 1.873659 1.25036 -0.3234717 1.250206 -0.2731298 1.235105 -0.2731762 -0.6967257 -0.322035 -0.6945366 0.3933469 -0.7096386 0.3933932 -0.3658405 1.380406 -0.3656865 1.430748 -0.3807874 1.430794 -0.7078781 1.648012 -0.7056861 0.9326297 -0.6905836 0.932676 0.1978024 -0.384776 0.2481412 -0.3847033 0.2470889 0.330679 0.03975391 -0.3835443 0.09009361 -0.383467 0.08900123 0.3319175 1.215365 -0.3133937 1.215211 -0.2630524 1.200109 -0.2630988 -0.7139878 -0.3126825 -0.7118275 0.3933469 -0.7269296 0.3933932 1.535186 -0.3435075 1.53534 -0.2931659 1.520239 -0.2931194 -0.7251438 1.648012 -0.7229803 0.941982 -0.7078778 0.9420284 -0.3386654 1.169917 -0.2883262 1.169989 -0.2893649 1.876019 -0.2872482 1.169917 -0.2369086 1.169994 -0.2379866 1.876026 1.577161 -0.2924875 1.577007 -0.2421458 1.561905 -0.2421921 -0.6794345 -0.3245416 -0.6772378 0.3933468 -0.6923397 0.3933932 -0.3658405 1.169917 -0.3656865 1.220258 -0.3807874 1.220305 -0.6905838 1.648011 -0.6883843 0.9301232 -0.6732816 0.9301694 0.09243702 -0.3860433 0.1427761 -0.3859709 0.14172 0.331918 -0.06431186 -0.3310458 -0.01397216 -0.3309688 -0.01506847 0.3869225 0.551809 0.3910924 0.5618754 0.3908839 0.5618565 0.4512909 0.7929536 0.8849907 0.7924439 1.879431 0.7466693 1.843942 0.5619333 0.3329831 0.5618566 0.3908839 0.5517904 0.3906751 0.6703754 1.38797 0.6251539 1.428026 0.6241491 0.4289736 -0.8586065 1.25096 -0.8574383 0.4823901 -0.8473978 0.4819485 0.4262666 0.4515007 0.4162248 0.4510589 0.4160175 -0.3129311 0.5518402 0.2762402 0.5619068 0.2760624 0.5618573 0.332597 0.8412097 1.844036 0.8401681 0.8379873 0.8873915 0.8675858 0.5517948 0.2758849 0.5517904 0.2205736 0.5618571 0.2207512 0.7947494 1.18283 0.7507403 1.218217 0.748449 0.2064794 0.7642918 0.01085114 0.763131 -0.7620694 0.7731617 -0.762611 0.3130204 0.4515007 0.3029873 0.4509917 0.3021536 -0.3166502 -0.8548512 0.3214855 -0.8430966 0.3213886 -0.844054 0.393296 0.9204539 0.7176222 0.9217124 1.803137 0.8683177 1.75236 0.2070395 0.5011193 0.208082 0.5748538 0.1963274 0.5747565 0.9928258 1.826001 0.9447148 1.879431 0.940786 0.7911607 -0.001608669 1.022457 -7.65026e-4 0.2505076 0.0109896 0.2506049 -0.04797619 0.09744852 -0.03622168 0.09735137 -0.03565335 0.8745191 0.299871 1.843893 0.2998896 1.867156 0.2898324 1.866933 0.6799215 1.879431 0.6806173 0.8384224 0.6986646 0.8729407 0.8598253 0.7988495 0.8591402 0.7600389 0.8692175 0.7603666 0.6347247 1.879431 0.6142053 1.868371 0.6160221 0.873429 0.871026 -0.1593068 0.8692175 0.7603666 0.8591402 0.7600389 -0.8016464 0.6500236 -0.791569 0.6496964 -0.7909341 1.594143 -0.8009989 1.594196 -0.7909341 1.594143 -0.7923125 1.648033 0.6573225 1.83046 0.6625701 0.8039037 0.6806173 0.8384224 0.8605105 0.83766 0.8598253 0.7988495 0.8699027 0.7991767 0.6573225 1.830463 0.6347247 1.879431 0.6340679 0.8389137 0.8592189 -0.2768638 0.8743126 -0.2773792 0.87427 -0.2216851 -0.008020758 1.173186 -0.005927681 1.837011 -0.06165915 1.837181 1.40929 -0.2588362 1.409321 -0.2030214 1.394227 -0.2035354 -0.06575411 1.833871 -0.1213802 1.83714 -0.1193788 1.169917 0.8877469 0.8293471 0.8726448 0.8293663 0.8736065 0.1621355 1.477067 -0.1377332 1.478084 -0.8015331 1.493186 -0.801469 1.089849 -0.2050133 1.074755 -0.2044943 1.074768 -0.2603077 -0.1811875 1.169917 -0.1791528 1.834811 -0.2348743 1.834985 1.116445 -0.2603078 1.116457 -0.2044965 1.101364 -0.205016 -0.03292304 1.148167 -0.03088533 0.483272 0.02485001 0.4834454 1.452217 -0.8026253 1.467315 -0.8026041 1.466336 -0.1377087 1.788547 -0.8019425 1.803645 -0.8019196 1.80263 -0.1370223 1.379102 -0.2588358 1.394196 -0.2593416 1.394135 -0.203527 0.1076648 1.169917 0.1097244 1.843501 0.05395549 1.84367 1.451147 -0.2587904 1.451208 -0.2029737 1.436115 -0.2034796 0.1345477 0.5597352 0.1324859 1.233319 0.07672405 1.23315 -0.8421239 -0.2801833 -0.8270259 -0.2801579 -0.8279984 0.3933932 -0.8335675 0.6541516 -0.8184688 0.6541716 -0.819502 1.327729 1.158102 -0.2046284 1.143009 -0.2041119 1.143031 -0.2599236 1.661224 -0.1383974 1.662298 -0.4887613 1.71808 -0.4885923 1.131551 -0.2599255 1.131573 -0.2041119 1.116479 -0.2046284 1.787532 -0.1378886 1.731742 -0.1377192 1.730669 -0.4880835 1.059138 -0.1396368 1.059653 -0.4900011 1.074755 -0.4899794 1.592264 -0.1395784 1.577161 -0.1396015 1.577696 -0.4899668 1.394272 -0.2026244 1.409369 -0.2030214 1.409294 -0.141606 0.6990879 -0.3171628 0.7004432 0.1257016 0.6389887 0.09958297 1.04404 -0.1400117 1.043964 -0.2018156 1.059062 -0.2014185 0.07521891 0.553415 0.1365814 0.5536008 0.1353049 0.9701606 1.341261 -0.5547795 1.340649 -0.1382194 1.325578 -0.1382442 -0.5315052 1.430794 -0.5164358 1.430816 -0.517112 1.873683 1.143084 -0.203715 1.158181 -0.2041118 1.158106 -0.1426967 0.6931949 0.4684284 0.6318213 0.4686142 0.6305072 0.03915548 1.285323 -0.1805082 1.285248 -0.2419213 1.300345 -0.2415241 0.6185443 0.4298531 0.6198604 3.94344e-4 0.6812227 5.80311e-4 -0.5510717 0.4439018 -0.5517036 0.873361 -0.566774 0.8733362 -0.5472511 1.430794 -0.5321816 1.430816 -0.5328373 1.860276 1.367578 -0.2026243 1.382675 -0.2030214 1.3826 -0.1416062 -0.4259411 0.8168861 -0.4873147 0.8170719 -0.4885991 0.3973517 0.8592153 -0.1597567 0.8591404 -0.2211695 0.8742376 -0.2207725 -0.4885897 1.236792 -0.4873035 0.8170719 -0.4259411 0.8172578 -0.5824842 0.4536418 -0.5831016 0.8733623 -0.5981721 0.8733374 -0.5818435 0.4536167 -0.566774 0.4536392 -0.567415 0.873361 1.116532 -0.2037152 1.131629 -0.2041118 1.131554 -0.1426966 -0.4260208 0.3932074 -0.4873943 0.3933933 -0.4886521 -0.01767057 1.310481 -0.1805082 1.310406 -0.2419209 1.325503 -0.2415242 -0.4886426 -0.01804226 -0.487383 -0.4291062 -0.4260206 -0.4289203 1.661225 -0.5502588 1.66062 -0.1391948 1.645549 -0.1392196 1.352433 -0.5493069 1.367503 -0.5492847 1.366875 -0.1382193 1.10136 -0.2040994 1.116457 -0.2044965 1.116382 -0.143081 0.9198462 0.3114427 0.8584726 0.3116285 0.8572381 -0.09186106 1.07483 -0.143081 1.074755 -0.2044943 1.089853 -0.2040971 0.08755701 0.8361056 0.08879345 0.4326161 0.1501559 0.4328019 1.034472 -0.5427204 1.033878 -0.1392307 1.018808 -0.1392554 1.619801 -0.542708 1.634871 -0.5426856 1.634254 -0.1391948 1.494886 -0.2415341 1.509983 -0.2419389 1.50994 -0.1805201 0.2621122 0.6379585 0.2600367 1.315971 0.1987339 1.315781 1.535129 -0.2415322 1.535173 -0.1801153 1.520076 -0.1805201 0.6856544 0.1829222 0.6877273 0.8609339 0.6264364 0.8611242 -0.8119266 0.3933932 -0.8270262 0.3933745 -0.8260468 -0.2846046 0.9739617 -0.03816199 0.9588627 -0.03818809 0.9599025 -0.716174 1.45115 -0.1415582 1.436053 -0.1411644 1.436141 -0.2025797 0.2344121 1.165468 0.2364866 1.843479 0.175177 1.84367 1.424466 -0.2025777 1.424555 -0.1411643 1.409458 -0.1415582 0.2460911 1.026372 0.2481687 0.3483606 0.3094941 0.3485513 -0.8174713 0.6496964 -0.8023771 0.6497172 -0.8033747 1.32773 -0.8099123 -0.2846446 -0.7948176 -0.284621 -0.795853 0.3933932 1.226761 -0.2019224 1.241859 -0.2023142 1.241762 -0.140897 0.4438448 0.3834558 0.4459577 1.074467 0.3845711 1.074653 1.215121 -0.201924 1.215218 -0.1405056 1.20012 -0.140897 0.363385 1.165654 0.3612695 1.856665 0.2998895 1.856479 0.9790895 -0.729165 0.9941881 -0.7291397 0.9931905 -0.03816211 0.9437635 -0.7291669 0.9588628 -0.7291468 0.9578028 -0.03816199 1.577148 -0.1807328 1.562051 -0.1803208 1.562064 -0.2417339 0.05292207 0.8423174 0.05403548 0.4788859 0.1153941 0.4790716 1.55196 -0.241736 1.551973 -0.1803208 1.536876 -0.1807328 0.03163969 0.4728183 0.03275167 0.8362497 -0.02861857 0.8364354 1.603549 -0.1396008 1.604084 -0.5030328 1.619185 -0.5030099 1.009289 -0.139231 0.994188 -0.1392537 0.9947431 -0.5026866 1.552119 -0.2924897 1.551965 -0.2421482 1.536863 -0.2421947 -0.5574092 -0.3813037 -0.5550389 0.3933469 -0.5701408 0.3933933 1.19987 -0.3427056 1.200024 -0.2923638 1.184923 -0.2923178 -0.568548 1.648011 -0.5661743 0.873361 -0.5510718 0.8734073 0.31416 -0.3232231 0.3644991 -0.3231502 0.3633593 0.4515007 0.428075 -0.323226 0.4784145 -0.3231487 0.4772316 0.4515045 1.241793 -0.313375 1.241639 -0.2630336 1.226537 -0.2630798 -0.6407371 0.880774 -0.6383895 1.648012 -0.6534915 1.648058 1.577007 -0.3429216 1.577161 -0.29258 1.56206 -0.2925335 -0.6423494 0.3933469 -0.6399983 -0.3738908 -0.6248961 -0.3738442 -0.270374 -0.3782491 -0.2200347 -0.3781766 -0.2211635 0.3890616 -0.1685237 -0.3781342 -0.1696951 0.3891062 -0.2200348 0.3890289 1.090011 -0.3111686 1.089857 -0.2608268 1.074755 -0.2608732 0.17688 -0.447867 0.1792621 0.3305982 0.16416 0.3306445 1.325425 -0.3434962 1.325578 -0.2931546 1.310477 -0.2931084 0.1792621 0.3305982 0.1816476 -0.447867 0.1967499 -0.4478207 -0.1158396 0.3869293 -0.06550055 0.3870021 -0.0666458 1.165468 0.8885801 -0.0380519 0.9389197 -0.03797471 0.937731 0.7404934 1.158264 -0.3107813 1.15811 -0.26044 1.143009 -0.2604863 -0.5923414 -0.3786544 -0.5899794 0.3933469 -0.6050811 0.3933933 1.535019 -0.3435072 1.535173 -0.2931656 1.520072 -0.2931196 -0.5860161 1.648012 -0.5836504 0.8760103 -0.5685477 0.8760566 0.501383 -0.3205754 0.5517221 -0.3205025 0.5505863 0.4514992 0.4101825 -0.1997821 0.4605221 -0.1997048 0.4593433 0.5722993 1.257155 -0.3425437 1.257 -0.2922024 1.241899 -0.2922489 -0.6621357 -0.3703291 -0.659799 0.3933469 -0.6749009 0.3933932 1.206519 -0.2854849 1.206673 -0.2351435 1.191571 -0.235097 -0.6732818 1.648011 -0.6709416 0.8843359 -0.6558392 0.884382 -0.1158396 -0.3768197 -0.06550037 -0.3767468 -0.06662392 0.3869295 -0.1673244 -0.3747012 -0.1169847 -0.374624 -0.1181508 0.3890547 1.451208 -0.3096382 1.451054 -0.2592962 1.435953 -0.2593426 -0.6446971 -0.3738908 -0.6423494 0.3933469 -0.6574515 0.3933932 -0.3594827 1.277525 -0.3593287 1.327867 -0.3744298 1.327913 -0.6383896 1.648012 -0.6360386 0.8807739 -0.6209362 0.8808203 0.0723167 -0.06030637 0.1226556 -0.06023359 0.121527 0.7070044 -0.03066408 -0.04331749 0.01967513 -0.04324048 0.01850378 0.7240001 0.8810735 0.2021047 0.8809193 0.2524462 0.8658177 0.2524001 0.01861047 -0.445735 0.02098613 0.3305981 0.00588417 0.3306443 1.300441 -0.3434945 1.300595 -0.2931529 1.285494 -0.2931067 -0.0139724 0.3305979 -0.01159334 -0.445735 0.003508925 -0.4456887 -0.270374 0.3890616 -0.2200347 0.3891342 -0.221177 1.165468 -0.1673244 0.3890547 -0.1169849 0.3891317 -0.1181703 1.165468 1.424477 -0.3140476 1.424324 -0.2637059 1.409222 -0.2637521 -0.5883782 0.8760103 -0.5860161 1.648011 -0.6011181 1.648058 -0.3594827 1.336851 -0.3593287 1.387192 -0.3744298 1.387239 -0.5899794 0.3933469 -0.5876136 -0.3786544 -0.5725114 -0.3786079 -0.3733362 0.3933933 -0.3229972 0.393466 -0.3241328 1.165467 0.5257191 -0.1743519 0.5760588 -0.1742749 0.5748799 0.5977294 1.116457 -0.3111688 1.116303 -0.2608272 1.101202 -0.2608737 -0.5399366 -0.3829343 -0.5375614 0.3933469 -0.5526635 0.3933933 1.451054 -0.3600723 1.451208 -0.3097304 1.436107 -0.3096842 0.02118051 0.3305979 0.02355957 -0.4456834 0.03866171 -0.4456369 0.07232981 0.2619569 0.1226689 0.2620295 0.1215268 1.038311 -0.04083049 0.3064546 0.009509146 0.3065319 0.008323848 1.082816 1.131713 -0.3107833 1.131559 -0.2604419 1.116457 -0.2604882 -0.6097941 -0.3748819 -0.6074435 0.3933469 -0.6225454 0.3933933 1.551965 -0.342924 1.552119 -0.2925824 1.537018 -0.2925359 -0.6209364 1.648012 -0.6185824 0.8797826 -0.60348 0.8798292 -0.03062605 0.2700093 0.0197131 0.270082 0.01858288 1.038311 -0.3733367 -0.3749155 -0.3229972 -0.3748383 -0.32417 0.3933933 0.874432 -0.3277207 0.8742778 -0.2773792 0.8591765 -0.2774257 0.1147 -0.3461419 0.1170819 0.432323 0.1019799 0.4323697 0.009270966 0.6751627 0.009424984 0.7255044 -0.005676031 0.7255505 0.4827594 0.4514529 0.485145 -0.3270124 0.5002472 -0.3269659 0.9438489 -0.03816199 0.994188 -0.03808939 0.9930428 0.7403763 -0.02616506 0.3614912 0.02417463 0.3615686 0.02298575 1.140036 1.200109 -0.2626139 1.215205 -0.2630522 1.215218 -0.2027543 0.4268921 0.4516869 0.4247071 1.165468 0.3644988 1.165282 1.424477 -0.2632675 1.424465 -0.2029713 1.409369 -0.2034097 0.3623167 0.4515005 0.3644988 1.165281 0.3043007 1.165468 0.629307 -0.03026127 0.6142055 -0.0302813 0.6152363 -0.7440274 -0.7434967 1.648058 -0.7585979 1.648033 -0.757503 0.9342797 1.059061 -0.2022427 1.043964 -0.2018151 1.043996 -0.2621098 0.609193 0.2761158 0.6113771 0.9898966 0.5511627 0.9900835 1.241761 -0.2626062 1.241793 -0.2023141 1.226697 -0.2027415 0.4767138 0.984071 0.4789012 0.2702901 0.5391292 0.2704771 -0.7898835 0.9342841 -0.7747859 0.9343052 -0.7758361 1.648086 -0.7736957 0.9342797 -0.7585976 0.9343031 -0.7596876 1.648086 1.184927 -0.2407325 1.200024 -0.2411528 1.199964 -0.1808567 0.612023 1.165467 0.6142054 1.879248 0.5539444 1.879431 1.174823 -0.2407345 1.174884 -0.1804367 1.159787 -0.1808568 0.4818263 0.5171523 0.4796412 1.230933 0.4193871 1.23075 -0.005417108 0.1246694 0.009680986 0.1246947 0.008650302 0.8384407 0.8412629 -0.7104434 0.8563619 -0.7104231 0.8552671 0.003330111 1.256956 -0.1807473 1.241859 -0.1803303 1.241932 -0.2406226 0.426892 1.165285 0.4290793 0.4515045 0.4893233 0.451687 0.913362 0.3061479 0.9134356 0.3664423 0.898339 0.3660253 0.4871389 1.165468 0.489323 1.879248 0.4290682 1.879431 -0.763587 0.3933932 -0.7786889 0.3933708 -0.7776388 -0.3204103 -0.7474351 0.3933932 -0.762537 0.3933703 -0.7614468 -0.3204131 1.520113 -0.2921423 1.535173 -0.2931196 1.535167 -0.242914 0.2476124 0.2417902 0.2450575 1.076458 0.1949652 1.076303 1.509903 -0.2921428 1.509909 -0.2419389 1.494848 -0.2429157 0.03610962 0.3306445 0.03866159 1.165312 -0.01142066 1.165468 -0.5061762 0.3933933 -0.5212671 0.3933696 -0.5200616 -0.4412574 0.8552593 0.8379873 0.8401681 0.8379656 0.8414482 0.003330111 1.325578 -0.2429057 1.310518 -0.241921 1.310498 -0.2921234 0.7931118 0.06764322 0.7956634 0.9015241 0.745561 0.9016801 1.30042 -0.2921215 1.3004 -0.241921 1.28534 -0.2429063 0.7385899 0.9973198 0.7411451 0.163439 0.7912614 0.1635949 -0.503744 -0.44051 -0.488652 -0.4404879 -0.4898789 0.3933933 0.7543877 0.01098114 0.7694798 0.01100426 0.7682064 0.8448879 1.267088 -0.2912452 1.282149 -0.2922033 1.282081 -0.2419995 0.1415545 0.331918 0.1441026 1.165316 0.09392899 1.165468 1.256961 -0.2912444 1.257029 -0.2410391 1.241968 -0.2419973 0.1231699 0.2494184 0.1206189 1.082816 0.07045072 1.082664 -0.5363581 -0.4399838 -0.5212669 -0.4399636 -0.5224704 0.3933933 0.7707582 0.01149743 0.7858485 0.01152235 0.7845703 0.8448879 1.174829 -0.242117 1.159768 -0.2411547 1.159822 -0.2913554 0.1967498 1.165316 0.1993072 0.330679 0.2494296 0.3308302 1.19997 -0.2913554 1.200024 -0.2411528 1.184962 -0.242115 0.3440689 0.2988897 0.3466228 1.133527 0.2964883 1.133679 0.6292963 0.8043985 0.6142054 0.8043767 0.6154334 -0.03026127 0.886117 0.8379873 0.8710259 0.8379643 0.8723006 0.003323614 1.034472 -0.1372169 1.03441 1.879431 0.9941876 1.877417 0.9181757 -0.4571241 0.9198163 1.56154 0.8795915 1.559564 0.8691686 -0.366483 0.9093917 -0.3684967 0.9094516 1.648536 0.9091787 1.534133 0.8689537 1.536109 0.870599 -0.4825114 1.199966 -0.1401244 1.159727 -0.1401655 1.159785 -0.1804367 0.908393 0.1732137 0.8681571 0.1732593 0.8680955 0.1329875 1.65941 -0.137219 1.661224 1.879431 1.621 1.877455 1.53341 -0.1378079 1.535173 1.879431 1.494948 1.877455 0.8350951 -0.4618513 0.8753201 -0.4638273 0.8735209 1.553206 1.575398 1.877455 1.535173 1.879431 1.536936 -0.1380275 1.494843 -0.1398419 1.494902 -0.1801153 1.535173 -0.1800571 0.1254006 0.8517801 0.1253389 0.8920535 0.08506733 0.8919916 1.240249 -0.1385293 1.241859 1.879431 1.201633 1.877455 1.11498 -0.1407078 1.116456 1.879431 1.076232 1.877454 0.8932301 1.750298 0.8530055 1.752274 0.8546236 -0.2653053 1.117956 -0.1403235 1.158181 -0.1422998 1.156682 1.877455 1.285307 -0.1801112 1.325578 -0.1800531 1.325519 -0.1397796 -0.04619938 1.837181 -0.005927681 1.837242 -0.005989074 1.877516 1.785642 -0.1357426 1.787531 1.879431 1.747307 1.877454 0.791432 -0.2876334 0.7933411 1.726843 0.753116 1.724867 1.663087 -0.1362519 1.703312 -0.1382279 1.701449 1.877455 0.7898634 1.546848 0.7496386 1.548824 0.751519 -0.4660317 -0.1672599 1.837239 -0.1673195 1.877512 -0.2075906 1.877454 -0.1269271 1.877454 -0.1268655 1.837181 -0.08659386 1.837242 0.7925314 -0.2842525 0.7941551 1.733201 0.7539303 1.731225 1.365803 -0.1362429 1.367502 1.879431 1.327278 1.877455 1.323932 1.877455 1.283707 1.879431 1.285353 -0.1378036 1.45296 -0.1357331 1.493186 -0.1377087 1.491463 1.877455 1.28213 -0.1399987 1.241859 -0.1400567 1.241918 -0.1803302 -0.1269885 1.877516 -0.16726 1.877454 -0.1671985 1.837181 1.347306 -0.290656 1.362407 -0.29061 1.347152 -0.2403146 -0.7463447 -0.3102691 -0.7312429 -0.3103153 -0.7441919 0.3933932 1.378941 -0.3600708 1.394042 -0.3601173 1.379095 -0.3097295 -0.7272998 1.648058 -0.7424022 1.648011 -0.7251436 0.9443957 0.3079645 0.5785611 0.3089997 -0.1251013 0.3583035 0.5786339 -0.3911178 1.873582 -0.3900434 1.169917 -0.3407782 1.873659 1.235259 -0.3235179 1.25036 -0.3234717 1.235105 -0.2731762 -0.7118274 -0.3219888 -0.6967257 -0.322035 -0.7096386 0.3933932 -0.3809413 1.380452 -0.3658405 1.380406 -0.3807874 1.430794 -0.6927757 1.648058 -0.7078781 1.648012 -0.6905836 0.932676 0.1967498 0.3306064 0.1978024 -0.384776 0.2470889 0.330679 0.03866171 0.3318403 0.03975391 -0.3835443 0.08900123 0.3319175 1.200263 -0.3134402 1.215365 -0.3133937 1.200109 -0.2630988 -0.7290895 -0.312636 -0.7139878 -0.3126825 -0.7269296 0.3933932 1.520085 -0.3434613 1.535186 -0.3435075 1.520239 -0.2931194 -0.7100414 1.648058 -0.7251438 1.648012 -0.7078778 0.9420284 -0.339704 1.875946 -0.3386654 1.169917 -0.2893649 1.876019 -0.2883263 1.875949 -0.2872482 1.169917 -0.2379866 1.876026 1.56206 -0.2925335 1.577161 -0.2924875 1.561905 -0.2421921 -0.6945361 -0.3244953 -0.6794345 -0.3245416 -0.6923397 0.3933932 -0.3809413 1.169963 -0.3658405 1.169917 -0.3807874 1.220305 -0.6754814 1.648058 -0.6905838 1.648011 -0.6732816 0.9301694 0.09138089 0.3318453 0.09243702 -0.3860433 0.14172 0.331918 -0.06540811 0.3868454 -0.06431186 -0.3310458 -0.01506847 0.3869225 0.5517903 0.4514995 0.551809 0.3910924 0.5618565 0.4512909 0.7477356 0.8449376 0.7929536 0.8849907 0.7466693 1.843942 0.5518671 0.3327745 0.5619333 0.3329831 0.5517904 0.3906751 0.6699271 0.3934826 0.6703754 1.38797 0.6241491 0.4289736 -0.8485663 1.250519 -0.8586065 1.25096 -0.8473978 0.4819485 0.426059 -0.3124894 0.4262666 0.4515007 0.4160175 -0.3129311 0.5517904 0.3327745 0.5518402 0.2762402 0.5618573 0.332597 0.8852277 1.879431 0.8412097 1.844036 0.8873915 0.8675858 0.5618616 0.2760624 0.5517948 0.2758849 0.5618571 0.2207512 0.7956635 0.1768884 0.7947494 1.18283 0.748449 0.2064794 0.7743224 0.01030969 0.7642918 0.01085114 0.7731617 -0.762611 0.3121867 -0.3161414 0.3130204 0.4515007 0.3021536 -0.3166502 -0.8558087 0.3933932 -0.8548512 0.3214855 -0.844054 0.393296 0.8723502 0.6641995 0.9204539 0.7176222 0.8683177 1.75236 0.1952848 0.5010221 0.2070395 0.5011193 0.1963274 0.5747565 0.994188 0.7403763 0.9928258 1.826001 0.940786 0.7911607 0.01014602 1.022554 -0.001608669 1.022457 0.0109896 0.2506049 -0.04740798 0.874616 -0.04797619 0.09744852 -0.03565335 0.8745191 0.2898138 1.84367 0.299871 1.843893 0.2898324 1.866933 0.7004428 1.868375 0.6799215 1.879431 0.6986646 0.8729407 0.8699027 0.7991767 0.8598253 0.7988495 0.8692175 0.7603666 0.6340679 0.8389137 0.6347247 1.879431 0.6160221 0.873429 0.860961 -0.1593597 0.871026 -0.1593068 0.8591402 0.7600389 -0.8009989 1.594196 -0.8016464 0.6500236 -0.7909341 1.594143 -0.8023775 1.648086 -0.8009989 1.594196 -0.7923125 1.648033 0.6799215 1.879431 0.6573225 1.83046 0.6806173 0.8384224 0.870588 0.8379873 0.8605105 0.83766 0.8699027 0.7991767 0.6521136 0.8043985 0.6573225 1.830463 0.6340679 0.8389137 0.8591763 -0.2211696 0.8592189 -0.2768638 0.87427 -0.2216851 -0.06365668 1.169917 -0.008020758 1.173186 -0.06165915 1.837181 1.394196 -0.2593507 1.40929 -0.2588362 1.394227 -0.2035354 -0.06365668 1.170086 -0.06575411 1.833871 -0.1193788 1.169917 0.8887086 0.1621562 0.8877469 0.8293471 0.8736065 0.1621355 1.492169 -0.1377087 1.477067 -0.1377332 1.493186 -0.801469 1.089861 -0.2608268 1.089849 -0.2050133 1.074768 -0.2603077 -0.2369087 1.17009 -0.1811875 1.169917 -0.2348743 1.834985 1.101351 -0.2608272 1.116445 -0.2603078 1.101364 -0.205016 0.02281248 1.14834 -0.03292304 1.148167 0.02485001 0.4834454 1.451239 -0.13773 1.452217 -0.8026253 1.466336 -0.1377087 1.787532 -0.1370453 1.788547 -0.8019425 1.80263 -0.1370223 1.37904 -0.2030212 1.379102 -0.2588358 1.394135 -0.203527 0.05189603 1.170086 0.1076648 1.169917 0.05395549 1.84367 1.436053 -0.2592961 1.451147 -0.2587904 1.436115 -0.2034796 0.07878619 0.5595659 0.1345477 0.5597352 0.07672405 1.23315 -0.8430964 0.3933675 -0.8421239 -0.2801833 -0.8279984 0.3933932 -0.8346007 1.327709 -0.8335675 0.6541516 -0.819502 1.327729 1.158124 -0.2604399 1.158102 -0.2046284 1.143031 -0.2599236 1.717006 -0.1382279 1.661224 -0.1383974 1.71808 -0.4885923 1.116457 -0.2604421 1.131551 -0.2599255 1.116479 -0.2046284 1.78646 -0.4882532 1.787532 -0.1378886 1.730669 -0.4880835 1.07424 -0.1396151 1.059138 -0.1396368 1.074755 -0.4899794 1.592799 -0.4899439 1.592264 -0.1395784 1.577696 -0.4899668 1.394196 -0.141209 1.394272 -0.2026244 1.409294 -0.141606 0.6377145 -0.3169769 0.6990879 -0.3171628 0.6389887 0.09958297 1.059138 -0.1396151 1.04404 -0.1400117 1.059062 -0.2014185 0.07386195 0.9962794 0.07521891 0.553415 0.1353049 0.9701606 1.326191 -0.5548041 1.341261 -0.5547795 1.325578 -0.1382442 -0.5321816 1.87366 -0.5315052 1.430794 -0.517112 1.873683 1.143009 -0.1423 1.143084 -0.203715 1.158106 -0.1426967 0.6918808 0.03896969 0.6931949 0.4684284 0.6305072 0.03915548 1.30042 -0.1801112 1.285323 -0.1805082 1.300345 -0.2415241 0.6799069 0.4300389 0.6185443 0.4298531 0.6812227 5.80311e-4 -0.5661423 0.4438771 -0.5510717 0.4439018 -0.566774 0.8733362 -0.5479069 1.860254 -0.5472511 1.430794 -0.5328373 1.860276 1.367503 -0.141209 1.367578 -0.2026243 1.3826 -0.1416062 -0.4272255 0.3971658 -0.4259411 0.8168861 -0.4885991 0.3973517 0.8743126 -0.1593597 0.8592153 -0.1597567 0.8742376 -0.2207725 -0.4272272 1.236978 -0.4885897 1.236792 -0.4259411 0.8172578 -0.5975547 0.4536167 -0.5824842 0.4536418 -0.5981721 0.8733374 -0.5824843 0.8733387 -0.5818435 0.4536167 -0.567415 0.873361 1.116457 -0.1423 1.116532 -0.2037152 1.131554 -0.1426966 -0.4272784 -0.01785653 -0.4260208 0.3932074 -0.4886521 -0.01767057 1.325578 -0.1801112 1.310481 -0.1805082 1.325503 -0.2415242 -0.4272803 -0.01785629 -0.4886426 -0.01804226 -0.4260206 -0.4289203 1.646154 -0.5502836 1.661225 -0.5502588 1.645549 -0.1392196 1.351806 -0.1382416 1.352433 -0.5493069 1.366875 -0.1382193 1.101285 -0.1426843 1.10136 -0.2040994 1.116382 -0.143081 0.9186117 -0.09204685 0.9198462 0.3114427 0.8572381 -0.09186106 1.089927 -0.1426843 1.07483 -0.143081 1.089853 -0.2040971 0.1489194 0.8362914 0.08755701 0.8361056 0.1501559 0.4328019 1.019402 -0.5427455 1.034472 -0.5427204 1.018808 -0.1392554 1.619185 -0.139217 1.619801 -0.542708 1.634254 -0.1391948 1.494843 -0.1801153 1.494886 -0.2415341 1.50994 -0.1805201 0.2008095 0.6377686 0.2621122 0.6379585 0.1987339 1.315781 1.520032 -0.241937 1.535129 -0.2415322 1.520076 -0.1805201 0.6243634 0.1831122 0.6856544 0.1829222 0.6264364 0.8611242 -0.8109475 -0.2845857 -0.8119266 0.3933932 -0.8260468 -0.2846046 0.9750017 -0.7161478 0.9739617 -0.03816199 0.9599025 -0.716174 1.451239 -0.2029737 1.45115 -0.1415582 1.436141 -0.2025797 0.1731024 1.165658 0.2344121 1.165468 0.175177 1.84367 1.409369 -0.2029713 1.424466 -0.2025777 1.409458 -0.1415582 0.3074166 1.026563 0.2460911 1.026372 0.3094941 0.3485513 -0.8184688 1.327709 -0.8174713 0.6496964 -0.8033747 1.32773 -0.8109476 0.3933697 -0.8099123 -0.2846446 -0.795853 0.3933932 1.226665 -0.1405056 1.226761 -0.2019224 1.241762 -0.140897 0.3824584 0.383642 0.4438448 0.3834558 0.3845711 1.074653 1.200024 -0.2023161 1.215121 -0.201924 1.20012 -0.140897 0.3020048 1.165468 0.363385 1.165654 0.2998895 1.856479 0.9780917 -0.03818714 0.9790895 -0.729165 0.9931905 -0.03816211 0.9427035 -0.03818225 0.9437635 -0.7291669 0.9578028 -0.03816199 1.577161 -0.2421458 1.577148 -0.1807328 1.562064 -0.2417339 0.1142805 0.8425032 0.05292207 0.8423174 0.1153941 0.4790716 1.536863 -0.2421482 1.55196 -0.241736 1.536876 -0.1807328 -0.02973031 0.4730038 0.03163969 0.4728183 -0.02861857 0.8364354 1.618651 -0.1395784 1.603549 -0.1396008 1.619185 -0.5030099 1.009844 -0.5026637 1.009289 -0.139231 0.9947431 -0.5026866 1.537018 -0.2925359 1.552119 -0.2924897 1.536863 -0.2421947 -0.5725111 -0.3812574 -0.5574092 -0.3813037 -0.5701408 0.3933933 1.184769 -0.3426594 1.19987 -0.3427056 1.184923 -0.2923178 -0.5534457 1.648058 -0.568548 1.648011 -0.5510718 0.8734073 0.3130202 0.4514279 0.31416 -0.3232231 0.3633593 0.4515007 0.4268919 0.4514274 0.428075 -0.323226 0.4772316 0.4515045 1.226691 -0.3134215 1.241793 -0.313375 1.226537 -0.2630798 -0.6558392 0.8808203 -0.6407371 0.880774 -0.6534915 1.648058 1.561906 -0.3428751 1.577007 -0.3429216 1.56206 -0.2925335 -0.6272471 0.3933933 -0.6423494 0.3933469 -0.6248961 -0.3738442 -0.2715025 0.3889888 -0.270374 -0.3782491 -0.2211635 0.3890616 -0.2188631 -0.3782112 -0.1685237 -0.3781342 -0.2200348 0.3890289 1.074909 -0.3112148 1.090011 -0.3111686 1.074755 -0.2608732 0.1617782 -0.4478207 0.17688 -0.447867 0.16416 0.3306445 1.310323 -0.3434497 1.325425 -0.3434962 1.310477 -0.2931084 0.1943644 0.3306446 0.1792621 0.3305982 0.1967499 -0.4478207 -0.1169849 1.165395 -0.1158396 0.3869293 -0.0666458 1.165468 0.8873915 0.7404162 0.8885801 -0.0380519 0.937731 0.7404934 1.143163 -0.3108277 1.158264 -0.3107813 1.143009 -0.2604863 -0.6074432 -0.3786079 -0.5923414 -0.3786544 -0.6050811 0.3933933 1.519918 -0.3434609 1.535019 -0.3435072 1.520072 -0.2931196 -0.5709134 1.648058 -0.5860161 1.648012 -0.5685477 0.8760566 0.5002472 0.4514265 0.501383 -0.3205754 0.5505863 0.4514992 0.4090037 0.5722218 0.4101825 -0.1997821 0.4593433 0.5722993 1.242053 -0.3425905 1.257155 -0.3425437 1.241899 -0.2922489 -0.6772375 -0.3702825 -0.6621357 -0.3703291 -0.6749009 0.3933932 1.191417 -0.2854385 1.206519 -0.2854849 1.191571 -0.235097 -0.6581795 1.648058 -0.6732818 1.648011 -0.6558392 0.884382 -0.116963 0.3868568 -0.1158396 -0.3768197 -0.06662392 0.3869295 -0.1684905 0.3889775 -0.1673244 -0.3747012 -0.1181508 0.3890547 1.436107 -0.3096842 1.451208 -0.3096382 1.435953 -0.2593426 -0.6597989 -0.3738442 -0.6446971 -0.3738908 -0.6574515 0.3933932 -0.3745836 1.277571 -0.3594827 1.277525 -0.3744298 1.327913 -0.6232871 1.648058 -0.6383896 1.648012 -0.6209362 0.8808203 0.07118791 0.7069317 0.0723167 -0.06030637 0.121527 0.7070044 -0.03183591 0.7239228 -0.03066408 -0.04331749 0.01850378 0.7240001 0.8659718 0.2020584 0.8810735 0.2021047 0.8658177 0.2524001 0.003508925 -0.4456887 0.01861047 -0.445735 0.00588417 0.3306443 1.28534 -0.3434479 1.300441 -0.3434945 1.285494 -0.2931067 0.001130104 0.3306443 -0.0139724 0.3305979 0.003508925 -0.4456887 -0.2715162 1.165395 -0.270374 0.3890616 -0.221177 1.165468 -0.1685099 1.16539 -0.1673244 0.3890547 -0.1181703 1.165468 1.409376 -0.314094 1.424477 -0.3140476 1.409222 -0.2637521 -0.6034802 0.8760564 -0.5883782 0.8760103 -0.6011181 1.648058 -0.3745836 1.336897 -0.3594827 1.336851 -0.3744298 1.387239 -0.5748768 0.3933933 -0.5899794 0.3933469 -0.5725114 -0.3786079 -0.374472 1.165395 -0.3733362 0.3933933 -0.3241328 1.165467 0.5245403 0.5976523 0.5257191 -0.1743519 0.5748799 0.5977294 1.101356 -0.3112153 1.116457 -0.3111688 1.101202 -0.2608737 -0.5550386 -0.382888 -0.5399366 -0.3829343 -0.5526635 0.3933933 1.435953 -0.3600255 1.451054 -0.3600723 1.436107 -0.3096842 0.03628319 0.3306443 0.02118051 0.3305979 0.03866171 -0.4456369 0.07118767 1.038239 0.07232981 0.2619569 0.1215268 1.038311 -0.04201585 1.082739 -0.04083049 0.3064546 0.008323848 1.082816 1.116611 -0.3108295 1.131713 -0.3107833 1.116457 -0.2604882 -0.6248964 -0.3748354 -0.6097941 -0.3748819 -0.6225454 0.3933933 1.536864 -0.3428778 1.551965 -0.342924 1.537018 -0.2925359 -0.6058343 1.648058 -0.6209364 1.648012 -0.60348 0.8798292 -0.03175628 1.038239 -0.03062605 0.2700093 0.01858288 1.038311 -0.3745097 0.393316 -0.3733367 -0.3749155 -0.32417 0.3933933 0.8593302 -0.327767 0.874432 -0.3277207 0.8591765 -0.2774257 0.09959816 -0.3460956 0.1147 -0.3461419 0.1019799 0.4323697 -0.005829811 0.6752091 0.009270966 0.6751627 -0.005676031 0.7255505 0.4978618 0.4514992 0.4827594 0.4514529 0.5002472 -0.3269659 0.9427036 0.7403035 0.9438489 -0.03816199 0.9930428 0.7403763 -0.02735364 1.139959 -0.02616506 0.3614912 0.02298575 1.140036 1.200122 -0.2023161 1.200109 -0.2626139 1.215218 -0.2027543 0.3666836 0.4515007 0.4268921 0.4516869 0.3644988 1.165282 1.409382 -0.2637059 1.424477 -0.2632675 1.409369 -0.2034097 0.3021181 0.451687 0.3623167 0.4515005 0.3043007 1.165468 0.6303378 -0.7440075 0.629307 -0.03026127 0.6152363 -0.7440274 -0.7424018 0.9343047 -0.7434967 1.648058 -0.757503 0.9342797 1.059092 -0.2625371 1.059061 -0.2022427 1.043996 -0.2621098 0.5489786 0.2763028 0.609193 0.2761158 0.5511627 0.9900835 1.226665 -0.2630338 1.241761 -0.2626062 1.226697 -0.2027415 0.536942 0.9842578 0.4767138 0.984071 0.5391292 0.2704771 -0.7909339 1.648065 -0.7898835 0.9342841 -0.7758361 1.648086 -0.7747859 1.648063 -0.7736957 0.9342797 -0.7596876 1.648086 1.184867 -0.1804367 1.184927 -0.2407325 1.199964 -0.1808567 0.5517622 1.16565 0.612023 1.165467 0.5539444 1.879431 1.159727 -0.2411546 1.174823 -0.2407345 1.159787 -0.1808568 0.421572 0.5169692 0.4818263 0.5171523 0.4193871 1.23075 -0.006447851 0.8384153 -0.005417108 0.1246694 0.008650302 0.8384407 0.8401682 0.003310084 0.8412629 -0.7104434 0.8552671 0.003330111 1.257029 -0.2410391 1.256956 -0.1807473 1.241932 -0.2406226 0.4871361 1.165468 0.426892 1.165285 0.4893233 0.451687 0.8982656 0.3057309 0.913362 0.3061479 0.898339 0.3660253 0.4268842 1.16565 0.4871389 1.165468 0.4290682 1.879431 -0.7625369 -0.3203878 -0.763587 0.3933932 -0.7776388 -0.3204103 -0.7463447 -0.3203905 -0.7474351 0.3933932 -0.7614468 -0.3204131 1.520107 -0.241937 1.520113 -0.2921423 1.535167 -0.242914 0.1975201 0.241635 0.2476124 0.2417902 0.1949652 1.076303 1.494843 -0.2931196 1.509903 -0.2921428 1.494848 -0.2429157 -0.01397222 0.3307999 0.03610962 0.3306445 -0.01142066 1.165468 -0.5049709 -0.4412336 -0.5061762 0.3933933 -0.5200616 -0.4412574 0.8565395 0.003351807 0.8552593 0.8379873 0.8414482 0.003330111 1.325558 -0.2931082 1.325578 -0.2429057 1.310498 -0.2921234 0.7430092 0.06779915 0.7931118 0.06764322 0.745561 0.9016801 1.28536 -0.2931066 1.30042 -0.2921215 1.28534 -0.2429063 0.7887064 0.9974756 0.7385899 0.9973198 0.7912614 0.1635949 -0.504971 0.393371 -0.503744 -0.44051 -0.4898789 0.3933933 0.7531145 0.844865 0.7543877 0.01098114 0.7682064 0.8448879 1.267019 -0.2410417 1.267088 -0.2912452 1.282081 -0.2419995 0.09138089 0.3320702 0.1415545 0.331918 0.09392899 1.165468 1.241899 -0.2922024 1.256961 -0.2912444 1.241968 -0.2419973 0.07300192 0.2492659 0.1231699 0.2494184 0.07045072 1.082664 -0.5375614 0.3933731 -0.5363581 -0.4399838 -0.5224704 0.3933933 0.7694795 0.8448629 0.7707582 0.01149743 0.7845703 0.8448879 1.174884 -0.2923173 1.174829 -0.242117 1.159822 -0.2913554 0.2468721 1.165468 0.1967498 1.165316 0.2494296 0.3308302 1.184909 -0.2923178 1.19997 -0.2913554 1.184962 -0.242115 0.2939342 0.2990409 0.3440689 0.2988897 0.2964883 1.133679 0.630524 -0.0302397 0.6292963 0.8043985 0.6154334 -0.03026127 0.8873916 0.00334686 0.886117 0.8379873 0.8723006 0.003323614 0.9942489 -0.1392309 1.034472 -0.1372169 0.9941876 1.877417 0.8779507 -0.4590999 0.9181757 -0.4571241 0.8795915 1.559564 0.8692284 1.650549 0.8691686 -0.366483 0.9094516 1.648536 0.9108238 -0.4844871 0.9091787 1.534133 0.870599 -0.4825114 1.200024 -0.1803957 1.199966 -0.1401244 1.159785 -0.1804367 0.9083315 0.1329417 0.908393 0.1732137 0.8680955 0.1329875 1.619185 -0.1391948 1.65941 -0.137219 1.621 1.877455 1.493186 -0.1397837 1.53341 -0.1378079 1.494948 1.877455 0.8332958 1.555182 0.8350951 -0.4618513 0.8735209 1.553206 1.577161 -0.140003 1.575398 1.877455 1.536936 -0.1380275 1.535114 -0.1397837 1.494843 -0.1398419 1.535173 -0.1800571 0.08512872 0.8517184 0.1254006 0.8517801 0.08506733 0.8919916 1.200024 -0.1405054 1.240249 -0.1385293 1.201633 1.877455 1.074755 -0.1426843 1.11498 -0.1407078 1.076232 1.877454 0.8948484 -0.2672808 0.8932301 1.750298 0.8546236 -0.2653053 1.116456 1.879431 1.117956 -0.1403235 1.156682 1.877455 1.285248 -0.139838 1.285307 -0.1801112 1.325519 -0.1397796 -0.04626077 1.877454 -0.04619938 1.837181 -0.005989074 1.877516 1.745417 -0.1377192 1.785642 -0.1357426 1.747307 1.877454 0.7512069 -0.2896098 0.791432 -0.2876334 0.753116 1.724867 1.661224 1.879431 1.663087 -0.1362519 1.701449 1.877455 0.7917438 -0.4680079 0.7898634 1.546848 0.751519 -0.4660317 -0.2075314 1.837181 -0.1672599 1.837239 -0.2075906 1.877454 -0.08665549 1.877516 -0.1269271 1.877454 -0.08659386 1.837242 0.7523066 -0.2862288 0.7925314 -0.2842525 0.7539303 1.731225 1.325578 -0.1382194 1.365803 -0.1362429 1.327278 1.877455 1.325578 -0.1397796 1.323932 1.877455 1.285353 -0.1378036 1.451238 1.879431 1.45296 -0.1357331 1.491463 1.877455 1.282189 -0.1802724 1.28213 -0.1399987 1.241918 -0.1803302 -0.1269269 1.837242 -0.1269885 1.877516 -0.1671985 1.837181</float_array>
          <technique_common>
            <accessor source="#Cube_001-mesh-map-0-array" count="1644" stride="2">
              <param name="S" type="float"/>
              <param name="T" type="float"/>
            </accessor>
          </technique_common>
        </source>
        <vertices id="Cube_001-mesh-vertices">
          <input semantic="POSITION" source="#Cube_001-mesh-positions"/>
        </vertices>
        <polylist material="Wood2-material" count="548">
          <input semantic="VERTEX" source="#Cube_001-mesh-vertices" offset="0"/>
          <input semantic="NORMAL" source="#Cube_001-mesh-normals" offset="1"/>
          <input semantic="TEXCOORD" source="#Cube_001-mesh-map-0" offset="2" set="0"/>
          <vcount>3 3 3 3 3 3 3 3 3 3 3 3 3 3 3 3 3 3 3 3 3 3 3 3 3 3 3 3 3 3 3 3 3 3 3 3 3 3 3 3 3 3 3 3 3 3 3 3 3 3 3 3 3 3 3 3 3 3 3 3 3 3 3 3 3 3 3 3 3 3 3 3 3 3 3 3 3 3 3 3 3 3 3 3 3 3 3 3 3 3 3 3 3 3 3 3 3 3 3 3 3 3 3 3 3 3 3 3 3 3 3 3 3 3 3 3 3 3 3 3 3 3 3 3 3 3 3 3 3 3 3 3 3 3 3 3 3 3 3 3 3 3 3 3 3 3 3 3 3 3 3 3 3 3 3 3 3 3 3 3 3 3 3 3 3 3 3 3 3 3 3 3 3 3 3 3 3 3 3 3 3 3 3 3 3 3 3 3 3 3 3 3 3 3 3 3 3 3 3 3 3 3 3 3 3 3 3 3 3 3 3 3 3 3 3 3 3 3 3 3 3 3 3 3 3 3 3 3 3 3 3 3 3 3 3 3 3 3 3 3 3 3 3 3 3 3 3 3 3 3 3 3 3 3 3 3 3 3 3 3 3 3 3 3 3 3 3 3 3 3 3 3 3 3 3 3 3 3 3 3 3 3 3 3 3 3 3 3 3 3 3 3 3 3 3 3 3 3 3 3 3 3 3 3 3 3 3 3 3 3 3 3 3 3 3 3 3 3 3 3 3 3 3 3 3 3 3 3 3 3 3 3 3 3 3 3 3 3 3 3 3 3 3 3 3 3 3 3 3 3 3 3 3 3 3 3 3 3 3 3 3 3 3 3 3 3 3 3 3 3 3 3 3 3 3 3 3 3 3 3 3 3 3 3 3 3 3 3 3 3 3 3 3 3 3 3 3 3 3 3 3 3 3 3 3 3 3 3 3 3 3 3 3 3 3 3 3 3 3 3 3 3 3 3 3 3 3 3 3 3 3 3 3 3 3 3 3 3 3 3 3 3 3 3 3 3 3 3 3 3 3 3 3 3 3 3 3 3 3 3 3 3 3 3 3 3 3 3 3 3 3 3 3 3 3 3 3 3 3 3 3 3 3 3 3 3 3 3 3 3 3 3 3 3 3 3 3 3 3 3 3 3 3 3 3 3 3 3 3 3 3 3 3 3 3 3 3 3 3 3 3 3 3 3 3 3 3 3 3 3 3 3 3 3 3 3 3 3 3 3 3 3 3 3 3 3 3 3 </vcount>
          <p>4 0 0 5 0 1 1 0 2 5 1 3 6 1 4 2 1 5 6 2 6 7 2 7 3 2 8 7 3 9 4 3 10 0 3 11 0 4 12 1 4 13 2 4 14 7 5 15 6 5 16 5 5 17 12 6 18 13 6 19 9 6 20 13 7 21 14 7 22 10 7 23 14 8 24 15 8 25 11 8 26 15 9 27 12 9 28 8 9 29 8 10 30 9 10 31 10 10 32 15 11 33 14 11 34 13 11 35 20 12 36 21 12 37 17 12 38 21 13 39 22 13 40 18 13 41 22 14 42 23 14 43 19 14 44 23 15 45 20 15 46 16 15 47 16 16 48 17 16 49 18 16 50 23 17 51 22 17 52 21 17 53 28 18 54 29 18 55 25 18 56 29 19 57 30 19 58 26 19 59 30 20 60 31 20 61 27 20 62 31 21 63 28 21 64 24 21 65 24 22 66 25 22 67 26 22 68 31 23 69 30 23 70 29 23 71 36 24 72 37 24 73 33 24 74 37 25 75 38 25 76 34 25 77 39 26 78 35 26 79 34 26 80 36 27 81 32 27 82 35 27 83 33 28 84 34 28 85 35 28 86 39 29 87 38 29 88 37 29 89 44 30 90 45 30 91 41 30 92 45 31 93 46 31 94 42 31 95 47 32 96 43 32 97 42 32 98 44 33 99 40 33 100 43 33 101 41 34 102 42 34 103 43 34 104 47 35 105 46 35 106 45 35 107 52 36 108 53 36 109 49 36 110 53 37 111 54 37 112 50 37 113 55 38 114 51 38 115 50 38 116 52 39 117 48 39 118 51 39 119 49 40 120 50 40 121 51 40 122 55 41 123 54 41 124 53 41 125 64 42 126 57 42 127 56 42 128 64 43 129 66 43 130 58 43 131 67 44 132 59 44 133 58 44 134 65 45 135 56 45 136 59 45 137 57 46 138 58 46 139 59 46 140 63 47 141 62 47 142 61 47 143 60 48 144 61 48 145 64 48 146 61 49 147 62 49 148 66 49 149 63 50 150 67 50 151 66 50 152 60 51 153 65 51 154 67 51 155 72 52 156 73 52 157 69 52 158 73 53 159 74 53 160 70 53 161 75 54 162 71 54 163 70 54 164 72 55 165 68 55 166 71 55 167 68 56 168 69 56 169 70 56 170 74 57 171 73 57 172 72 57 173 80 58 174 81 58 175 77 58 176 81 59 177 82 59 178 78 59 179 83 60 180 79 60 181 78 60 182 83 61 183 80 61 184 76 61 185 76 62 186 77 62 187 78 62 188 83 63 189 82 63 190 81 63 191 88 64 192 89 64 193 85 64 194 89 65 195 90 65 196 86 65 197 91 66 198 87 66 199 86 66 200 91 67 201 88 67 202 84 67 203 84 68 204 85 68 205 86 68 206 91 69 207 90 69 208 89 69 209 96 70 210 97 70 211 93 70 212 97 71 213 98 71 214 94 71 215 99 72 216 95 72 217 94 72 218 96 73 219 92 73 220 95 73 221 93 74 222 94 74 223 95 74 224 99 75 225 98 75 226 97 75 227 104 76 228 105 76 229 101 76 230 105 77 231 106 77 232 102 77 233 107 78 234 103 78 235 102 78 236 104 79 237 100 79 238 103 79 239 101 80 240 102 80 241 103 80 242 107 81 243 106 81 244 105 81 245 112 82 246 113 82 247 109 82 248 114 83 249 110 83 250 109 83 251 115 84 252 111 84 253 110 84 254 115 85 255 112 85 256 108 85 257 109 86 258 110 86 259 111 86 260 115 87 261 114 87 262 113 87 263 120 88 264 121 88 265 117 88 266 122 89 267 118 89 268 117 89 269 123 90 270 119 90 271 118 90 272 123 91 273 120 91 274 116 91 275 117 92 276 118 92 277 119 92 278 123 93 279 122 93 280 121 93 281 128 94 282 129 94 283 125 94 284 130 95 285 126 95 286 125 95 287 131 96 288 127 96 289 126 96 290 131 97 291 128 97 292 124 97 293 125 98 294 126 98 295 127 98 296 131 99 297 130 99 298 129 99 299 136 100 300 137 100 301 133 100 302 138 101 303 134 101 304 133 101 305 139 102 306 135 102 307 134 102 308 139 103 309 136 103 310 132 103 311 133 104 312 134 104 313 135 104 314 139 105 315 138 105 316 137 105 317 144 106 318 145 106 319 141 106 320 145 107 321 146 107 322 142 107 323 147 108 324 143 108 325 142 108 326 147 109 327 144 109 328 140 109 329 140 110 330 141 110 331 142 110 332 147 111 333 146 111 334 145 111 335 152 112 336 153 112 337 149 112 338 153 113 339 154 113 340 150 113 341 155 114 342 151 114 343 150 114 344 155 115 345 152 115 346 148 115 347 148 116 348 149 116 349 150 116 350 155 117 351 154 117 352 153 117 353 160 118 354 161 118 355 157 118 356 161 119 357 162 119 358 158 119 359 163 120 360 159 120 361 158 120 362 163 121 363 160 121 364 156 121 365 156 122 366 157 122 367 158 122 368 163 123 369 162 123 370 161 123 371 168 124 372 169 124 373 165 124 374 169 125 375 170 125 376 166 125 377 171 126 378 167 126 379 166 126 380 171 127 381 168 127 382 164 127 383 165 128 384 166 128 385 167 128 386 171 129 387 170 129 388 169 129 389 176 130 390 177 130 391 173 130 392 177 131 393 178 131 394 174 131 395 178 132 396 179 132 397 175 132 398 179 133 399 176 133 400 172 133 401 172 134 402 173 134 403 174 134 404 179 135 405 178 135 406 177 135 407 184 136 408 185 136 409 181 136 410 185 137 411 186 137 412 182 137 413 186 138 414 187 138 415 183 138 416 187 139 417 184 139 418 180 139 419 180 140 420 181 140 421 182 140 422 186 141 423 185 141 424 184 141 425 192 142 426 193 142 427 189 142 428 193 143 429 194 143 430 190 143 431 194 144 432 195 144 433 191 144 434 195 145 435 192 145 436 188 145 437 188 146 438 189 146 439 190 146 440 195 147 441 194 147 442 193 147 443 200 148 444 201 148 445 197 148 446 201 149 447 202 149 448 198 149 449 202 150 450 203 150 451 199 150 452 203 151 453 200 151 454 196 151 455 196 152 456 197 152 457 198 152 458 203 153 459 202 153 460 201 153 461 208 154 462 209 154 463 205 154 464 209 155 465 210 155 466 206 155 467 210 156 468 211 156 469 207 156 470 211 157 471 208 157 472 204 157 473 204 158 474 205 158 475 206 158 476 211 159 477 210 159 478 209 159 479 216 160 480 217 160 481 213 160 482 217 161 483 218 161 484 214 161 485 218 162 486 219 162 487 215 162 488 219 163 489 216 163 490 212 163 491 212 164 492 213 164 493 214 164 494 219 165 495 218 165 496 217 165 497 224 166 498 225 166 499 221 166 500 225 167 501 226 167 502 222 167 503 226 168 504 227 168 505 223 168 506 227 169 507 224 169 508 220 169 509 220 170 510 221 170 511 222 170 512 227 171 513 226 171 514 225 171 515 232 172 516 233 172 517 229 172 518 233 173 519 234 173 520 230 173 521 234 174 522 235 174 523 231 174 524 235 175 525 232 175 526 228 175 527 228 176 528 229 176 529 230 176 530 235 177 531 234 177 532 233 177 533 240 178 534 241 178 535 237 178 536 241 179 537 242 179 538 238 179 539 242 180 540 243 180 541 239 180 542 243 181 543 240 181 544 236 181 545 236 182 546 237 182 547 238 182 548 243 183 549 242 183 550 241 183 551 248 184 552 249 184 553 245 184 554 249 185 555 250 185 556 246 185 557 250 186 558 251 186 559 247 186 560 251 187 561 248 187 562 244 187 563 244 188 564 245 188 565 246 188 566 251 189 567 250 189 568 249 189 569 256 190 570 257 190 571 253 190 572 257 191 573 258 191 574 254 191 575 258 192 576 259 192 577 255 192 578 259 193 579 256 193 580 252 193 581 252 194 582 253 194 583 254 194 584 259 195 585 258 195 586 257 195 587 264 196 588 265 196 589 261 196 590 265 197 591 266 197 592 262 197 593 267 198 594 263 198 595 262 198 596 267 199 597 264 199 598 260 199 599 260 200 600 261 200 601 262 200 602 267 201 603 266 201 604 265 201 605 272 202 606 273 202 607 269 202 608 273 203 609 274 203 610 270 203 611 275 204 612 271 204 613 270 204 614 275 205 615 272 205 616 268 205 617 268 206 618 269 206 619 270 206 620 275 207 621 274 207 622 273 207 623 280 208 624 281 208 625 277 208 626 281 209 627 282 209 628 278 209 629 283 210 630 279 210 631 278 210 632 283 211 633 280 211 634 276 211 635 276 212 636 277 212 637 278 212 638 283 213 639 282 213 640 281 213 641 288 214 642 289 214 643 285 214 644 289 215 645 290 215 646 286 215 647 291 216 648 287 216 649 286 216 650 291 217 651 288 217 652 284 217 653 284 218 654 285 218 655 286 218 656 291 219 657 290 219 658 289 219 659 296 220 660 297 220 661 293 220 662 297 221 663 298 221 664 294 221 665 299 222 666 295 222 667 294 222 668 299 223 669 296 223 670 292 223 671 292 224 672 293 224 673 294 224 674 299 225 675 298 225 676 297 225 677 304 226 678 305 226 679 301 226 680 305 227 681 306 227 682 302 227 683 307 228 684 303 228 685 302 228 686 307 229 687 304 229 688 300 229 689 300 230 690 301 230 691 302 230 692 307 231 693 306 231 694 305 231 695 312 232 696 313 232 697 309 232 698 313 233 699 314 233 700 310 233 701 315 234 702 311 234 703 310 234 704 315 235 705 312 235 706 308 235 707 308 236 708 309 236 709 310 236 710 315 237 711 314 237 712 313 237 713 320 238 714 321 238 715 317 238 716 321 239 717 322 239 718 318 239 719 323 240 720 319 240 721 318 240 722 323 241 723 320 241 724 316 241 725 316 242 726 317 242 727 318 242 728 323 243 729 322 243 730 321 243 731 329 244 732 325 244 733 324 244 734 330 245 735 326 245 736 325 245 737 330 246 738 331 246 739 327 246 740 331 247 741 328 247 742 324 247 743 324 248 744 325 248 745 326 248 746 331 249 747 330 249 748 329 249 749 337 250 750 333 250 751 332 250 752 338 251 753 334 251 754 333 251 755 338 252 756 339 252 757 335 252 758 339 253 759 336 253 760 332 253 761 332 254 762 333 254 763 334 254 764 339 255 765 338 255 766 337 255 767 345 256 768 341 256 769 340 256 770 346 257 771 342 257 772 341 257 773 346 258 774 347 258 775 343 258 776 347 259 777 344 259 778 340 259 779 340 260 780 341 260 781 342 260 782 347 261 783 346 261 784 345 261 785 353 262 786 349 262 787 348 262 788 354 263 789 350 263 790 349 263 791 354 264 792 355 264 793 351 264 794 355 265 795 352 265 796 348 265 797 348 266 798 349 266 799 350 266 800 355 267 801 354 267 802 353 267 803 361 268 804 357 268 805 356 268 806 362 269 807 358 269 808 357 269 809 362 270 810 363 270 811 359 270 812 363 271 813 360 271 814 356 271 815 356 272 816 357 272 817 358 272 818 363 273 819 362 273 820 361 273 821 0 274 822 4 274 823 1 274 824 1 275 825 5 275 826 2 275 827 2 276 828 6 276 829 3 276 830 3 277 831 7 277 832 0 277 833 3 278 834 0 278 835 2 278 836 4 279 837 7 279 838 5 279 839 8 280 840 12 280 841 9 280 842 9 281 843 13 281 844 10 281 845 10 282 846 14 282 847 11 282 848 11 283 849 15 283 850 8 283 851 11 284 852 8 284 853 10 284 854 12 285 855 15 285 856 13 285 857 16 286 858 20 286 859 17 286 860 17 287 861 21 287 862 18 287 863 18 288 864 22 288 865 19 288 866 19 289 867 23 289 868 16 289 869 19 290 870 16 290 871 18 290 872 20 291 873 23 291 874 21 291 875 24 292 876 28 292 877 25 292 878 25 293 879 29 293 880 26 293 881 26 294 882 30 294 883 27 294 884 27 295 885 31 295 886 24 295 887 27 296 888 24 296 889 26 296 890 28 297 891 31 297 892 29 297 893 32 298 894 36 298 895 33 298 896 33 299 897 37 299 898 34 299 899 38 300 900 39 300 901 34 300 902 39 301 903 36 301 904 35 301 905 32 302 906 33 302 907 35 302 908 36 303 909 39 303 910 37 303 911 40 304 912 44 304 913 41 304 914 41 305 915 45 305 916 42 305 917 46 306 918 47 306 919 42 306 920 47 307 921 44 307 922 43 307 923 40 308 924 41 308 925 43 308 926 44 309 927 47 309 928 45 309 929 48 310 930 52 310 931 49 310 932 49 311 933 53 311 934 50 311 935 54 312 936 55 312 937 50 312 938 55 313 939 52 313 940 51 313 941 48 314 942 49 314 943 51 314 944 52 315 945 55 315 946 53 315 947 65 316 948 64 316 949 56 316 950 57 317 951 64 317 952 58 317 953 66 318 954 67 318 955 58 318 956 67 319 957 65 319 958 59 319 959 56 320 960 57 320 961 59 320 962 60 321 963 63 321 964 61 321 965 65 322 966 60 322 967 64 322 968 64 323 969 61 323 970 66 323 971 62 324 972 63 324 973 66 324 974 63 325 975 60 325 976 67 325 977 68 326 978 72 326 979 69 326 980 69 327 981 73 327 982 70 327 983 74 328 984 75 328 985 70 328 986 75 329 987 72 329 988 71 329 989 71 330 990 68 330 991 70 330 992 75 331 993 74 331 994 72 331 995 76 332 996 80 332 997 77 332 998 77 333 999 81 333 1000 78 333 1001 82 334 1002 83 334 1003 78 334 1004 79 335 1005 83 335 1006 76 335 1007 79 336 1008 76 336 1009 78 336 1010 80 337 1011 83 337 1012 81 337 1013 84 338 1014 88 338 1015 85 338 1016 85 339 1017 89 339 1018 86 339 1019 90 340 1020 91 340 1021 86 340 1022 87 341 1023 91 341 1024 84 341 1025 87 342 1026 84 342 1027 86 342 1028 88 343 1029 91 343 1030 89 343 1031 92 344 1032 96 344 1033 93 344 1034 93 345 1035 97 345 1036 94 345 1037 98 346 1038 99 346 1039 94 346 1040 99 347 1041 96 347 1042 95 347 1043 92 348 1044 93 348 1045 95 348 1046 96 349 1047 99 349 1048 97 349 1049 100 350 1050 104 350 1051 101 350 1052 101 351 1053 105 351 1054 102 351 1055 106 352 1056 107 352 1057 102 352 1058 107 353 1059 104 353 1060 103 353 1061 100 354 1062 101 354 1063 103 354 1064 104 355 1065 107 355 1066 105 355 1067 108 356 1068 112 356 1069 109 356 1070 113 357 1071 114 357 1072 109 357 1073 114 358 1074 115 358 1075 110 358 1076 111 359 1077 115 359 1078 108 359 1079 108 360 1080 109 360 1081 111 360 1082 112 361 1083 115 361 1084 113 361 1085 116 362 1086 120 362 1087 117 362 1088 121 363 1089 122 363 1090 117 363 1091 122 364 1092 123 364 1093 118 364 1094 119 365 1095 123 365 1096 116 365 1097 116 366 1098 117 366 1099 119 366 1100 120 367 1101 123 367 1102 121 367 1103 124 368 1104 128 368 1105 125 368 1106 129 369 1107 130 369 1108 125 369 1109 130 370 1110 131 370 1111 126 370 1112 127 371 1113 131 371 1114 124 371 1115 124 372 1116 125 372 1117 127 372 1118 128 373 1119 131 373 1120 129 373 1121 132 374 1122 136 374 1123 133 374 1124 137 375 1125 138 375 1126 133 375 1127 138 376 1128 139 376 1129 134 376 1130 135 377 1131 139 377 1132 132 377 1133 132 378 1134 133 378 1135 135 378 1136 136 379 1137 139 379 1138 137 379 1139 140 380 1140 144 380 1141 141 380 1142 141 381 1143 145 381 1144 142 381 1145 146 382 1146 147 382 1147 142 382 1148 143 383 1149 147 383 1150 140 383 1151 143 384 1152 140 384 1153 142 384 1154 144 385 1155 147 385 1156 145 385 1157 148 386 1158 152 386 1159 149 386 1160 149 387 1161 153 387 1162 150 387 1163 154 388 1164 155 388 1165 150 388 1166 151 389 1167 155 389 1168 148 389 1169 151 390 1170 148 390 1171 150 390 1172 152 391 1173 155 391 1174 153 391 1175 156 392 1176 160 392 1177 157 392 1178 157 393 1179 161 393 1180 158 393 1181 162 394 1182 163 394 1183 158 394 1184 159 395 1185 163 395 1186 156 395 1187 159 396 1188 156 396 1189 158 396 1190 160 397 1191 163 397 1192 161 397 1193 164 398 1194 168 398 1195 165 398 1196 165 399 1197 169 399 1198 166 399 1199 170 400 1200 171 400 1201 166 400 1202 167 401 1203 171 401 1204 164 401 1205 164 402 1206 165 402 1207 167 402 1208 168 403 1209 171 403 1210 169 403 1211 172 404 1212 176 404 1213 173 404 1214 173 405 1215 177 405 1216 174 405 1217 174 406 1218 178 406 1219 175 406 1220 175 407 1221 179 407 1222 172 407 1223 175 408 1224 172 408 1225 174 408 1226 176 409 1227 179 409 1228 177 409 1229 180 410 1230 184 410 1231 181 410 1232 181 411 1233 185 411 1234 182 411 1235 182 412 1236 186 412 1237 183 412 1238 183 413 1239 187 413 1240 180 413 1241 183 414 1242 180 414 1243 182 414 1244 187 415 1245 186 415 1246 184 415 1247 188 416 1248 192 416 1249 189 416 1250 189 417 1251 193 417 1252 190 417 1253 190 418 1254 194 418 1255 191 418 1256 191 419 1257 195 419 1258 188 419 1259 191 420 1260 188 420 1261 190 420 1262 192 421 1263 195 421 1264 193 421 1265 196 422 1266 200 422 1267 197 422 1268 197 423 1269 201 423 1270 198 423 1271 198 424 1272 202 424 1273 199 424 1274 199 425 1275 203 425 1276 196 425 1277 199 426 1278 196 426 1279 198 426 1280 200 427 1281 203 427 1282 201 427 1283 204 428 1284 208 428 1285 205 428 1286 205 429 1287 209 429 1288 206 429 1289 206 430 1290 210 430 1291 207 430 1292 207 431 1293 211 431 1294 204 431 1295 207 432 1296 204 432 1297 206 432 1298 208 433 1299 211 433 1300 209 433 1301 212 434 1302 216 434 1303 213 434 1304 213 435 1305 217 435 1306 214 435 1307 214 436 1308 218 436 1309 215 436 1310 215 437 1311 219 437 1312 212 437 1313 215 438 1314 212 438 1315 214 438 1316 216 439 1317 219 439 1318 217 439 1319 220 440 1320 224 440 1321 221 440 1322 221 441 1323 225 441 1324 222 441 1325 222 442 1326 226 442 1327 223 442 1328 223 443 1329 227 443 1330 220 443 1331 223 444 1332 220 444 1333 222 444 1334 224 445 1335 227 445 1336 225 445 1337 228 446 1338 232 446 1339 229 446 1340 229 447 1341 233 447 1342 230 447 1343 230 448 1344 234 448 1345 231 448 1346 231 449 1347 235 449 1348 228 449 1349 231 450 1350 228 450 1351 230 450 1352 232 451 1353 235 451 1354 233 451 1355 236 452 1356 240 452 1357 237 452 1358 237 453 1359 241 453 1360 238 453 1361 238 454 1362 242 454 1363 239 454 1364 239 455 1365 243 455 1366 236 455 1367 239 456 1368 236 456 1369 238 456 1370 240 457 1371 243 457 1372 241 457 1373 244 458 1374 248 458 1375 245 458 1376 245 459 1377 249 459 1378 246 459 1379 246 460 1380 250 460 1381 247 460 1382 247 461 1383 251 461 1384 244 461 1385 247 462 1386 244 462 1387 246 462 1388 248 463 1389 251 463 1390 249 463 1391 252 464 1392 256 464 1393 253 464 1394 253 465 1395 257 465 1396 254 465 1397 254 466 1398 258 466 1399 255 466 1400 255 467 1401 259 467 1402 252 467 1403 255 468 1404 252 468 1405 254 468 1406 256 469 1407 259 469 1408 257 469 1409 260 470 1410 264 470 1411 261 470 1412 261 471 1413 265 471 1414 262 471 1415 266 472 1416 267 472 1417 262 472 1418 263 473 1419 267 473 1420 260 473 1421 263 474 1422 260 474 1423 262 474 1424 264 475 1425 267 475 1426 265 475 1427 268 476 1428 272 476 1429 269 476 1430 269 477 1431 273 477 1432 270 477 1433 274 478 1434 275 478 1435 270 478 1436 271 479 1437 275 479 1438 268 479 1439 271 480 1440 268 480 1441 270 480 1442 272 481 1443 275 481 1444 273 481 1445 276 482 1446 280 482 1447 277 482 1448 277 483 1449 281 483 1450 278 483 1451 282 484 1452 283 484 1453 278 484 1454 279 485 1455 283 485 1456 276 485 1457 279 486 1458 276 486 1459 278 486 1460 280 487 1461 283 487 1462 281 487 1463 284 488 1464 288 488 1465 285 488 1466 285 489 1467 289 489 1468 286 489 1469 290 490 1470 291 490 1471 286 490 1472 287 491 1473 291 491 1474 284 491 1475 287 492 1476 284 492 1477 286 492 1478 288 493 1479 291 493 1480 289 493 1481 292 494 1482 296 494 1483 293 494 1484 293 495 1485 297 495 1486 294 495 1487 298 496 1488 299 496 1489 294 496 1490 295 497 1491 299 497 1492 292 497 1493 295 498 1494 292 498 1495 294 498 1496 296 499 1497 299 499 1498 297 499 1499 300 500 1500 304 500 1501 301 500 1502 301 501 1503 305 501 1504 302 501 1505 306 502 1506 307 502 1507 302 502 1508 303 503 1509 307 503 1510 300 503 1511 303 504 1512 300 504 1513 302 504 1514 304 505 1515 307 505 1516 305 505 1517 308 506 1518 312 506 1519 309 506 1520 309 507 1521 313 507 1522 310 507 1523 314 508 1524 315 508 1525 310 508 1526 311 509 1527 315 509 1528 308 509 1529 311 510 1530 308 510 1531 310 510 1532 312 511 1533 315 511 1534 313 511 1535 316 512 1536 320 512 1537 317 512 1538 317 513 1539 321 513 1540 318 513 1541 322 514 1542 323 514 1543 318 514 1544 319 515 1545 323 515 1546 316 515 1547 319 516 1548 316 516 1549 318 516 1550 320 517 1551 323 517 1552 321 517 1553 328 518 1554 329 518 1555 324 518 1556 329 519 1557 330 519 1558 325 519 1559 326 520 1560 330 520 1561 327 520 1562 327 521 1563 331 521 1564 324 521 1565 327 522 1566 324 522 1567 326 522 1568 328 523 1569 331 523 1570 329 523 1571 336 524 1572 337 524 1573 332 524 1574 337 525 1575 338 525 1576 333 525 1577 334 526 1578 338 526 1579 335 526 1580 335 527 1581 339 527 1582 332 527 1583 335 528 1584 332 528 1585 334 528 1586 336 529 1587 339 529 1588 337 529 1589 344 530 1590 345 530 1591 340 530 1592 345 531 1593 346 531 1594 341 531 1595 342 532 1596 346 532 1597 343 532 1598 343 533 1599 347 533 1600 340 533 1601 343 534 1602 340 534 1603 342 534 1604 344 535 1605 347 535 1606 345 535 1607 352 536 1608 353 536 1609 348 536 1610 353 537 1611 354 537 1612 349 537 1613 350 538 1614 354 538 1615 351 538 1616 351 539 1617 355 539 1618 348 539 1619 351 540 1620 348 540 1621 350 540 1622 352 541 1623 355 541 1624 353 541 1625 360 542 1626 361 542 1627 356 542 1628 361 543 1629 362 543 1630 357 543 1631 358 544 1632 362 544 1633 359 544 1634 359 545 1635 363 545 1636 356 545 1637 359 546 1638 356 546 1639 358 546 1640 360 547 1641 363 547 1642 361 547 1643</p>
        </polylist>
      </mesh>
    </geometry>
  </library_geometries>
  <library_controllers/>
  <library_visual_scenes>
    <visual_scene id="Scene" name="Scene">
      <node id="WoodenTower" name="WoodenTower" type="NODE">
        <matrix sid="transform">1 0 0 -1.807665 0 7.54979e-8 -1 0 0 1 7.54979e-8 -0.2165713 0 0 0 1</matrix>
        <instance_geometry url="#Cube_001-mesh">
          <bind_material>
            <technique_common>
              <instance_material symbol="Wood2-material" target="#Wood2-material"/>
            </technique_common>
          </bind_material>
        </instance_geometry>
      </node>
      <node id="Camera" name="Camera" type="NODE">
        <matrix sid="transform">0.6858805 -0.3173701 0.6548619 8.789702 0.7276338 0.3124686 -0.6106656 -8.404783 -0.01081678 0.8953432 0.4452454 7.616721 0 0 0 1</matrix>
        <instance_camera url="#Camera-camera"/>
      </node>
      <node id="Lamp" name="Lamp" type="NODE">
        <matrix sid="transform">-0.2908646 -0.7711008 0.5663932 4.076245 0.9551712 -0.1998834 0.2183912 1.005454 -0.05518906 0.6045247 0.7946723 5.903862 0 0 0 1</matrix>
        <instance_light url="#Lamp-light"/>
      </node>
    </visual_scene>
  </library_visual_scenes>
  <scene>
    <instance_visual_scene url="#Scene"/>
  </scene>
</COLLADA>