<?xml version="1.0" encoding="utf-8"?>
<COLLADA xmlns="http://www.collada.org/2005/11/COLLADASchema" version="1.4.1">
  <asset>
    <contributor>
      <author>Duion</author>
      <authoring_tool>Blender 2.65.0 r53189</authoring_tool>
    </contributor>
    <created>2013-06-11T18:51:05</created>
    <modified>2013-06-11T18:51:05</modified>
    <unit name="meter" meter="1"/>
    <up_axis>Z_UP</up_axis>
  </asset>
  <library_lights>
    <light id="Lamp-light" name="Lamp">
      <technique_common>
        <point>
          <color sid="color">1 1 1</color>
          <constant_attenuation>1</constant_attenuation>
          <linear_attenuation>0</linear_attenuation>
          <quadratic_attenuation>0.00111109</quadratic_attenuation>
        </point>
      </technique_common>
      <extra>
        <technique profile="blender">
          <adapt_thresh>0.000999987</adapt_thresh>
          <area_shape>0</area_shape>
          <area_size>1</area_size>
          <area_sizey>1</area_sizey>
          <area_sizez>1</area_sizez>
          <atm_distance_factor>1</atm_distance_factor>
          <atm_extinction_factor>1</atm_extinction_factor>
          <atm_turbidity>2</atm_turbidity>
          <att1>0</att1>
          <att2>1</att2>
          <backscattered_light>1</backscattered_light>
          <bias>1</bias>
          <blue>1</blue>
          <buffers>1</buffers>
          <bufflag>0</bufflag>
          <bufsize>2880</bufsize>
          <buftype>2</buftype>
          <clipend>30.002</clipend>
          <clipsta>1.000799</clipsta>
          <compressthresh>0.04999995</compressthresh>
          <dist sid="blender_dist">29.99998</dist>
          <energy sid="blender_energy">1</energy>
          <falloff_type>2</falloff_type>
          <filtertype>0</filtertype>
          <flag>0</flag>
          <gamma sid="blender_gamma">1</gamma>
          <green>1</green>
          <halo_intensity sid="blnder_halo_intensity">1</halo_intensity>
          <horizon_brightness>1</horizon_brightness>
          <mode>8192</mode>
          <ray_samp>1</ray_samp>
          <ray_samp_method>1</ray_samp_method>
          <ray_samp_type>0</ray_samp_type>
          <ray_sampy>1</ray_sampy>
          <ray_sampz>1</ray_sampz>
          <red>1</red>
          <samp>3</samp>
          <shadhalostep>0</shadhalostep>
          <shadow_b sid="blender_shadow_b">0</shadow_b>
          <shadow_g sid="blender_shadow_g">0</shadow_g>
          <shadow_r sid="blender_shadow_r">0</shadow_r>
          <shadspotsize>45</shadspotsize>
          <sky_colorspace>0</sky_colorspace>
          <sky_exposure>1</sky_exposure>
          <skyblendfac>1</skyblendfac>
          <skyblendtype>1</skyblendtype>
          <soft>3</soft>
          <spotblend>0.15</spotblend>
          <spotsize>75</spotsize>
          <spread>1</spread>
          <sun_brightness>1</sun_brightness>
          <sun_effect_type>0</sun_effect_type>
          <sun_intensity>1</sun_intensity>
          <sun_size>1</sun_size>
          <type>0</type>
        </technique>
      </extra>
    </light>
  </library_lights>
  <library_images/>
  <library_effects>
    <effect id="elderbush_01_branch-effect">
      <profile_COMMON>
        <technique sid="common">
          <phong>
            <emission>
              <color sid="emission">0 0 0 1</color>
            </emission>
            <ambient>
              <color sid="ambient">0 0 0 1</color>
            </ambient>
            <diffuse>
              <color sid="diffuse">1 1 1 1</color>
            </diffuse>
            <specular>
              <color sid="specular">0 0 0 1</color>
            </specular>
            <shininess>
              <float sid="shininess">50</float>
            </shininess>
            <transparency>
              <float sid="transparency">0</float>
            </transparency>
            <index_of_refraction>
              <float sid="index_of_refraction">1</float>
            </index_of_refraction>
          </phong>
        </technique>
        <extra>
          <technique profile="GOOGLEEARTH">
            <double_sided>1</double_sided>
          </technique>
        </extra>
      </profile_COMMON>
      <extra><technique profile="MAX3D"><double_sided>1</double_sided></technique></extra>
    </effect>
  </library_effects>
  <library_materials>
    <material id="elderbush_01_branch-material" name="elderbush_01_branch">
      <instance_effect url="#elderbush_01_branch-effect"/>
    </material>
  </library_materials>
  <library_geometries>
    <geometry id="collision_1-mesh" name="collision_1">
      <mesh>
        <source id="collision_1-mesh-positions">
          <float_array id="collision_1-mesh-positions-array" count="51">0.1209093 1.591633 -1.064995 0.1209093 1.664872 0.3673332 1.082633 1.193274 -1.064995 1.134421 1.245062 0.3673332 1.480992 0.2315502 -1.064995 1.554231 0.2315502 0.3673332 1.082633 -0.7301732 -1.064995 1.134421 -0.7819615 0.3673332 0.1209092 -1.128532 -1.064995 0.1209092 -1.201772 0.3673332 -0.8408143 -0.7301731 -1.064995 -0.8926026 -0.7819612 0.3673332 -1.239173 0.2315502 -1.064995 -1.312413 0.2315502 0.3673332 -0.8408143 1.193274 -1.064995 -0.8926026 1.245062 0.3673332 0.1209093 0.2315502 -2.377195</float_array>
          <technique_common>
            <accessor source="#collision_1-mesh-positions-array" count="17" stride="3">
              <param name="X" type="float"/>
              <param name="Y" type="float"/>
              <param name="Z" type="float"/>
            </accessor>
          </technique_common>
        </source>
        <source id="collision_1-mesh-normals">
          <float_array id="collision_1-mesh-normals-array" count="66">0.3822571 0.9228504 -0.04718834 0.9228504 0.3822572 -0.04718834 0.9228504 -0.3822572 -0.04718834 0.3822571 -0.9228504 -0.04718834 -0.3822573 -0.9228503 -0.04718828 -0.9228504 -0.382257 -0.04718834 0 0 1 0 0 1 0 0 1 0 0 1 0 0 1 0 0 1 -0.3822572 0.9228503 -0.04718828 -0.9228504 0.3822571 -0.04718834 0.6672773 0.2763953 -0.6916261 -0.6672773 -0.2763952 -0.691626 -0.2763954 -0.6672773 -0.6916261 0.2763953 -0.6672774 -0.6916261 -0.2763954 0.6672773 -0.6916261 0.2763954 0.6672773 -0.6916261 0.6672773 -0.2763954 -0.6916261 -0.6672773 0.2763953 -0.6916261</float_array>
          <technique_common>
            <accessor source="#collision_1-mesh-normals-array" count="22" stride="3">
              <param name="X" type="float"/>
              <param name="Y" type="float"/>
              <param name="Z" type="float"/>
            </accessor>
          </technique_common>
        </source>
        <vertices id="collision_1-mesh-vertices">
          <input semantic="POSITION" source="#collision_1-mesh-positions"/>
        </vertices>
        <polylist count="22">
          <input semantic="VERTEX" source="#collision_1-mesh-vertices" offset="0"/>
          <input semantic="NORMAL" source="#collision_1-mesh-normals" offset="1"/>
          <vcount>4 4 4 4 4 4 3 3 3 3 3 3 4 4 3 3 3 3 3 3 3 3 </vcount>
          <p>0 0 1 0 3 0 2 0 2 1 3 1 5 1 4 1 4 2 5 2 7 2 6 2 6 3 7 3 9 3 8 3 8 4 9 4 11 4 10 4 10 5 11 5 13 5 12 5 3 6 1 6 15 6 3 7 15 7 5 7 15 8 13 8 5 8 13 9 11 9 5 9 11 10 7 10 5 10 11 11 9 11 7 11 1 12 0 12 14 12 15 12 12 13 13 13 15 13 14 13 2 14 4 14 16 14 10 15 12 15 16 15 8 16 10 16 16 16 6 17 8 17 16 17 14 18 0 18 16 18 0 19 2 19 16 19 4 20 6 20 16 20 12 21 14 21 16 21</p>
        </polylist>
      </mesh>
      <extra><technique profile="MAYA"><double_sided>1</double_sided></technique></extra>
    </geometry>
    <geometry id="elderbush128-mesh" name="elderbush128">
      <mesh>
        <source id="elderbush128-mesh-positions">
          <float_array id="elderbush128-mesh-positions-array" count="576">9.470841 7.774099 8.319001 -9.84944 3.71063 -5.67004 -10.2017 -4.084301 -6.27031 9.11856 -0.02082049 7.71872 12.8256 14.61002 11.2125 -6.49468 10.54652 -2.776489 16.1575 19.82092 15.6587 -3.16274 15.75742 1.66965 -7.27015 5.639649 11.1337 6.89154 5.845079 -8.484721 6.53926 -1.949849 -9.085 -7.62243 -2.15527 10.5334 -3.91539 12.47552 14.0272 10.2463 12.68092 -5.59118 -0.583448 17.68642 18.4734 13.5782 17.89182 -1.14504 -6.34229 4.721419 12.7532 3.76016 5.556769 -8.2851 4.84637 -1.631174 -10.6214 -5.25608 -2.466516 10.4169 -9.358 10.93322 16.5147 0.744455 11.76852 -4.52362 -14.0001 15.47922 19.7976 -3.89763 16.31462 -1.24073 -11.8174 5.169379 -2.81942 9.23526 5.108809 7.28752 10.3215 -2.07913 4.95121 -10.7312 -2.018558 -5.15573 -14.8331 11.38112 0.9420624 6.21955 11.32052 11.049 -19.4752 15.92722 4.22495 1.57746 15.86662 14.3319 6.33096 6.232149 -3.98511 -7.21126 0.8438395 5.14436 -6.59916 -4.748211 4.82685 6.94305 0.6400994 -4.30262 7.92922 11.26612 -6.05508 -5.61299 5.877769 3.07439 10.9596 14.70652 -9.03943 -2.58263 9.31822 0.0900411 4.40396 3.39887 7.68304 -5.28426 3.677119 -6.52378 -4.67217 -1.914934 -6.84129 5.01606 -2.193176 7.36553 6.00223 8.43282 5.61306 -3.686 8.71102 -8.59376 9.03259 11.87322 2.62871 -0.655634 12.15142 -11.5781 9.99383 4.562759 6.53051 -8.89084 5.41311 -4.01514 -9.83783 -1.628076 -4.59025 9.04684 -2.478425 5.9554 12.1745 11.40942 8.03722 -6.71018 12.25972 -2.50843 13.0849 18.22392 8.68495 -5.79982 19.07432 -1.8607 -4.72876 4.882879 10.7049 5.83175 5.09299 -8.18948 4.88476 -1.948197 -8.7646 -5.67575 -2.158305 10.1297 -2.5481 11.72952 12.2116 8.012411 11.93962 -6.68277 -1.63774 18.54412 12.8593 8.92277 18.75422 -6.03505 -5.87594 8.37612 6.73223 6.548 1.351579 -9.04003 5.91515 -5.55947 -8.12931 -6.50878 1.46508 7.64296 -6.92283 15.45572 6.96919 5.5011 8.43122 -8.803071 -8.334381 21.90172 8.30724 4.08956 14.87712 -7.46503 -8.010641 4.90144 -7.74537 8.68269 4.82628 5.43757 8.049851 -2.084775 6.34829 -8.643481 -2.009615 -6.83465 -9.057531 11.98102 -7.50841 7.6358 11.90592 5.67453 -10.4691 18.42702 -6.17037 6.22426 18.35182 7.01258 10.9421 5.69296 -2.097599 -10.0598 4.537909 3.77895 -10.3349 -2.63422 3.568681 10.667 -1.479161 -2.307879 13.7389 12.47692 -1.44841 -7.26299 11.32192 4.42814 17.9162 17.67152 0.4230774 -3.0857 16.51642 6.29963 3.39183 4.94611 11.3527 -2.50952 5.284759 -9.6713 -2.78466 -1.887365 -9.881581 3.1167 -2.226015 11.1424 6.18863 11.73012 12.0018 0.287278 12.06872 -9.022121 10.3659 16.92462 13.8733 4.46456 17.26332 -7.15063 -11.2701 3.12923 1.19983 8.95945 6.16163 -1.36829 10.0865 -0.5327506 -1.53669 -10.1431 -3.56515 1.03144 -13.7804 9.59062 2.049941 6.44916 12.62302 -0.5181856 -16.6285 15.24642 3.7463 3.60107 18.27882 1.17817 -2.45572 4.66047 -10.3099 0.14508 4.630389 10.1415 1.2721 -2.063992 9.97308 -1.3287 -2.033913 -10.4783 -4.96601 11.12182 -9.459831 -2.36522 11.09172 10.9916 -7.8141 16.77772 -7.76347 -5.21331 16.74762 12.6879 6.62073 1.664339 5.71375 -5.16764 3.80051 -3.382489 -6.19035 -0.9835806 -4.17667 5.59802 -3.119751 4.91958 8.1782 6.413759 6.76963 -3.61017 8.54992 -2.32661 10.2945 10.42782 8.07409 -1.49387 12.56402 -1.02216 -3.875 2.67066 7.11455 5.32809 2.79419 -4.78329 4.30538 -1.989897 -5.57746 -4.89772 -2.113433 6.32037 -2.31753 7.420079 8.170431 6.88556 7.543619 -3.72741 -0.20123 11.43412 9.474881 9.00186 11.55762 -2.42295 6.79619 4.75101 -6.60747 -4.87543 2.44588 6.19381 -5.47761 -3.20842 6.7369 6.19402 -0.9032905 -6.06437 9.238921 9.48482 -8.94432 -2.4327 7.179659 3.856961 11.9227 10.74482 -13.5249 0.251093 8.43962 -0.7235767 7.4295 3.45387 5.66538 -5.50874 3.743019 -6.07905 -6.11091 -1.911286 -5.53595 6.82732 -2.200435 6.20848 9.87223 8.18762 3.328531 -3.06601 8.476819 -8.415901 12.556 9.44762 -1.252 -0.382212 9.73682 -12.9964 5.24414 6.257009 -4.64208 -6.0693 0.5850796 6.71956 -5.45978 -4.88975 5.88185 5.85367 0.7821895 -5.4798 7.42214 11.51372 -5.25418 -3.89131 5.841789 6.10747 11.433 14.61002 -6.34892 0.119535 8.938119 5.01273 5.6468 3.28289 7.00345 -6.47197 3.55919 -4.92597 -5.86244 -1.915631 -5.76369 6.25633 -2.191931 6.16573 7.8248 8.53962 6.39135 -4.29397 8.815919 -5.53807 11.8356 11.63592 5.29662 -0.283125 11.91222 -6.63281 -4.3185 7.34878 -10.5444 4.98129 3.907439 10.5782 4.74774 -3.772021 10.5201 -4.55205 -0.3306806 -10.6025 -4.51021 14.62082 -13.4544 4.78958 11.17952 7.66818 -6.05403 20.64432 -17.4429 3.24575 17.20292 3.6797 11.002 5.512569 -4.69993 -10.3392 5.74366 4.73374 -10.5727 -1.935798 4.67562 10.7684 -2.166895 -4.75806 10.8103 12.78462 -7.60994 -10.5309 13.01572 1.82373 9.26643 18.80802 -11.5984 -12.0747 19.03912 -2.16475 -6.52342 6.360819 1.83949 8.397231 0.4212993 -3.56273 7.36479 -5.01805 -2.98175 -7.55585 0.9214693 2.42048 -6.17665 12.05972 1.17207 8.74399 6.120239 -4.23015 -6.55814 17.37072 0.2624034 8.362501 11.43112 -5.13982 -1.93864 3.41539 -8.830471 3.81245 3.366719 7.10723 2.78002 -2.072628 7.68821 -2.97107 -2.023955 -8.249481 -1.59187 9.114319 -9.497891 4.15922 9.06572 6.43981 -1.97336 14.42522 -10.4076 3.77773 14.37662 5.53014</float_array>
          <technique_common>
            <accessor source="#elderbush128-mesh-positions-array" count="192" stride="3">
              <param name="X" type="float"/>
              <param name="Y" type="float"/>
              <param name="Z" type="float"/>
            </accessor>
          </technique_common>
        </source>
        <source id="elderbush128-mesh-normals">
          <float_array id="elderbush128-mesh-normals-array" count="576">-0.5783868 -0.05249178 0.8140507 -0.5797601 -0.04428231 0.8135625 -0.5810419 -0.0363475 0.8130436 -0.5810419 -0.0363475 0.8130436 -0.5218665 -0.2856227 0.8037355 -0.5641041 -0.1267128 0.8159124 -0.4975432 -0.3565477 0.7907346 -0.4975432 -0.3565477 0.7907346 -0.7679678 0.326548 -0.5509507 -0.7707145 0.3163549 -0.5530259 -0.8085269 0.08139282 -0.5827814 -0.8085269 0.08139282 -0.5827814 -0.6277657 0.6375927 -0.4464552 -0.6367992 0.6237678 -0.4531388 -0.5725272 0.7123631 -0.4058352 -0.5725272 0.7123631 -0.4058352 -0.8947722 -0.1053193 -0.4338511 -0.8992584 -0.05444496 -0.4339732 -0.9014863 0.00439465 -0.4327219 -0.9014863 0.00439465 -0.4327219 -0.8154546 -0.4106265 -0.4078799 -0.864681 -0.2664571 -0.4257943 -0.7701346 -0.5048677 -0.3898434 -0.7701346 -0.5048372 -0.3898434 0.3804438 0.48146 -0.7895749 0.3831904 0.4694967 -0.7954039 0.4081851 0.3373821 -0.8482314 0.4081851 0.3373821 -0.8482314 0.3172399 0.6841639 -0.6566973 0.3262734 0.6610004 -0.6757103 0.2936186 0.7383038 -0.6071963 0.2936186 0.7383038 -0.6071963 0.5195776 0.1259804 0.8450576 0.5384991 0.06936854 0.8397473 0.5551927 0.01355022 0.8315684 0.5551927 0.01355022 0.8315684 0.4405347 0.3162633 0.840144 0.4856715 0.2148808 0.8472854 0.422956 0.3517869 0.8350475 0.422956 0.3517869 0.8350475 -0.8154851 0.1497238 0.5590381 -0.8101749 0.1851558 0.5561083 -0.821131 -0.1215247 0.5575731 -0.821131 -0.1215247 0.5576037 -0.6515702 0.6060671 0.4561907 -0.6295663 0.6390271 0.441847 -0.5164342 0.7735221 0.3673208 -0.5164342 0.7735221 0.3673208 -0.4882046 -0.0230109 0.8724021 -0.4880825 -0.01864677 0.8725547 -0.4877163 -0.005676388 0.8729515 -0.4877163 -0.005676388 0.8729515 -0.4882656 -0.0255745 0.8723106 -0.4883267 -0.02822959 0.8721885 -0.4880825 -0.01773124 0.8725852 -0.4880825 -0.01773124 0.8725852 -0.844203 0.2595294 -0.4689474 -0.8445082 0.2581561 -0.4691305 -0.8630329 0.1553087 -0.480636 -0.8630329 0.1553087 -0.480636 -0.8439894 0.2604755 -0.4688253 -0.8435011 0.2625812 -0.4685202 -0.8623005 0.1608325 -0.4801477 -0.8623005 0.1608325 -0.4801477 -0.7973266 -0.06237983 -0.6002686 -0.7942442 -0.04422128 -0.605945 -0.7874691 -0.009094476 -0.6162298 -0.7874691 -0.009094476 -0.6162298 -0.7978454 -0.06561475 -0.599231 -0.80047 -0.08297979 -0.593585 -0.7950072 -0.04858541 -0.6046022 -0.7950072 -0.04858541 -0.6046022 0.6196173 -0.01590013 -0.7847225 0.6194647 -0.02572709 -0.7845699 0.6114994 -0.1581469 -0.7752312 0.6114994 -0.1581469 -0.7752312 0.6069827 0.2063051 -0.767449 0.6079592 0.1986144 -0.7687003 0.5946226 0.286172 -0.7513352 0.5946226 0.286172 -0.7513352 0.2738121 -0.1326944 0.9525743 0.2733543 -0.1070894 0.9559007 0.271218 -0.03857535 0.9617298 0.271218 -0.03857535 0.9617298 0.2670674 -0.4030579 0.8753014 0.272042 -0.3075045 0.9118015 0.2582476 -0.5045015 0.8238472 0.2582476 -0.5045015 0.8238472 -0.9424726 0.2000793 0.2677694 -0.946318 0.179815 0.2685018 -0.9622486 0.02896201 0.2705466 -0.9622486 0.02896201 0.2705466 -0.8458205 0.4737998 0.2450331 -0.8659017 0.4331797 0.2500382 -0.797113 0.5571459 0.2327036 -0.797113 0.5571459 0.2327036 -0.1321451 0.04300057 -0.9902646 -0.1312906 0.03704947 -0.9906308 -0.1264687 0.003631651 -0.9919431 -0.1264687 0.003631651 -0.9919431 -0.1474349 0.1564989 -0.9765923 -0.144261 0.1318399 -0.9807123 -0.1542405 0.2117679 -0.9650563 -0.1542405 0.2117679 -0.9650563 0.9553819 0.2693259 -0.1210974 0.9539781 0.2743614 -0.1209143 0.9779657 0.1677602 -0.1241188 0.9779657 0.1677602 -0.1241188 0.9007233 0.4191107 -0.1139256 0.8966338 0.4279611 -0.1133762 0.8739585 0.47322 -0.1104465 0.8739585 0.47322 -0.1104465 -0.6094241 0.01239049 0.7927183 -0.6097598 0.009704828 0.7925047 -0.6109806 -7.93481e-4 0.7916196 -0.6109806 -7.93481e-4 0.7916196 -0.6051821 0.04474014 0.7947936 -0.6062197 0.03726309 0.7943968 -0.6030458 0.05941951 0.7954649 -0.6030458 0.05941951 0.7954649 -0.7524338 0.3143407 -0.578753 -0.7521287 0.3156224 -0.5784783 -0.7648244 0.2612385 -0.5888852 -0.7647939 0.2612385 -0.5888852 -0.7103489 0.4455092 -0.544847 -0.7085177 0.450209 -0.5433821 -0.6760155 0.5245827 -0.5174719 -0.6760155 0.5245827 -0.5174719 0.741905 -0.03958249 0.6693015 0.7410504 -0.02639847 0.6708884 0.7401349 -0.01425212 0.6722617 0.7401349 -0.01425212 0.6722617 0.4078189 0.758385 0.5084078 0.7357097 0.03192234 0.6765343 0.2573015 0.8825648 0.3935056 0.257271 0.8825648 0.3935056 -0.619068 0.3728141 0.6911832 -0.6200751 0.3691824 0.6921903 -0.663625 0.1412091 0.7345805 -0.663625 0.1412091 0.7345805 -0.3784906 0.8158819 0.4370556 -0.354442 0.8398084 0.4111453 -0.144322 0.9724418 0.1829279 -0.144322 0.9724418 0.1829279 0.7378155 -0.1563768 0.6566057 0.7293313 -0.09872734 0.6769616 0.7151097 -0.02725303 0.6984466 0.7151097 -0.02725303 0.6984466 0.6870327 -0.6236763 0.3727531 0.7456893 -0.3416852 0.5719474 0.6334727 -0.7256386 0.2685323 0.6334727 -0.7256386 0.2685323 -0.6966766 0.1018097 0.7101047 -0.699118 0.06759846 0.7117832 -0.6916715 -0.1838435 0.6983856 -0.6916715 -0.1838435 0.6983856 -0.5515915 0.6048464 0.5743584 -0.59035 0.5263222 0.6118961 -0.4519791 0.7539903 0.4766076 -0.4519791 0.7539903 0.4766076 0.90524 -0.09509563 -0.4140446 0.9086276 -0.07071137 -0.4115421 0.9134495 -0.02468943 -0.4061709 0.9134495 -0.02468943 -0.4061709 0.9087191 -0.06988734 -0.411481 0.9023103 -0.113712 -0.4157842 0.9124424 -0.03601181 -0.4075747 0.9124424 -0.03601181 -0.4075747 0.3994873 0.177221 0.899411 0.4004639 0.1611072 0.9020051 0.4040346 -0.01919609 0.9145177 0.4040346 -0.01919609 0.9145177 0.36021 0.4742271 0.8033082 0.3622852 0.464217 0.8082217 0.3350322 0.5783563 0.7437666 0.3350322 0.5783563 0.7437666 -0.3617664 -0.0628376 -0.9301126 -0.359508 -0.0559709 -0.9314249 -0.3518784 -0.03311258 -0.9354534 -0.3518784 -0.03311258 -0.9354534 -0.3869747 -0.1436811 -0.9108249 -0.3812372 -0.1245155 -0.9160436 -0.3981445 -0.1825617 -0.8989532 -0.3981445 -0.1825617 -0.8989532 0.9296548 -0.1512192 -0.3359172 0.9289529 -0.155919 -0.3356731 0.9194312 -0.2099978 -0.3324076 0.9194312 -0.2099978 -0.3324076 0.939848 -0.03906369 -0.3392437 0.9394513 -0.04846334 -0.3391522 0.9405805 0.00943017 -0.3393658 0.9405805 0.00943017 -0.3393658</float_array>
          <technique_common>
            <accessor source="#elderbush128-mesh-normals-array" count="192" stride="3">
              <param name="X" type="float"/>
              <param name="Y" type="float"/>
              <param name="Z" type="float"/>
            </accessor>
          </technique_common>
        </source>
        <source id="elderbush128-mesh-map-0">
          <float_array id="elderbush128-mesh-map-0-array" count="864">0 -0.666667 1 -0.666667 1 -1 0 -0.666667 1 -1 0 -1 0 -0.333333 1 -0.333333 1 -0.666667 1 -0.666667 0 -0.666667 0 -0.333333 0 0 1 0 1 -0.333333 0 0 1 -0.333333 0 -0.333333 0 -0.666667 1 -0.666667 1 -1 0 -0.666667 1 -1 0 -1 0 -0.333333 1 -0.333333 1 -0.666667 0 -0.333333 1 -0.666667 0 -0.666667 0 0 1 0 1 -0.333333 0 0 1 -0.333333 0 -0.333333 0 -0.666667 1 -0.666667 1 -1 0 -0.666667 1 -1 0 -1 0 -0.333333 1 -0.333333 1 -0.666667 0 -0.333333 1 -0.666667 0 -0.666667 0 0 1 0 1 -0.333333 0 0 1 -0.333333 0 -0.333333 0 -0.666667 1 -0.666667 1 -1 0 -0.666667 1 -1 0 -1 0 -0.333333 1 -0.333333 1 -0.666667 0 -0.333333 1 -0.666667 0 -0.666667 0 0 1 0 1 -0.333333 0 0 1 -0.333333 0 -0.333333 0 -0.666667 1 -0.666667 1 -1 0 -0.666667 1 -1 0 -1 0 -0.333333 1 -0.333333 1 -0.666667 0 -0.333333 1 -0.666667 0 -0.666667 0 0 1 0 1 -0.333333 0 0 1 -0.333333 0 -0.333333 0 -0.666667 1 -0.666667 1 -1 0 -0.666667 1 -1 0 -1 0 -0.333333 1 -0.333333 1 -0.666667 0 -0.333333 1 -0.666667 0 -0.666667 0 0 1 0 1 -0.333333 0 0 1 -0.333333 0 -0.333333 0 -0.666667 1 -0.666667 1 -1 0 -0.666667 1 -1 0 -1 0 -0.333333 1 -0.333333 1 -0.666667 0 -0.333333 1 -0.666667 0 -0.666667 0 0 1 0 1 -0.333333 0 0 1 -0.333333 0 -0.333333 0 -0.666667 1 -0.666667 1 -1 0 -0.666667 1 -1 0 -1 0 -0.333333 1 -0.333333 1 -0.666667 0 -0.333333 1 -0.666667 0 -0.666667 0 0 1 0 1 -0.333333 0 0 1 -0.333333 0 -0.333333 0 -0.666667 1 -0.666667 1 -1 0 -0.666667 1 -1 0 -1 0 -0.333333 1 -0.333333 1 -0.666667 0 -0.333333 1 -0.666667 0 -0.666667 0 0 1 0 1 -0.333333 0 0 1 -0.333333 0 -0.333333 0 -0.666667 1 -0.666667 1 -1 0 -0.666667 1 -1 0 -1 0 -0.333333 1 -0.333333 1 -0.666667 0 -0.333333 1 -0.666667 0 -0.666667 0 0 1 0 1 -0.333333 0 0 1 -0.333333 0 -0.333333 0 -0.666667 1 -0.666667 1 -1 0 -0.666667 1 -1 0 -1 0 -0.333333 1 -0.333333 1 -0.666667 0 -0.333333 1 -0.666667 0 -0.666667 0 0 1 0 1 -0.333333 0 0 1 -0.333333 0 -0.333333 0 -0.666667 1 -0.666667 1 -1 0 -0.666667 1 -1 0 -1 0 -0.333333 1 -0.333333 1 -0.666667 0 -0.333333 1 -0.666667 0 -0.666667 0 0 1 0 1 -0.333333 0 0 1 -0.333333 0 -0.333333 0 -0.666667 1 -0.666667 1 -1 0 -0.666667 1 -1 0 -1 0 -0.333333 1 -0.333333 1 -0.666667 0 -0.333333 1 -0.666667 0 -0.666667 0 0 1 0 1 -0.333333 0 0 1 -0.333333 0 -0.333333 0 -0.666667 1 -0.666667 1 -1 0 -0.666667 1 -1 0 -1 0 -0.333333 1 -0.333333 1 -0.666667 0 -0.333333 1 -0.666667 0 -0.666667 0 0 1 0 1 -0.333333 0 0 1 -0.333333 0 -0.333333 0 -0.666667 1 -0.666667 1 -1 0 -0.666667 1 -1 0 -1 0 -0.333333 1 -0.333333 1 -0.666667 0 -0.333333 1 -0.666667 0 -0.666667 0 0 1 0 1 -0.333333 0 0 1 -0.333333 0 -0.333333 0 -0.666667 1 -0.666667 1 -1 0 -0.666667 1 -1 0 -1 0 -0.333333 1 -0.333333 1 -0.666667 0 -0.333333 1 -0.666667 0 -0.666667 0 0 1 0 1 -0.333333 0 0 1 -0.333333 0 -0.333333 0 -0.666667 1 -0.666667 1 -1 0 -0.666667 1 -1 0 -1 0 -0.333333 1 -0.333333 1 -0.666667 0 -0.333333 1 -0.666667 0 -0.666667 0 0 1 0 1 -0.333333 0 0 1 -0.333333 0 -0.333333 0 -0.666667 1 -0.666667 1 -1 0 -0.666667 1 -1 0 -1 0 -0.333333 1 -0.333333 1 -0.666667 0 -0.333333 1 -0.666667 0 -0.666667 0 0 1 0 1 -0.333333 0 0 1 -0.333333 0 -0.333333 0 -0.666667 1 -0.666667 1 -1 0 -0.666667 1 -1 0 -1 0 -0.333333 1 -0.333333 1 -0.666667 0 -0.333333 1 -0.666667 0 -0.666667 0 0 1 0 1 -0.333333 0 0 1 -0.333333 0 -0.333333 0 -0.666667 1 -0.666667 1 -1 0 -0.666667 1 -1 0 -1 0 -0.333333 1 -0.333333 1 -0.666667 0 -0.333333 1 -0.666667 0 -0.666667 0 0 1 0 1 -0.333333 0 0 1 -0.333333 0 -0.333333 0 -0.666667 1 -0.666667 1 -1 0 -0.666667 1 -1 0 -1 0 -0.333333 1 -0.333333 1 -0.666667 0 -0.333333 1 -0.666667 0 -0.666667 0 0 1 0 1 -0.333333 0 0 1 -0.333333 0 -0.333333 0 -0.666667 1 -0.666667 1 -1 0 -0.666667 1 -1 0 -1 0 -0.333333 1 -0.333333 1 -0.666667 0 -0.333333 1 -0.666667 0 -0.666667 0 0 1 0 1 -0.333333 0 0 1 -0.333333 0 -0.333333 0 -0.666667 1 -0.666667 1 -1 0 -0.666667 1 -1 0 -1 0 -0.333333 1 -0.333333 1 -0.666667 0 -0.333333 1 -0.666667 0 -0.666667 0 0 1 0 1 -0.333333 0 0 1 -0.333333 0 -0.333333 0 -0.666667 1 -0.666667 1 -1 0 -0.666667 1 -1 0 -1 0 -0.333333 1 -0.333333 1 -0.666667 0 -0.333333 1 -0.666667 0 -0.666667 0 0 1 0 1 -0.333333 0 0 1 -0.333333 0 -0.333333</float_array>
          <technique_common>
            <accessor source="#elderbush128-mesh-map-0-array" count="432" stride="2">
              <param name="S" type="float"/>
              <param name="T" type="float"/>
            </accessor>
          </technique_common>
        </source>
        <source id="elderbush128-mesh-colors">
          <float_array id="elderbush128-mesh-colors-array" count="1296">1 0 1 0.6705883 1 1 0 0.627451 1 1 0 1 0 0.627451 1 0 0 1 1 0.8392157 1 1 0 1 1 0.9568628 1 1 0.9568628 1 1 0 1 1 0.8392157 1 1 0.2078431 1 1 0.6705883 1 1 0 1 1 0.2039216 1 1 0 1 1 1 1 1 1 1 1 0.9607843 1 1 0.2078431 1 1 1 1 0 0.2078431 1 0 1 1 1 0.9803922 1 1 0.4117647 1 1 0.9607843 1 1 0.9803922 1 1 0.9607843 1 1 1 1 1 0.8235294 0.2823529 1 1 1 1 0.6509804 1 1 1 0.2823529 1 0.4117647 1 1 0.9803922 1 1 1 1 1 0.2509804 1 0 0.1686275 1 1 1 1 0 0.1686275 1 1 1 1 1 1 1 1 1 1 1 0.1490196 1 1 1 1 1 0.1490196 1 1 1 1 1 1 0.9411765 1 0.4627451 1 1 1 1 1 1 0.9411765 1 1 1 1 1 1 1 0.7215687 1 1 0.509804 1 0 0.317647 1 1 0.7215687 1 0 0.317647 1 0 0.09019607 1 1 0.9333333 1 1 0 1 1 0 1 1 0.9333333 1 1 0 1 1 0.7215687 1 1 0.227451 1 1 0.7058824 1 1 0.8745098 1 1 0.227451 1 1 0 1 1 1 1 1 0 1 0 0.3490196 0.9176471 0 0.682353 1 1 0.03137254 1 0 0.8 1 0 0 1 1 0.9882353 1 1 1 1 0.007843136 0.9137255 0.2980392 1 0.9803922 1 0.007843136 1 0.02352941 1 0.04705882 1 1 1 1 1 0.772549 1 1 0.2039216 1 1 0.5843138 1 1 0.2039216 1 1 1 1 0 0 1 0.4392157 0.9294118 1 0 0 0.8352941 0 0 1 0 0 0.8352941 0 0 0.5372549 1 0.8313726 0.8470588 1 0.5803922 1 1 0.9372549 1 1 0 1 1 0 1 0.1254902 0 1 1 1 1 1 1 1 1 0.8431373 1 1 1 1 1 0.1215686 1 1 1 1 0.5176471 0 1 1 0.1294118 1 0 0.3137255 0.3215686 1 0.7254902 1 0 0.4549019 0 0 0.2156863 1 1 0 1 1 0.06274509 1 1 0.1294118 1 1 0 1 1 0.1294118 1 1 0 1 1 1 1 1 1 1 1 0.6470589 1 1 1 0.8980392 1 0.06274509 1 1 0.6352941 1 0.7450981 0 1 1 0.6431373 1 0 0 1 0.5568628 1 1 0 0 1 0 0.6352941 0.3019608 1 0.1882353 1 1 0.9686275 1 1 0.6470589 1 1 0 1 1 0 0.2705882 0.5568628 0.4705882 1 1 1 1 1 0.7058824 1 1 0.9686275 1 1 1 1 1 0 1 1 0.9294118 1 1 0 1 0 0.4745098 1 0 0.5215687 1 1 0 1 0 0.5215687 1 0 1 0.9098039 1 0 0.01568627 1 0.9843137 1 0.1764706 0.01568627 1 1 0 0.6235294 0 0.01568627 1 1 0.01960784 1 1 0.5529412 0.4941176 1 1 0.9333333 1 0.9686275 1 1 0.5529412 0.4941176 1 0.9686275 1 1 1 1 1 0.9176471 1 0.9490196 0 1 0 0.07058823 1 1 1 1 0 0.08235293 1 0 0.7450981 1 1 1 1 1 0.2039216 1 1 0.06274509 1 1 1 1 1 0.2117647 1 1 1 1 1 0.2901961 1 1 1 1 1 0.07058823 1 1 0.2901961 0.1882353 1 0.1843137 1 1 1 1 1 1 1 1 1 1 0 0.9921569 1 1 1 1 0 0.9921569 1 0 0.6431373 1 1 1 1 1 0.7333334 1 1 1 1 1 1 1 1 1 1 1 1 1 1 0.06274509 1 1 0.8039216 1 1 0.7333334 1 1 0.06274509 1 1 0.7333334 1 1 1 1 1 0.9568628 1 1 0.5254902 1 0 0 0.7960785 1 0.9568628 1 0 0 1 0 0.7803922 1 1 0.7843137 1 1 1 1 1 0.6901961 1 1 0.6313726 1 1 0 1 1 0.9647059 1 1 1 0.4901961 1 1 1 1 1 1 1 1 0.0862745 1 1 1 1 1 1 0.2627451 0.8588235 1 1 1 1 0 1 1 0.5294118 0.8588235 1 0 1 1 0 0.5333334 1 1 0.9764706 1 1 1 1 1 1 1 1 0.9764706 1 1 1 1 0.5294118 0.8588235 1 1 1 1 1 1 1 1 1 1 1 1 1 1 0 1 1 1 1 1 0.5411765 1 1 1 1 0 1 1 1 0.5411765 1 0.02745097 1 1 0 0 1 1 0.2156863 1 1 0.5882353 1 1 1 1 1 0.2313725 1 1 1 1 1 0.5411765 1 1 0.4549019 1 1 0.3019608 1 1 0.5960785 1 1 0.3843137 0.9647059 1 0.5960785 0.6 1 0.4784314 1 0 0 1 0 0 1 0 0 0.01960784 0 0 1 0 0 0.01960784 0 0 0.4509804 0.2313725 0 1 1 0 1 0 0.1764706 1 0.2313725 0 1 0 0 1 0 0 1 1 0 1 1 0.06274509 1 1 0 1 1 0 1 1 0 1 0.2509804 0 1 0 1 0.01960784 0 0 0.9215686 0 0 0.08235293 0 0.6745098 0 0 0 0.08235293 0 1 0 1 1 1 1 0.05882352 1 0 0 0.9215686 1 0.6117647 1 0 0 0.9215686 0 1 0.03529411 1 0.2235294 1 1 1 1 1 0.05882352 1 1 0.05882352 1 1 0.05882352 1 1 1 1 1 0 1 0.003921568 0.2745098 0.003921568 0 0.7803922 0.4352941 1 0 1 0 1 0.4352941 0 0 0.9215686 1 0.1254902 1 1 0.5803922 1 0.5215687 0.3019608 0 1 0.1294118 1 0.003921568 0.7333334 0 1 0.7764706 1 1 0 1 1 0.8470588 1 1 1 1 1 0 1 1 1 1 1 1 1 0.1098039 0 1 1 0 1 0 0 1 0 0 0.2039216 0 0 0 0 0 1 1 0.254902 1 1 0.5764706 1 1 0.9882353 1 1 0.0980392 1 1 0 1 0.1333333 0.05490195 1 1 1 1 1 0.9058824 1 1 1 1 1 1 1 1 0.9568628 1 1 0.7019608 1 1 0 1 0 1 0.2627451 0 1 0.8666667 1 0 1 0 0.5294118 0.8666667 0 0 1 1 0 1 1 0.5647059 1 0 1 0 1 0 1 0 1 0 1 0 1 1 0 0.7254902 1 1 1 1 1 1 1 0 0.7254902 1 1 1 1 0.9490196 1 0 0 1 0 0.9450981 1 0 0.07450979 1 0 0 1 0 0 1 0 0 0.6901961 1 0.5411765 1 1 0.8666667 1 1 0.9450981 1 1 0 1 0 0.9450981 1 1 0 1 1 0 1 1 1 1 1 0.7607843 1 1 0 1 1 0 1 1 0.854902 1 1 0.8509804 1 1 0.9411765 1 0 0.7254902 1 1 0.8509804 1 0 0.7254902 1 1 0.1176471 1 1 0.317647 1 1 0.9529412 1 1 0.04313725 1 1 0.317647 1 1 0.04313725 1 1 0.9294118 1 1 0.9843137 1 1 0.07843136 1 1 0.9529412 1 1 0.9843137 1 1 0.9529412 0.6235294 1 0.317647 1 1 1 1 1 1 1 0 1 1 1 1 1 0 1 1 0 0.8117647 1 1 1 1 1 0 1 1 0.6627451 1 1 1 1 1 1 1 1 1 1 1 0.04313725 1 1 1 1 1 0.7490196 1 1 0.04313725 1 1 0.2823529 1 1 1 1 1 0 0.07450979 0 0.627451 1 0 0.003921568 1 1 0 0.7137255 0 0.003921568 1 0 0 0 1 0 0.5176471 1 0.2039216 1 0.317647 0 1 1 0 1 0.2470588 0.6078432 1 1 0.6941177 1 1 0.0117647 0.5607843 1 0.9176471 1 1 0.2039216 1 1 0.0117647 0.09411764 1 0.2039216 1 1 0 1 1 0.1294118 1 0.1686275 0.2 1 0 0 0.8666667 1 0.1764706 0.9882353 0 0 0.8666667 0 0 1 1 0.9568628 1 1 0.03137254 1 0.0862745 0.2039216 1 1 0.9568628 1 0.827451 0.2039216 1 1 0.1294118 1 1 1 1 1 0.5254902 0.003921568 1 0.9019608 1 1 1 1 1 0.882353 1 1 0.9568628 1</float_array>
          <technique_common>
            <accessor source="#elderbush128-mesh-colors-array" count="432" stride="3">
              <param name="R" type="float"/>
              <param name="G" type="float"/>
              <param name="B" type="float"/>
            </accessor>
          </technique_common>
        </source>
        <vertices id="elderbush128-mesh-vertices">
          <input semantic="POSITION" source="#elderbush128-mesh-positions"/>
        </vertices>
        <polylist material="elderbush_01_branch-material" count="144">
          <input semantic="VERTEX" source="#elderbush128-mesh-vertices" offset="0"/>
          <input semantic="NORMAL" source="#elderbush128-mesh-normals" offset="1"/>
          <input semantic="TEXCOORD" source="#elderbush128-mesh-map-0" offset="2" set="0"/>
          <input semantic="COLOR" source="#elderbush128-mesh-colors" offset="3"/>
          <vcount>3 3 3 3 3 3 3 3 3 3 3 3 3 3 3 3 3 3 3 3 3 3 3 3 3 3 3 3 3 3 3 3 3 3 3 3 3 3 3 3 3 3 3 3 3 3 3 3 3 3 3 3 3 3 3 3 3 3 3 3 3 3 3 3 3 3 3 3 3 3 3 3 3 3 3 3 3 3 3 3 3 3 3 3 3 3 3 3 3 3 3 3 3 3 3 3 3 3 3 3 3 3 3 3 3 3 3 3 3 3 3 3 3 3 3 3 3 3 3 3 3 3 3 3 3 3 3 3 3 3 3 3 3 3 3 3 3 3 3 3 3 3 3 3 </vcount>
          <p>0 0 0 0 1 1 1 1 2 2 2 2 0 0 3 3 2 2 4 4 3 3 5 5 4 4 6 6 5 5 7 7 1 1 8 8 1 1 9 9 0 0 10 10 4 4 11 11 6 6 12 12 7 7 13 13 5 5 14 14 6 6 15 15 5 5 16 16 4 4 17 17 8 8 18 18 9 9 19 19 10 10 20 20 8 8 21 21 10 10 22 22 11 11 23 23 12 12 24 24 13 13 25 25 9 9 26 26 12 12 27 27 9 9 28 28 8 8 29 29 14 14 30 30 15 15 31 31 13 13 32 32 14 14 33 33 13 13 34 34 12 12 35 35 16 16 36 36 17 17 37 37 18 18 38 38 16 16 39 39 18 18 40 40 19 19 41 41 20 20 42 42 21 21 43 43 17 17 44 44 20 20 45 45 17 17 46 46 16 16 47 47 22 22 48 48 23 23 49 49 21 21 50 50 22 22 51 51 21 21 52 52 20 20 53 53 24 24 54 54 25 25 55 55 26 26 56 56 24 24 57 57 26 26 58 58 27 27 59 59 28 28 60 60 29 29 61 61 25 25 62 62 28 28 63 63 25 25 64 64 24 24 65 65 30 30 66 66 31 31 67 67 29 29 68 68 30 30 69 69 29 29 70 70 28 28 71 71 32 32 72 72 33 33 73 73 34 34 74 74 32 32 75 75 34 34 76 76 35 35 77 77 36 36 78 78 37 37 79 79 33 33 80 80 36 36 81 81 33 33 82 82 32 32 83 83 38 38 84 84 39 39 85 85 37 37 86 86 38 38 87 87 37 37 88 88 36 36 89 89 40 40 90 90 41 41 91 91 42 42 92 92 40 40 93 93 42 42 94 94 43 43 95 95 44 44 96 96 45 45 97 97 41 41 98 98 44 44 99 99 41 41 100 100 40 40 101 101 46 46 102 102 47 47 103 103 45 45 104 104 46 46 105 105 45 45 106 106 44 44 107 107 48 48 108 108 49 49 109 109 50 50 110 110 48 48 111 111 50 50 112 112 51 51 113 113 52 52 114 114 53 53 115 115 49 49 116 116 52 52 117 117 49 49 118 118 48 48 119 119 54 54 120 120 55 55 121 121 53 53 122 122 54 54 123 123 53 53 124 124 52 52 125 125 56 56 126 126 57 57 127 127 58 58 128 128 56 56 129 129 58 58 130 130 59 59 131 131 60 60 132 132 61 61 133 133 57 57 134 134 60 60 135 135 57 57 136 136 56 56 137 137 62 62 138 138 63 63 139 139 61 61 140 140 62 62 141 141 61 61 142 142 60 60 143 143 64 64 144 144 65 65 145 145 66 66 146 146 64 64 147 147 66 66 148 148 67 67 149 149 68 68 150 150 69 69 151 151 65 65 152 152 68 68 153 153 65 65 154 154 64 64 155 155 70 70 156 156 71 71 157 157 69 69 158 158 70 70 159 159 69 69 160 160 68 68 161 161 72 72 162 162 73 73 163 163 74 74 164 164 72 72 165 165 74 74 166 166 75 75 167 167 76 76 168 168 77 77 169 169 73 73 170 170 76 76 171 171 73 73 172 172 72 72 173 173 78 78 174 174 79 79 175 175 77 77 176 176 78 78 177 177 77 77 178 178 76 76 179 179 80 80 180 180 81 81 181 181 82 82 182 182 80 80 183 183 82 82 184 184 83 83 185 185 84 84 186 186 85 85 187 187 81 81 188 188 84 84 189 189 81 81 190 190 80 80 191 191 86 86 192 192 87 87 193 193 85 85 194 194 86 86 195 195 85 85 196 196 84 84 197 197 88 88 198 198 89 89 199 199 90 90 200 200 88 88 201 201 90 90 202 202 91 91 203 203 92 92 204 204 93 93 205 205 89 89 206 206 92 92 207 207 89 89 208 208 88 88 209 209 94 94 210 210 95 95 211 211 93 93 212 212 94 94 213 213 93 93 214 214 92 92 215 215 96 96 216 216 97 97 217 217 98 98 218 218 96 96 219 219 98 98 220 220 99 99 221 221 100 100 222 222 101 101 223 223 97 97 224 224 100 100 225 225 97 97 226 226 96 96 227 227 102 102 228 228 103 103 229 229 101 101 230 230 102 102 231 231 101 101 232 232 100 100 233 233 104 104 234 234 105 105 235 235 106 106 236 236 104 104 237 237 106 106 238 238 107 107 239 239 108 108 240 240 109 109 241 241 105 105 242 242 108 108 243 243 105 105 244 244 104 104 245 245 110 110 246 246 111 111 247 247 109 109 248 248 110 110 249 249 109 109 250 250 108 108 251 251 112 112 252 252 113 113 253 253 114 114 254 254 112 112 255 255 114 114 256 256 115 115 257 257 116 116 258 258 117 117 259 259 113 113 260 260 116 116 261 261 113 113 262 262 112 112 263 263 118 118 264 264 119 119 265 265 117 117 266 266 118 118 267 267 117 117 268 268 116 116 269 269 120 120 270 270 121 121 271 271 122 122 272 272 120 120 273 273 122 122 274 274 123 123 275 275 124 124 276 276 125 125 277 277 121 121 278 278 124 124 279 279 121 121 280 280 120 120 281 281 126 126 282 282 127 127 283 283 125 125 284 284 126 126 285 285 125 125 286 286 124 124 287 287 128 128 288 288 129 129 289 289 130 130 290 290 128 128 291 291 130 130 292 292 131 131 293 293 132 132 294 294 133 133 295 295 129 129 296 296 132 132 297 297 129 129 298 298 128 128 299 299 134 134 300 300 135 135 301 301 133 133 302 302 134 134 303 303 133 133 304 304 132 132 305 305 136 136 306 306 137 137 307 307 138 138 308 308 136 136 309 309 138 138 310 310 139 139 311 311 140 140 312 312 141 141 313 313 137 137 314 314 140 140 315 315 137 137 316 316 136 136 317 317 142 142 318 318 143 143 319 319 141 141 320 320 142 142 321 321 141 141 322 322 140 140 323 323 144 144 324 324 145 145 325 325 146 146 326 326 144 144 327 327 146 146 328 328 147 147 329 329 148 148 330 330 149 149 331 331 145 145 332 332 148 148 333 333 145 145 334 334 144 144 335 335 150 150 336 336 151 151 337 337 149 149 338 338 150 150 339 339 149 149 340 340 148 148 341 341 152 152 342 342 153 153 343 343 154 154 344 344 152 152 345 345 154 154 346 346 155 155 347 347 156 156 348 348 157 157 349 349 153 153 350 350 156 156 351 351 153 153 352 352 152 152 353 353 158 158 354 354 159 159 355 355 157 157 356 356 158 158 357 357 157 157 358 358 156 156 359 359 160 160 360 360 161 161 361 361 162 162 362 362 160 160 363 363 162 162 364 364 163 163 365 365 164 164 366 366 165 165 367 367 161 161 368 368 164 164 369 369 161 161 370 370 160 160 371 371 166 166 372 372 167 167 373 373 165 165 374 374 166 166 375 375 165 165 376 376 164 164 377 377 168 168 378 378 169 169 379 379 170 170 380 380 168 168 381 381 170 170 382 382 171 171 383 383 172 172 384 384 173 173 385 385 169 169 386 386 172 172 387 387 169 169 388 388 168 168 389 389 174 174 390 390 175 175 391 391 173 173 392 392 174 174 393 393 173 173 394 394 172 172 395 395 176 176 396 396 177 177 397 397 178 178 398 398 176 176 399 399 178 178 400 400 179 179 401 401 180 180 402 402 181 181 403 403 177 177 404 404 180 180 405 405 177 177 406 406 176 176 407 407 182 182 408 408 183 183 409 409 181 181 410 410 182 182 411 411 181 181 412 412 180 180 413 413 184 184 414 414 185 185 415 415 186 186 416 416 184 184 417 417 186 186 418 418 187 187 419 419 188 188 420 420 189 189 421 421 185 185 422 422 188 188 423 423 185 185 424 424 184 184 425 425 190 190 426 426 191 191 427 427 189 189 428 428 190 190 429 429 189 189 430 430 188 188 431 431</p>
        </polylist>
      </mesh>
      <extra><technique profile="MAYA"><double_sided>1</double_sided></technique></extra>
    </geometry>
  </library_geometries>
  <library_visual_scenes>
    <visual_scene id="Scene" name="Scene">
      <node id="Lamp" name="Lamp" type="NODE">
        <translate sid="location">4.076245 1.005454 5.903862</translate>
        <rotate sid="rotationZ">0 0 1 106.9363</rotate>
        <rotate sid="rotationY">0 1 0 3.163708</rotate>
        <rotate sid="rotationX">1 0 0 37.26105</rotate>
        <scale sid="scale">1 1 1</scale>
        <instance_light url="#Lamp-light"/>
      </node>
      <node id="base01" name="base01" type="NODE">
        <translate sid="location">0 0 0</translate>
        <rotate sid="rotationZ">0 0 1 0</rotate>
        <rotate sid="rotationY">0 1 0 0</rotate>
        <rotate sid="rotationX">1 0 0 0</rotate>
        <scale sid="scale">1 1 1</scale>
        <node id="start01" name="start01" type="NODE">
          <translate sid="location">0 0 0</translate>
          <rotate sid="rotationZ">0 0 1 0</rotate>
          <rotate sid="rotationY">0 1 0 0</rotate>
          <rotate sid="rotationX">1 0 0 0</rotate>
          <scale sid="scale">1 1 1</scale>
          <node id="Collision_1" name="Collision_1" type="NODE">
            <translate sid="location">0 0 0</translate>
            <rotate sid="rotationZ">0 0 1 0</rotate>
            <rotate sid="rotationY">0 1 0 0</rotate>
            <rotate sid="rotationX">1 0 0 0</rotate>
            <scale sid="scale">-0.23338 -0.23338 -0.9768414</scale>
            <instance_geometry url="#collision_1-mesh"/>
          </node>
          <node id="elderbush128" name="elderbush128" type="NODE">
            <translate sid="location">0 0 0</translate>
            <rotate sid="rotationZ">0 0 1 0</rotate>
            <rotate sid="rotationY">0 1 0 0</rotate>
            <rotate sid="rotationX">1 0 0 90.00001</rotate>
            <scale sid="scale">0.1883198 0.1883198 0.1883198</scale>
            <instance_geometry url="#elderbush128-mesh">
              <bind_material>
                <technique_common>
                  <instance_material symbol="elderbush_01_branch-material" target="#elderbush_01_branch-material">
                    <bind_vertex_input semantic="UVMap" input_semantic="TEXCOORD" input_set="0"/>
                  </instance_material>
                </technique_common>
              </bind_material>
            </instance_geometry>
          </node>
        </node>
        <node id="Collision1" name="Collision1" type="NODE">
          <translate sid="location">0 0 0</translate>
          <rotate sid="rotationZ">0 0 1 0</rotate>
          <rotate sid="rotationY">0 1 0 0</rotate>
          <rotate sid="rotationX">1 0 0 0</rotate>
          <scale sid="scale">1 1 1</scale>
        </node>
        <node id="detail128" name="detail128" type="NODE">
          <translate sid="location">0 0 0</translate>
          <rotate sid="rotationZ">0 0 1 0</rotate>
          <rotate sid="rotationY">0 1 0 0</rotate>
          <rotate sid="rotationX">1 0 0 0</rotate>
          <scale sid="scale">1 1 1</scale>
        </node>
      </node>
    </visual_scene>
  </library_visual_scenes>
  <scene>
    <instance_visual_scene url="#Scene"/>
  </scene>
</COLLADA>