<?xml version="1.0" encoding="utf-8"?>
<COLLADA xmlns="http://www.collada.org/2005/11/COLLADASchema" version="1.4.1">
  <asset>
    <contributor>
      <author>Blender User</author>
      <authoring_tool>Blender 2.71.0 commit date:2014-06-25, commit time:18:36, hash:9337574</authoring_tool>
    </contributor>
    <created>2014-11-09T18:25:56</created>
    <modified>2014-11-09T18:25:56</modified>
    <unit name="meter" meter="1"/>
    <up_axis>Z_UP</up_axis>
  </asset>
  <library_cameras>
    <camera id="Camera-camera" name="Camera">
      <optics>
        <technique_common>
          <perspective>
            <xfov sid="xfov">49.13434</xfov>
            <aspect_ratio>1</aspect_ratio>
            <znear sid="znear">0.1</znear>
            <zfar sid="zfar">100</zfar>
          </perspective>
        </technique_common>
      </optics>
      <extra>
        <technique profile="blender">
          <YF_dofdist>0</YF_dofdist>
          <shiftx>0</shiftx>
          <shifty>0</shifty>
        </technique>
      </extra>
    </camera>
  </library_cameras>
  <library_images>
    <image id="Wood_jpg" name="Wood_jpg">
      <init_from>Wood.jpg</init_from>
    </image>
    <image id="RoofTiles_jpg" name="RoofTiles_jpg">
      <init_from>RoofTiles.jpg</init_from>
    </image>
  </library_images>
  <library_effects>
    <effect id="Wood-effect">
      <profile_COMMON>
        <newparam sid="Wood_jpg-surface">
          <surface type="2D">
            <init_from>Wood_jpg</init_from>
          </surface>
        </newparam>
        <newparam sid="Wood_jpg-sampler">
          <sampler2D>
            <source>Wood_jpg-surface</source>
          </sampler2D>
        </newparam>
        <technique sid="common">
          <lambert>
            <emission>
              <color sid="emission">0 0 0 1</color>
            </emission>
            <ambient>
              <color sid="ambient">0 0 0 1</color>
            </ambient>
            <diffuse>
              <texture texture="Wood_jpg-sampler" texcoord="UVMap"/>
            </diffuse>
            <index_of_refraction>
              <float sid="index_of_refraction">1</float>
            </index_of_refraction>
          </lambert>
        </technique>
      </profile_COMMON>
    </effect>
    <effect id="RoofTiles-effect">
      <profile_COMMON>
        <newparam sid="RoofTiles_jpg-surface">
          <surface type="2D">
            <init_from>RoofTiles_jpg</init_from>
          </surface>
        </newparam>
        <newparam sid="RoofTiles_jpg-sampler">
          <sampler2D>
            <source>RoofTiles_jpg-surface</source>
          </sampler2D>
        </newparam>
        <technique sid="common">
          <phong>
            <emission>
              <color sid="emission">0 0 0 1</color>
            </emission>
            <ambient>
              <color sid="ambient">0 0 0 1</color>
            </ambient>
            <diffuse>
              <texture texture="RoofTiles_jpg-sampler" texcoord="UVMap"/>
            </diffuse>
            <specular>
              <color sid="specular">0.00203893 0.00203893 0.00203893 1</color>
            </specular>
            <shininess>
              <float sid="shininess">50</float>
            </shininess>
            <index_of_refraction>
              <float sid="index_of_refraction">1</float>
            </index_of_refraction>
          </phong>
        </technique>
      </profile_COMMON>
    </effect>
  </library_effects>
  <library_materials>
    <material id="Wood-material" name="Wood">
      <instance_effect url="#Wood-effect"/>
    </material>
    <material id="RoofTiles-material" name="RoofTiles">
      <instance_effect url="#RoofTiles-effect"/>
    </material>
  </library_materials>
  <library_geometries>
    <geometry id="Cube_007-mesh" name="Cube.007">
      <mesh>
        <source id="Cube_007-mesh-positions">
          <float_array id="Cube_007-mesh-positions-array" count="504">6.21565 -0.9494886 -0.2108958 6.21565 0.07446467 -0.2108958 6.356483 0.07446467 -0.2108958 6.356483 -0.9494886 -0.2108958 6.21565 -0.9494886 -0.07006186 6.21565 0.07446467 -0.07006186 6.356483 0.07446467 -0.07006186 6.356483 -0.9494886 -0.07006186 6.258008 -0.3924508 -0.1858149 6.258008 -0.0651583 -0.4294416 6.314126 -0.0651583 -0.4294416 6.314126 -0.3924508 -0.1858149 6.258008 -0.3589425 -0.1407993 6.258008 -0.03165 -0.3844259 6.314126 -0.03165 -0.3844259 6.314126 -0.3589425 -0.1407993 6.258008 -0.8050095 -0.431355 6.258008 -0.4905365 -0.1713916 6.314126 -0.4905365 -0.1713916 6.314126 -0.8050095 -0.431355 6.258008 -0.8407648 -0.3881025 6.258008 -0.5262917 -0.1281391 6.314126 -0.5262917 -0.1281391 6.314126 -0.8407648 -0.3881025 6.237667 -0.9535363 -0.08886414 6.237667 0.07041698 -0.08886414 6.334466 0.07041698 -0.08886414 6.334466 -0.9535363 -0.08886414 6.237667 -0.9535363 -0.06514912 6.237667 0.07041698 0.374899 6.334466 0.07041698 0.374899 6.334466 -0.9535363 -0.06514912 0.008315086 -0.7810994 -0.1833547 6.307494 -0.7810985 -0.1833547 6.307494 -0.9295755 -0.1833547 0.008315086 -0.9295764 -0.1833547 0.008315086 -0.7810994 0.01142054 6.307494 -0.7810985 0.01142054 6.307494 -0.9295755 -0.05594551 0.008315086 -0.9295764 -0.05594551 -0.04839926 -0.9535363 -0.08886414 -0.04839926 0.07041698 -0.08886414 0.04839926 0.07041698 -0.08886414 0.04839926 -0.9535363 -0.08886414 -0.04839926 -0.9535363 -0.06514912 -0.04839926 0.07041698 0.374899 0.04839926 0.07041698 0.374899 0.04839926 -0.9535363 -0.06514912 6.395468 0.06568068 0.3722773 6.395468 -1.02213 -0.1269212 -0.1045296 -1.02213 -0.1269212 -0.1045279 0.06568092 0.3722774 6.395469 0.04866349 0.3969839 6.395465 -1.039147 -0.1022148 -0.1045303 -1.039147 -0.1022144 -0.1045289 0.04866379 0.3969841 -0.02805888 -0.8050095 -0.431355 -0.02805888 -0.4905365 -0.1713916 0.02805888 -0.4905365 -0.1713916 0.02805888 -0.8050095 -0.431355 -0.02805888 -0.8407648 -0.3881025 -0.02805888 -0.5262917 -0.1281391 0.02805888 -0.5262917 -0.1281391 0.02805888 -0.8407648 -0.3881025 -0.02805888 -0.3924508 -0.1858149 -0.02805888 -0.0651583 -0.4294416 0.02805888 -0.0651583 -0.4294416 0.02805888 -0.3924508 -0.1858149 -0.02805888 -0.3589425 -0.1407993 -0.02805888 -0.03165 -0.3844259 0.02805888 -0.03165 -0.3844259 0.02805888 -0.3589425 -0.1407993 -0.07041698 -0.9494886 -0.2108958 -0.07041698 0.07446467 -0.2108958 0.07041698 0.07446467 -0.2108958 0.07041698 -0.9494886 -0.2108958 -0.07041698 -0.9494886 -0.07006186 -0.07041698 0.07446467 -0.07006186 0.07041698 0.07446467 -0.07006186 0.07041698 -0.9494886 -0.07006186 -0.0675081 -0.9220245 -1.855786 -0.0675081 -0.7860222 -1.855786 0.0684942 -0.7860222 -1.855786 0.0684942 -0.9220245 -1.855786 -0.0675081 -0.9220245 -0.1943889 -0.0675081 -0.7860222 -0.1943889 0.0684942 -0.7860222 -0.1943889 0.0684942 -0.9220245 -0.1943889 -0.08489978 -0.9394162 -1.855786 -0.08489978 -0.7686305 -1.855786 0.08588588 -0.7686305 -1.855786 0.08588588 -0.9394162 -1.855786 -0.08489978 -0.9394162 -2.01772 -0.08489978 -0.7686305 -2.01772 0.08588588 -0.7686305 -2.01772 0.08588588 -0.9394162 -2.01772 3.074948 -0.9220245 -1.855786 3.074948 -0.7860222 -1.855786 3.210951 -0.7860222 -1.855786 3.210951 -0.9220245 -1.855786 3.074948 -0.9220245 -0.1732091 3.074948 -0.7860222 -0.1732091 3.210951 -0.7860222 -0.1732091 3.210951 -0.9220245 -0.1732091 3.057557 -0.9394162 -1.855786 3.057557 -0.7686305 -1.855786 3.228343 -0.7686305 -1.855786 3.228343 -0.9394162 -1.855786 3.057557 -0.9394162 -2.01772 3.057557 -0.7686305 -2.01772 3.228343 -0.7686305 -2.01772 3.228343 -0.9394162 -2.01772 6.217405 -0.9220245 -1.855786 6.217405 -0.7860222 -1.855786 6.353408 -0.7860222 -1.855786 6.353408 -0.9220245 -1.855786 6.217405 -0.9220245 -0.1943889 6.217405 -0.7860222 -0.1943889 6.353408 -0.7860222 -0.1943889 6.353408 -0.9220245 -0.1943889 6.200013 -0.9394162 -1.855786 6.200013 -0.7686305 -1.855786 6.370799 -0.7686305 -1.855786 6.370799 -0.9394162 -1.855786 6.200013 -0.9394162 -2.01772 6.200013 -0.7686305 -2.01772 6.370799 -0.7686305 -2.01772 6.370799 -0.9394162 -2.01772 -0.0675081 -0.08261686 -1.855786 -0.0675081 0.05338543 -1.855786 0.0684942 0.05338543 -1.855786 0.0684942 -0.08261686 -1.855786 -0.0675081 -0.08261686 -0.1943889 -0.0675081 0.05338543 -0.1943889 0.0684942 0.05338543 -0.1943889 0.0684942 -0.08261686 -0.1943889 -0.08489978 -0.1000085 -1.855786 -0.08489978 0.07077711 -1.855786 0.08588588 0.07077711 -1.855786 0.08588588 -0.1000085 -1.855786 -0.08489978 -0.1000085 -2.01772 -0.08489978 0.07077711 -2.01772 0.08588588 0.07077711 -2.01772 0.08588588 -0.1000085 -2.01772 6.217405 -0.08261686 -1.855786 6.217405 0.05338543 -1.855786 6.353408 0.05338543 -1.855786 6.353408 -0.08261686 -1.855786 6.217405 -0.08261686 -0.1943889 6.217405 0.05338543 -0.1943889 6.353408 0.05338543 -0.1943889 6.353408 -0.08261686 -0.1943889 6.200013 -0.1000085 -1.855786 6.200013 0.07077711 -1.855786 6.370799 0.07077711 -1.855786 6.370799 -0.1000085 -1.855786 6.200013 -0.1000085 -2.01772 6.200013 0.07077711 -2.01772 6.370799 0.07077711 -2.01772 6.370799 -0.1000085 -2.01772 6.395468 0.02383667 -2.033568 6.395468 -0.9761628 -2.033568 -0.1045296 -0.9761627 -2.033568 -0.1045279 0.02383685 -2.033568 6.395469 0.02383643 -2.003568 6.395465 -0.9761632 -2.003568 -0.1045303 -0.9761627 -2.003568 -0.1045289 0.02383667 -2.003568</float_array>
          <technique_common>
            <accessor source="#Cube_007-mesh-positions-array" count="168" stride="3">
              <param name="X" type="float"/>
              <param name="Y" type="float"/>
              <param name="Z" type="float"/>
            </accessor>
          </technique_common>
        </source>
        <source id="Cube_007-mesh-normals">
          <float_array id="Cube_007-mesh-normals-array" count="612">-1 0 0 1 0 0 0 -1 0 0 0 -1 0 0 1 -1 0 0 1 0 0 0 -0.5971057 -0.8021625 0 0.5971058 0.8021625 -1 0 0 1 0 0 0 0.6371456 -0.7707434 0 -0.6371456 0.7707434 -1 0 0 1 0 0 -1.41934e-7 1 0 1.41934e-7 -1 0 0 0 -1 -1 0 0 1 0 0 0 0.4170819 -0.9088689 1 -3.598e-5 7.17181e-5 0 -0.8235621 -0.5672261 -1 1.10937e-5 -2.13089e-5 -1 0 0 1 0 0 0 0.6371456 -0.7707434 0 -0.6371456 0.7707434 -1 0 0 1 0 0 0 -0.5971057 -0.8021626 0 0.5971058 0.8021625 -1 0 0 1 0 0 0 -1 0 0 0 -1 0 0 1 -1 0 0 0 1 0 1 0 0 0 -1 0 0 0 1 0 0 1 0 0 1 0 0 1 0 -1 0 1 0 0 0 1 0 -1 0 0 -1 0 0 0 1 0 1 0 0 0 -1 0 0 0 1 0 0 1 0 0 1 0 0 1 0 -1 0 1 0 0 0 1 0 -1 0 0 -1 0 0 0 1 0 1 0 0 0 -1 0 0 0 1 0 0 1 0 0 1 0 0 1 0 -1 0 1 0 0 0 1 0 -1 0 0 -1 0 0 0 1 0 1 0 0 0 -1 0 0 0 1 0 0 1 0 0 1 0 0 1 0 -1 0 1 0 0 0 1 0 -1 0 0 -1 0 0 0 1 0 1 0 0 0 -1 0 0 0 1 0 0 1 0 0 1 0 0 1 0 -1 0 1 0 0 0 1 0 -1 0 0 0 0 -1 0 0 1 1 -3.33786e-6 7.94735e-5 0 -1 1.98684e-6 -1 1.43051e-6 -2.38421e-5 -1 0 0 1 0 0 0 -1 0 0 0 -1 0 0 1 -1 0 0 1 0 0 0 -0.5971057 -0.8021625 0 0.5971058 0.8021625 -1 0 0 1 0 0 0 0.6371456 -0.7707434 0 -0.6371456 0.7707434 -1 0 0 1 0 0 -1.41934e-7 1 0 1.41934e-7 -1 0 0 0 -1 -1 0 0 1 0 0 0 0.4170818 -0.9088689 1 1.34594e-5 -2.93295e-5 0 -0.823549 -0.5672452 -1 1.46251e-5 -2.85266e-5 -1 0 0 1 0 0 0 0.6371456 -0.7707434 0 -0.6371456 0.7707434 -1 0 0 1 0 0 0 -0.5971057 -0.8021626 0 0.5971058 0.8021625 -1 0 0 1 0 0 0 -1 0 0 0 -1 0 0 1 -1 0 0 0 1 0 1 0 0 0 -1 0 0 0 1 0 0 1 0 0 1 0 0 1 0 -1 0 1 0 0 0 1 0 -1 0 0 -1 0 0 0 1 0 1 0 0 0 -1 0 0 0 1 0 0 1 0 0 1 0 0 1 0 -1 0 1 0 0 0 1 0 -1 0 0 -1 0 0 0 1 0 1 0 0 0 -1 0 0 0 1 0 0 1 0 0 1 0 0 1 0 -1 0 1 0 0 0 1 0 -1 0 0 -1 0 0 0 1 0 1 0 0 0 -1 0 0 0 1 0 0 1 0 0 1 0 0 1 0 -1 0 1 0 0 0 1 0 -1 0 0 -1 0 0 0 1 0 1 0 0 0 -1 0 0 0 1 0 0 1 0 0 1 0 0 1 0 -1 0 1 0 0 0 1 0 -1 0 0 0 0 -1 0 0 1 1 0 -3.17894e-5 0 -1 -1.1921e-5 -1 1.66893e-6 -3.17894e-5</float_array>
          <technique_common>
            <accessor source="#Cube_007-mesh-normals-array" count="204" stride="3">
              <param name="X" type="float"/>
              <param name="Y" type="float"/>
              <param name="Z" type="float"/>
            </accessor>
          </technique_common>
        </source>
        <source id="Cube_007-mesh-map-0">
          <float_array id="Cube_007-mesh-map-0-array" count="1224">0.5460652 0.6567861 0.5460648 0.04603838 0.6259481 0.0460385 0.4661813 0.0460385 0.4661819 0.6567861 0.3862986 0.6567862 0.1640774 0.6671409 0.08183193 0.6671409 0.08183193 0.5848953 0.3064154 0.6567863 0.3064148 0.04603856 0.3862981 0.04603856 0.4661819 0.6567861 0.4661813 0.0460385 0.5460648 0.04603838 0.5480477 0.6757078 0.5480477 0.0756551 0.6265322 0.0756551 0.4695633 0.6757077 0.3910786 0.6757077 0.3910786 0.0756551 0.3125945 0.6757077 0.3125941 0.0756551 0.3910786 0.0756551 0.4695633 0.6757077 0.4695632 0.07565504 0.5480477 0.0756551 0.5419023 0.05500775 0.6176234 0.05500763 0.6176238 0.6339318 0.4661812 0.05500793 0.4661827 0.6339321 0.3904616 0.6339321 0.3147406 0.6339322 0.3147398 0.05500823 0.3904607 0.05500817 0.4661827 0.6339321 0.4661812 0.05500793 0.5419023 0.05500775 0.5514742 0.01291567 1.49149e-4 0.2498522 1.48219e-4 1.48788e-4 1.48446e-4 0.7629176 1.48414e-4 0.7501488 0.551473 0.7501487 0.4129523 1.006678 0.4129458 -0.8868129 0.4778861 -0.8868133 0.5567511 -0.8868134 0.556753 1.006678 0.520332 1.006678 0.4778921 1.006678 0.4778861 -0.8868133 0.5203292 -0.8868134 0.5514741 0.262916 1.49149e-4 0.4998525 1.48219e-4 0.2501491 1.48479e-4 0.5129179 1.48414e-4 0.5001491 0.5514732 0.500149 1.959788 0.3849878 -0.9599921 0.3839798 -0.959787 -0.2083906 1.87407 0.4048327 1.016287 0.4087036 1.016245 0.3891875 1.016287 0.4087036 -0.101908 0.4256009 -0.1019529 0.406083 -0.1019529 0.406083 -0.101908 0.4256009 -0.9599466 0.4256009 0.2426466 0.799125 0.1640267 0.799125 0.1640271 0.2275083 0.3212665 0.7991251 0.321266 0.2275083 0.3998859 0.2275083 0.1640271 0.2275083 0.1640267 0.799125 0.08540683 0.799125 0.321266 0.2275083 0.3212665 0.7991251 0.2426466 0.799125 0.4696989 0.6038008 0.4696984 0.008568763 0.5475526 0.008568644 0.3918451 0.6038009 0.3139909 0.6038011 0.3139904 0.008568823 0.547553 0.6038009 0.5475526 0.008568644 0.6254066 0.008568704 0.3918451 0.6038009 0.3918445 0.008568704 0.4696984 0.008568763 0.4707815 0.6498882 0.4707807 0.04026591 0.5505169 0.04026585 0.3910446 0.04026603 0.3910455 0.6498883 0.3113093 0.6498884 0.2451442 0.5601229 0.1587027 0.5601229 0.1587027 0.4736814 0.5505176 0.6498881 0.5505169 0.04026585 0.6302531 0.04026579 0.3910455 0.6498883 0.3910446 0.04026603 0.4707807 0.04026591 0.8521797 0.9547709 0.7809255 0.9547709 0.7809252 0.08433389 0.7809255 0.9547709 0.7096712 0.9547711 0.7096712 0.08433389 0.994688 0.9547709 0.9234337 0.9547709 0.9234337 0.08433395 0.9234337 0.9547709 0.8521797 0.9547709 0.8521797 0.08433377 1.152975 1.135727 1.077552 1.135729 1.067907 1.126085 1.152977 1.211154 1.152975 1.135727 1.16262 1.126081 1.077552 1.211148 1.152957 1.211149 1.162599 1.220792 1.077552 1.135729 1.077552 1.211148 1.067909 1.220792 0.1954115 1.136853 0.1007041 1.136853 0.1007041 1.047054 0.2901185 1.136853 0.1954115 1.136853 0.1954115 1.047054 1.067907 1.035433 1.162614 1.035433 1.162614 1.125232 0.1007041 1.136853 0.005997061 1.136853 0.00599718 1.047054 0.08453881 0.7816541 0.0132845 0.7816542 0.0132845 -0.09988051 0.2983021 0.7816538 0.2270476 0.781654 0.2270462 -0.09988111 0.2270476 0.781654 0.1557933 0.781654 0.1557922 -0.09988093 0.1557933 0.781654 0.08453881 0.7816541 0.0845384 -0.09988081 0.6978734 1.226375 0.6978734 1.301793 0.6882293 1.311437 0.7732916 1.226374 0.6978734 1.226375 0.6882292 1.21673 0.7732916 1.226374 0.7829359 1.21673 0.7829364 1.311437 0.6978734 1.301793 0.7732921 1.301793 0.7829364 1.311437 0.8776434 1.125232 0.782936 1.125232 0.782936 1.035434 0.9723504 1.125232 0.8776434 1.125232 0.8776434 1.035434 1.067058 1.125232 0.9723504 1.125232 0.9723499 1.035434 0.782936 1.125232 0.6882292 1.125232 0.6882292 1.035434 0.3224391 0.8482374 0.2511848 0.8482374 0.2511854 -0.02220022 0.5362028 0.8482374 0.4649482 0.8482375 0.4649481 -0.02219986 0.4649482 0.8482375 0.3936939 0.8482375 0.3936939 -0.02219992 0.3936939 0.8482375 0.3224391 0.8482374 0.3224397 -0.02220016 0.01564222 1.147351 0.005997061 1.137707 0.1007042 1.137702 0.09106522 1.222766 0.09106069 1.147347 0.1007042 1.137702 0.01564645 1.222768 0.09106522 1.222766 0.1007103 1.232411 0.01564222 1.147351 0.01564645 1.222768 0.006002485 1.232411 0.8776435 1.215881 0.782936 1.215881 0.782936 1.126082 0.9723504 1.215881 0.8776435 1.215881 0.8776434 1.126082 1.067058 1.21588 0.9723504 1.215881 0.9723499 1.126082 0.782936 1.215881 0.6882292 1.215881 0.6882292 1.126082 0.6963343 0.8171644 0.6250803 0.8171644 0.6250801 -0.05327266 0.9100971 0.8171644 0.8388428 0.8171644 0.8388428 -0.05327266 0.8388428 0.8171644 0.7675884 0.8171644 0.7675884 -0.05327266 0.7675884 0.8171644 0.6963343 0.8171644 0.6963343 -0.05327266 1.248535 1.135726 1.173116 1.135727 1.163472 1.126082 1.248535 1.211145 1.248535 1.135726 1.258179 1.126081 1.173117 1.211145 1.248535 1.211145 1.258179 1.220789 1.173116 1.135727 1.173117 1.211145 1.163472 1.220789 0.4979351 1.125167 0.4032278 1.125135 0.4032588 1.035336 0.5926421 1.1252 0.4979351 1.125167 0.497966 1.035369 0.6873492 1.125232 0.5926421 1.1252 0.592673 1.035402 0.4032278 1.125135 0.3085205 1.125102 0.3085517 1.035303 0.6231064 0.8615542 0.5518522 0.8615542 0.5518521 -0.008883476 0.83687 0.861554 0.7656155 0.8615542 0.7656151 -0.008883357 0.7656155 0.8615542 0.6943612 0.8615542 0.6943606 -0.008883476 0.6943612 0.8615542 0.6231064 0.8615542 0.6231064 -0.008883476 0.2050509 1.147347 0.1954054 1.137702 0.2901132 1.137702 0.2804739 1.222762 0.2804692 1.147345 0.2901132 1.137702 0.2050548 1.222766 0.2804739 1.222762 0.2901185 1.232406 0.2050509 1.147347 0.2050548 1.222766 0.1954112 1.232411 0.4979375 1.126081 0.5926453 1.126084 0.5926433 1.215882 0.4032302 1.126083 0.4979375 1.126081 0.4979364 1.215878 0.3085205 1.126085 0.4032302 1.126083 0.4032314 1.215881 0.5926453 1.126084 0.6873528 1.126087 0.6873496 1.215885 -1.109076 -0.01199048 1.980069 -0.01199609 1.980069 0.4632576 1.980069 0.4637964 1.980071 0.9390497 -1.109074 0.9390558 -0.6919942 -0.03992372 0.02645933 -0.03408449 0.02628332 -0.01253139 0.02645933 -0.03408449 1.261506 -0.03994506 1.261331 -0.01839035 1.261331 -0.01839035 1.261506 -0.03994506 1.980069 -0.03411716 0.6259483 0.656786 0.5460652 0.6567861 0.6259481 0.0460385 0.3862981 0.04603856 0.4661813 0.0460385 0.3862986 0.6567862 0.1640774 0.5848953 0.1640774 0.6671409 0.08183193 0.5848953 0.3862986 0.6567862 0.3064154 0.6567863 0.3862981 0.04603856 0.5460652 0.6567861 0.4661819 0.6567861 0.5460648 0.04603838 0.6265322 0.6757079 0.5480477 0.6757078 0.6265322 0.0756551 0.4695632 0.07565504 0.4695633 0.6757077 0.3910786 0.0756551 0.3910786 0.6757077 0.3125945 0.6757077 0.3910786 0.0756551 0.5480477 0.6757078 0.4695633 0.6757077 0.5480477 0.0756551 0.5419031 0.6339319 0.5419023 0.05500775 0.6176238 0.6339318 0.3904607 0.05500817 0.4661812 0.05500793 0.3904616 0.6339321 0.3904616 0.6339321 0.3147406 0.6339322 0.3904607 0.05500817 0.5419031 0.6339319 0.4661827 0.6339321 0.5419023 0.05500775 0.5514742 1.48013e-4 0.5514742 0.01291567 1.48219e-4 1.48788e-4 0.551473 0.9998515 1.48446e-4 0.7629176 0.551473 0.7501487 0.4778921 1.006678 0.4129523 1.006678 0.4778861 -0.8868133 0.5203292 -0.8868134 0.5567511 -0.8868134 0.520332 1.006678 0.520332 1.006678 0.4778921 1.006678 0.5203292 -0.8868134 0.5514741 0.2501483 0.5514741 0.262916 1.48219e-4 0.2501491 0.5514732 0.7498518 1.48479e-4 0.5129179 0.5514732 0.500149 1.959992 -0.2073831 1.959788 0.3849878 -0.959787 -0.2083906 1.874028 0.3853186 1.87407 0.4048327 1.016245 0.3891875 1.016245 0.3891875 1.016287 0.4087036 -0.1019529 0.406083 -0.9599921 0.4060814 -0.1019529 0.406083 -0.9599466 0.4256009 0.2426466 0.2275084 0.2426466 0.799125 0.1640271 0.2275083 0.399886 0.799125 0.3212665 0.7991251 0.3998859 0.2275083 0.08540719 0.2275083 0.1640271 0.2275083 0.08540683 0.799125 0.2426466 0.2275084 0.321266 0.2275083 0.2426466 0.799125 0.547553 0.6038009 0.4696989 0.6038008 0.5475526 0.008568644 0.3918445 0.008568704 0.3918451 0.6038009 0.3139904 0.008568823 0.6254066 0.6038009 0.547553 0.6038009 0.6254066 0.008568704 0.4696989 0.6038008 0.3918451 0.6038009 0.4696984 0.008568763 0.5505176 0.6498881 0.4707815 0.6498882 0.5505169 0.04026585 0.3113086 0.04026609 0.3910446 0.04026603 0.3113093 0.6498884 0.2451442 0.4736814 0.2451442 0.5601229 0.1587027 0.4736814 0.6302536 0.649888 0.5505176 0.6498881 0.6302531 0.04026579 0.4707815 0.6498882 0.3910455 0.6498883 0.4707807 0.04026591 0.8521797 0.08433377 0.8521797 0.9547709 0.7809252 0.08433389 0.7809252 0.08433389 0.7809255 0.9547709 0.7096712 0.08433389 0.994688 0.08433389 0.994688 0.9547709 0.9234337 0.08433395 0.9234337 0.08433395 0.9234337 0.9547709 0.8521797 0.08433377 1.16262 1.126081 1.152975 1.135727 1.067907 1.126085 1.162623 1.220799 1.152977 1.211154 1.16262 1.126081 1.067909 1.220792 1.077552 1.211148 1.162599 1.220792 1.067907 1.126085 1.077552 1.135729 1.067909 1.220792 0.1954115 1.047054 0.1954115 1.136853 0.1007041 1.047054 0.2901185 1.047054 0.2901185 1.136853 0.1954115 1.047054 1.067907 1.125232 1.067907 1.035433 1.162614 1.125232 0.1007041 1.047054 0.1007041 1.136853 0.00599718 1.047054 0.0845384 -0.09988081 0.08453881 0.7816541 0.0132845 -0.09988051 0.2983002 -0.09988135 0.2983021 0.7816538 0.2270462 -0.09988111 0.2270462 -0.09988111 0.2270476 0.781654 0.1557922 -0.09988093 0.1557922 -0.09988093 0.1557933 0.781654 0.0845384 -0.09988081 0.6882292 1.21673 0.6978734 1.226375 0.6882293 1.311437 0.7829359 1.21673 0.7732916 1.226374 0.6882292 1.21673 0.7732921 1.301793 0.7732916 1.226374 0.7829364 1.311437 0.6882293 1.311437 0.6978734 1.301793 0.7829364 1.311437 0.8776434 1.035434 0.8776434 1.125232 0.782936 1.035434 0.9723499 1.035434 0.9723504 1.125232 0.8776434 1.035434 1.067057 1.035433 1.067058 1.125232 0.9723499 1.035434 0.782936 1.035434 0.782936 1.125232 0.6882292 1.035434 0.3224397 -0.02220016 0.3224391 0.8482374 0.2511854 -0.02220022 0.5362024 -0.02219974 0.5362028 0.8482374 0.4649481 -0.02219986 0.4649481 -0.02219986 0.4649482 0.8482375 0.3936939 -0.02219992 0.3936939 -0.02219992 0.3936939 0.8482375 0.3224397 -0.02220016 0.09106069 1.147347 0.01564222 1.147351 0.1007042 1.137702 0.1007103 1.232411 0.09106522 1.222766 0.1007042 1.137702 0.006002485 1.232411 0.01564645 1.222768 0.1007103 1.232411 0.005997061 1.137707 0.01564222 1.147351 0.006002485 1.232411 0.8776434 1.126082 0.8776435 1.215881 0.782936 1.126082 0.9723499 1.126082 0.9723504 1.215881 0.8776434 1.126082 1.067057 1.126081 1.067058 1.21588 0.9723499 1.126082 0.782936 1.126082 0.782936 1.215881 0.6882292 1.126082 0.6963343 -0.05327266 0.6963343 0.8171644 0.6250801 -0.05327266 0.9100971 -0.05327266 0.9100971 0.8171644 0.8388428 -0.05327266 0.8388428 -0.05327266 0.8388428 0.8171644 0.7675884 -0.05327266 0.7675884 -0.05327266 0.7675884 0.8171644 0.6963343 -0.05327266 1.258179 1.126081 1.248535 1.135726 1.163472 1.126082 1.258179 1.220789 1.248535 1.211145 1.258179 1.126081 1.163472 1.220789 1.173117 1.211145 1.258179 1.220789 1.163472 1.126082 1.173116 1.135727 1.163472 1.220789 0.497966 1.035369 0.4979351 1.125167 0.4032588 1.035336 0.592673 1.035402 0.5926421 1.1252 0.497966 1.035369 0.6873799 1.035434 0.6873492 1.125232 0.592673 1.035402 0.4032588 1.035336 0.4032278 1.125135 0.3085517 1.035303 0.6231064 -0.008883476 0.6231064 0.8615542 0.5518521 -0.008883476 0.8368692 -0.008883237 0.83687 0.861554 0.7656151 -0.008883357 0.7656151 -0.008883357 0.7656155 0.8615542 0.6943606 -0.008883476 0.6943606 -0.008883476 0.6943612 0.8615542 0.6231064 -0.008883476 0.2804692 1.147345 0.2050509 1.147347 0.2901132 1.137702 0.2901185 1.232406 0.2804739 1.222762 0.2901132 1.137702 0.1954112 1.232411 0.2050548 1.222766 0.2901185 1.232406 0.1954054 1.137702 0.2050509 1.147347 0.1954112 1.232411 0.4979364 1.215878 0.4979375 1.126081 0.5926433 1.215882 0.4032314 1.215881 0.4032302 1.126083 0.4979364 1.215878 0.3085224 1.215885 0.3085205 1.126085 0.4032314 1.215881 0.5926433 1.215882 0.5926453 1.126084 0.6873496 1.215885 -1.109076 0.4632629 -1.109076 -0.01199048 1.980069 0.4632576 -1.109077 0.4638026 1.980069 0.4637964 -1.109074 0.9390558 -0.6921696 -0.01837009 -0.6919942 -0.03992372 0.02628332 -0.01253139 0.02628332 -0.01253139 0.02645933 -0.03408449 1.261331 -0.01839035 1.979894 -0.01255977 1.261331 -0.01839035 1.980069 -0.03411716</float_array>
          <technique_common>
            <accessor source="#Cube_007-mesh-map-0-array" count="612" stride="2">
              <param name="S" type="float"/>
              <param name="T" type="float"/>
            </accessor>
          </technique_common>
        </source>
        <vertices id="Cube_007-mesh-vertices">
          <input semantic="POSITION" source="#Cube_007-mesh-positions"/>
        </vertices>
        <polylist material="Wood-material" count="204">
          <input semantic="VERTEX" source="#Cube_007-mesh-vertices" offset="0"/>
          <input semantic="NORMAL" source="#Cube_007-mesh-normals" offset="1"/>
          <input semantic="TEXCOORD" source="#Cube_007-mesh-map-0" offset="2" set="0"/>
          <vcount>3 3 3 3 3 3 3 3 3 3 3 3 3 3 3 3 3 3 3 3 3 3 3 3 3 3 3 3 3 3 3 3 3 3 3 3 3 3 3 3 3 3 3 3 3 3 3 3 3 3 3 3 3 3 3 3 3 3 3 3 3 3 3 3 3 3 3 3 3 3 3 3 3 3 3 3 3 3 3 3 3 3 3 3 3 3 3 3 3 3 3 3 3 3 3 3 3 3 3 3 3 3 3 3 3 3 3 3 3 3 3 3 3 3 3 3 3 3 3 3 3 3 3 3 3 3 3 3 3 3 3 3 3 3 3 3 3 3 3 3 3 3 3 3 3 3 3 3 3 3 3 3 3 3 3 3 3 3 3 3 3 3 3 3 3 3 3 3 3 3 3 3 3 3 3 3 3 3 3 3 3 3 3 3 3 3 3 3 3 3 3 3 3 3 3 3 3 3 3 3 3 3 3 3 </vcount>
          <p>4 0 0 5 0 1 1 0 2 6 1 3 7 1 4 3 1 5 7 2 6 4 2 7 0 2 8 0 3 9 1 3 10 2 3 11 7 4 12 6 4 13 5 4 14 12 5 15 13 5 16 9 5 17 15 6 18 11 6 19 10 6 20 8 7 21 9 7 22 10 7 23 15 8 24 14 8 25 13 8 26 21 9 27 17 9 28 16 9 29 22 10 30 23 10 31 19 10 32 16 11 33 17 11 34 18 11 35 23 12 36 22 12 37 21 12 38 28 13 39 29 13 40 25 13 41 31 14 42 27 14 43 26 14 44 36 15 45 37 15 46 33 15 47 38 16 48 39 16 49 35 16 50 32 17 51 33 17 52 34 17 53 44 18 54 45 18 55 41 18 56 47 19 57 43 19 58 42 19 59 49 20 60 50 20 61 51 20 62 52 21 63 53 21 64 49 21 65 53 22 66 54 22 67 50 22 68 50 23 69 54 23 70 55 23 71 61 24 72 57 24 73 56 24 74 62 25 75 63 25 76 59 25 77 56 26 78 57 26 79 58 26 80 63 27 81 62 27 82 61 27 83 68 28 84 69 28 85 65 28 86 71 29 87 67 29 88 66 29 89 64 30 90 65 30 91 66 30 92 71 31 93 70 31 94 69 31 95 76 32 96 77 32 97 73 32 98 78 33 99 79 33 100 75 33 101 79 34 102 76 34 103 72 34 104 72 35 105 73 35 106 74 35 107 79 36 108 78 36 109 77 36 110 84 37 111 85 37 112 81 37 113 85 38 114 86 38 115 82 38 116 86 39 117 87 39 118 83 39 119 87 40 120 84 40 121 80 40 122 83 41 123 80 41 124 88 41 125 82 42 126 83 42 127 91 42 128 81 43 129 82 43 130 90 43 131 80 44 132 81 44 133 89 44 134 91 45 135 88 45 136 92 45 137 90 46 138 91 46 139 95 46 140 89 47 141 90 47 142 94 47 143 88 48 144 89 48 145 93 48 146 100 49 147 101 49 148 97 49 149 101 50 150 102 50 151 98 50 152 102 51 153 103 51 154 99 51 155 103 52 156 100 52 157 96 52 158 99 53 159 96 53 160 104 53 161 98 54 162 99 54 163 107 54 164 98 55 165 106 55 166 105 55 167 96 56 168 97 56 169 105 56 170 107 57 171 104 57 172 108 57 173 106 58 174 107 58 175 111 58 176 105 59 177 106 59 178 110 59 179 104 60 180 105 60 181 109 60 182 116 61 183 117 61 184 113 61 185 117 62 186 118 62 187 114 62 188 118 63 189 119 63 190 115 63 191 119 64 192 116 64 193 112 64 194 112 65 195 120 65 196 123 65 197 114 66 198 115 66 199 123 66 200 113 67 201 114 67 202 122 67 203 112 68 204 113 68 205 121 68 206 123 69 207 120 69 208 124 69 209 122 70 210 123 70 211 127 70 212 121 71 213 122 71 214 126 71 215 120 72 216 121 72 217 125 72 218 132 73 219 133 73 220 129 73 221 133 74 222 134 74 223 130 74 224 134 75 225 135 75 226 131 75 227 135 76 228 132 76 229 128 76 230 131 77 231 128 77 232 136 77 233 130 78 234 131 78 235 139 78 236 129 79 237 130 79 238 138 79 239 128 80 240 129 80 241 137 80 242 139 81 243 136 81 244 140 81 245 138 82 246 139 82 247 143 82 248 137 83 249 138 83 250 142 83 251 136 84 252 137 84 253 141 84 254 148 85 255 149 85 256 145 85 257 149 86 258 150 86 259 146 86 260 150 87 261 151 87 262 147 87 263 151 88 264 148 88 265 144 88 266 144 89 267 152 89 268 155 89 269 146 90 270 147 90 271 155 90 272 145 91 273 146 91 274 154 91 275 144 92 276 145 92 277 153 92 278 155 93 279 152 93 280 156 93 281 154 94 282 155 94 283 159 94 284 153 95 285 154 95 286 158 95 287 152 96 288 153 96 289 157 96 290 161 97 291 162 97 292 163 97 293 167 98 294 166 98 295 165 98 296 164 99 297 165 99 298 161 99 299 165 100 300 166 100 301 162 100 302 162 101 303 166 101 304 167 101 305 0 102 306 4 102 307 1 102 308 2 103 309 6 103 310 3 103 311 3 104 312 7 104 313 0 104 314 3 105 315 0 105 316 2 105 317 4 106 318 7 106 319 5 106 320 8 107 321 12 107 322 9 107 323 14 108 324 15 108 325 10 108 326 11 109 327 8 109 328 10 109 329 12 110 330 15 110 331 13 110 332 20 111 333 21 111 334 16 111 335 18 112 336 22 112 337 19 112 338 19 113 339 16 113 340 18 113 341 20 114 342 23 114 343 21 114 344 24 115 345 28 115 346 25 115 347 30 116 348 31 116 349 26 116 350 32 117 351 36 117 352 33 117 353 34 118 354 38 118 355 35 118 356 35 119 357 32 119 358 34 119 359 40 120 360 44 120 361 41 120 362 46 121 363 47 121 364 42 121 365 48 122 366 49 122 367 51 122 368 48 123 369 52 123 370 49 123 371 49 124 372 53 124 373 50 124 374 51 125 375 50 125 376 55 125 377 60 126 378 61 126 379 56 126 380 58 127 381 62 127 382 59 127 383 59 128 384 56 128 385 58 128 386 60 129 387 63 129 388 61 129 389 64 130 390 68 130 391 65 130 392 70 131 393 71 131 394 66 131 395 67 132 396 64 132 397 66 132 398 68 133 399 71 133 400 69 133 401 72 134 402 76 134 403 73 134 404 74 135 405 78 135 406 75 135 407 75 136 408 79 136 409 72 136 410 75 137 411 72 137 412 74 137 413 76 138 414 79 138 415 77 138 416 80 139 417 84 139 418 81 139 419 81 140 420 85 140 421 82 140 422 82 141 423 86 141 424 83 141 425 83 142 426 87 142 427 80 142 428 91 143 429 83 143 430 88 143 431 90 144 432 82 144 433 91 144 434 89 145 435 81 145 436 90 145 437 88 146 438 80 146 439 89 146 440 95 147 441 91 147 442 92 147 443 94 148 444 90 148 445 95 148 446 93 149 447 89 149 448 94 149 449 92 150 450 88 150 451 93 150 452 96 151 453 100 151 454 97 151 455 97 152 456 101 152 457 98 152 458 98 153 459 102 153 460 99 153 461 99 154 462 103 154 463 96 154 464 107 155 465 99 155 466 104 155 467 106 156 468 98 156 469 107 156 470 97 157 471 98 157 472 105 157 473 104 158 474 96 158 475 105 158 476 111 159 477 107 159 478 108 159 479 110 160 480 106 160 481 111 160 482 109 161 483 105 161 484 110 161 485 108 162 486 104 162 487 109 162 488 112 163 489 116 163 490 113 163 491 113 164 492 117 164 493 114 164 494 114 165 495 118 165 496 115 165 497 115 166 498 119 166 499 112 166 500 115 167 501 112 167 502 123 167 503 122 168 504 114 168 505 123 168 506 121 169 507 113 169 508 122 169 509 120 170 510 112 170 511 121 170 512 127 171 513 123 171 514 124 171 515 126 172 516 122 172 517 127 172 518 125 173 519 121 173 520 126 173 521 124 174 522 120 174 523 125 174 524 128 175 525 132 175 526 129 175 527 129 176 528 133 176 529 130 176 530 130 177 531 134 177 532 131 177 533 131 178 534 135 178 535 128 178 536 139 179 537 131 179 538 136 179 539 138 180 540 130 180 541 139 180 542 137 181 543 129 181 544 138 181 545 136 182 546 128 182 547 137 182 548 143 183 549 139 183 550 140 183 551 142 184 552 138 184 553 143 184 554 141 185 555 137 185 556 142 185 557 140 186 558 136 186 559 141 186 560 144 187 561 148 187 562 145 187 563 145 188 564 149 188 565 146 188 566 146 189 567 150 189 568 147 189 569 147 190 570 151 190 571 144 190 572 147 191 573 144 191 574 155 191 575 154 192 576 146 192 577 155 192 578 153 193 579 145 193 580 154 193 581 152 194 582 144 194 583 153 194 584 159 195 585 155 195 586 156 195 587 158 196 588 154 196 589 159 196 590 157 197 591 153 197 592 158 197 593 156 198 594 152 198 595 157 198 596 160 199 597 161 199 598 163 199 599 164 200 600 167 200 601 165 200 602 160 201 603 164 201 604 161 201 605 161 202 606 165 202 607 162 202 608 163 203 609 162 203 610 167 203 611</p>
        </polylist>
      </mesh>
    </geometry>
    <geometry id="Cube_020-mesh" name="Cube.020">
      <mesh>
        <source id="Cube_020-mesh-positions">
          <float_array id="Cube_020-mesh-positions-array" count="12">3.25 0.7369252 -0.005620002 3.249996 -0.3508855 -0.5053647 -3.25 -0.3508849 -0.5053643 -3.249998 0.7369255 -0.005619764</float_array>
          <technique_common>
            <accessor source="#Cube_020-mesh-positions-array" count="4" stride="3">
              <param name="X" type="float"/>
              <param name="Y" type="float"/>
              <param name="Z" type="float"/>
            </accessor>
          </technique_common>
        </source>
        <source id="Cube_020-mesh-normals">
          <float_array id="Cube_020-mesh-normals-array" count="6">0 -0.4174587 0.9086959 0 -0.4174586 0.9086959</float_array>
          <technique_common>
            <accessor source="#Cube_020-mesh-normals-array" count="2" stride="3">
              <param name="X" type="float"/>
              <param name="Y" type="float"/>
              <param name="Z" type="float"/>
            </accessor>
          </technique_common>
        </source>
        <source id="Cube_020-mesh-map-0">
          <float_array id="Cube_020-mesh-map-0-array" count="12">-1.072966 0.420607 -1.072968 -0.2176463 2.072965 -0.2176516 2.072968 0.4206023 -1.072966 0.420607 2.072965 -0.2176516</float_array>
          <technique_common>
            <accessor source="#Cube_020-mesh-map-0-array" count="6" stride="2">
              <param name="S" type="float"/>
              <param name="T" type="float"/>
            </accessor>
          </technique_common>
        </source>
        <vertices id="Cube_020-mesh-vertices">
          <input semantic="POSITION" source="#Cube_020-mesh-positions"/>
        </vertices>
        <polylist material="RoofTiles-material" count="2">
          <input semantic="VERTEX" source="#Cube_020-mesh-vertices" offset="0"/>
          <input semantic="NORMAL" source="#Cube_020-mesh-normals" offset="1"/>
          <input semantic="TEXCOORD" source="#Cube_020-mesh-map-0" offset="2" set="0"/>
          <vcount>3 3 </vcount>
          <p>3 0 0 2 0 1 1 0 2 0 1 3 3 1 4 1 1 5</p>
        </polylist>
      </mesh>
    </geometry>
    <geometry id="Cube_021-mesh" name="Cube.021">
      <mesh>
        <source id="Cube_021-mesh-positions">
          <float_array id="Cube_021-mesh-positions-array" count="504">6.235215 0.08655011 -1.331038 6.33152 0.08655005 -1.331038 6.331514 -0.8662042 -1.331038 6.235209 -0.866204 -1.331038 6.235215 0.08655011 -1.234733 6.33152 0.08655005 -1.234733 6.331514 -0.8662042 -1.234733 6.235209 -0.866204 -1.234733 6.25599 -0.2720815 -2.189687 6.310744 -0.2720816 -2.189687 6.310744 -0.3268358 -2.189687 6.25599 -0.3268358 -2.189687 6.25599 -0.2720815 -1.329634 6.310744 -0.2720816 -1.329634 6.310744 -0.3268358 -1.329634 6.25599 -0.3268358 -1.329634 6.25599 -0.5732302 -2.189687 6.310744 -0.5732303 -2.189687 6.310744 -0.6279845 -2.189687 6.25599 -0.6279844 -2.189687 6.25599 -0.5732302 -1.329634 6.310744 -0.5732303 -1.329634 6.310744 -0.6279845 -1.329634 6.25599 -0.6279844 -1.329634 -0.01850837 -0.2720815 -2.189687 0.03624582 -0.2720816 -2.189687 0.03624576 -0.3268358 -2.189687 -0.01850843 -0.3268358 -2.189687 -0.01850837 -0.2720815 -1.329634 0.03624582 -0.2720816 -1.329634 0.03624576 -0.3268358 -1.329634 -0.01850843 -0.3268358 -1.329634 -0.01850837 -0.5732302 -2.189687 0.03624582 -0.5732303 -2.189687 0.03624576 -0.6279845 -2.189687 -0.01850843 -0.6279844 -2.189687 -0.01850837 -0.5732302 -1.329634 0.03624582 -0.5732303 -1.329634 0.03624576 -0.6279845 -1.329634 -0.01850843 -0.6279844 -1.329634 -0.03928351 0.08655011 -1.331038 0.05702143 0.08655005 -1.331038 0.05701601 -0.8662042 -1.331038 -0.03928893 -0.866204 -1.331038 -0.03928351 0.08655011 -1.234733 0.05702143 0.08655005 -1.234733 0.05701601 -0.8662042 -1.234733 -0.03928893 -0.866204 -1.234733 0.04534888 -0.8952434 -1.331038 0.04534888 -0.7989384 -1.331038 6.233247 -0.7989384 -1.331038 6.233247 -0.8952434 -1.331038 0.04534888 -0.8952434 -1.234733 0.04534888 -0.7989384 -1.234733 6.233247 -0.7989384 -1.234733 6.233247 -0.8952434 -1.234733 3.485162 -0.8744679 -2.189687 3.485162 -0.8197137 -2.189687 3.539916 -0.8197137 -2.189687 3.539916 -0.8744679 -2.189687 3.485162 -0.8744679 -1.329634 3.485162 -0.8197137 -1.329634 3.539916 -0.8197137 -1.329634 3.539916 -0.8744679 -1.329634 3.884868 -0.8744679 -2.189687 3.884868 -0.8197137 -2.189687 3.939622 -0.8197137 -2.189687 3.939622 -0.8744679 -2.189687 3.884868 -0.8744679 -1.329634 3.884868 -0.8197137 -1.329634 3.939622 -0.8197137 -1.329634 3.939622 -0.8744679 -1.329634 4.284574 -0.8744679 -2.189687 4.284574 -0.8197137 -2.189687 4.339328 -0.8197137 -2.189687 4.339328 -0.8744679 -2.189687 4.284574 -0.8744679 -1.329634 4.284574 -0.8197137 -1.329634 4.339328 -0.8197137 -1.329634 4.339328 -0.8744679 -1.329634 4.684279 -0.8744679 -2.189687 4.684279 -0.8197137 -2.189687 4.739034 -0.8197137 -2.189687 4.739034 -0.8744679 -2.189687 4.684279 -0.8744679 -1.329634 4.684279 -0.8197137 -1.329634 4.739034 -0.8197137 -1.329634 4.739034 -0.8744679 -1.329634 5.083985 -0.8744679 -2.189687 5.083985 -0.8197137 -2.189687 5.13874 -0.8197137 -2.189687 5.13874 -0.8744679 -2.189687 5.083985 -0.8744679 -1.329634 5.083985 -0.8197137 -1.329634 5.13874 -0.8197137 -1.329634 5.13874 -0.8744679 -1.329634 5.483692 -0.8744679 -2.189687 5.483692 -0.8197137 -2.189687 5.538445 -0.8197137 -2.189687 5.538445 -0.8744679 -2.189687 5.483692 -0.8744679 -1.329634 5.483692 -0.8197137 -1.329634 5.538445 -0.8197137 -1.329634 5.538445 -0.8744679 -1.329634 5.883398 -0.8744679 -2.189687 5.883398 -0.8197137 -2.189687 5.938152 -0.8197137 -2.189687 5.938152 -0.8744679 -2.189687 5.883398 -0.8744679 -1.329634 5.883398 -0.8197137 -1.329634 5.938152 -0.8197137 -1.329634 5.938152 -0.8744679 -1.329634 0.3501308 -0.8744679 -2.189687 0.3501308 -0.8197137 -2.189687 0.4048851 -0.8197137 -2.189687 0.4048851 -0.8744679 -2.189687 0.3501308 -0.8744679 -1.329634 0.3501308 -0.8197137 -1.329634 0.4048851 -0.8197137 -1.329634 0.4048851 -0.8744679 -1.329634 0.7498368 -0.8744679 -2.189687 0.7498368 -0.8197137 -2.189687 0.8045911 -0.8197137 -2.189687 0.8045911 -0.8744679 -2.189687 0.7498368 -0.8744679 -1.329634 0.7498368 -0.8197137 -1.329634 0.8045911 -0.8197137 -1.329634 0.8045911 -0.8744679 -1.329634 1.149543 -0.8744679 -2.189687 1.149543 -0.8197137 -2.189687 1.204297 -0.8197137 -2.189687 1.204297 -0.8744679 -2.189687 1.149543 -0.8744679 -1.329634 1.149543 -0.8197137 -1.329634 1.204297 -0.8197137 -1.329634 1.204297 -0.8744679 -1.329634 1.549249 -0.8744679 -2.189687 1.549249 -0.8197137 -2.189687 1.604003 -0.8197137 -2.189687 1.604003 -0.8744679 -2.189687 1.549249 -0.8744679 -1.329634 1.549249 -0.8197137 -1.329634 1.604003 -0.8197137 -1.329634 1.604003 -0.8744679 -1.329634 1.948955 -0.8744679 -2.189687 1.948955 -0.8197137 -2.189687 2.003709 -0.8197137 -2.189687 2.003709 -0.8744679 -2.189687 1.948955 -0.8744679 -1.329634 1.948955 -0.8197137 -1.329634 2.003709 -0.8197137 -1.329634 2.003709 -0.8744679 -1.329634 2.348661 -0.8744679 -2.189687 2.348661 -0.8197137 -2.189687 2.403415 -0.8197137 -2.189687 2.403415 -0.8744679 -2.189687 2.348661 -0.8744679 -1.329634 2.348661 -0.8197137 -1.329634 2.403415 -0.8197137 -1.329634 2.403415 -0.8744679 -1.329634 2.748367 -0.8744679 -2.189687 2.748367 -0.8197137 -2.189687 2.803121 -0.8197137 -2.189687 2.803121 -0.8744679 -2.189687 2.748367 -0.8744679 -1.329634 2.748367 -0.8197137 -1.329634 2.803121 -0.8197137 -1.329634 2.803121 -0.8744679 -1.329634</float_array>
          <technique_common>
            <accessor source="#Cube_021-mesh-positions-array" count="168" stride="3">
              <param name="X" type="float"/>
              <param name="Y" type="float"/>
              <param name="Z" type="float"/>
            </accessor>
          </technique_common>
        </source>
        <source id="Cube_021-mesh-normals">
          <float_array id="Cube_021-mesh-normals-array" count="504">1 -5.50531e-6 0 -1 5.50531e-6 0 0 0 -1 0 0 1 1.08858e-6 1 0 1 0 0 -1.08858e-6 -1 0 -1 0 0 2.17717e-6 1 0 1 0 0 -2.17717e-6 -1 0 -1 0 0 1.08858e-6 1 0 1 -9.52512e-7 0 -1.08858e-6 -1 0 -1 8.84475e-7 0 2.17717e-6 1 0 1 -9.52512e-7 0 -2.17717e-6 -1 0 -1 8.84475e-7 0 1 -5.70472e-6 0 -1 5.70081e-6 0 0 0 -1 0 0 1 0 1 0 0 -1 0 0 0 -1 0 0 1 -1 0 0 0 1 0 1 0 0 0 -1 0 -1 0 0 0 1 0 1 0 0 0 -1 0 -1 0 0 0 1 0 1 0 0 0 -1 0 -1 0 0 0 1 0 1 0 0 0 -1 0 -1 0 0 0 1 0 1 0 0 0 -1 0 -1 0 0 0 1 0 1 0 0 0 -1 0 -1 0 0 0 1 0 1 0 0 0 -1 0 -1 0 0 0 1 0 1 0 0 0 -1 0 -1 0 0 0 1 0 1 0 0 0 -1 0 -1 0 0 0 1 0 1 0 0 0 -1 0 -1 0 0 0 1 0 1 0 0 0 -1 0 -1 0 0 0 1 0 1 0 0 0 -1 0 -1 0 0 0 1 0 1 0 0 0 -1 0 -1 0 0 0 1 0 1 0 0 0 -1 0 1 -5.50531e-6 0 -1 5.50531e-6 0 0 0 -1 0 0 1 1.08858e-6 1 0 1 0 0 -1.08858e-6 -1 0 -1 0 0 2.17717e-6 1 0 1 0 0 -2.17717e-6 -1 0 -1 0 0 1.08858e-6 1 0 1 -9.52512e-7 0 -1.08858e-6 -1 0 -1 8.84475e-7 0 2.17717e-6 1 0 1 -9.52512e-7 0 -2.17717e-6 -1 0 -1 8.84475e-7 0 1 -5.70472e-6 0 -1 5.70081e-6 0 0 0 -1 0 0 1 0 1 0 0 -1 0 0 0 -1 0 0 1 -1 0 0 0 1 0 1 0 0 0 -1 0 -1 0 0 0 1 0 1 0 0 0 -1 0 -1 0 0 0 1 0 1 0 0 0 -1 0 -1 0 0 0 1 0 1 0 0 0 -1 0 -1 0 0 0 1 0 1 0 0 0 -1 0 -1 0 0 0 1 0 1 0 0 0 -1 0 -1 0 0 0 1 0 1 0 0 0 -1 0 -1 0 0 0 1 0 1 0 0 0 -1 0 -1 0 0 0 1 0 1 0 0 0 -1 0 -1 0 0 0 1 0 1 0 0 0 -1 0 -1 0 0 0 1 0 1 0 0 0 -1 0 -1 0 0 0 1 0 1 0 0 0 -1 0 -1 0 0 0 1 0 1 0 0 0 -1 0 -1 0 0 0 1 0 1 0 0 0 -1 0</float_array>
          <technique_common>
            <accessor source="#Cube_021-mesh-normals-array" count="168" stride="3">
              <param name="X" type="float"/>
              <param name="Y" type="float"/>
              <param name="Z" type="float"/>
            </accessor>
          </technique_common>
        </source>
        <source id="Cube_021-mesh-map-0">
          <float_array id="Cube_021-mesh-map-0-array" count="1008">0.4718629 -0.113373 0.4718636 0.6997674 0.3937007 0.6997674 0.5500266 0.6997676 0.5500255 -0.1133727 0.6281884 -0.1133729 0.3155369 -0.1133726 0.3936998 -0.1133731 0.3937007 0.6997674 0.4718636 0.6997674 0.4718629 -0.113373 0.5500255 -0.1133727 0.5530644 1.167971 0.4736649 1.167971 0.4736645 -0.07919293 0.4736649 1.167971 0.3942658 1.167971 0.3942649 -0.07919293 0.3942658 1.167971 0.3148665 1.167971 0.3148653 -0.07919281 0.6324636 1.167971 0.5530644 1.167971 0.5530641 -0.07919293 0.6244885 1.183507 0.5450891 1.183507 0.5450886 -0.06365668 0.5450891 1.183507 0.4656899 1.183507 0.465689 -0.06365668 0.4656899 1.183507 0.3862906 1.183507 0.3862894 -0.06365656 0.7038878 1.183507 0.6244885 1.183507 0.6244882 -0.06365668 0.3088464 1.113604 0.2307727 1.113604 0.2307727 -0.1127377 0.5430672 1.113605 0.4649937 1.113605 0.4649947 -0.1127376 0.4649937 1.113605 0.3869199 1.113604 0.3869207 -0.1127376 0.3869199 1.113604 0.3088464 1.113604 0.3088467 -0.1127377 0.1608915 1.102767 0.08281797 1.102767 0.08281797 -0.1235749 0.3951124 1.102767 0.3170388 1.102767 0.31704 -0.1235748 0.3170388 1.102767 0.2389652 1.102767 0.2389659 -0.1235748 0.2389652 1.102767 0.1608915 1.102767 0.160892 -0.1235749 0.5488656 -0.09798532 0.5488659 0.6905939 0.4730638 0.6905939 0.6246678 0.6905942 0.6246672 -0.09798496 0.7004693 -0.09798491 0.7004693 -0.09798491 0.7762714 -0.09798538 0.7762721 0.6905937 0.5488659 0.6905939 0.5488656 -0.09798532 0.6246672 -0.09798496 0.5483762 2.40739 0.5483738 -2.208635 0.6249942 -2.208779 0.4717537 -2.208788 0.4717564 2.407237 0.395136 2.407381 0.395136 2.407381 0.3185162 2.407229 0.3185136 -2.208797 0.4717537 -2.208788 0.5483738 -2.208635 0.5483762 2.40739 0.3177882 1.08461 0.2421063 1.08461 0.2421047 -0.1041637 0.544834 1.084611 0.4691521 1.08461 0.4691516 -0.104164 0.4691521 1.08461 0.3934701 1.08461 0.3934693 -0.1041638 0.3934701 1.08461 0.3177882 1.08461 0.317787 -0.1041638 0.4801157 1.113463 0.4044338 1.113463 0.4044322 -0.07531076 0.7071616 1.113463 0.6314796 1.113463 0.6314791 -0.075311 0.6314796 1.113463 0.5557976 1.113463 0.5557969 -0.07531088 0.5557976 1.113463 0.4801157 1.113463 0.4801145 -0.07531088 0.3177882 1.08461 0.2421063 1.08461 0.2421047 -0.1041637 0.544834 1.084611 0.4691521 1.08461 0.4691516 -0.104164 0.4691521 1.08461 0.3934701 1.08461 0.3934693 -0.1041638 0.3934701 1.08461 0.3177882 1.08461 0.317787 -0.1041638 0.4736226 1.137877 0.3979407 1.137877 0.3979392 -0.0508967 0.7006685 1.137878 0.6249865 1.137877 0.624986 -0.05089694 0.6249865 1.137877 0.5493046 1.137877 0.5493038 -0.05089682 0.5493046 1.137877 0.4736226 1.137877 0.4736214 -0.05089682 0.3177882 1.08461 0.2421063 1.08461 0.2421047 -0.1041637 0.544834 1.084611 0.4691521 1.08461 0.4691516 -0.104164 0.4691521 1.08461 0.3934701 1.08461 0.3934693 -0.1041638 0.3934701 1.08461 0.3177882 1.08461 0.317787 -0.1041638 0.4000341 1.100147 0.3243522 1.100147 0.3243507 -0.08862751 0.62708 1.100147 0.551398 1.100147 0.5513976 -0.08862775 0.551398 1.100147 0.4757161 1.100147 0.4757153 -0.08862763 0.4757161 1.100147 0.4000341 1.100147 0.4000329 -0.08862763 0.3177882 1.08461 0.2421063 1.08461 0.2421047 -0.1041637 0.544834 1.084611 0.4691521 1.08461 0.4691516 -0.104164 0.4691521 1.08461 0.3934701 1.08461 0.3934693 -0.1041638 0.3934701 1.08461 0.3177882 1.08461 0.317787 -0.1041638 0.07646763 1.146466 0.001219511 1.146466 0.001217961 -0.03549361 0.3022119 1.146467 0.2269639 1.146467 0.2269634 -0.03549385 0.2269639 1.146467 0.1517157 1.146467 0.1517149 -0.03549379 0.1517157 1.146467 0.07646763 1.146466 0.07646644 -0.03549373 0.3216498 1.150801 0.2464017 1.150801 0.2464001 -0.03115868 0.5473942 1.150802 0.4721461 1.150802 0.4721456 -0.03115892 0.4721461 1.150802 0.3968979 1.150802 0.3968971 -0.03115886 0.3968979 1.150802 0.3216498 1.150801 0.3216487 -0.0311588 0.07646763 1.146466 0.001219511 1.146466 0.001217961 -0.03549361 0.3022119 1.146467 0.2269639 1.146467 0.2269634 -0.03549385 0.2269639 1.146467 0.1517157 1.146467 0.1517149 -0.03549379 0.1517157 1.146467 0.07646763 1.146466 0.07646644 -0.03549373 0.6929065 1.144559 0.6176584 1.144559 0.6176568 -0.03740096 0.9186508 1.144559 0.8434028 1.144559 0.8434023 -0.03740119 0.8434028 1.144559 0.7681546 1.144559 0.7681538 -0.03740113 0.7681546 1.144559 0.6929065 1.144559 0.6929053 -0.03740108 0.07646763 1.146466 0.001219511 1.146466 0.001217961 -0.03549361 0.3022119 1.146467 0.2269639 1.146467 0.2269634 -0.03549385 0.2269639 1.146467 0.1517157 1.146467 0.1517149 -0.03549379 0.1517157 1.146467 0.07646763 1.146466 0.07646644 -0.03549373 0.314548 1.168661 0.2392998 1.168661 0.2392983 -0.01329898 0.5402923 1.168661 0.4650442 1.168661 0.4650438 -0.01329922 0.4650442 1.168661 0.3897961 1.168661 0.3897953 -0.01329916 0.3897961 1.168661 0.314548 1.168661 0.3145468 -0.0132991 0.07646763 1.146466 0.001219511 1.146466 0.001217961 -0.03549361 0.3022119 1.146467 0.2269639 1.146467 0.2269634 -0.03549385 0.2269639 1.146467 0.1517157 1.146467 0.1517149 -0.03549379 0.1517157 1.146467 0.07646763 1.146466 0.07646644 -0.03549373 0.3936998 -0.1133731 0.4718629 -0.113373 0.3937007 0.6997674 0.6281898 0.6997675 0.5500266 0.6997676 0.6281884 -0.1133729 0.3155376 0.6997678 0.3155369 -0.1133726 0.3937007 0.6997674 0.5500266 0.6997676 0.4718636 0.6997674 0.5500255 -0.1133727 0.5530641 -0.07919293 0.5530644 1.167971 0.4736645 -0.07919293 0.4736645 -0.07919293 0.4736649 1.167971 0.3942649 -0.07919293 0.3942649 -0.07919293 0.3942658 1.167971 0.3148653 -0.07919281 0.6324636 -0.07919293 0.6324636 1.167971 0.5530641 -0.07919293 0.6244882 -0.06365668 0.6244885 1.183507 0.5450886 -0.06365668 0.5450886 -0.06365668 0.5450891 1.183507 0.465689 -0.06365668 0.465689 -0.06365668 0.4656899 1.183507 0.3862894 -0.06365656 0.7038878 -0.06365668 0.7038878 1.183507 0.6244882 -0.06365668 0.3088467 -0.1127377 0.3088464 1.113604 0.2307727 -0.1127377 0.5430687 -0.1127375 0.5430672 1.113605 0.4649947 -0.1127376 0.4649947 -0.1127376 0.4649937 1.113605 0.3869207 -0.1127376 0.3869207 -0.1127376 0.3869199 1.113604 0.3088467 -0.1127377 0.160892 -0.1235749 0.1608915 1.102767 0.08281797 -0.1235749 0.395114 -0.1235747 0.3951124 1.102767 0.31704 -0.1235748 0.31704 -0.1235748 0.3170388 1.102767 0.2389659 -0.1235748 0.2389659 -0.1235748 0.2389652 1.102767 0.160892 -0.1235749 0.4730634 -0.09798532 0.5488656 -0.09798532 0.4730638 0.6905939 0.70047 0.6905942 0.6246678 0.6905942 0.7004693 -0.09798491 0.70047 0.6905942 0.7004693 -0.09798491 0.7762721 0.6905937 0.6246678 0.6905942 0.5488659 0.6905939 0.6246672 -0.09798496 0.6249962 2.407245 0.5483762 2.40739 0.6249942 -2.208779 0.3951334 -2.208644 0.4717537 -2.208788 0.395136 2.407381 0.3951334 -2.208644 0.395136 2.407381 0.3185136 -2.208797 0.4717564 2.407237 0.4717537 -2.208788 0.5483762 2.40739 0.317787 -0.1041638 0.3177882 1.08461 0.2421047 -0.1041637 0.544834 -0.104164 0.544834 1.084611 0.4691516 -0.104164 0.4691516 -0.104164 0.4691521 1.08461 0.3934693 -0.1041638 0.3934693 -0.1041638 0.3934701 1.08461 0.317787 -0.1041638 0.4801145 -0.07531088 0.4801157 1.113463 0.4044322 -0.07531076 0.7071616 -0.075311 0.7071616 1.113463 0.6314791 -0.075311 0.6314791 -0.075311 0.6314796 1.113463 0.5557969 -0.07531088 0.5557969 -0.07531088 0.5557976 1.113463 0.4801145 -0.07531088 0.317787 -0.1041638 0.3177882 1.08461 0.2421047 -0.1041637 0.544834 -0.104164 0.544834 1.084611 0.4691516 -0.104164 0.4691516 -0.104164 0.4691521 1.08461 0.3934693 -0.1041638 0.3934693 -0.1041638 0.3934701 1.08461 0.317787 -0.1041638 0.4736214 -0.05089682 0.4736226 1.137877 0.3979392 -0.0508967 0.7006685 -0.05089694 0.7006685 1.137878 0.624986 -0.05089694 0.624986 -0.05089694 0.6249865 1.137877 0.5493038 -0.05089682 0.5493038 -0.05089682 0.5493046 1.137877 0.4736214 -0.05089682 0.317787 -0.1041638 0.3177882 1.08461 0.2421047 -0.1041637 0.544834 -0.104164 0.544834 1.084611 0.4691516 -0.104164 0.4691516 -0.104164 0.4691521 1.08461 0.3934693 -0.1041638 0.3934693 -0.1041638 0.3934701 1.08461 0.317787 -0.1041638 0.4000329 -0.08862763 0.4000341 1.100147 0.3243507 -0.08862751 0.62708 -0.08862775 0.62708 1.100147 0.5513976 -0.08862775 0.5513976 -0.08862775 0.551398 1.100147 0.4757153 -0.08862763 0.4757153 -0.08862763 0.4757161 1.100147 0.4000329 -0.08862763 0.317787 -0.1041638 0.3177882 1.08461 0.2421047 -0.1041637 0.544834 -0.104164 0.544834 1.084611 0.4691516 -0.104164 0.4691516 -0.104164 0.4691521 1.08461 0.3934693 -0.1041638 0.3934693 -0.1041638 0.3934701 1.08461 0.317787 -0.1041638 0.07646644 -0.03549373 0.07646763 1.146466 0.001217961 -0.03549361 0.3022119 -0.03549385 0.3022119 1.146467 0.2269634 -0.03549385 0.2269634 -0.03549385 0.2269639 1.146467 0.1517149 -0.03549379 0.1517149 -0.03549379 0.1517157 1.146467 0.07646644 -0.03549373 0.3216487 -0.0311588 0.3216498 1.150801 0.2464001 -0.03115868 0.5473941 -0.03115892 0.5473942 1.150802 0.4721456 -0.03115892 0.4721456 -0.03115892 0.4721461 1.150802 0.3968971 -0.03115886 0.3968971 -0.03115886 0.3968979 1.150802 0.3216487 -0.0311588 0.07646644 -0.03549373 0.07646763 1.146466 0.001217961 -0.03549361 0.3022119 -0.03549385 0.3022119 1.146467 0.2269634 -0.03549385 0.2269634 -0.03549385 0.2269639 1.146467 0.1517149 -0.03549379 0.1517149 -0.03549379 0.1517157 1.146467 0.07646644 -0.03549373 0.6929053 -0.03740108 0.6929065 1.144559 0.6176568 -0.03740096 0.9186507 -0.03740119 0.9186508 1.144559 0.8434023 -0.03740119 0.8434023 -0.03740119 0.8434028 1.144559 0.7681538 -0.03740113 0.7681538 -0.03740113 0.7681546 1.144559 0.6929053 -0.03740108 0.07646644 -0.03549373 0.07646763 1.146466 0.001217961 -0.03549361 0.3022119 -0.03549385 0.3022119 1.146467 0.2269634 -0.03549385 0.2269634 -0.03549385 0.2269639 1.146467 0.1517149 -0.03549379 0.1517149 -0.03549379 0.1517157 1.146467 0.07646644 -0.03549373 0.3145468 -0.0132991 0.314548 1.168661 0.2392983 -0.01329898 0.5402923 -0.01329922 0.5402923 1.168661 0.4650438 -0.01329922 0.4650438 -0.01329922 0.4650442 1.168661 0.3897953 -0.01329916 0.3897953 -0.01329916 0.3897961 1.168661 0.3145468 -0.0132991 0.07646644 -0.03549373 0.07646763 1.146466 0.001217961 -0.03549361 0.3022119 -0.03549385 0.3022119 1.146467 0.2269634 -0.03549385 0.2269634 -0.03549385 0.2269639 1.146467 0.1517149 -0.03549379 0.1517149 -0.03549379 0.1517157 1.146467 0.07646644 -0.03549373</float_array>
          <technique_common>
            <accessor source="#Cube_021-mesh-map-0-array" count="504" stride="2">
              <param name="S" type="float"/>
              <param name="T" type="float"/>
            </accessor>
          </technique_common>
        </source>
        <vertices id="Cube_021-mesh-vertices">
          <input semantic="POSITION" source="#Cube_021-mesh-positions"/>
        </vertices>
        <polylist material="Wood-material" count="168">
          <input semantic="VERTEX" source="#Cube_021-mesh-vertices" offset="0"/>
          <input semantic="NORMAL" source="#Cube_021-mesh-normals" offset="1"/>
          <input semantic="TEXCOORD" source="#Cube_021-mesh-map-0" offset="2" set="0"/>
          <vcount>3 3 3 3 3 3 3 3 3 3 3 3 3 3 3 3 3 3 3 3 3 3 3 3 3 3 3 3 3 3 3 3 3 3 3 3 3 3 3 3 3 3 3 3 3 3 3 3 3 3 3 3 3 3 3 3 3 3 3 3 3 3 3 3 3 3 3 3 3 3 3 3 3 3 3 3 3 3 3 3 3 3 3 3 3 3 3 3 3 3 3 3 3 3 3 3 3 3 3 3 3 3 3 3 3 3 3 3 3 3 3 3 3 3 3 3 3 3 3 3 3 3 3 3 3 3 3 3 3 3 3 3 3 3 3 3 3 3 3 3 3 3 3 3 3 3 3 3 3 3 3 3 3 3 3 3 3 3 3 3 3 3 3 3 3 3 3 3 </vcount>
          <p>5 0 0 6 0 1 2 0 2 7 1 3 4 1 4 0 1 5 0 2 6 1 2 7 2 2 8 6 3 9 5 3 10 4 3 11 12 4 12 13 4 13 9 4 14 13 5 15 14 5 16 10 5 17 14 6 18 15 6 19 11 6 20 15 7 21 12 7 22 8 7 23 20 8 24 21 8 25 17 8 26 21 9 27 22 9 28 18 9 29 22 10 30 23 10 31 19 10 32 23 11 33 20 11 34 16 11 35 28 12 36 29 12 37 25 12 38 29 13 39 30 13 40 26 13 41 30 14 42 31 14 43 27 14 44 31 15 45 28 15 46 24 15 47 36 16 48 37 16 49 33 16 50 37 17 51 38 17 52 34 17 53 38 18 54 39 18 55 35 18 56 39 19 57 36 19 58 32 19 59 45 20 60 46 20 61 42 20 62 47 21 63 44 21 64 40 21 65 40 22 66 41 22 67 42 22 68 46 23 69 45 23 70 44 23 71 53 24 72 54 24 73 50 24 74 55 25 75 52 25 76 48 25 77 48 26 78 49 26 79 50 26 80 55 27 81 54 27 82 53 27 83 60 28 84 61 28 85 57 28 86 61 29 87 62 29 88 58 29 89 62 30 90 63 30 91 59 30 92 63 31 93 60 31 94 56 31 95 68 32 96 69 32 97 65 32 98 69 33 99 70 33 100 66 33 101 70 34 102 71 34 103 67 34 104 71 35 105 68 35 106 64 35 107 76 36 108 77 36 109 73 36 110 77 37 111 78 37 112 74 37 113 78 38 114 79 38 115 75 38 116 79 39 117 76 39 118 72 39 119 84 40 120 85 40 121 81 40 122 85 41 123 86 41 124 82 41 125 86 42 126 87 42 127 83 42 128 87 43 129 84 43 130 80 43 131 92 44 132 93 44 133 89 44 134 93 45 135 94 45 136 90 45 137 94 46 138 95 46 139 91 46 140 95 47 141 92 47 142 88 47 143 100 48 144 101 48 145 97 48 146 101 49 147 102 49 148 98 49 149 102 50 150 103 50 151 99 50 152 103 51 153 100 51 154 96 51 155 108 52 156 109 52 157 105 52 158 109 53 159 110 53 160 106 53 161 110 54 162 111 54 163 107 54 164 111 55 165 108 55 166 104 55 167 116 56 168 117 56 169 113 56 170 117 57 171 118 57 172 114 57 173 118 58 174 119 58 175 115 58 176 119 59 177 116 59 178 112 59 179 124 60 180 125 60 181 121 60 182 125 61 183 126 61 184 122 61 185 126 62 186 127 62 187 123 62 188 127 63 189 124 63 190 120 63 191 132 64 192 133 64 193 129 64 194 133 65 195 134 65 196 130 65 197 134 66 198 135 66 199 131 66 200 135 67 201 132 67 202 128 67 203 140 68 204 141 68 205 137 68 206 141 69 207 142 69 208 138 69 209 142 70 210 143 70 211 139 70 212 143 71 213 140 71 214 136 71 215 148 72 216 149 72 217 145 72 218 149 73 219 150 73 220 146 73 221 150 74 222 151 74 223 147 74 224 151 75 225 148 75 226 144 75 227 156 76 228 157 76 229 153 76 230 157 77 231 158 77 232 154 77 233 158 78 234 159 78 235 155 78 236 159 79 237 156 79 238 152 79 239 164 80 240 165 80 241 161 80 242 165 81 243 166 81 244 162 81 245 166 82 246 167 82 247 163 82 248 167 83 249 164 83 250 160 83 251 1 84 252 5 84 253 2 84 254 3 85 255 7 85 256 0 85 257 3 86 258 0 86 259 2 86 260 7 87 261 6 87 262 4 87 263 8 88 264 12 88 265 9 88 266 9 89 267 13 89 268 10 89 269 10 90 270 14 90 271 11 90 272 11 91 273 15 91 274 8 91 275 16 92 276 20 92 277 17 92 278 17 93 279 21 93 280 18 93 281 18 94 282 22 94 283 19 94 284 19 95 285 23 95 286 16 95 287 24 96 288 28 96 289 25 96 290 25 97 291 29 97 292 26 97 293 26 98 294 30 98 295 27 98 296 27 99 297 31 99 298 24 99 299 32 100 300 36 100 301 33 100 302 33 101 303 37 101 304 34 101 305 34 102 306 38 102 307 35 102 308 35 103 309 39 103 310 32 103 311 41 104 312 45 104 313 42 104 314 43 105 315 47 105 316 40 105 317 43 106 318 40 106 319 42 106 320 47 107 321 46 107 322 44 107 323 49 108 324 53 108 325 50 108 326 51 109 327 55 109 328 48 109 329 51 110 330 48 110 331 50 110 332 52 111 333 55 111 334 53 111 335 56 112 336 60 112 337 57 112 338 57 113 339 61 113 340 58 113 341 58 114 342 62 114 343 59 114 344 59 115 345 63 115 346 56 115 347 64 116 348 68 116 349 65 116 350 65 117 351 69 117 352 66 117 353 66 118 354 70 118 355 67 118 356 67 119 357 71 119 358 64 119 359 72 120 360 76 120 361 73 120 362 73 121 363 77 121 364 74 121 365 74 122 366 78 122 367 75 122 368 75 123 369 79 123 370 72 123 371 80 124 372 84 124 373 81 124 374 81 125 375 85 125 376 82 125 377 82 126 378 86 126 379 83 126 380 83 127 381 87 127 382 80 127 383 88 128 384 92 128 385 89 128 386 89 129 387 93 129 388 90 129 389 90 130 390 94 130 391 91 130 392 91 131 393 95 131 394 88 131 395 96 132 396 100 132 397 97 132 398 97 133 399 101 133 400 98 133 401 98 134 402 102 134 403 99 134 404 99 135 405 103 135 406 96 135 407 104 136 408 108 136 409 105 136 410 105 137 411 109 137 412 106 137 413 106 138 414 110 138 415 107 138 416 107 139 417 111 139 418 104 139 419 112 140 420 116 140 421 113 140 422 113 141 423 117 141 424 114 141 425 114 142 426 118 142 427 115 142 428 115 143 429 119 143 430 112 143 431 120 144 432 124 144 433 121 144 434 121 145 435 125 145 436 122 145 437 122 146 438 126 146 439 123 146 440 123 147 441 127 147 442 120 147 443 128 148 444 132 148 445 129 148 446 129 149 447 133 149 448 130 149 449 130 150 450 134 150 451 131 150 452 131 151 453 135 151 454 128 151 455 136 152 456 140 152 457 137 152 458 137 153 459 141 153 460 138 153 461 138 154 462 142 154 463 139 154 464 139 155 465 143 155 466 136 155 467 144 156 468 148 156 469 145 156 470 145 157 471 149 157 472 146 157 473 146 158 474 150 158 475 147 158 476 147 159 477 151 159 478 144 159 479 152 160 480 156 160 481 153 160 482 153 161 483 157 161 484 154 161 485 154 162 486 158 162 487 155 162 488 155 163 489 159 163 490 152 163 491 160 164 492 164 164 493 161 164 494 161 165 495 165 165 496 162 165 497 162 166 498 166 166 499 163 166 500 163 167 501 167 167 502 160 167 503</p>
        </polylist>
      </mesh>
    </geometry>
    <geometry id="Cube_022-mesh" name="Cube.022">
      <mesh>
        <source id="Cube_022-mesh-positions">
          <float_array id="Cube_022-mesh-positions-array" count="96">-0.1128522 -0.1128522 -0.04262262 -0.1128522 0.8907806 -0.04262262 0.05217379 0.8907806 -0.04262262 0.05217379 -0.1128522 -0.04262262 -0.1128522 -0.1128522 0.1128522 -0.1128522 0.8907806 0.1128522 0.05217379 0.8907806 0.1128522 0.05217379 -0.1128522 0.1128522 3.030179 -0.1128522 -0.04262262 3.030179 0.8907806 -0.04262262 3.195205 0.8907806 -0.04262262 3.195205 -0.1128522 -0.04262262 3.030179 -0.1128522 0.1128522 3.030179 0.8907806 0.1128522 3.195205 0.8907806 0.1128522 3.195205 -0.1128522 0.1128522 6.168902 -0.1128522 -0.04262262 6.168902 0.8907806 -0.04262262 6.333928 0.8907806 -0.04262262 6.333928 -0.1128522 -0.04262262 6.168902 -0.1128522 0.1128522 6.168902 0.8907806 0.1128522 6.333928 0.8907806 0.1128522 6.333928 -0.1128522 0.1128522 -0.02204722 0.0967279 -0.02459096 6.178936 0.09672707 -0.02459096 6.178936 -0.05974406 -0.02459096 -0.02204746 -0.05974328 -0.02459096 -0.02204722 0.0967279 0.1228242 6.178936 0.09672707 0.1228242 6.178936 -0.05974406 0.1228242 -0.02204746 -0.05974328 0.1228242</float_array>
          <technique_common>
            <accessor source="#Cube_022-mesh-positions-array" count="32" stride="3">
              <param name="X" type="float"/>
              <param name="Y" type="float"/>
              <param name="Z" type="float"/>
            </accessor>
          </technique_common>
        </source>
        <source id="Cube_022-mesh-normals">
          <float_array id="Cube_022-mesh-normals-array" count="90">-1 0 0 -1 0 0 1 0 0 0 -1 0 0 0 -1 1 0 0 0 -1 0 0 0 -1 -1 0 0 1 0 0 0 -1 0 0 0 -1 1.30965e-7 1 0 -1.30965e-7 -1 0 0 0 -1 -1 0 0 -1 0 0 1 0 0 0 -1 0 0 0 -1 1 0 0 0 -1 0 0 0 -1 -1 0 0 1 0 0 0 -1 0 0 0 -1 1.30965e-7 1 0 -1.30965e-7 -1 0 0 0 -1</float_array>
          <technique_common>
            <accessor source="#Cube_022-mesh-normals-array" count="30" stride="3">
              <param name="X" type="float"/>
              <param name="Y" type="float"/>
              <param name="Z" type="float"/>
            </accessor>
          </technique_common>
        </source>
        <source id="Cube_022-mesh-map-0">
          <float_array id="Cube_022-mesh-map-0-array" count="180">0.4747146 0.6683373 0.4747141 0.1879106 0.5454891 0.1879106 0.4747146 0.6683373 0.4747141 0.1879106 0.5454891 0.1879106 0.3995913 0.1879108 0.3995917 0.6683374 0.3288167 0.6683374 0.691475 0.5893411 0.691475 0.6683371 0.6207001 0.6683371 0.5454896 0.6683372 0.5454891 0.1879106 0.620612 0.1879104 0.3995913 0.1879108 0.3995917 0.6683374 0.3288167 0.6683374 0.691475 0.5893411 0.691475 0.6683371 0.6207001 0.6683371 0.5454896 0.6683372 0.5454891 0.1879106 0.620612 0.1879104 0.4747146 0.6683373 0.4747141 0.1879106 0.5454891 0.1879106 0.3995913 0.1879108 0.3995917 0.6683374 0.3288167 0.6683374 0.691475 0.5893411 0.691475 0.6683371 0.6207001 0.6683371 0.5454896 0.6683372 0.5454891 0.1879106 0.620612 0.1879104 0.3930308 1.756853 0.3930456 -1.634305 0.4697105 -1.634305 0.6277439 -1.634305 0.627748 1.756854 0.551083 1.756854 0.4697053 1.756853 0.4697105 -1.634305 0.5510855 -1.634305 0.5454896 0.6683372 0.4747146 0.6683373 0.5454891 0.1879106 0.5454896 0.6683372 0.4747146 0.6683373 0.5454891 0.1879106 0.3288164 0.1879109 0.3995913 0.1879108 0.3288167 0.6683374 0.6207001 0.5893412 0.691475 0.5893411 0.6207001 0.6683371 0.6206125 0.6683371 0.5454896 0.6683372 0.620612 0.1879104 0.3288164 0.1879109 0.3995913 0.1879108 0.3288167 0.6683374 0.6207001 0.5893412 0.691475 0.5893411 0.6207001 0.6683371 0.6206125 0.6683371 0.5454896 0.6683372 0.620612 0.1879104 0.5454896 0.6683372 0.4747146 0.6683373 0.5454891 0.1879106 0.3288164 0.1879109 0.3995913 0.1879108 0.3288167 0.6683374 0.6207001 0.5893412 0.691475 0.5893411 0.6207001 0.6683371 0.6206125 0.6683371 0.5454896 0.6683372 0.620612 0.1879104 0.4697053 1.756853 0.3930308 1.756853 0.4697105 -1.634305 0.5510855 -1.634305 0.6277439 -1.634305 0.551083 1.756854 0.551083 1.756854 0.4697053 1.756853 0.5510855 -1.634305</float_array>
          <technique_common>
            <accessor source="#Cube_022-mesh-map-0-array" count="90" stride="2">
              <param name="S" type="float"/>
              <param name="T" type="float"/>
            </accessor>
          </technique_common>
        </source>
        <vertices id="Cube_022-mesh-vertices">
          <input semantic="POSITION" source="#Cube_022-mesh-positions"/>
        </vertices>
        <polylist material="Wood-material" count="30">
          <input semantic="VERTEX" source="#Cube_022-mesh-vertices" offset="0"/>
          <input semantic="NORMAL" source="#Cube_022-mesh-normals" offset="1"/>
          <input semantic="TEXCOORD" source="#Cube_022-mesh-map-0" offset="2" set="0"/>
          <vcount>3 3 3 3 3 3 3 3 3 3 3 3 3 3 3 3 3 3 3 3 3 3 3 3 3 3 3 3 3 3 </vcount>
          <p>4 0 0 5 0 1 1 0 2 12 1 3 13 1 4 9 1 5 6 2 6 7 2 7 3 2 8 7 3 9 4 3 10 0 3 11 0 4 12 1 4 13 2 4 14 14 5 15 15 5 16 11 5 17 15 6 18 12 6 19 8 6 20 8 7 21 9 7 22 10 7 23 20 8 24 21 8 25 17 8 26 22 9 27 23 9 28 19 9 29 23 10 30 20 10 31 16 10 32 16 11 33 17 11 34 18 11 35 28 12 36 29 12 37 25 12 38 30 13 39 31 13 40 27 13 41 24 14 42 25 14 43 26 14 44 0 15 45 4 15 46 1 15 47 8 16 48 12 16 49 9 16 50 2 17 51 6 17 52 3 17 53 3 18 54 7 18 55 0 18 56 3 19 57 0 19 58 2 19 59 10 20 60 14 20 61 11 20 62 11 21 63 15 21 64 8 21 65 11 22 66 8 22 67 10 22 68 16 23 69 20 23 70 17 23 71 18 24 72 22 24 73 19 24 74 19 25 75 23 25 76 16 25 77 19 26 78 16 26 79 18 26 80 24 27 81 28 27 82 25 27 83 26 28 84 30 28 85 27 28 86 27 29 87 24 29 88 26 29 89</p>
        </polylist>
      </mesh>
    </geometry>
    <geometry id="Cube_004-mesh" name="Cube.004">
      <mesh>
        <source id="Cube_004-mesh-positions">
          <float_array id="Cube_004-mesh-positions-array" count="72">-3.21931 -0.07685345 3.343892 -3.21931 0.07685369 3.343892 -3.065603 0.07685369 3.343892 -3.065603 -0.07685345 3.343892 -0.07685375 -0.07685345 3.343892 -0.07685375 0.07685369 3.343892 0.07685351 0.07685369 3.343892 0.07685351 -0.07685345 3.343892 3.065603 -0.07685345 3.343892 3.065603 0.07685369 3.343892 3.21931 0.07685369 3.343892 3.21931 -0.07685345 3.343892 -3.21931 -0.07685345 -3.343891 -3.21931 0.07685369 -3.343891 -3.065603 0.07685369 -3.343891 -3.065603 -0.07685345 -3.343891 -0.07685375 -0.07685345 -3.343891 -0.07685375 0.07685369 -3.343891 0.07685351 0.07685369 -3.343891 0.07685351 -0.07685345 -3.343891 3.065603 -0.07685345 -3.343891 3.065603 0.07685369 -3.343891 3.21931 0.07685369 -3.343891 3.21931 -0.07685345 -3.343891</float_array>
          <technique_common>
            <accessor source="#Cube_004-mesh-positions-array" count="24" stride="3">
              <param name="X" type="float"/>
              <param name="Y" type="float"/>
              <param name="Z" type="float"/>
            </accessor>
          </technique_common>
        </source>
        <source id="Cube_004-mesh-normals">
          <float_array id="Cube_004-mesh-normals-array" count="72">0 -1 0 1 0 0 0 1 0 -1 0 0 0 -1 0 1 0 0 0 1 0 -1 0 0 0 -1 0 1 0 0 0 1 0 -1 0 0 0 -1 0 1 0 0 0 1 0 -1 0 0 0 -1 0 1 0 0 0 1 0 -1 0 0 0 -1 0 1 0 0 0 1 0 -1 0 0</float_array>
          <technique_common>
            <accessor source="#Cube_004-mesh-normals-array" count="24" stride="3">
              <param name="X" type="float"/>
              <param name="Y" type="float"/>
              <param name="Z" type="float"/>
            </accessor>
          </technique_common>
        </source>
        <source id="Cube_004-mesh-map-0">
          <float_array id="Cube_004-mesh-map-0-array" count="144">0.3155872 2.200665 0.242264 2.200665 0.2422609 -0.9896014 0.3889101 2.200665 0.3155872 2.200665 0.3155805 -0.9896026 0.4622333 2.200664 0.3889101 2.200665 0.3889003 -0.9896031 0.242264 2.200665 0.1689412 2.200665 0.1689412 -0.9896008 0.5455787 2.199244 0.4722557 2.199245 0.4722589 -0.991023 0.6189016 2.199244 0.5455787 2.199244 0.5455787 -0.991023 0.6922246 2.199244 0.6189016 2.199244 0.6188983 -0.991023 0.4722557 2.199245 0.3989328 2.199244 0.398939 -0.9910237 0.09006947 2.199292 0.01674652 2.199267 0.01784491 -0.9909995 0.1633923 2.199317 0.09006947 2.199292 0.09116464 -0.9909749 0.2367153 2.199342 0.1633923 2.199317 0.1644844 -0.9909502 0.01674652 2.199267 -0.05657619 2.199242 -0.05547469 -0.9910237 0.3155805 -0.9896026 0.3155872 2.200665 0.2422609 -0.9896014 0.3889003 -0.9896031 0.3889101 2.200665 0.3155805 -0.9896026 0.4622201 -0.9896033 0.4622333 2.200664 0.3889003 -0.9896031 0.2422609 -0.9896014 0.242264 2.200665 0.1689412 -0.9896008 0.5455787 -0.991023 0.5455787 2.199244 0.4722589 -0.991023 0.6188983 -0.991023 0.6189016 2.199244 0.5455787 -0.991023 0.6922181 -0.9910237 0.6922246 2.199244 0.6188983 -0.991023 0.4722589 -0.991023 0.4722557 2.199245 0.398939 -0.9910237 0.09116464 -0.9909749 0.09006947 2.199292 0.01784491 -0.9909995 0.1644844 -0.9909502 0.1633923 2.199317 0.09116464 -0.9909749 0.2378041 -0.9909248 0.2367153 2.199342 0.1644844 -0.9909502 0.01784491 -0.9909995 0.01674652 2.199267 -0.05547469 -0.9910237</float_array>
          <technique_common>
            <accessor source="#Cube_004-mesh-map-0-array" count="72" stride="2">
              <param name="S" type="float"/>
              <param name="T" type="float"/>
            </accessor>
          </technique_common>
        </source>
        <vertices id="Cube_004-mesh-vertices">
          <input semantic="POSITION" source="#Cube_004-mesh-positions"/>
        </vertices>
        <polylist material="Wood-material" count="24">
          <input semantic="VERTEX" source="#Cube_004-mesh-vertices" offset="0"/>
          <input semantic="NORMAL" source="#Cube_004-mesh-normals" offset="1"/>
          <input semantic="TEXCOORD" source="#Cube_004-mesh-map-0" offset="2" set="0"/>
          <vcount>3 3 3 3 3 3 3 3 3 3 3 3 3 3 3 3 3 3 3 3 3 3 3 3 </vcount>
          <p>11 0 0 8 0 1 20 0 2 10 1 3 11 1 4 23 1 5 9 2 6 10 2 7 22 2 8 8 3 9 9 3 10 21 3 11 7 4 12 4 4 13 16 4 14 6 5 15 7 5 16 19 5 17 5 6 18 6 6 19 18 6 20 4 7 21 5 7 22 17 7 23 3 8 24 0 8 25 12 8 26 2 9 27 3 9 28 15 9 29 1 10 30 2 10 31 14 10 32 0 11 33 1 11 34 13 11 35 23 12 36 11 12 37 20 12 38 22 13 39 10 13 40 23 13 41 21 14 42 9 14 43 22 14 44 20 15 45 8 15 46 21 15 47 19 16 48 7 16 49 16 16 50 18 17 51 6 17 52 19 17 53 17 18 54 5 18 55 18 18 56 16 19 57 4 19 58 17 19 59 15 20 60 3 20 61 12 20 62 14 21 63 2 21 64 15 21 65 13 22 66 1 22 67 14 22 68 12 23 69 0 23 70 13 23 71</p>
        </polylist>
      </mesh>
    </geometry>
  </library_geometries>
  <library_controllers/>
  <library_visual_scenes>
    <visual_scene id="Scene" name="Scene">
      <node id="Camera" name="Camera" type="NODE">
        <matrix sid="transform">0.6858805 -0.3173701 0.6548619 16.48844 0.7276338 0.3124686 -0.6106656 -11.13824 -0.01081678 0.8953432 0.4452454 5.747424 0 0 0 1</matrix>
        <instance_camera url="#Camera-camera"/>
      </node>
      <node id="Balcony1" name="Balcony1" type="NODE">
        <matrix sid="transform">1 0 0 -3.145469 0 1 0 0.4761631 0 0 1 1.968067 0 0 0 1</matrix>
        <instance_geometry url="#Cube_007-mesh">
          <bind_material>
            <technique_common>
              <instance_material symbol="Wood-material" target="#Wood-material">
                <bind_vertex_input semantic="UVMap" input_semantic="TEXCOORD" input_set="0"/>
              </instance_material>
            </technique_common>
          </bind_material>
        </instance_geometry>
      </node>
      <node id="Balcony1Roof" name="Balcony1Roof" type="NODE">
        <matrix sid="transform">1 0 0 -5.68831e-9 0 1 0 -0.2120986 0 0 1 2.371217 0 0 0 1</matrix>
        <instance_geometry url="#Cube_020-mesh">
          <bind_material>
            <technique_common>
              <instance_material symbol="RoofTiles-material" target="#RoofTiles-material">
                <bind_vertex_input semantic="UVMap" input_semantic="TEXCOORD" input_set="0"/>
              </instance_material>
            </technique_common>
          </bind_material>
        </instance_geometry>
      </node>
      <node id="Balcony1Handles" name="Balcony1Handles" type="NODE">
        <matrix sid="transform">1 0 0 -3.145469 0 1 0 0.4761631 0 0 1 2.141635 0 0 0 1</matrix>
        <instance_geometry url="#Cube_021-mesh">
          <bind_material>
            <technique_common>
              <instance_material symbol="Wood-material" target="#Wood-material">
                <bind_vertex_input semantic="UVMap" input_semantic="TEXCOORD" input_set="0"/>
              </instance_material>
            </technique_common>
          </bind_material>
        </instance_geometry>
      </node>
      <node id="Balcony1Support" name="Balcony1Support" type="NODE">
        <matrix sid="transform">1 0 0 -3.114105 0 1 0 -0.364711 0 0 1 -0.1677967 0 0 0 1</matrix>
        <instance_geometry url="#Cube_022-mesh">
          <bind_material>
            <technique_common>
              <instance_material symbol="Wood-material" target="#Wood-material">
                <bind_vertex_input semantic="UVMap" input_semantic="TEXCOORD" input_set="0"/>
              </instance_material>
            </technique_common>
          </bind_material>
        </instance_geometry>
      </node>
      <node id="Balcony1Stilts" name="Balcony1Stilts" type="NODE">
        <matrix sid="transform">1 0 0 -0.002519608 0 1 0 -0.3778604 0 0 1 -3.500299 0 0 0 1</matrix>
        <instance_geometry url="#Cube_004-mesh">
          <bind_material>
            <technique_common>
              <instance_material symbol="Wood-material" target="#Wood-material">
                <bind_vertex_input semantic="UVMap" input_semantic="TEXCOORD" input_set="0"/>
              </instance_material>
            </technique_common>
          </bind_material>
        </instance_geometry>
      </node>
    </visual_scene>
  </library_visual_scenes>
  <scene>
    <instance_visual_scene url="#Scene"/>
  </scene>
</COLLADA>