<?xml version="1.0" encoding="utf-8"?>
<COLLADA xmlns="http://www.collada.org/2005/11/COLLADASchema" version="1.4.1">
  <asset>
    <contributor>
      <author>Duion</author>
      <authoring_tool>Blender 2.65.0 r53189</authoring_tool>
    </contributor>
    <created>2013-06-11T19:02:43</created>
    <modified>2013-06-11T19:02:43</modified>
    <unit name="meter" meter="1"/>
    <up_axis>Z_UP</up_axis>
  </asset>
  <library_lights>
    <light id="Lamp-light" name="Lamp">
      <technique_common>
        <point>
          <color sid="color">1 1 1</color>
          <constant_attenuation>1</constant_attenuation>
          <linear_attenuation>0</linear_attenuation>
          <quadratic_attenuation>0.00111109</quadratic_attenuation>
        </point>
      </technique_common>
      <extra>
        <technique profile="blender">
          <adapt_thresh>0.000999987</adapt_thresh>
          <area_shape>0</area_shape>
          <area_size>1</area_size>
          <area_sizey>1</area_sizey>
          <area_sizez>1</area_sizez>
          <atm_distance_factor>1</atm_distance_factor>
          <atm_extinction_factor>1</atm_extinction_factor>
          <atm_turbidity>2</atm_turbidity>
          <att1>0</att1>
          <att2>1</att2>
          <backscattered_light>1</backscattered_light>
          <bias>1</bias>
          <blue>1</blue>
          <buffers>1</buffers>
          <bufflag>0</bufflag>
          <bufsize>2880</bufsize>
          <buftype>2</buftype>
          <clipend>30.002</clipend>
          <clipsta>1.000799</clipsta>
          <compressthresh>0.04999995</compressthresh>
          <dist sid="blender_dist">29.99998</dist>
          <energy sid="blender_energy">1</energy>
          <falloff_type>2</falloff_type>
          <filtertype>0</filtertype>
          <flag>0</flag>
          <gamma sid="blender_gamma">1</gamma>
          <green>1</green>
          <halo_intensity sid="blnder_halo_intensity">1</halo_intensity>
          <horizon_brightness>1</horizon_brightness>
          <mode>8192</mode>
          <ray_samp>1</ray_samp>
          <ray_samp_method>1</ray_samp_method>
          <ray_samp_type>0</ray_samp_type>
          <ray_sampy>1</ray_sampy>
          <ray_sampz>1</ray_sampz>
          <red>1</red>
          <samp>3</samp>
          <shadhalostep>0</shadhalostep>
          <shadow_b sid="blender_shadow_b">0</shadow_b>
          <shadow_g sid="blender_shadow_g">0</shadow_g>
          <shadow_r sid="blender_shadow_r">0</shadow_r>
          <shadspotsize>45</shadspotsize>
          <sky_colorspace>0</sky_colorspace>
          <sky_exposure>1</sky_exposure>
          <skyblendfac>1</skyblendfac>
          <skyblendtype>1</skyblendtype>
          <soft>3</soft>
          <spotblend>0.15</spotblend>
          <spotsize>75</spotsize>
          <spread>1</spread>
          <sun_brightness>1</sun_brightness>
          <sun_effect_type>0</sun_effect_type>
          <sun_intensity>1</sun_intensity>
          <sun_size>1</sun_size>
          <type>0</type>
        </technique>
      </extra>
    </light>
  </library_lights>
  <library_images/>
  <library_effects>
    <effect id="woodfern_01-effect">
      <profile_COMMON>
        <technique sid="common">
          <phong>
            <emission>
              <color sid="emission">0 0 0 1</color>
            </emission>
            <ambient>
              <color sid="ambient">0 0 0 1</color>
            </ambient>
            <diffuse>
              <color sid="diffuse">0.8 0.8 0.8 1</color>
            </diffuse>
            <specular>
              <color sid="specular">0.5 0.5 0.5 1</color>
            </specular>
            <shininess>
              <float sid="shininess">50</float>
            </shininess>
            <transparency>
              <float sid="transparency">0</float>
            </transparency>
            <index_of_refraction>
              <float sid="index_of_refraction">1</float>
            </index_of_refraction>
          </phong>
        </technique>
        <extra>
          <technique profile="GOOGLEEARTH">
            <double_sided>1</double_sided>
          </technique>
        </extra>
      </profile_COMMON>
      <extra><technique profile="MAX3D"><double_sided>1</double_sided></technique></extra>
    </effect>
  </library_effects>
  <library_materials>
    <material id="woodfern_01-material" name="woodfern_01">
      <instance_effect url="#woodfern_01-effect"/>
    </material>
  </library_materials>
  <library_geometries>
    <geometry id="fern_up128-mesh" name="fern_up128">
      <mesh>
        <source id="fern_up128-mesh-positions">
          <float_array id="fern_up128-mesh-positions-array" count="432">-1 1.013021 0.4005345 1 1.013021 0.4005345 0 2.013021 0.2940936 0 1.013021 0.2667881 -1 0.5130214 0.3167748 1 0.5130214 0.3167748 0 0.5130214 0.1830284 0 0.005531787 0 -2.165282 1.227101 0.2638952 0.1516066 1.662985 0.2151666 -1.858735 2.423336 -0.1042906 -0.9689924 1.325596 0.08487701 -1.700573 0.615619 0.2774128 0.6163156 1.051503 0.2286842 -0.5042834 0.7141139 0.09839463 -0.004879117 0.005937516 -0.00122106 -1.773429 0.0407198 0.4649239 -1.78766 0.8200334 0.2128085 -3.65863 0.3498044 0.2832278 -1.812641 0.2956735 0.2348842 -0.8672587 -0.05695408 0.3862469 -0.8814898 0.7223595 0.1341316 -0.9064707 0.1979995 0.1562072 -0.01024782 1.47312e-4 1.49993e-4 0.2442678 -0.322029 0.5583348 -1.361109 -0.1300998 0.4705021 -1.06841 -0.9722784 0.6893566 -0.5474258 -0.3654686 0.4257029 0.5105231 -0.09169667 0.3800051 -1.094854 0.1002324 0.2921724 -0.2811705 -0.1351363 0.2473731 -0.002869546 -0.00351417 0.00135827 0.6749427 0.8332542 0.7144311 -1.310398 0.1362105 0.7749205 0.3978193 0.06883656 1.241845 0.01544636 0.2279764 0.6884512 0.5479465 0.8127238 0.3947748 -1.437394 0.11568 0.4552642 -0.1115498 0.2074459 0.3687949 0.003713428 -0.001551806 0.003146946 1.575073 0.9627576 0.422823 1.51755 -0.02399551 0.6492144 3.753411 0.4926801 0.5964555 1.727722 0.3520998 0.4111034 0.6573189 0.8309911 0.264669 0.5997968 -0.155762 0.4910604 0.8099678 0.2203332 0.2529495 0.01141053 6.45208e-4 8.84254e-4 0.445712 1.265575 0.2526174 1.857222 0.6286035 0.402848 2.591557 1.602539 0.1768426 1.232335 0.8726063 0.2012934 -0.1915096 0.8615663 0.198566 1.22 0.224595 0.3487967 0.5951138 0.4685977 0.1472421 0.007610201 0.003953695 -2.78052e-4 -0.6121945 1.473189 0.1970228 1.598687 1.301301 0.1474087 0.6572322 2.307893 -0.16846 0.4071819 1.267641 0.03611046 -0.7823327 0.8903683 0.2279646 1.428549 0.718481 0.1783504 0.2370436 0.6848203 0.06705218 0.00128597 0.005619347 -0.001285314 -2.129638 0.3089945 0.8083 -1.635718 1.520757 0.4639813 -4.704138 1.233137 0.663197 -2.139331 0.7590011 0.4759875 -0.9817659 -0.009779751 0.6307464 -0.4878467 1.201983 0.2864277 -0.9914593 0.4402267 0.2984338 -0.01447778 0.00244677 8.54732e-4 -0.7143052 -0.3605839 0.6644244 -1.832894 0.4345839 0.4986678 -3.029216 -0.4556564 0.7311768 -1.406429 -0.1040366 0.4684247 0.0274617 -0.2587023 0.4737526 -1.091127 0.5364654 0.307996 -0.6646625 -0.002155184 0.2777529 -0.009126901 -0.002104341 0.001325726 1.416899 0.1279489 0.6454505 -0.3700492 -0.4461184 0.6984701 1.649821 -0.9410979 0.9278802 0.6859216 -0.325652 0.5633797 1.020126 0.348361 0.4062846 -0.766822 -0.2257063 0.4593042 0.2891487 -0.1052399 0.3242138 0.005515575 -0.00359261 0.001893699 0.4673439 1.246074 0.6454793 0.7117642 0.03814971 0.8868159 2.043428 0.8989924 0.9767299 1.051202 0.5652123 0.6407026 -0.2169042 0.9946525 0.3741912 0.02751612 -0.2132716 0.6155279 0.3669542 0.3137909 0.3694145 0.01076883 0.002248764 0.002132236 0.2371465 1.441037 0.4963731 1.311369 0.4466305 0.7821112 2.678132 1.613183 0.7580974 1.139349 0.8822873 0.4999104 -0.4560129 1.027615 0.2995517 0.6182095 0.03320866 0.5852898 0.4461892 0.4688654 0.303089 0.01019835 0.004147469 0.00121212 -1.251545 1.423967 0.4804425 1.065534 1.002508 0.716539 0.6594886 2.381882 0.6795437 0.1841108 1.230732 0.4363198 -1.441704 0.8102428 0.3231908 0.8753742 0.3887833 0.5592873 -0.006048679 0.6170078 0.279068 0.004023849 0.006911158 6.1614e-4 -2.059178 0.711857 0.6515118 -0.4822092 1.611088 0.3908094 -3.351118 2.020065 0.4996594 -1.491696 1.073345 0.3616155 -1.243734 0.2136574 0.5301913 0.3332343 1.112888 0.2694889 -0.6762526 0.5751459 0.2402949 -0.01055294 0.00490123 2.36806e-4 -0.3947006 0.2570946 0.978042 -1.814791 1.264849 0.614023 -2.82184 0.6748813 1.145413 -1.452674 0.489298 0.6928387 0.4469587 0.1129278 0.6730487 -0.9731319 1.120682 0.3090297 -0.6110149 0.3451311 0.3878453 -0.01172238 -2.87332e-4 0.00265932 1.211277 0.286489 0.8852397 -1.406802 -0.1066548 0.877115 0.4695193 -0.8938311 1.356801 0.07914942 -0.195927 0.7761085 1.108825 0.4856078 0.5398185 -1.509253 0.09246397 0.5316938 -0.02330195 0.003191709 0.4306872 0.002359211 -0.004183471 0.0030936 1.473856 0.9032641 0.6510301 0.1544678 -0.07744765 0.8721163 2.844896 0.04915904 1.115619 1.141191 0.2073289 0.6555687 0.793425 0.8745887 0.3654394 -0.5259635 -0.106123 0.5865256 0.4607594 0.1786535 0.3699778 0.009793817 -0.001107096 0.002425134</float_array>
          <technique_common>
            <accessor source="#fern_up128-mesh-positions-array" count="144" stride="3">
              <param name="X" type="float"/>
              <param name="Y" type="float"/>
              <param name="Z" type="float"/>
            </accessor>
          </technique_common>
        </source>
        <source id="fern_up128-mesh-normals">
          <float_array id="fern_up128-mesh-normals-array" count="432">0 -0.09704881 0.9952697 -0.1316263 -0.1181066 0.9842219 0 -0.02728354 0.9996033 -0.1297647 -0.2044435 0.970214 0 -0.2551347 0.9668874 0 -0.3392437 0.940672 0.1316263 -0.1181066 0.9842219 0.1297647 -0.2044435 0.970214 0.004730343 0.09460735 0.9954833 -0.1081576 -0.02444529 0.9938048 0.02951139 0.1929075 0.9807428 -0.0846278 -0.1016571 0.9911801 0.03024381 -0.04376351 0.9985656 0.01342809 -0.1299478 0.9914243 0.128727 0.2011169 0.9710379 0.1392254 0.09952086 0.985229 0.07589954 0.375103 0.9238563 0.06161683 0.03903317 0.9973144 0.03390604 0.3079622 0.9507737 0.1227454 0.03588974 0.99176 0.1774956 0.3710746 0.9114658 0.232612 0.333079 0.9137242 0.0945158 0.6748558 0.7318339 0.2005371 0.6730858 0.7118137 0.00427258 0.4957427 0.8684347 0.1604663 0.3814814 0.9103366 0.04217654 0.3674429 0.929075 0.1896725 0.4943083 0.848323 0.04565566 0.7276223 0.6844386 -0.01770073 0.8897977 0.455977 -0.157445 0.6782739 0.7177038 -0.1414228 0.8007141 0.5820795 -0.3626514 0.8865932 0.2870571 -0.06787312 0.997528 0.01760917 -0.3842585 0.7821589 0.4904325 -0.07663196 0.9890744 -0.1256752 -0.3442488 0.8966338 -0.2783898 -0.3361614 0.7680898 -0.544969 -0.6393017 0.6812647 0.3565782 -0.6754967 0.7323222 0.08572649 -0.1446882 0.2808008 0.9487594 -0.1861629 0.597705 0.7797479 -0.1041291 0.2228156 0.9692679 -0.3144017 0.6269418 0.7127598 -0.2669454 0.2859279 0.9202857 -0.3600879 0.2925199 0.8858303 -0.1320536 -0.0520035 0.9898679 -0.2065492 -0.07034516 0.9758904 -0.08777123 0.09009063 0.9920347 -0.1851558 0.2989898 0.9360942 -0.07974487 0.1813409 0.980163 -0.2336802 0.1893063 0.9536729 -0.1422162 -0.03530991 0.9891964 -0.1274758 -0.150029 0.9804071 0.008941888 -0.1118503 0.9936827 -0.02606278 -0.1806085 0.9831843 0.03598129 0.1098666 0.993286 -0.09591966 0.1343424 0.9862667 0.02456736 0.1872005 0.9819941 -0.09433269 0.05255287 0.9941405 0.02368235 -0.03628647 0.999054 0.03466898 -0.1119419 0.9931028 0.165746 0.05111849 0.9848323 0.1481978 -0.03848379 0.9881893 0.1640675 0.2791833 0.9461043 0.1118503 -0.05832082 0.9920042 0.1158788 0.2470473 0.962035 0.1763359 -0.1011383 0.9790948 0.2841883 0.2353587 0.9294107 0.345378 0.1400494 0.9279153 0.231727 0.5810725 0.7801141 0.3630482 0.5585498 0.7457808 0.1148411 0.3834651 0.9163793 0.179876 0.08740496 0.9797663 0.1006805 0.2540056 0.9619129 0.2583087 0.1509445 0.9541918 0.231788 0.5139622 0.8258614 0.2567217 0.7504501 0.6089664 0.0630207 0.7076937 0.7036653 0.1487167 0.8216193 0.5502793 -0.1337016 0.471511 0.8716391 0.008636713 0.7117832 0.7023225 -0.1440778 0.3274025 0.9338054 -0.01916557 0.8160344 0.5776544 -0.2236396 0.7094333 0.6682943 -0.1882687 0.8769189 0.4422132 -0.2754906 0.2774133 0.9203772 -0.3476058 0.407361 0.8445082 -0.3921324 0.2047181 0.8968169 -0.4658345 0.602588 0.6479385 -0.3534349 0.1161839 0.9281899 -0.6383252 0.6225166 0.4527421 -0.5494552 0.1508225 0.8217719 -0.7757805 0.1708426 0.6074099 -0.2699362 -0.2380138 0.9329814 -0.3402509 -0.2980437 0.8918119 -0.2628254 0.1058382 0.9590137 -0.3983581 0.3826411 0.8335826 -0.2162541 0.1127659 0.9697867 -0.5446639 0.2937406 0.7854854 -0.3853572 -0.02145451 0.9225135 -0.4361095 -0.1654103 0.884518 -0.1305276 -0.2046266 0.9700919 -0.1749931 -0.2765892 0.9448836 -0.1613208 -0.1694998 0.9722282 -0.3264565 -0.1078829 0.939024 -0.159978 -0.1403546 0.9770806 -0.3449507 -0.2086245 0.9151281 -0.1730094 -0.3068636 0.9358806 -0.202948 -0.4093142 0.8894925 -0.002014219 -0.2368541 0.9715262 -0.008941888 -0.2853481 0.9583728 0.1588488 0.08682513 0.983459 0.04629653 -0.1406292 0.9889523 0.1416364 0.135197 0.9806208 0.0801416 -0.2034669 0.9757683 0.2221747 -0.02868735 0.9745781 0.2131107 -0.1571398 0.9642934 0.2650837 0.3147374 0.9114048 0.3267617 0.2234565 0.9183019 0.3179724 0.7298197 0.6051515 0.3484908 0.2543718 0.9021272 0.330668 0.5213782 0.7866146 0.4162114 0.2821741 0.8643453 0.4648885 0.7763909 0.4255196 0.424604 0.8942534 -0.1413007 0.1926023 0.9778436 0.08166754 0.2545244 0.9521775 -0.1689504 -0.1222876 0.7261574 0.6765343 0.08685564 0.8398694 0.5357524 -0.1354106 0.5878475 0.7975402 0.08218634 0.9109165 0.4042482 -0.1497848 0.9550462 0.2557146 -0.1717886 0.9847407 -0.02728354 -0.352092 0.6810511 0.6419874 -0.3851741 0.7997986 0.4603106 -0.2442396 0.5306254 0.8116398 -0.1754204 0.9041109 0.3895382 -0.2105472 0.3671682 0.9059725 -0.2470473 0.9594104 0.1358684 -0.4519791 0.6928617 0.5617848 -0.4349498 0.8953215 0.09576708 -0.3092746 0.1539658 0.9384136 -0.4402295 0.2161015 0.871456</float_array>
          <technique_common>
            <accessor source="#fern_up128-mesh-normals-array" count="144" stride="3">
              <param name="X" type="float"/>
              <param name="Y" type="float"/>
              <param name="Z" type="float"/>
            </accessor>
          </technique_common>
        </source>
        <source id="fern_up128-mesh-map-0">
          <float_array id="fern_up128-mesh-map-0-array" count="864">0.5 0.5018655 0.8392273 0.5018654 0.5 1 0.8319031 0.2235012 0.5024414 0.2405911 0.5 0 0.1451476 0.5038186 0.5 0.5018655 0.5 1 0.5 0.5018655 0.1451476 0.5038186 0.5024414 0.2405911 0.1451476 0.5038186 0.1607726 0.2088528 0.5024414 0.2405911 0.5024414 0.2405911 0.1607726 0.2088528 0.5 0 0.8392273 0.5018654 0.5 0.5018655 0.5024414 0.2405911 0.8319031 0.2235012 0.8392273 0.5018654 0.5024414 0.2405911 0.5 0.5018655 0.8392273 0.5018654 0.5 1 0.8319031 0.2235012 0.5024414 0.2405911 0.5 0 0.1451476 0.5038186 0.5 0.5018655 0.5 1 0.5 0.5018655 0.1451476 0.5038186 0.5024414 0.2405911 0.1451476 0.5038186 0.1607726 0.2088528 0.5024414 0.2405911 0.5024414 0.2405911 0.1607726 0.2088528 0.5 0 0.8392273 0.5018654 0.5 0.5018655 0.5024414 0.2405911 0.8319031 0.2235012 0.8392273 0.5018654 0.5024414 0.2405911 0.5 0.5018655 0.8392273 0.5018654 0.5 1 0.8319031 0.2235012 0.5024414 0.2405911 0.5 0 0.1451476 0.5038186 0.5 0.5018655 0.5 1 0.5 0.5018655 0.1451476 0.5038186 0.5024414 0.2405911 0.1451476 0.5038186 0.1607726 0.2088528 0.5024414 0.2405911 0.5024414 0.2405911 0.1607726 0.2088528 0.5 0 0.8392273 0.5018654 0.5 0.5018655 0.5024414 0.2405911 0.8319031 0.2235012 0.8392273 0.5018654 0.5024414 0.2405911 0.5 0.5018655 0.8392273 0.5018654 0.5 1 0.8319031 0.2235012 0.5024414 0.2405911 0.5 0 0.1451476 0.5038186 0.5 0.5018655 0.5 1 0.5 0.5018655 0.1451476 0.5038186 0.5024414 0.2405911 0.1451476 0.5038186 0.1607726 0.2088528 0.5024414 0.2405911 0.5024414 0.2405911 0.1607726 0.2088528 0.5 0 0.8392273 0.5018654 0.5 0.5018655 0.5024414 0.2405911 0.8319031 0.2235012 0.8392273 0.5018654 0.5024414 0.2405911 0.5 0.5018655 0.8392273 0.5018654 0.5 1 0.8319031 0.2235012 0.5024414 0.2405911 0.5 0 0.1451476 0.5038186 0.5 0.5018655 0.5 1 0.5 0.5018655 0.1451476 0.5038186 0.5024414 0.2405911 0.1451476 0.5038186 0.1607726 0.2088528 0.5024414 0.2405911 0.5024414 0.2405911 0.1607726 0.2088528 0.5 0 0.8392273 0.5018654 0.5 0.5018655 0.5024414 0.2405911 0.8319031 0.2235012 0.8392273 0.5018654 0.5024414 0.2405911 0.5 0.5018655 0.8392273 0.5018654 0.5 1 0.8319031 0.2235012 0.5024414 0.2405911 0.5 0 0.1451476 0.5038186 0.5 0.5018655 0.5 1 0.5 0.5018655 0.1451476 0.5038186 0.5024414 0.2405911 0.1451476 0.5038186 0.1607726 0.2088528 0.5024414 0.2405911 0.5024414 0.2405911 0.1607726 0.2088528 0.5 0 0.8392273 0.5018654 0.5 0.5018655 0.5024414 0.2405911 0.8319031 0.2235012 0.8392273 0.5018654 0.5024414 0.2405911 0.5 0.5018655 0.8392273 0.5018654 0.5 1 0.8319031 0.2235012 0.5024414 0.2405911 0.5 0 0.1451476 0.5038186 0.5 0.5018655 0.5 1 0.5 0.5018655 0.1451476 0.5038186 0.5024414 0.2405911 0.1451476 0.5038186 0.1607726 0.2088528 0.5024414 0.2405911 0.5024414 0.2405911 0.1607726 0.2088528 0.5 0 0.8392273 0.5018654 0.5 0.5018655 0.5024414 0.2405911 0.8319031 0.2235012 0.8392273 0.5018654 0.5024414 0.2405911 0.5 0.5018655 0.8392273 0.5018654 0.5 1 0.8319031 0.2235012 0.5024414 0.2405911 0.5 0 0.1451476 0.5038186 0.5 0.5018655 0.5 1 0.5 0.5018655 0.1451476 0.5038186 0.5024414 0.2405911 0.1451476 0.5038186 0.1607726 0.2088528 0.5024414 0.2405911 0.5024414 0.2405911 0.1607726 0.2088528 0.5 0 0.8392273 0.5018654 0.5 0.5018655 0.5024414 0.2405911 0.8319031 0.2235012 0.8392273 0.5018654 0.5024414 0.2405911 0.5 0.5018655 0.8392273 0.5018654 0.5 1 0.8319031 0.2235012 0.5024414 0.2405911 0.5 0 0.1451476 0.5038186 0.5 0.5018655 0.5 1 0.5 0.5018655 0.1451476 0.5038186 0.5024414 0.2405911 0.1451476 0.5038186 0.1607726 0.2088528 0.5024414 0.2405911 0.5024414 0.2405911 0.1607726 0.2088528 0.5 0 0.8392273 0.5018654 0.5 0.5018655 0.5024414 0.2405911 0.8319031 0.2235012 0.8392273 0.5018654 0.5024414 0.2405911 0.5 0.5018655 0.8392273 0.5018654 0.5 1 0.8319031 0.2235012 0.5024414 0.2405911 0.5 0 0.1451476 0.5038186 0.5 0.5018655 0.5 1 0.5 0.5018655 0.1451476 0.5038186 0.5024414 0.2405911 0.1451476 0.5038186 0.1607726 0.2088528 0.5024414 0.2405911 0.5024414 0.2405911 0.1607726 0.2088528 0.5 0 0.8392273 0.5018654 0.5 0.5018655 0.5024414 0.2405911 0.8319031 0.2235012 0.8392273 0.5018654 0.5024414 0.2405911 0.5 0.5018655 0.8392273 0.5018654 0.5 1 0.8319031 0.2235012 0.5024414 0.2405911 0.5 0 0.1451476 0.5038186 0.5 0.5018655 0.5 1 0.5 0.5018655 0.1451476 0.5038186 0.5024414 0.2405911 0.1451476 0.5038186 0.1607726 0.2088528 0.5024414 0.2405911 0.5024414 0.2405911 0.1607726 0.2088528 0.5 0 0.8392273 0.5018654 0.5 0.5018655 0.5024414 0.2405911 0.8319031 0.2235012 0.8392273 0.5018654 0.5024414 0.2405911 0.5 0.5018655 0.8392273 0.5018654 0.5 1 0.8319031 0.2235012 0.5024414 0.2405911 0.5 0 0.1451476 0.5038186 0.5 0.5018655 0.5 1 0.5 0.5018655 0.1451476 0.5038186 0.5024414 0.2405911 0.1451476 0.5038186 0.1607726 0.2088528 0.5024414 0.2405911 0.5024414 0.2405911 0.1607726 0.2088528 0.5 0 0.8392273 0.5018654 0.5 0.5018655 0.5024414 0.2405911 0.8319031 0.2235012 0.8392273 0.5018654 0.5024414 0.2405911 0.5 0.5018655 0.8392273 0.5018654 0.5 1 0.8319031 0.2235012 0.5024414 0.2405911 0.5 0 0.1451476 0.5038186 0.5 0.5018655 0.5 1 0.5 0.5018655 0.1451476 0.5038186 0.5024414 0.2405911 0.1451476 0.5038186 0.1607726 0.2088528 0.5024414 0.2405911 0.5024414 0.2405911 0.1607726 0.2088528 0.5 0 0.8392273 0.5018654 0.5 0.5018655 0.5024414 0.2405911 0.8319031 0.2235012 0.8392273 0.5018654 0.5024414 0.2405911 0.5 0.5018655 0.8392273 0.5018654 0.5 1 0.8319031 0.2235012 0.5024414 0.2405911 0.5 0 0.1451476 0.5038186 0.5 0.5018655 0.5 1 0.5 0.5018655 0.1451476 0.5038186 0.5024414 0.2405911 0.1451476 0.5038186 0.1607726 0.2088528 0.5024414 0.2405911 0.5024414 0.2405911 0.1607726 0.2088528 0.5 0 0.8392273 0.5018654 0.5 0.5018655 0.5024414 0.2405911 0.8319031 0.2235012 0.8392273 0.5018654 0.5024414 0.2405911 0.5 0.5018655 0.8392273 0.5018654 0.5 1 0.8319031 0.2235012 0.5024414 0.2405911 0.5 0 0.1451476 0.5038186 0.5 0.5018655 0.5 1 0.5 0.5018655 0.1451476 0.5038186 0.5024414 0.2405911 0.1451476 0.5038186 0.1607726 0.2088528 0.5024414 0.2405911 0.5024414 0.2405911 0.1607726 0.2088528 0.5 0 0.8392273 0.5018654 0.5 0.5018655 0.5024414 0.2405911 0.8319031 0.2235012 0.8392273 0.5018654 0.5024414 0.2405911 0.5 0.5018655 0.8392273 0.5018654 0.5 1 0.8319031 0.2235012 0.5024414 0.2405911 0.5 0 0.1451476 0.5038186 0.5 0.5018655 0.5 1 0.5 0.5018655 0.1451476 0.5038186 0.5024414 0.2405911 0.1451476 0.5038186 0.1607726 0.2088528 0.5024414 0.2405911 0.5024414 0.2405911 0.1607726 0.2088528 0.5 0 0.8392273 0.5018654 0.5 0.5018655 0.5024414 0.2405911 0.8319031 0.2235012 0.8392273 0.5018654 0.5024414 0.2405911 0.5 0.5018655 0.8392273 0.5018654 0.5 1 0.8319031 0.2235012 0.5024414 0.2405911 0.5 0 0.1451476 0.5038186 0.5 0.5018655 0.5 1 0.5 0.5018655 0.1451476 0.5038186 0.5024414 0.2405911 0.1451476 0.5038186 0.1607726 0.2088528 0.5024414 0.2405911 0.5024414 0.2405911 0.1607726 0.2088528 0.5 0 0.8392273 0.5018654 0.5 0.5018655 0.5024414 0.2405911 0.8319031 0.2235012 0.8392273 0.5018654 0.5024414 0.2405911 0.5 0.5018655 0.8392273 0.5018654 0.5 1 0.8319031 0.2235012 0.5024414 0.2405911 0.5 0 0.1451476 0.5038186 0.5 0.5018655 0.5 1 0.5 0.5018655 0.1451476 0.5038186 0.5024414 0.2405911 0.1451476 0.5038186 0.1607726 0.2088528 0.5024414 0.2405911 0.5024414 0.2405911 0.1607726 0.2088528 0.5 0 0.8392273 0.5018654 0.5 0.5018655 0.5024414 0.2405911 0.8319031 0.2235012 0.8392273 0.5018654 0.5024414 0.2405911</float_array>
          <technique_common>
            <accessor source="#fern_up128-mesh-map-0-array" count="432" stride="2">
              <param name="S" type="float"/>
              <param name="T" type="float"/>
            </accessor>
          </technique_common>
        </source>
        <source id="fern_up128-mesh-colors">
          <float_array id="fern_up128-mesh-colors-array" count="1296">0.5960785 0.2980392 0 0.5960785 0.2901961 1 1 0.2431373 0 0.2941176 0.2666667 1 0.2823529 0.2862745 0 0 0.2470588 0 0.5882353 0.2705882 1 0.5960785 0.2980392 0 1 0.2431373 0 0.5960785 0.2980392 0 0.5882353 0.2705882 1 0.2823529 0.2862745 0 0.5882353 0.2705882 1 0.2980392 0.2313725 1 0.2823529 0.2862745 0 0.2823529 0.2862745 0 0.2980392 0.2313725 1 0 0.2470588 0 0.5960785 0.2901961 1 0.5960785 0.2980392 0 0.2823529 0.2862745 0 0.2941176 0.2666667 1 0.5960785 0.2901961 1 0.2823529 0.2862745 0 0.5960785 1 0 0.5960785 1 1 1 1 0 0.2941176 1 1 0.2823529 1 0 0 1 0 0.5882353 1 1 0.5960785 1 0 1 1 0 0.5960785 1 0 0.5882353 1 1 0.2823529 1 0 0.5882353 1 1 0.2980392 1 1 0.2823529 1 0 0.2823529 1 0 0.2980392 1 1 0 1 0 0.5960785 1 1 0.5960785 1 0 0.2823529 1 0 0.2941176 1 1 0.5960785 1 1 0.2823529 1 0 0.5960785 0.5960785 0 0.5960785 0.5803922 1 1 0.1686275 0 0.2941176 0.5333334 1 0.2823529 0.5882353 0 0 0.4901961 0 0.5882353 0.5058824 1 0.5960785 0.5960785 0 1 0.1686275 0 0.5960785 0.5960785 0 0.5882353 0.5058824 1 0.2823529 0.5882353 0 0.5882353 0.5058824 1 0.2980392 0.4784314 1 0.2823529 0.5882353 0 0.2823529 0.5882353 0 0.2980392 0.4784314 1 0 0.4901961 0 0.5960785 0.5803922 1 0.5960785 0.5960785 0 0.2823529 0.5882353 0 0.2941176 0.5333334 1 0.5960785 0.5803922 1 0.2823529 0.5882353 0 0.5960785 0.4941176 0 0.5960785 0.4117647 1 1 0.1843137 0 0.2941176 0.3647059 1 0.2823529 0.4745098 0 0 0.2901961 0 0.5882353 0.4941176 1 0.5960785 0.4941176 0 1 0.1843137 0 0.5960785 0.4941176 0 0.5882353 0.4941176 1 0.2823529 0.4745098 0 0.5882353 0.4941176 1 0.2980392 0.4705882 1 0.2823529 0.4745098 0 0.2823529 0.4745098 0 0.2980392 0.4705882 1 0 0.2901961 0 0.5960785 0.4117647 1 0.5960785 0.4941176 0 0.2823529 0.4745098 0 0.2941176 0.3647059 1 0.5960785 0.4117647 1 0.2823529 0.4745098 0 0.5960785 0.3960784 0 0.5960785 0.2980392 1 1 0.1294118 0 0.2941176 0.2470588 1 0.2823529 0.3647059 0 0 0.145098 0 0.5882353 0.3960784 1 0.5960785 0.3960784 0 1 0.1294118 0 0.5960785 0.3960784 0 0.5882353 0.3960784 1 0.2823529 0.3647059 0 0.5882353 0.3960784 1 0.2980392 0.3647059 1 0.2823529 0.3647059 0 0.2823529 0.3647059 0 0.2980392 0.3647059 1 0 0.145098 0 0.5960785 0.2980392 1 0.5960785 0.3960784 0 0.2823529 0.3647059 0 0.2941176 0.2470588 1 0.5960785 0.2980392 1 0.2823529 0.3647059 0 0.5960785 0.2 0 0.5960785 0.172549 1 1 0.07450979 0 0.2941176 0.1529412 1 0.2823529 0.1882353 0 0 0.0980392 0 0.5882353 0.1921569 1 0.5960785 0.2 0 1 0.07450979 0 0.5960785 0.2 0 0.5882353 0.1921569 1 0.2823529 0.1882353 0 0.5882353 0.1921569 1 0.2980392 0.1647059 1 0.2823529 0.1882353 0 0.2823529 0.1882353 0 0.2980392 0.1647059 1 0 0.0980392 0 0.5960785 0.172549 1 0.5960785 0.2 0 0.2823529 0.1882353 0 0.2941176 0.1529412 1 0.5960785 0.172549 1 0.2823529 0.1882353 0 0.5960785 0.0980392 0 0.5960785 0.06666666 1 1 0.003921568 0 0.2941176 0.04705882 1 0.2823529 0.0862745 0 0 0.007843136 0 0.5882353 0.09019607 1 0.5960785 0.0980392 0 1 0.003921568 0 0.5960785 0.0980392 0 0.5882353 0.09019607 1 0.2823529 0.0862745 0 0.5882353 0.09019607 1 0.2980392 0.06666666 1 0.2823529 0.0862745 0 0.2823529 0.0862745 0 0.2980392 0.06666666 1 0 0.007843136 0 0.5960785 0.06666666 1 0.5960785 0.0980392 0 0.2823529 0.0862745 0 0.2941176 0.04705882 1 0.5960785 0.06666666 1 0.2823529 0.0862745 0 0.5960785 0.9921569 0 0.5960785 0.9215686 1 1 0.06274509 0 0.2941176 0.7215687 1 0.2823529 0.827451 0 0 0.1333333 0 0.5882353 0.6588236 1 0.5960785 0.9921569 0 1 0.06274509 0 0.5960785 0.9921569 0 0.5882353 0.6588236 1 0.2823529 0.827451 0 0.5882353 0.6588236 1 0.2980392 0.2823529 1 0.2823529 0.827451 0 0.2823529 0.827451 0 0.2980392 0.2823529 1 0 0.1333333 0 0.5960785 0.9215686 1 0.5960785 0.9921569 0 0.2823529 0.827451 0 0.2941176 0.7215687 1 0.5960785 0.9215686 1 0.2823529 0.827451 0 0.5960785 0.7843137 0 0.5960785 0.6745098 1 1 0 0 0.2941176 0.5882353 1 0.2823529 0.7686275 0 0 0.1803922 0 0.5882353 0.4784314 1 0.5960785 0.7843137 0 1 0 0 0.5960785 0.7843137 0 0.5882353 0.4784314 1 0.2823529 0.7686275 0 0.5882353 0.4784314 1 0.2980392 0.5294118 1 0.2823529 0.7686275 0 0.2823529 0.7686275 0 0.2980392 0.5294118 1 0 0.1803922 0 0.5960785 0.6745098 1 0.5960785 0.7843137 0 0.2823529 0.7686275 0 0.2941176 0.5882353 1 0.5960785 0.6745098 1 0.2823529 0.7686275 0 0.5960785 0.5960785 0 0.5960785 0.4352941 1 1 0.06274509 0 0.2941176 0.3882353 1 0.2823529 0.5215687 0 0 0.03529411 0 0.5882353 0.5137255 1 0.5960785 0.5960785 0 1 0.06274509 0 0.5960785 0.5960785 0 0.5882353 0.5137255 1 0.2823529 0.5215687 0 0.5882353 0.5137255 1 0.2980392 0.4588235 1 0.2823529 0.5215687 0 0.2823529 0.5215687 0 0.2980392 0.4588235 1 0 0.03529411 0 0.5960785 0.4352941 1 0.5960785 0.5960785 0 0.2823529 0.5215687 0 0.2941176 0.3882353 1 0.5960785 0.4352941 1 0.2823529 0.5215687 0 0.5960785 0.5960785 0 0.5960785 0.5019608 1 1 0.05490195 0 0.2941176 0.4862745 1 0.2823529 0.5647059 0 0 0.1215686 0 0.5882353 0.4901961 1 0.5960785 0.5960785 0 1 0.05490195 0 0.5960785 0.5960785 0 0.5882353 0.4901961 1 0.2823529 0.5647059 0 0.5882353 0.4901961 1 0.2980392 0.4705882 1 0.2823529 0.5647059 0 0.2823529 0.5647059 0 0.2980392 0.4705882 1 0 0.1215686 0 0.5960785 0.5019608 1 0.5960785 0.5960785 0 0.2823529 0.5647059 0 0.2941176 0.4862745 1 0.5960785 0.5019608 1 0.2823529 0.5647059 0 0.5960785 0.1960784 0 0.5960785 0.1215686 1 1 0.01568627 0 0.2941176 0.09019607 1 0.2823529 0.1686275 0 0 0.0117647 0 0.5882353 0.1882353 1 0.5960785 0.1960784 0 1 0.01568627 0 0.5960785 0.1960784 0 0.5882353 0.1882353 1 0.2823529 0.1686275 0 0.5882353 0.1882353 1 0.2980392 0.1686275 1 0.2823529 0.1686275 0 0.2823529 0.1686275 0 0.2980392 0.1686275 1 0 0.0117647 0 0.5960785 0.1215686 1 0.5960785 0.1960784 0 0.2823529 0.1686275 0 0.2941176 0.09019607 1 0.5960785 0.1215686 1 0.2823529 0.1686275 0 0.5960785 0.2980392 0 0.5960785 0.1960784 1 1 0 0 0.2941176 0.1098039 1 0.2823529 0.2313725 0 0 0.003921568 0 0.5882353 0.2470588 1 0.5960785 0.2980392 0 1 0 0 0.5960785 0.2980392 0 0.5882353 0.2470588 1 0.2823529 0.2313725 0 0.5882353 0.2470588 1 0.2980392 0.1137255 1 0.2823529 0.2313725 0 0.2823529 0.2313725 0 0.2980392 0.1137255 1 0 0.003921568 0 0.5960785 0.1960784 1 0.5960785 0.2980392 0 0.2823529 0.2313725 0 0.2941176 0.1098039 1 0.5960785 0.1960784 1 0.2823529 0.2313725 0 0.5960785 0.1882353 0 0.5960785 0.1882353 1 1 0.003921568 0 0.2941176 0.1333333 1 0.2823529 0.1215686 0 0 0.003921568 0 0.5882353 0.06666666 1 0.5960785 0.1882353 0 1 0.003921568 0 0.5960785 0.1882353 0 0.5882353 0.06666666 1 0.2823529 0.1215686 0 0.5882353 0.06666666 1 0.2980392 0.0117647 1 0.2823529 0.1215686 0 0.2823529 0.1215686 0 0.2980392 0.0117647 1 0 0.003921568 0 0.5960785 0.1882353 1 0.5960785 0.1882353 0 0.2823529 0.1215686 0 0.2941176 0.1333333 1 0.5960785 0.1882353 1 0.2823529 0.1215686 0 0.5960785 0.5921569 0 0.5960785 0.4509804 1 1 0 0 0.2941176 0.3372549 1 0.2823529 0.5529412 0 0 0.07843136 0 0.5882353 0.3490196 1 0.5960785 0.5921569 0 1 0 0 0.5960785 0.5921569 0 0.5882353 0.3490196 1 0.2823529 0.5529412 0 0.5882353 0.3490196 1 0.2980392 0.254902 1 0.2823529 0.5529412 0 0.2823529 0.5529412 0 0.2980392 0.254902 1 0 0.07843136 0 0.5960785 0.4509804 1 0.5960785 0.5921569 0 0.2823529 0.5529412 0 0.2941176 0.3372549 1 0.5960785 0.4509804 1 0.2823529 0.5529412 0 0.5960785 0.3843137 0 0.5960785 0.3882353 1 1 0.3686274 0 0.2941176 0.3882353 1 0.2823529 0.3960784 0 0 0.3960784 0 0.5882353 0.3882353 1 0.5960785 0.3843137 0 1 0.3686274 0 0.5960785 0.3843137 0 0.5882353 0.3882353 1 0.2823529 0.3960784 0 0.5882353 0.3882353 1 0.2980392 0.3882353 1 0.2823529 0.3960784 0 0.2823529 0.3960784 0 0.2980392 0.3882353 1 0 0.3960784 0 0.5960785 0.3882353 1 0.5960785 0.3843137 0 0.2823529 0.3960784 0 0.2941176 0.3882353 1 0.5960785 0.3882353 1 0.2823529 0.3960784 0 0.5960785 0.3882353 0 0.5960785 0.2941176 1 1 0.3803921 0 0.2941176 0.1019608 1 0.2823529 0.3686274 0 0 0.3960784 0 0.5882353 0.3882353 1 0.5960785 0.3882353 0 1 0.3803921 0 0.5960785 0.3882353 0 0.5882353 0.3882353 1 0.2823529 0.3686274 0 0.5882353 0.3882353 1 0.2980392 0.3647059 1 0.2823529 0.3686274 0 0.2823529 0.3686274 0 0.2980392 0.3647059 1 0 0.3960784 0 0.5960785 0.2941176 1 0.5960785 0.3882353 0 0.2823529 0.3686274 0 0.2941176 0.1019608 1 0.5960785 0.2941176 1 0.2823529 0.3686274 0 0.5960785 0.2509804 0 0.5960785 0.1960784 1 1 0.1960784 0 0.2941176 0.1921569 1 0.2823529 0.1960784 0 0 0.1960784 0 0.5882353 0.1921569 1 0.5960785 0.2509804 0 1 0.1960784 0 0.5960785 0.2509804 0 0.5882353 0.1921569 1 0.2823529 0.1960784 0 0.5882353 0.1921569 1 0.2980392 0.1960784 1 0.2823529 0.1960784 0 0.2823529 0.1960784 0 0.2980392 0.1960784 1 0 0.1960784 0 0.5960785 0.1960784 1 0.5960785 0.2509804 0 0.2823529 0.1960784 0 0.2941176 0.1921569 1 0.5960785 0.1960784 1 0.2823529 0.1960784 0</float_array>
          <technique_common>
            <accessor source="#fern_up128-mesh-colors-array" count="432" stride="3">
              <param name="R" type="float"/>
              <param name="G" type="float"/>
              <param name="B" type="float"/>
            </accessor>
          </technique_common>
        </source>
        <vertices id="fern_up128-mesh-vertices">
          <input semantic="POSITION" source="#fern_up128-mesh-positions"/>
        </vertices>
        <polylist material="woodfern_01-material" count="144">
          <input semantic="VERTEX" source="#fern_up128-mesh-vertices" offset="0"/>
          <input semantic="NORMAL" source="#fern_up128-mesh-normals" offset="1"/>
          <input semantic="TEXCOORD" source="#fern_up128-mesh-map-0" offset="2" set="0"/>
          <input semantic="COLOR" source="#fern_up128-mesh-colors" offset="3"/>
          <vcount>3 3 3 3 3 3 3 3 3 3 3 3 3 3 3 3 3 3 3 3 3 3 3 3 3 3 3 3 3 3 3 3 3 3 3 3 3 3 3 3 3 3 3 3 3 3 3 3 3 3 3 3 3 3 3 3 3 3 3 3 3 3 3 3 3 3 3 3 3 3 3 3 3 3 3 3 3 3 3 3 3 3 3 3 3 3 3 3 3 3 3 3 3 3 3 3 3 3 3 3 3 3 3 3 3 3 3 3 3 3 3 3 3 3 3 3 3 3 3 3 3 3 3 3 3 3 3 3 3 3 3 3 3 3 3 3 3 3 3 3 3 3 3 3 </vcount>
          <p>3 0 0 0 1 1 1 1 2 2 2 2 5 3 3 3 6 4 4 4 7 5 5 5 0 6 6 6 3 0 7 7 2 2 8 8 3 0 9 9 0 6 10 10 6 4 11 11 0 6 12 12 4 7 13 13 6 4 14 14 6 4 15 15 4 7 16 16 7 5 17 17 1 1 18 18 3 0 19 19 6 4 20 20 5 3 21 21 1 1 22 22 6 4 23 23 11 8 24 24 9 9 25 25 10 10 26 26 13 11 27 27 14 12 28 28 15 13 29 29 8 14 30 30 11 8 31 31 10 10 32 32 11 8 33 33 8 14 34 34 14 12 35 35 8 14 36 36 12 15 37 37 14 12 38 38 14 12 39 39 12 15 40 40 15 13 41 41 9 9 42 42 11 8 43 43 14 12 44 44 13 11 45 45 9 9 46 46 14 12 47 47 19 16 48 48 17 17 49 49 18 18 50 50 21 19 51 51 22 20 52 52 23 21 53 53 16 22 54 54 19 16 55 55 18 18 56 56 19 16 57 57 16 22 58 58 22 20 59 59 16 22 60 60 20 23 61 61 22 20 62 62 22 20 63 63 20 23 64 64 23 21 65 65 17 17 66 66 19 16 67 67 22 20 68 68 21 19 69 69 17 17 70 70 22 20 71 71 27 24 72 72 25 25 73 73 26 26 74 74 29 27 75 75 30 28 76 76 31 29 77 77 24 30 78 78 27 24 79 79 26 26 80 80 27 24 81 81 24 30 82 82 30 28 83 83 24 30 84 84 28 31 85 85 30 28 86 86 30 28 87 87 28 31 88 88 31 29 89 89 25 25 90 90 27 24 91 91 30 28 92 92 29 27 93 93 25 25 94 94 30 28 95 95 35 32 96 96 33 33 97 97 34 34 98 98 37 35 99 99 38 36 100 100 39 37 101 101 32 38 102 102 35 32 103 103 34 34 104 104 35 32 105 105 32 38 106 106 38 36 107 107 32 38 108 108 36 39 109 109 38 36 110 110 38 36 111 111 36 39 112 112 39 37 113 113 33 33 114 114 35 32 115 115 38 36 116 116 37 35 117 117 33 33 118 118 38 36 119 119 43 40 120 120 41 41 121 121 42 42 122 122 45 43 123 123 46 44 124 124 47 45 125 125 40 46 126 126 43 40 127 127 42 42 128 128 43 40 129 129 40 46 130 130 46 44 131 131 40 46 132 132 44 47 133 133 46 44 134 134 46 44 135 135 44 47 136 136 47 45 137 137 41 41 138 138 43 40 139 139 46 44 140 140 45 43 141 141 41 41 142 142 46 44 143 143 51 48 144 144 49 49 145 145 50 50 146 146 53 51 147 147 54 52 148 148 55 53 149 149 48 54 150 150 51 48 151 151 50 50 152 152 51 48 153 153 48 54 154 154 54 52 155 155 48 54 156 156 52 55 157 157 54 52 158 158 54 52 159 159 52 55 160 160 55 53 161 161 49 49 162 162 51 48 163 163 54 52 164 164 53 51 165 165 49 49 166 166 54 52 167 167 59 56 168 168 57 57 169 169 58 58 170 170 61 59 171 171 62 60 172 172 63 61 173 173 56 62 174 174 59 56 175 175 58 58 176 176 59 56 177 177 56 62 178 178 62 60 179 179 56 62 180 180 60 63 181 181 62 60 182 182 62 60 183 183 60 63 184 184 63 61 185 185 57 57 186 186 59 56 187 187 62 60 188 188 61 59 189 189 57 57 190 190 62 60 191 191 67 64 192 192 65 65 193 193 66 66 194 194 69 67 195 195 70 68 196 196 71 69 197 197 64 70 198 198 67 64 199 199 66 66 200 200 67 64 201 201 64 70 202 202 70 68 203 203 64 70 204 204 68 71 205 205 70 68 206 206 70 68 207 207 68 71 208 208 71 69 209 209 65 65 210 210 67 64 211 211 70 68 212 212 69 67 213 213 65 65 214 214 70 68 215 215 75 72 216 216 73 73 217 217 74 74 218 218 77 75 219 219 78 76 220 220 79 77 221 221 72 78 222 222 75 72 223 223 74 74 224 224 75 72 225 225 72 78 226 226 78 76 227 227 72 78 228 228 76 79 229 229 78 76 230 230 78 76 231 231 76 79 232 232 79 77 233 233 73 73 234 234 75 72 235 235 78 76 236 236 77 75 237 237 73 73 238 238 78 76 239 239 83 80 240 240 81 81 241 241 82 82 242 242 85 83 243 243 86 84 244 244 87 85 245 245 80 86 246 246 83 80 247 247 82 82 248 248 83 80 249 249 80 86 250 250 86 84 251 251 80 86 252 252 84 87 253 253 86 84 254 254 86 84 255 255 84 87 256 256 87 85 257 257 81 81 258 258 83 80 259 259 86 84 260 260 85 83 261 261 81 81 262 262 86 84 263 263 91 88 264 264 89 89 265 265 90 90 266 266 93 91 267 267 94 92 268 268 95 93 269 269 88 94 270 270 91 88 271 271 90 90 272 272 91 88 273 273 88 94 274 274 94 92 275 275 88 94 276 276 92 95 277 277 94 92 278 278 94 92 279 279 92 95 280 280 95 93 281 281 89 89 282 282 91 88 283 283 94 92 284 284 93 91 285 285 89 89 286 286 94 92 287 287 99 96 288 288 97 97 289 289 98 98 290 290 101 99 291 291 102 100 292 292 103 101 293 293 96 102 294 294 99 96 295 295 98 98 296 296 99 96 297 297 96 102 298 298 102 100 299 299 96 102 300 300 100 103 301 301 102 100 302 302 102 100 303 303 100 103 304 304 103 101 305 305 97 97 306 306 99 96 307 307 102 100 308 308 101 99 309 309 97 97 310 310 102 100 311 311 107 104 312 312 105 105 313 313 106 106 314 314 109 107 315 315 110 108 316 316 111 109 317 317 104 110 318 318 107 104 319 319 106 106 320 320 107 104 321 321 104 110 322 322 110 108 323 323 104 110 324 324 108 111 325 325 110 108 326 326 110 108 327 327 108 111 328 328 111 109 329 329 105 105 330 330 107 104 331 331 110 108 332 332 109 107 333 333 105 105 334 334 110 108 335 335 115 112 336 336 113 113 337 337 114 114 338 338 117 115 339 339 118 116 340 340 119 117 341 341 112 118 342 342 115 112 343 343 114 114 344 344 115 112 345 345 112 118 346 346 118 116 347 347 112 118 348 348 116 119 349 349 118 116 350 350 118 116 351 351 116 119 352 352 119 117 353 353 113 113 354 354 115 112 355 355 118 116 356 356 117 115 357 357 113 113 358 358 118 116 359 359 123 120 360 360 121 121 361 361 122 122 362 362 125 123 363 363 126 124 364 364 127 125 365 365 120 126 366 366 123 120 367 367 122 122 368 368 123 120 369 369 120 126 370 370 126 124 371 371 120 126 372 372 124 127 373 373 126 124 374 374 126 124 375 375 124 127 376 376 127 125 377 377 121 121 378 378 123 120 379 379 126 124 380 380 125 123 381 381 121 121 382 382 126 124 383 383 131 128 384 384 129 129 385 385 130 130 386 386 133 131 387 387 134 132 388 388 135 133 389 389 128 134 390 390 131 128 391 391 130 130 392 392 131 128 393 393 128 134 394 394 134 132 395 395 128 134 396 396 132 135 397 397 134 132 398 398 134 132 399 399 132 135 400 400 135 133 401 401 129 129 402 402 131 128 403 403 134 132 404 404 133 131 405 405 129 129 406 406 134 132 407 407 139 136 408 408 137 137 409 409 138 138 410 410 141 139 411 411 142 140 412 412 143 141 413 413 136 142 414 414 139 136 415 415 138 138 416 416 139 136 417 417 136 142 418 418 142 140 419 419 136 142 420 420 140 143 421 421 142 140 422 422 142 140 423 423 140 143 424 424 143 141 425 425 137 137 426 426 139 136 427 427 142 140 428 428 141 139 429 429 137 137 430 430 142 140 431 431</p>
        </polylist>
      </mesh>
      <extra><technique profile="MAYA"><double_sided>1</double_sided></technique></extra>
    </geometry>
    <geometry id="fern_up8-mesh" name="fern_up8">
      <mesh>
        <source id="fern_up8-mesh-positions">
          <float_array id="fern_up8-mesh-positions-array" count="279">-1 1.013021 0.4005345 1 1.013021 0.4005345 0 2.013021 0.2940936 -1 0.5130214 0.3167748 1 0.5130214 0.3167748 0 -0.01763671 0.08505016 -2.165282 1.227101 0.2638952 0.1516066 1.662985 0.2151666 -1.858735 2.423336 -0.1042906 -1.700573 0.615619 0.2774128 0.6163156 1.051503 0.2286842 3.59825e-4 0.007356405 0.1079225 -1.092058 -0.0915783 0.410923 -1.78766 0.8200334 0.2128085 -3.65863 0.3498044 0.2832278 -0.8814898 0.7223595 0.1341316 -0.06155806 0.05821311 0.0984863 0.4896063 -0.3494571 0.2559805 -1.38234 -0.2328161 0.08632647 -1.06841 -0.9722784 0.6893566 0.03166413 0.06822371 0.06698375 0.7722705 0.7053233 0.6117864 -1.356104 -0.1736345 0.6341892 0.3978193 0.06883656 1.241845 -0.07861566 0.1756922 -0.07558447 1.575073 0.9627576 0.422823 0.7548049 -0.2472022 0.4597973 3.753411 0.4926801 0.5964555 0.6573189 0.8309911 0.264669 0.03170132 0.05525004 0.1259254 0.445712 1.265575 0.2526174 1.657034 0.3581655 0.2301563 2.591557 1.602539 0.1768426 -0.1915096 0.8615663 0.198566 -0.0038262 0.01298725 0.09193098 -0.6121945 1.473189 0.1970228 1.598687 1.301301 0.1474087 0.6572322 2.307893 -0.16846 -0.7823327 0.8903683 0.2279646 1.428549 0.718481 0.1783504 0.002807855 0.004893839 0.09871065 -1.248051 -0.05256325 0.6364349 -1.635718 1.520757 0.4639813 -4.704138 1.233137 0.663197 -0.4878467 1.201983 0.2864277 -0.02308428 0.08520054 0.1604505 -0.03923857 -0.4759269 0.3390405 -1.832894 0.4345839 0.4986678 -3.029216 -0.4556564 0.7311768 -1.091127 0.5364654 0.307996 0.01332736 0.03878402 0.1158146 1.469108 0.05979496 0.2142822 -0.6608877 -0.5629295 0.3026423 1.649821 -0.9410979 0.9278802 -0.07041102 0.08051609 0.08361721 0.4673439 1.246074 0.6454793 0.7117642 0.03814971 0.8868159 2.043428 0.8989924 0.9767299 -0.2169042 0.9946525 0.3741912 0.02751612 -0.2132716 0.6155279 -0.08260136 0.03747636 0.1587643 0.2371465 1.441037 0.4963731 0.9306831 0.03464204 0.5131488 2.678132 1.613183 0.7580974 -0.4560129 1.027615 0.2995517 -0.05519622 0.03545212 0.1418043 -1.251545 1.423967 0.4804425 1.065534 1.002508 0.716539 0.6594886 2.381882 0.6795437 -1.441704 0.8102428 0.3231908 0.8753742 0.3887833 0.5592873 -0.01932013 -0.02777516 0.1068011 -2.059178 0.711857 0.6515118 -0.4822092 1.611088 0.3908094 -3.351118 2.020065 0.4996594 -1.243734 0.2136574 0.5301913 0.3332343 1.112888 0.2694889 0.01655179 0.02113753 0.1200593 -0.3947006 0.2570946 0.978042 -1.814791 1.264849 0.614023 -2.82184 0.6748813 1.145413 0.4469587 0.1129278 0.6730487 -0.9731319 1.120682 0.3090297 0.1147152 0.08743232 0.1420817 1.301285 0.1244232 0.5934002 -1.493643 -0.3313043 0.5463571 0.4695193 -0.8938311 1.356801 -0.03091204 0.1892423 0.02004414 1.473856 0.9032641 0.6510301 -0.3496986 -0.3910807 0.5452235 2.844896 0.04915904 1.115619 0.793425 0.8745887 0.3654394 -0.1452288 0.05782532 0.139616</float_array>
          <technique_common>
            <accessor source="#fern_up8-mesh-positions-array" count="93" stride="3">
              <param name="X" type="float"/>
              <param name="Y" type="float"/>
              <param name="Z" type="float"/>
            </accessor>
          </technique_common>
        </source>
        <source id="fern_up8-mesh-normals">
          <float_array id="fern_up8-mesh-normals-array" count="279">0 -0.3383587 0.9410077 -0.1316263 -0.1181066 0.9842219 0 -0.02725303 0.9996033 0.1316263 -0.1181066 0.9842219 0.1297647 -0.2044435 0.970214 -0.1297647 -0.2044435 0.970214 0.0134586 -0.1289407 0.9915464 -0.1081271 -0.02441477 0.9938048 0.02951139 0.1928769 0.9807123 0.128727 0.2011169 0.9710074 0.1391949 0.09952086 0.9851985 -0.0846278 -0.1016266 0.9911496 0.2270882 0.3355816 0.9142125 0.06161683 0.03903317 0.9973144 0.03390604 0.3079317 0.9507737 0.1750847 0.6742454 0.7174291 0.1227454 0.03585922 0.99176 -0.01873832 0.8933378 0.4489883 0.1680654 0.410535 0.8962066 0.04217654 0.3674123 0.929075 -0.1463057 0.7696463 0.6214484 -0.3390606 0.7798089 -0.5261696 -0.07226783 0.9960326 -0.0514847 -0.384228 0.7821283 0.4904019 -0.6502884 0.6953948 0.3057649 -0.3527939 0.2922147 0.8888821 -0.2966399 0.6236457 0.7232276 -0.1040986 0.2227851 0.9692373 -0.132023 -0.05197298 0.9898679 -0.2065187 -0.07031464 0.9758904 -0.1274148 -0.1481063 0.9807123 -0.2063966 0.252266 0.9453719 -0.07974487 0.1813104 0.980163 0.008911371 -0.1118198 0.9936827 -0.02603226 -0.1806085 0.9831538 0.03460794 -0.1109653 0.9931944 -0.09591966 0.1343119 0.9862667 0.02453684 0.18717 0.9819941 0.1657155 0.05111849 0.9848018 0.1481978 -0.03845328 0.9881893 -0.09430217 0.0525223 0.9941405 0.3403424 0.1459395 0.9288919 0.1118198 -0.05832082 0.9920042 0.1158788 0.2470473 0.962035 0.3370159 0.5639516 0.7538682 0.1763054 -0.1011078 0.9790643 0.2557756 0.7455367 0.6153752 0.1798455 0.08737444 0.9797663 0.10065 0.253975 0.9618824 0.1423383 0.8141118 0.5629444 0.2582781 0.150914 0.9541918 -0.1875972 0.8811609 0.4339732 -0.01083403 0.7870419 0.6167791 -0.1440473 0.327372 0.9337748 -0.2947173 0.3115024 0.9033479 -0.7577746 0.1699575 0.6299631 -0.465804 0.602588 0.6479385 -0.3534349 0.1161839 0.9281594 -0.2699057 -0.2379833 0.9329814 -0.3402203 -0.2980132 0.8918119 -0.6383252 0.6225166 0.4527421 -0.4333323 -0.1584521 0.8871731 -0.5032808 0.3209326 0.8022706 -0.2162541 0.1127659 0.9697867 -0.1304971 -0.2045961 0.9700919 -0.1749626 -0.2765587 0.9448836 -0.2024598 -0.4074831 0.8904691 -0.326426 -0.1078829 0.939024 -0.159978 -0.1403241 0.9770501 -0.001983702 -0.2368236 0.9714957 -0.008911371 -0.2853175 0.9583728 -0.3449202 -0.208594 0.9151281 0.2130497 -0.1544236 0.9647511 0.04626601 -0.1405987 0.9889218 0.1416059 0.135197 0.9805902 0.2650532 0.3147069 0.9114048 0.3267617 0.2234565 0.9182714 0.08011108 -0.2034669 0.9757683 0.4258553 0.8946501 -0.1348307 0.3484908 0.2543413 0.9021272 0.330668 0.5213782 0.7866146 0.1925718 0.9778436 0.08163696 0.2545244 0.9521775 -0.1689199 0.4161809 0.2821741 0.8643453 -0.1716361 0.9848933 -0.02191227 0.08493298 0.8751793 0.4762108 -0.1353801 0.5878475 0.7975097 -0.3656728 0.7266152 0.5815913 -0.433546 0.8976104 0.07928705 -0.2351756 0.9544664 0.1833552 -0.2105166 0.3671682 0.9059725 -0.3092746 0.1539353 0.9383831 -0.4402295 0.2161015 0.8714255</float_array>
          <technique_common>
            <accessor source="#fern_up8-mesh-normals-array" count="93" stride="3">
              <param name="X" type="float"/>
              <param name="Y" type="float"/>
              <param name="Z" type="float"/>
            </accessor>
          </technique_common>
        </source>
        <source id="fern_up8-mesh-map-0">
          <float_array id="fern_up8-mesh-map-0-array" count="342">0.5000091 0.002141892 0.8392273 0.5018654 0.5 1 0.1451476 0.5038186 0.5000091 0.002141892 0.5 1 0.1451476 0.5038186 0.1607726 0.2088528 0.5000091 0.002141892 0.8319031 0.2235012 0.8392273 0.5018654 0.5000091 0.002141892 0.5000089 0.0024001 0.8392273 0.5018654 0.5 1 0.1451476 0.5038186 0.5000089 0.0024001 0.5 1 0.1451476 0.5038186 0.1607726 0.2088528 0.5000089 0.0024001 0.8319031 0.2235012 0.8392273 0.5018654 0.5000089 0.0024001 0.5000926 0.0203033 0.8392273 0.5018654 0.5 1 0.1569962 0.2801439 0.5000926 0.0203033 0.5 1 0.8319031 0.2235012 0.8392273 0.5018654 0.5000926 0.0203033 0.4999644 -0.006928741 0.8373839 0.4318066 0.5 1 0.1564766 0.2899538 0.4999644 -0.006928741 0.5 1 0.5000901 0.01594752 0.8357018 0.3678729 0.5 1 0.1481847 0.4464867 0.5000901 0.01594752 0.5 1 0.5000965 0.01843112 0.8329402 0.2629176 0.5 1 0.1451476 0.5038186 0.5000965 0.01843112 0.5 1 0.1451476 0.5038186 0.1607726 0.2088528 0.5000965 0.01843112 0.5000175 0.004034578 0.8360764 0.3821138 0.5 1 0.1451476 0.5038186 0.5000175 0.004034578 0.5 1 0.1451476 0.5038186 0.1607726 0.2088528 0.5000175 0.004034578 0.5000087 0.002460122 0.8392273 0.5018654 0.5 1 0.1451476 0.5038186 0.5000087 0.002460122 0.5 1 0.1451476 0.5038186 0.1607726 0.2088528 0.5000087 0.002460122 0.8319031 0.2235012 0.8392273 0.5018654 0.5000087 0.002460122 0.5000889 0.01712709 0.8392273 0.5018654 0.5 1 0.1576166 0.2684321 0.5000889 0.01712709 0.5 1 0.8319031 0.2235012 0.8392273 0.5018654 0.5000889 0.01712709 0.5000375 0.00706005 0.8392273 0.5018654 0.5 1 0.1595707 0.2315434 0.5000375 0.00706005 0.5 1 0.8319031 0.2235012 0.8392273 0.5018654 0.5000375 0.00706005 0.4999541 -0.008031427 0.8340984 0.306935 0.5 1 0.1491478 0.4283053 0.4999541 -0.008031427 0.5 1 0.5002129 0.02296376 0.8392273 0.5018654 0.5 1 0.1451476 0.5038186 0.5002129 0.02296376 0.5 1 0.1451476 0.5038186 0.1607726 0.2088528 0.5002129 0.02296376 0.8319031 0.2235012 0.8392273 0.5018654 0.5002129 0.02296376 0.5000821 0.01220458 0.8340574 0.3053768 0.5 1 0.1451476 0.5038186 0.5000821 0.01220458 0.5 1 0.1451476 0.5038186 0.1607726 0.2088528 0.5000821 0.01220458 0.5000354 0.004315912 0.8392273 0.5018654 0.5 1 0.1451476 0.5038186 0.5000354 0.004315912 0.5 1 0.1451476 0.5038186 0.1607726 0.2088528 0.5000354 0.004315912 0.8319031 0.2235012 0.8392273 0.5018654 0.5000354 0.004315912 0.5000333 0.005293726 0.8392273 0.5018654 0.5 1 0.1451476 0.5038186 0.5000333 0.005293726 0.5 1 0.1451476 0.5038186 0.1607726 0.2088528 0.5000333 0.005293726 0.8319031 0.2235012 0.8392273 0.5018654 0.5000333 0.005293726 0.5000273 0.002936124 0.8392273 0.5018654 0.5 1 0.1451476 0.5038186 0.5000273 0.002936124 0.5 1 0.1451476 0.5038186 0.1607726 0.2088528 0.5000273 0.002936124 0.8319031 0.2235012 0.8392273 0.5018654 0.5000273 0.002936124 0.5000211 0.004077434 0.8358381 0.3730555 0.5 1 0.1506168 0.4005725 0.5000211 0.004077434 0.5 1 0.4999453 -0.009160995 0.8332456 0.2745268 0.5 1 0.1451476 0.5038186 0.4999453 -0.009160995 0.5 1 0.1451476 0.5038186 0.1607726 0.2088528 0.4999453 -0.009160995</float_array>
          <technique_common>
            <accessor source="#fern_up8-mesh-map-0-array" count="171" stride="2">
              <param name="S" type="float"/>
              <param name="T" type="float"/>
            </accessor>
          </technique_common>
        </source>
        <source id="fern_up8-mesh-colors">
          <float_array id="fern_up8-mesh-colors-array" count="513">0 0.2470588 0 0.5960785 0.2901961 1 1 0.2431373 0 0.5882353 0.2705882 1 0 0.2470588 0 1 0.2431373 0 0.5882353 0.2705882 1 0.2980392 0.2313725 1 0 0.2470588 0 0.2941176 0.2666667 1 0.5960785 0.2901961 1 0 0.2470588 0 0 1 0 0.5960785 1 1 1 1 0 0.5882353 1 1 0 1 0 1 1 0 0.5882353 1 1 0.2980392 1 1 0 1 0 0.2941176 1 1 0.5960785 1 1 0 1 0 0.02352941 0.4941176 0 0.5960785 0.5803922 1 1 0.1686275 0 0.3647059 0.4823529 1 0.02352941 0.4941176 0 1 0.1686275 0 0.2941176 0.5333334 1 0.5960785 0.5803922 1 0.02352941 0.4941176 0 0 0.2823529 0 0.5176471 0.3960784 0.9960784 1 0.1843137 0 0.3764706 0.4745098 1 0 0.2823529 0 1 0.1843137 0 0.01568627 0.1529412 0 0.4470588 0.2705882 1 1 0.1294118 0 0.5294118 0.3882353 1 0.01568627 0.1529412 0 1 0.1294118 0 0.01960784 0.1019608 0 0.3333333 0.1529412 1 1 0.07450979 0 0.5882353 0.1921569 1 0.01960784 0.1019608 0 1 0.07450979 0 0.5882353 0.1921569 1 0.2980392 0.1647059 1 0.01960784 0.1019608 0 0.003921568 0.007843136 0 0.4627451 0.05490195 0.9960784 1 0.003921568 0 0.5882353 0.09019607 1 0.003921568 0.007843136 0 1 0.003921568 0 0.5882353 0.09019607 1 0.2980392 0.06666666 1 0.003921568 0.007843136 0 0 0.1372549 0 0.5960785 0.9215686 1 1 0.06274509 0 0.5882353 0.6588236 1 0 0.1372549 0 1 0.06274509 0 0.5882353 0.6588236 1 0.2980392 0.2823529 1 0 0.1372549 0 0.2941176 0.7215687 1 0.5960785 0.9215686 1 0 0.1372549 0 0.01960784 0.2117647 0 0.5960785 0.6745098 1 1 0 0 0.3529412 0.5176471 1 0.01960784 0.2117647 0 1 0 0 0.2941176 0.5882353 1 0.5960785 0.6745098 1 0.01960784 0.2117647 0 0.007843136 0.04313725 0 0.5960785 0.4352941 1 1 0.06274509 0 0.317647 0.4627451 1 0.007843136 0.04313725 0 1 0.06274509 0 0.2941176 0.3882353 1 0.5960785 0.4352941 1 0.007843136 0.04313725 0 0 0.1098039 0 0.3843137 0.4901961 1 1 0.05490195 0 0.5137255 0.4823529 1 0 0.1098039 0 1 0.05490195 0 0.02352941 0.02352941 0 0.5960785 0.1215686 1 1 0.01568627 0 0.5882353 0.1882353 1 0.02352941 0.02352941 0 1 0.01568627 0 0.5882353 0.1882353 1 0.2980392 0.1686275 1 0.02352941 0.02352941 0 0.2941176 0.09019607 1 0.5960785 0.1215686 1 0.02352941 0.02352941 0 0.0117647 0.0117647 0 0.3803921 0.1333333 1 1 0 0 0.5882353 0.2470588 1 0.0117647 0.0117647 0 1 0 0 0.5882353 0.2470588 1 0.2980392 0.1137255 1 0.0117647 0.0117647 0 0.003921568 0.003921568 0 0.5960785 0.1882353 1 1 0.003921568 0 0.5882353 0.06666666 1 0.003921568 0.003921568 0 1 0.003921568 0 0.5882353 0.06666666 1 0.2980392 0.0117647 1 0.003921568 0.003921568 0 0.2941176 0.1333333 1 0.5960785 0.1882353 1 0.003921568 0.003921568 0 0.003921568 0.0862745 0 0.5960785 0.4509804 1 1 0 0 0.5882353 0.3490196 1 0.003921568 0.0862745 0 1 0 0 0.5882353 0.3490196 1 0.2980392 0.254902 1 0.003921568 0.0862745 0 0.2941176 0.3372549 1 0.5960785 0.4509804 1 0.003921568 0.0862745 0 0 0.3921568 0 0.5960785 0.3882353 1 1 0.3686274 0 0.5882353 0.3882353 1 0 0.3921568 0 1 0.3686274 0 0.5882353 0.3882353 1 0.2980392 0.3882353 1 0 0.3921568 0 0.2941176 0.3882353 1 0.5960785 0.3882353 1 0 0.3921568 0 0.003921568 0.3921568 0 0.4549019 0.2039216 1 1 0.3803921 0 0.4862745 0.3764706 1 0.003921568 0.3921568 0 1 0.3803921 0 0 0.1921569 0 0.3490196 0.1921569 1 1 0.1960784 0 0.5882353 0.1921569 1 0 0.1921569 0 1 0.1960784 0 0.5882353 0.1921569 1 0.2980392 0.1960784 1 0 0.1921569 0</float_array>
          <technique_common>
            <accessor source="#fern_up8-mesh-colors-array" count="171" stride="3">
              <param name="R" type="float"/>
              <param name="G" type="float"/>
              <param name="B" type="float"/>
            </accessor>
          </technique_common>
        </source>
        <vertices id="fern_up8-mesh-vertices">
          <input semantic="POSITION" source="#fern_up8-mesh-positions"/>
        </vertices>
        <polylist material="woodfern_01-material" count="57">
          <input semantic="VERTEX" source="#fern_up8-mesh-vertices" offset="0"/>
          <input semantic="NORMAL" source="#fern_up8-mesh-normals" offset="1"/>
          <input semantic="TEXCOORD" source="#fern_up8-mesh-map-0" offset="2" set="0"/>
          <input semantic="COLOR" source="#fern_up8-mesh-colors" offset="3"/>
          <vcount>3 3 3 3 3 3 3 3 3 3 3 3 3 3 3 3 3 3 3 3 3 3 3 3 3 3 3 3 3 3 3 3 3 3 3 3 3 3 3 3 3 3 3 3 3 3 3 3 3 3 3 3 3 3 3 3 3 </vcount>
          <p>5 0 0 0 1 1 1 1 2 2 2 2 0 3 3 3 5 0 4 4 2 2 5 5 0 3 6 6 3 4 7 7 5 0 8 8 4 5 9 9 1 1 10 10 5 0 11 11 11 6 12 12 7 7 13 13 8 8 14 14 6 9 15 15 11 6 16 16 8 8 17 17 6 9 18 18 9 10 19 19 11 6 20 20 10 11 21 21 7 7 22 22 11 6 23 23 16 12 24 24 13 13 25 25 14 14 26 26 12 15 27 27 16 12 28 28 14 14 29 29 15 16 30 30 13 13 31 31 16 12 32 32 20 17 33 33 18 18 34 34 19 19 35 35 17 20 36 36 20 17 37 37 19 19 38 38 24 21 39 39 22 22 40 40 23 23 41 41 21 24 42 42 24 21 43 43 23 23 44 44 29 25 45 45 26 26 46 46 27 27 47 47 25 28 48 48 29 25 49 49 27 27 50 50 25 28 51 51 28 29 52 52 29 25 53 53 34 30 54 54 31 31 55 55 32 32 56 56 30 33 57 57 34 30 58 58 32 32 59 59 30 33 60 60 33 34 61 61 34 30 62 62 40 35 63 63 36 36 64 64 37 37 65 65 35 38 66 66 40 35 67 67 37 37 68 68 35 38 69 69 38 39 70 70 40 35 71 71 39 40 72 72 36 36 73 73 40 35 74 74 45 41 75 75 42 42 76 76 43 43 77 77 41 44 78 78 45 41 79 79 43 43 80 80 44 45 81 81 42 42 82 82 45 41 83 83 50 46 84 84 47 47 85 85 48 48 86 86 46 49 87 87 50 46 88 88 48 48 89 89 49 50 90 90 47 47 91 91 50 46 92 92 54 51 93 93 52 52 94 94 53 53 95 95 51 54 96 96 54 51 97 97 53 53 98 98 60 55 99 99 56 56 100 100 57 57 101 101 55 58 102 102 60 55 103 103 57 57 104 104 55 58 105 105 58 59 106 106 60 55 107 107 59 60 108 108 56 56 109 109 60 55 110 110 65 61 111 111 62 62 112 112 63 63 113 113 61 64 114 114 65 61 115 115 63 63 116 116 61 64 117 117 64 65 118 118 65 61 119 119 71 66 120 120 67 67 121 121 68 68 122 122 66 69 123 123 71 66 124 124 68 68 125 125 66 69 126 126 69 70 127 127 71 66 128 128 70 71 129 129 67 67 130 130 71 66 131 131 77 72 132 132 73 73 133 133 74 74 134 134 72 75 135 135 77 72 136 136 74 74 137 137 72 75 138 138 75 76 139 139 77 72 140 140 76 77 141 141 73 73 142 142 77 72 143 143 83 78 144 144 79 79 145 145 80 80 146 146 78 81 147 147 83 78 148 148 80 80 149 149 78 81 150 150 81 82 151 151 83 78 152 152 82 83 153 153 79 79 154 154 83 78 155 155 87 84 156 156 85 85 157 157 86 86 158 158 84 87 159 159 87 84 160 160 86 86 161 161 92 88 162 162 89 89 163 163 90 90 164 164 88 91 165 165 92 88 166 166 90 90 167 167 88 91 168 168 91 92 169 169 92 88 170 170</p>
        </polylist>
      </mesh>
      <extra><technique profile="MAYA"><double_sided>1</double_sided></technique></extra>
    </geometry>
  </library_geometries>
  <library_visual_scenes>
    <visual_scene id="Scene" name="Scene">
      <node id="Lamp" name="Lamp" type="NODE">
        <translate sid="location">4.076245 1.005454 5.903862</translate>
        <rotate sid="rotationZ">0 0 1 106.9363</rotate>
        <rotate sid="rotationY">0 1 0 3.163708</rotate>
        <rotate sid="rotationX">1 0 0 37.26105</rotate>
        <scale sid="scale">1 1 1</scale>
        <instance_light url="#Lamp-light"/>
      </node>
      <node id="base01" name="base01" type="NODE">
        <translate sid="location">0 0 0</translate>
        <rotate sid="rotationZ">0 0 1 0</rotate>
        <rotate sid="rotationY">0 1 0 0</rotate>
        <rotate sid="rotationX">1 0 0 0</rotate>
        <scale sid="scale">1 1 1</scale>
        <node id="nulldetail0" name="nulldetail0" type="NODE">
          <translate sid="location">0 0 0</translate>
          <rotate sid="rotationZ">0 0 1 0</rotate>
          <rotate sid="rotationY">0 1 0 0</rotate>
          <rotate sid="rotationX">1 0 0 0</rotate>
          <scale sid="scale">1 1 1</scale>
        </node>
        <node id="detail128" name="detail128" type="NODE">
          <translate sid="location">0 0 0</translate>
          <rotate sid="rotationZ">0 0 1 0</rotate>
          <rotate sid="rotationY">0 1 0 0</rotate>
          <rotate sid="rotationX">1 0 0 0</rotate>
          <scale sid="scale">1 1 1</scale>
        </node>
        <node id="start01" name="start01" type="NODE">
          <translate sid="location">0 0 0</translate>
          <rotate sid="rotationZ">0 0 1 0</rotate>
          <rotate sid="rotationY">0 1 0 0</rotate>
          <rotate sid="rotationX">1 0 0 0</rotate>
          <scale sid="scale">1 1 1</scale>
          <node id="fern_up128" name="fern_up128" type="NODE">
            <translate sid="location">-4.53466e-11 -1.46603e-10 -0.02377232</translate>
            <rotate sid="rotationZ">0 0 1 -951.4873</rotate>
            <rotate sid="rotationY">0 1 0 3.568335</rotate>
            <rotate sid="rotationX">1 0 0 29.70958</rotate>
            <scale sid="scale">0.1764319 0.3528637 0.7057272</scale>
            <instance_geometry url="#fern_up128-mesh">
              <bind_material>
                <technique_common>
                  <instance_material symbol="woodfern_01-material" target="#woodfern_01-material">
                    <bind_vertex_input semantic="UVMap" input_semantic="TEXCOORD" input_set="0"/>
                  </instance_material>
                </technique_common>
              </bind_material>
            </instance_geometry>
          </node>
          <node id="fern_up8" name="fern_up8" type="NODE">
            <translate sid="location">-4.53466e-11 -1.46603e-10 -0.02377232</translate>
            <rotate sid="rotationZ">0 0 1 -951.4873</rotate>
            <rotate sid="rotationY">0 1 0 3.568335</rotate>
            <rotate sid="rotationX">1 0 0 29.70958</rotate>
            <scale sid="scale">0.1764319 0.3528637 0.7057272</scale>
            <instance_geometry url="#fern_up8-mesh">
              <bind_material>
                <technique_common>
                  <instance_material symbol="woodfern_01-material" target="#woodfern_01-material">
                    <bind_vertex_input semantic="UVMap" input_semantic="TEXCOORD" input_set="0"/>
                  </instance_material>
                </technique_common>
              </bind_material>
            </instance_geometry>
          </node>
        </node>
        <node id="detail8" name="detail8" type="NODE">
          <translate sid="location">0 0 0</translate>
          <rotate sid="rotationZ">0 0 1 0</rotate>
          <rotate sid="rotationY">0 1 0 0</rotate>
          <rotate sid="rotationX">1 0 0 0</rotate>
          <scale sid="scale">1 1 1</scale>
        </node>
      </node>
    </visual_scene>
  </library_visual_scenes>
  <scene>
    <instance_visual_scene url="#Scene"/>
  </scene>
</COLLADA>