<?xml version="1.0" encoding="utf-8"?>
<COLLADA xmlns="http://www.collada.org/2005/11/COLLADASchema" version="1.4.1">
  <asset>
    <contributor>
      <author>Russell</author>
      <authoring_tool>OpenCOLLADA for 3ds Max;  Version: 1.2.5;  Revision: 673;  Platform: x64;  Configuration: Release Max2010</authoring_tool>
      <source_data>file:///E:/Projects/Pacific_Art/06_Rocks/03_All%20Rocks%20V2/Allrocks_V2_01.max</source_data>
    </contributor>
    <created>2011-04-26T19:49:48</created>
    <modified>2011-04-26T19:49:48</modified>
    <unit name="meter" meter="1"/>
    <up_axis>Z_UP</up_axis>
  </asset>
  <library_effects>
    <effect id="greyrock">
      <profile_COMMON>
        <newparam sid="grayrock_diffuse_dds-surface">
          <surface type="2D">
            <init_from>grayrock_diffuse_dds</init_from>
          </surface>
        </newparam>
        <newparam sid="grayrock_diffuse_dds-sampler">
          <sampler2D>
            <source>grayrock_diffuse_dds-surface</source>
          </sampler2D>
        </newparam>
        <technique sid="common">
          <blinn>
            <emission>
              <color>0 0 0 1</color>
            </emission>
            <ambient>
              <texture texture="grayrock_diffuse_dds-sampler" texcoord="CHANNEL1"/>
            </ambient>
            <diffuse>
              <texture texture="grayrock_diffuse_dds-sampler" texcoord="CHANNEL1"/>
            </diffuse>
            <specular>
              <color>0.9 0.9 0.9 1</color>
            </specular>
            <shininess>
              <float>9.999999</float>
            </shininess>
            <reflective>
              <color>0 0 0 1</color>
            </reflective>
            <transparent opaque="A_ONE">
              <color>1 1 1 1</color>
            </transparent>
            <transparency>
              <float>1</float>
            </transparency>
          </blinn>
        </technique>
      </profile_COMMON>
      <extra>
        <technique profile="OpenCOLLADA3dsMax">
          <extended_shader>
            <apply_reflection_dimming>0</apply_reflection_dimming>
            <dim_level>0</dim_level>
            <falloff_type>0</falloff_type>
            <index_of_refraction>1.5</index_of_refraction>
            <opacity_type>0</opacity_type>
            <reflection_level>3</reflection_level>
            <wire_size>1</wire_size>
            <wire_units>0</wire_units>
          </extended_shader>
          <shader>
            <ambient_diffuse_lock>1</ambient_diffuse_lock>
            <ambient_diffuse_texture_lock>1</ambient_diffuse_texture_lock>
            <diffuse_specular_lock>0</diffuse_specular_lock>
            <soften>0.1</soften>
            <use_self_illum_color>0</use_self_illum_color>
          </shader>
        </technique>
      </extra>
    </effect>
    <effect id="greyrock_1">
      <profile_COMMON>
        <newparam sid="grayrock_diffuse_png-surface">
          <surface type="2D">
            <init_from>grayrock_diffuse_png</init_from>
          </surface>
        </newparam>
        <newparam sid="grayrock_diffuse_png-sampler">
          <sampler2D>
            <source>grayrock_diffuse_png-surface</source>
          </sampler2D>
        </newparam>
        <technique sid="common">
          <blinn>
            <emission>
              <color>0 0 0 1</color>
            </emission>
            <ambient>
              <color>0.588 0.588 0.588 1</color>
            </ambient>
            <diffuse>
              <texture texture="grayrock_diffuse_png-sampler" texcoord="CHANNEL1"/>
            </diffuse>
            <specular>
              <color>0.9 0.9 0.9 1</color>
            </specular>
            <shininess>
              <float>10</float>
            </shininess>
            <reflective>
              <color>0 0 0 1</color>
            </reflective>
            <transparent opaque="A_ONE">
              <color>1 1 1 1</color>
            </transparent>
            <transparency>
              <float>1</float>
            </transparency>
          </blinn>
        </technique>
      </profile_COMMON>
      <extra>
        <technique profile="OpenCOLLADA3dsMax">
          <extended_shader>
            <apply_reflection_dimming>0</apply_reflection_dimming>
            <dim_level>0</dim_level>
            <falloff_type>0</falloff_type>
            <index_of_refraction>1.5</index_of_refraction>
            <opacity_type>0</opacity_type>
            <reflection_level>3</reflection_level>
            <wire_size>1</wire_size>
            <wire_units>0</wire_units>
          </extended_shader>
          <shader>
            <ambient_diffuse_lock>1</ambient_diffuse_lock>
            <ambient_diffuse_texture_lock>1</ambient_diffuse_texture_lock>
            <diffuse_specular_lock>0</diffuse_specular_lock>
            <soften>0.1</soften>
            <use_self_illum_color>0</use_self_illum_color>
          </shader>
        </technique>
      </extra>
    </effect>
    <effect id="ColorEffectR141G7B58">
      <profile_COMMON>
        <technique sid="common">
          <phong>
            <ambient>
              <color>0.5529412 0.02745098 0.227451 1</color>
            </ambient>
            <diffuse>
              <color>0.5529412 0.02745098 0.227451 1</color>
            </diffuse>
            <specular>
              <color>1 1 1 1</color>
            </specular>
            <shininess>
              <float>10</float>
            </shininess>
            <reflective>
              <color>0 0 0 1</color>
            </reflective>
            <transparent>
              <color>1 1 1 1</color>
            </transparent>
            <transparency>
              <float>1</float>
            </transparency>
          </phong>
        </technique>
      </profile_COMMON>
      <extra>
        <technique profile="OpenCOLLADA3dsMax">
          <extended_shader>
            <apply_reflection_dimming>0</apply_reflection_dimming>
            <dim_level>0</dim_level>
            <falloff_type>0</falloff_type>
            <index_of_refraction>1.5</index_of_refraction>
            <opacity_type>0</opacity_type>
            <reflection_level>3</reflection_level>
            <wire_size>1</wire_size>
            <wire_units>0</wire_units>
          </extended_shader>
          <shader>
            <ambient_diffuse_lock>1</ambient_diffuse_lock>
            <ambient_diffuse_texture_lock>1</ambient_diffuse_texture_lock>
            <diffuse_specular_lock>0</diffuse_specular_lock>
            <soften>0.1</soften>
            <use_self_illum_color>0</use_self_illum_color>
          </shader>
        </technique>
      </extra>
    </effect>
  </library_effects>
  <library_materials>
    <material id="ColorEffectR141G7B58-material" name="ColorEffectR141G7B58-material">
      <instance_effect url="#ColorEffectR141G7B58"/>
    </material>
    <material id="greyrock-material" name="greyrock">
      <instance_effect url="#greyrock"/>
    </material>
    <material id="greyrock_1-material" name="greyrock">
      <instance_effect url="#greyrock_1"/>
    </material>
  </library_materials>
  <library_geometries>
    <geometry id="geom-ovalone400" name="ovalone400">
      <mesh>
        <source id="geom-ovalone400-positions">
          <float_array id="geom-ovalone400-positions-array" count="507">0.4149413 2.019752 1.563385 -2.347542 1.745609 1.096472 -2.892377 -1.221943 -0.2472736 -3.239526 1.442333 -0.2878243 3.566816 -1.859432 1.041378 -1.835558 1.587718 0.9851781 -0.8030316 1.764778 0.9799898 4.555395 0.5267112 0.6417325 -0.5884297 -1.486778 0.1237818 2.413078 1.623929 -0.2748684 -4.095357 0.0732224 0.03535701 3.463402 0.8166927 1.169408 4.017749 0.1322945 -0.5987475 1.438044 -1.465412 0.04083368 -0.8292335 -0.7692605 -0.2698669 -2.940867 1.645195 -0.1146542 -4.671479 -0.4791232 0.8707125 2.032555 1.487473 1.492229 0.2268363 1.969387 -0.2340321 1.03304 -1.811131 1.395616 -0.9744443 -1.871087 1.456652 0.8011459 1.808819 0.8762747 -3.798647 0.7332033 -0.4184741 -1.767172 0.1581721 1.308979 2.571724 -1.331531 -0.3810257 2.421141 -1.928985 0.1062066 1.78827 -1.585518 0.2167512 -3.627154 -1.185551 0.1115634 -2.681702 -1.440571 0.3509643 -3.140824 -1.543263 1.401992 1.320296 -1.764763 0.2497992 -3.860755 0.8013793 0.3813692 1.479498 1.697506 1.200395 1.274266 1.619183 0.8518201 4.070579 0.8218198 1.185509 2.13255 1.658654 0.4244935 3.600535 0.9521489 0.8495448 3.061688 1.479016 -0.09112792 1.030703 1.782799 1.49399 3.274011 -1.315571 1.488729 4.114786 -0.6922716 0.9877883 -1.425223 1.933124 1.251233 -0.0070924 2.198467 -0.005120846 1.043741 -0.6195222 2.003115 3.023624 -0.04913268 -0.493322 1.803462 -1.254337 -0.1666647 0.7561272 -1.707077 0.1491426 -1.582087 -0.70776 -0.6112939 -2.12322 -0.4282687 -0.5991964 -2.222201 -0.712662 -0.4284906 3.685263 -0.8183552 1.47536 4.175814 -0.5791963 0.5734156 2.127491 -1.929096 1.214043 -1.183629 -1.504597 1.552563 -0.7340175 -1.439446 0.8714396 -2.219172 -1.77451 1.021407 -3.933757 -1.079228 1.260327 -1.176356 1.715282 0.9336753 -2.132667 2.303638 0.1936954 -1.218651 1.904278 0.472761 -0.7388961 1.843185 0.5081339 2.719019 1.422822 -0.3822813 4.247438 0.5357292 -0.1439971 -0.5359137 -1.112736 -0.03176866 -0.4023873 2.007862 0.9803569 -0.4537836 2.191127 1.379575 2.753436 -1.293056 1.715603 2.007612 0.7243577 1.561322 0.5684805 -0.6971552 2.027536 -0.1423773 1.132766 1.60383 -2.035592 0.8335069 1.678969 -3.039317 0.4701836 1.419459 3.50285 0.5476196 -0.7200079 3.025566 0.9554754 -0.8405348 3.512422 -0.9264253 0.2876226 3.105532 -1.684162 -0.02890003 1.163553 1.448609 -0.4719242 -0.01769806 0.553177 -0.7927684 -2.511493 0.3367535 -0.2778502 3.839316 -1.395683 0.5862467 3.836092 -0.8075174 0.5633584 3.810243 -1.772697 0.9101908 0.5208303 -1.997647 1.325821 0.3192242 -1.533684 0.6779796 -1.633295 -1.623093 0.4395032 2.604874 -1.910785 0.4642035 2.019779 -1.595878 0.5154132 -4.532992 -0.5828562 0.6024263 -4.232517 0.05424415 0.5781267 -4.046976 0.4171784 0.1075886 -1.022971 2.041901 1.147625 1.19762 1.202534 1.626188 2.666799 1.203522 1.489775 -2.494969 1.943985 0.6436907 -1.498421 2.298786 0.2458908 -0.2529504 1.856472 0.4471725 3.232699 1.286427 0.06389917 2.288812 1.594746 1.13763 2.774179 1.520756 1.173533 3.333216 1.281525 1.074848 -2.604533 1.828697 -0.2671322 1.561957 1.494553 -0.3705859 -1.48159 1.807167 1.649125 -2.322647 1.58055 1.572364 -3.341146 1.373351 1.294966 3.904696 0.187756 1.494673 2.650786 -1.029251 1.810436 -0.3019935 -0.04269448 1.904027 0.2264899 -0.4186519 1.900965 -1.160553 0.0185733 1.504567 -1.034089 -0.3635297 1.601818 3.545224 0.1472175 -0.6802388 2.269195 -0.3597102 -0.4781067 1.332576 -0.3839108 -0.7021738 0.038074 -0.469902 -0.4615214 -0.6625715 -0.253273 -0.6134137 4.290479 0.5664907 1.381965 4.256967 -0.1725001 1.345794 3.983024 -0.3848605 1.337606 3.01765 -1.809486 0.7999579 3.168072 -1.90448 0.4333442 1.252953 -1.589981 0.8342891 -0.5980567 -1.922508 1.220655 -1.624112 -1.889115 1.44227 -2.969498 -1.48518 -0.0104842 -2.174812 -1.401414 0.7835389 -3.422997 -1.479997 0.9607376 -2.596336 -1.592686 -0.2372571 -1.757428 -1.342678 -0.3351225 -3.811596 1.066444 -0.0631908 -1.465164 1.640121 0.7936157 1.513062 1.717835 0.1049915 1.908048 1.488487 0.7683011 2.62822 1.145405 0.6488149 4.165617 0.7153898 0.6008562 2.399048 1.391903 -0.5815698 2.165336 1.278096 -0.8439137 2.72616 1.207421 -0.5311191 4.040086 0.4311875 -0.5641328 4.350476 0.2274598 -0.2909427 3.654522 1.124345 0.1046462 -4.00795 -0.9196595 0.507181 -0.3270307 1.977459 1.62855 0.1228545 2.124214 1.177571 3.051894 -1.680103 1.324309 -2.698546 -0.06247027 1.814703 3.365791 0.8339392 -0.2291002 3.203827 0.2641951 -0.6939485 3.573306 -1.694965 0.3533836 2.50071 1.027108 -1.042287 0.7707999 0.7596629 -0.717766 0.7623607 1.472637 -0.363886 1.120697 1.194229 -0.5987113 -2.187967 1.241451 -0.551699 -2.983071 0.3695369 -0.4503154 -3.974673 -0.380471 0.03486601 3.789248 -1.414413 0.9766548 4.419396 -0.4158928 0.251969 4.584528 0.1855514 0.4672815 3.816138 -1.055736 0.8668731 1.677622 -1.509735 0.7750403 2.374137 -1.803478 0.8636601 -4.032802 0.9703704 0.9597896 -4.431968 0.5778456 0.775658 -1.810574 1.801059 1.274395 -1.043264 2.072853 1.599301 -2.380657 1.765434 0.7967012 0.2940466 2.029842 0.2010499 1.254559 1.716172 -0.2413088</float_array>
          <technique_common>
            <accessor source="#geom-ovalone400-positions-array" count="169" stride="3">
              <param name="X" type="float"/>
              <param name="Y" type="float"/>
              <param name="Z" type="float"/>
            </accessor>
          </technique_common>
        </source>
        <source id="geom-ovalone400-normals">
          <float_array id="geom-ovalone400-normals-array" count="507">0.02023655 0.9052907 0.4243104 -0.241942 0.9309734 -0.2734093 0.03489763 0.6536973 -0.7559512 0.5165428 0.5965674 -0.6142402 0.2876684 0.7925365 -0.5377106 0.3289856 0.2916304 -0.898176 0.9690373 -0.2425239 -0.04635574 0.656723 0.08095621 -0.7497739 0.5543648 -0.6762186 -0.4851887 -0.1733951 0.9648169 -0.1976423 0.01837484 0.9975672 -0.0672476 -0.03175751 0.9809573 0.1916092 -0.04344231 -0.05957902 0.9972779 0.1584055 -0.8738717 0.4596258 -0.04926753 -0.9599492 0.2758085 0.02136553 -0.6030426 -0.7974228 -0.04372524 -0.4493273 -0.8922966 -0.04031664 -0.3421407 -0.9387834 -0.5488371 -0.654197 -0.5203884 -0.6599756 -0.6809289 -0.3174397 -0.6032389 -0.1816696 -0.7765945 0.5575223 -0.2102889 0.8030861 0.8124237 -0.5506779 0.1916286 0.4618112 -0.330446 0.8231257 0.753678 -0.6257344 -0.2010616 0.7397096 -0.6698953 0.06379804 -0.03226008 -0.9991846 0.02427995 0.3939818 -0.811452 0.4316529 0.1847406 -0.9723572 -0.1428015 0.6260429 -0.5265688 -0.5751482 -0.1001744 -0.8217216 0.5610158 -0.1271294 -0.8707376 -0.4750308 -0.0681741 -0.9266256 -0.3697529 -0.07369725 -0.976018 -0.2048354 -0.09670154 -0.8694504 -0.4844634 0.09256528 -0.9563176 -0.2772876 0.07594816 -0.8087185 -0.583272 0.1984157 0.9746757 -0.1031432 0.2277981 0.9731621 -0.03261209 0.1319242 0.9721351 0.1937767 0.06246714 0.7342948 0.6759506 -0.04086263 0.9165481 0.3978315 0.1970537 0.9632079 0.1827574 0.2135484 0.9766956 -0.02151348 0.2615822 0.9610413 -0.08929971 0.2730955 0.9214733 0.2762351 0.05694118 0.8342673 -0.5484121 0.2656155 0.8477588 0.4590789 0.3564306 0.9311495 -0.07692642 0.305129 0.5287381 0.7920431 -0.3403645 0.5826089 -0.7380508 0.07184245 0.9960934 0.05134854 0.04970258 0.0965089 -0.9940904 0.2024858 0.8012304 -0.5630536 -0.03842398 0.7047979 -0.7083668 0.4447844 0.6278684 -0.6387081 0.5447295 0.7129162 -0.4416111 0.5210145 0.8526408 -0.03934044 0.5063434 0.3950548 -0.7665169 0.7197749 0.594252 -0.3588712 0.8524062 0.03701701 -0.5215682 -0.4023583 -0.9128368 -0.06954722 -0.1505253 -0.9870922 0.05469019 -0.07634921 -0.9451692 -0.317531 -0.5999993 -0.5309492 0.5984094 -0.969184 -0.1370976 0.2046617 0.280193 0.6795518 0.6780128 0.1666798 0.9490665 -0.2673772 -0.01287948 0.9935583 0.1125873 0.06486495 0.1376857 0.9883497 0.1053888 0.6298412 0.7695409 0.1300184 -0.5088323 0.8509906 0.15666 -0.6347835 0.7566423 0.4241127 -0.4095914 0.8076901 -0.209066 -0.05058384 0.9765924 -0.11344 0.1250109 0.9856489 -0.07926527 0.2388046 0.9678271 -0.0485489 -0.2026131 0.9780547 -0.3448758 -0.2279768 0.9105423 -0.06582278 0.06217555 0.9958923 -0.2205126 -0.1068218 0.9695171 -0.2763394 0.1708963 0.9457436 -0.1813126 -0.1809384 0.966637 -0.2320747 0.5663151 0.7908404 0.3768134 -0.3578387 -0.8543788 0.118353 -0.5929281 -0.7965105 0.3856795 0.9107224 -0.1477707 0.01269549 -0.4127557 -0.9107533 0.4299604 -0.4895904 -0.7585745 0.2747396 -0.5464637 -0.7911357 0.1523544 0.2985932 -0.9421413 0.2855021 -0.2584909 -0.9228602 -0.06154885 -0.8951739 -0.4414469 -0.07640556 0.2274455 -0.9707887 -0.2106309 0.4922605 -0.8445793 0.02910513 0.4738772 -0.8801099 0.09331025 -0.4487604 -0.8887672 0.16667 -0.5134858 -0.8417562 0.1196583 -0.5517945 -0.8253513 0.2113743 0.08786348 -0.973448 -0.04317036 0.02070871 -0.998853 0.09554261 0.1661133 -0.9814672 0.1692342 -0.09993978 0.9804956 0.8645087 -0.1265861 0.4864161 0.6732011 -0.3119645 0.6704316 0.9973617 -0.06485939 -0.03260174 0.892712 0.4483674 0.04507663 0.9265303 -0.02339562 -0.3754919 0.7685632 -0.5932215 0.2395808 0.09900972 -0.9693632 0.2247936 0.01555441 -0.6991581 0.7147978 -0.06547657 -0.9895766 -0.1282615 0.1114894 -0.9906166 -0.07904986 -0.2018671 -0.9530976 -0.2255096 -0.04792255 -0.9557662 -0.2901973 -0.2994951 -0.3774861 -0.8762459 -0.00328227 -0.9446577 -0.3280412 -0.2921293 -0.6032185 0.742151 -0.2223698 -0.9163459 -0.3329592 -0.1515991 -0.9759024 0.156947 -0.2761114 -0.9571622 0.08719607 -0.01480753 -0.9950824 0.09793635 -0.3400619 -0.7760842 -0.531085 -0.9138383 0.4000055 0.06996607 -0.6282716 0.6885695 0.3621422 -0.4848763 0.7884489 -0.3784752 -0.4310017 0.6678737 -0.6067803 -0.5444247 0.5692989 0.6160362 -0.197675 0.7818747 0.591267 -0.2447731 0.8489238 -0.4684171 0.2888398 0.955802 -0.05490234 0.3834645 0.9150109 0.1253392 -0.2809338 0.8859455 0.3690214 0.5078216 0.7956083 0.33034 0.2603802 0.8382336 -0.4791312 0.3667918 0.9300056 -0.02352395 0.3004628 0.2268507 0.9264237 0.587378 0.8075669 0.05313006 0.336965 0.9415141 0.00238132 0.1764174 0.967289 -0.1822877 0.1331736 0.6483078 -0.7496412 -0.1959796 0.2249508 -0.9544575 -0.349681 0.9015778 -0.2547168 0.07432271 0.06800999 0.9949124 0.1141281 0.1174043 0.9865044 0.190217 -0.3169675 -0.9291658 -0.2145282 -0.6280777 -0.7479947 -0.024596 -0.5854352 -0.8103461 -0.007163475 -0.2822534 -0.9593131 -0.1782809 -0.3270765 -0.9280285 -0.5682855 0.131931 -0.8121858 -0.7273197 0.6854784 -0.03354755 -0.8183188 -0.1071501 -0.5646884 -0.8142256 0.05524478 -0.5779141 -0.9123165 0.267006 -0.3104616 0.005823465 0.9039624 0.4275721 0.1873757 0.1336394 0.9731551 -0.701448 0.6976799 -0.1456487 -0.05804051 0.587688 -0.8070031 0.3386208 0.7111175 0.6161557 0.6444525 0.730807 -0.2249495 -0.2381147 0.5000656 0.8326078 0.5365855 0.4051483 0.7402236 -0.1833706 0.9777002 -0.1023598 0.1572436 0.9586592 -0.2371643 0.04676167 0.3966386 0.916783 0.08026613 0.1307077 0.9881664 -0.1121498 0.1736374 -0.978403 -0.8282061 -0.3295361 -0.4532998</float_array>
          <technique_common>
            <accessor source="#geom-ovalone400-normals-array" count="169" stride="3">
              <param name="X" type="float"/>
              <param name="Y" type="float"/>
              <param name="Z" type="float"/>
            </accessor>
          </technique_common>
        </source>
        <source id="geom-ovalone400-map1">
          <float_array id="geom-ovalone400-map1-array" count="576">0.626227 0.676572 0 0.4568633 0.6249315 0 0.5572371 0.7811989 0 0.6982225 0.5866711 0 0.7081065 0.674584 0 0.6269184 0.3343677 0 0.5393077 0.4479919 0 0.5416005 0.5505183 0 0.5243084 0.3718845 0 0.5858407 0.4040872 0 0.4545694 0.2225481 0 0.6880226 0.3136631 0 0.585389 0.6038612 0 0.6152823 0.6326226 0 0.6227098 0.5441706 0 0.8541359 0.4142417 0 0.2128452 0.5537855 0 0.5102895 0.8486316 0 0.9042609 0.4798079 0 0.8161603 0.4405615 0 0.7679706 0.847698 0 0.4555945 0.26204 0 0.4069202 0.2544679 0 0.5409188 0.7235351 0 0.7767018 0.8765264 0 0.2391382 0.5229771 0 0.2401783 0.5476376 0 0.2176564 0.8482636 0 0.2628832 0.8584512 0 0.2485998 0.8911892 0 0.4707502 0.8567097 0 0.2703917 0.4854116 0 0.4423088 0.8360537 0 0.336293 0.8225638 0 0.5650231 0.4439965 0 0.5550487 0.8712383 0 0.3561487 0.8065675 0 0.2915122 0.6844139 0 0.3339868 0.6626367 0 0.3207907 0.7132141 0 0.4941628 0.7602031 0 0.5235034 0.7823296 0 0.4982506 0.7940522 0 0.4395474 0.6061962 0 0.4340468 0.5288818 0 0.4179599 0.432535 0 0.5067278 0.5187755 0 0.4092776 0.5194291 0 0.3969846 0.4870459 0 0.350841 0.471698 0 0.3746712 0.4131135 0 0.413416 0.5734763 0 0.291933 0.508424 0 0.7531626 0.8725228 0 0.7507075 0.8449817 0 0.6572521 0.8575033 0 0.7279806 0.7869792 0 0.7489659 0.8168008 0 0.7724514 0.8119444 0 0.5755775 0.8228568 0 0.5746887 0.793212 0 0.6047778 0.7890321 0 0.7530813 0.7943655 0 0.8020111 0.746486 0 0.7011564 0.7393243 0 0.6089493 0.7004604 0 0.7823488 0.635299 0 0.365586 0.2716596 0 0.3439777 0.2904519 0 0.8134736 0.6550053 0 0.5047681 0.8698926 0 0.4603545 0.9067083 0 0.4812767 0.751958 0 0.4713084 0.8812437 0 0.4799689 0.3500165 0 0.501013 0.3103049 0 0.5738324 0.6931184 0 0.5359946 0.6528361 0 0.5729679 0.6663488 0 0.8322623 0.6560846 0 0.5605186 0.739344 0 0.6496725 0.5479453 0 0.6734802 0.5265344 0 0.5752963 0.5366566 0 0.6427177 0.462552 0 0.7563595 0.4218721 0 0.6972817 0.4412042 0 0.3001834 0.2798178 0 0.2969136 0.3085313 0 0.389536 0.2978633 0 0.2480887 0.4817172 0 0.2644537 0.4501895 0 0.5210052 0.8335572 0 0.3066601 0.7337149 0 0.2629348 0.6809787 0 0.2096042 0.5207959 0 0.2340825 0.5041645 0 0.2021006 0.6248983 0 0.2747472 0.7226472 0 0.2234706 0.7100221 0 0.2571485 0.7423224 0 0.7557622 0.3910716 0 0.196846 0.732091 0 0.2133904 0.7932511 0 0.1916393 0.7888566 0 0.2351878 0.8064019 0 0.6239616 0.4120368 0 0.4117862 0.8955795 0 0.628395 0.385844 0 0.6000237 0.3787565 0 0.5248605 0.4893087 0 0.2256536 0.8179615 0 0.2760541 0.8272627 0 0.2875358 0.6181924 0 0.4350257 0.311998 0 0.3426246 0.3500445 0 0.2645743 0.6032196 0 0.3388385 0.7516464 0 0.4547319 0.6535498 0 0.8667154 0.5938801 0 0.8339567 0.6297956 0 0.3008623 0.8570073 0 0.7003201 0.889913 0 0.6394722 0.7543617 0 0.6415631 0.7027828 0 0.6871233 0.4773258 0 0.3677336 0.7142305 0 0.5488422 0.8416575 0 0.4047062 0.8247208 0 0.5996768 0.7465285 0 0.5808046 0.7567769 0 0.5852327 0.71362 0 0.6084139 0.6691924 0 0.3691563 0.3285275 0 0.3223738 0.3219063 0 0.2229192 0.3674512 0 0.2479255 0.3261935 0 0.3135886 0.3977196 0 0.2842527 0.5344316 0 0.2590034 0.534646 0 0.2511751 0.6492573 0 0.3477091 0.8655273 0 0.3657016 0.8394563 0 0.3776876 0.8804606 0 0.2340117 0.4333712 0 0.2998389 0.4590852 0 0.4264741 0.8418586 0 0.29005 0.5761371 0 0.2729075 0.5683613 0 0.3407047 0.5837113 0 0.2950517 0.6526971 0 0.5388165 0.813947 0 0.7134179 0.5396416 0 0.6774123 0.4311203 0 0.6476051 0.828472 0 0.7771983 0.3384231 0 0.8255241 0.3725512 0 0.7292737 0.3092306 0 0.1817065 0.5030056 0 0.7659066 0.5847824 0 0.8457441 0.3906378 0 0.5418192 0.8220634 0 0.41475 0.9448578 0 0.5269672 0.5277665 0 0.3886199 0.9374517 0 0.2400776 0.4475325 0 0.5047636 0.3964233 0 0.5676389 0.3352839 0 0.5946535 0.4768438 0 0.4476091 0.3026762 0 0.1979528 0.7000165 0 0.3814953 0.8420103 0 0.9006062 0.4347804 0 0.2936912 0.7750527 0 0.1871656 0.6053361 0 0.1775274 0.6331545 0 0.266203 0.5104575 0 0.21182 0.5868666 0 0.3272507 0.9117544 0 0.2502225 0.5727943 0 0.2589641 0.814321 0 0.1911757 0.4465933 0 0.2307571 0.7806987 0 0.4714644 0.819808 0 0.1609398 0.7253429 0 0.285289 0.9190182 0 0.1886509 0.8189327 0 0.3171735 0.7617338 0 0.3300222 0.7963027 0 0.1794685 0.7112491 0 0.5392609 0.6195492 0 0.797963 0.7814929 0</float_array>
          <technique_common>
            <accessor source="#geom-ovalone400-map1-array" count="192" stride="3">
              <param name="S" type="float"/>
              <param name="T" type="float"/>
              <param name="P" type="float"/>
            </accessor>
          </technique_common>
        </source>
        <vertices id="geom-ovalone400-vertices">
          <input semantic="POSITION" source="#geom-ovalone400-positions"/>
        </vertices>
        <triangles material="greyrock_1" count="334">
          <input semantic="VERTEX" source="#geom-ovalone400-vertices" offset="0"/>
          <input semantic="NORMAL" source="#geom-ovalone400-normals" offset="1"/>
          <input semantic="TEXCOORD" source="#geom-ovalone400-map1" offset="2" set="1"/>
          <p>60 0 16 57 1 25 6 2 26 73 3 27 146 4 28 72 5 29 159 6 17 74 7 35 80 8 70 164 9 31 5 10 90 1 11 91 68 12 1 19 13 77 52 14 23 13 15 0 114 16 3 113 17 4 27 18 10 141 19 21 155 20 22 50 21 183 40 22 30 118 23 32 157 24 71 51 25 73 80 8 70 51 25 73 40 22 30 80 8 70 119 26 2 4 27 151 52 14 23 120 28 60 148 29 59 4 27 151 123 30 110 55 31 6 122 32 7 83 33 12 46 34 13 30 35 132 46 34 13 83 33 12 8 36 14 97 37 93 33 38 94 32 39 37 59 40 95 5 10 90 130 41 96 167 42 97 59 40 95 60 0 16 57 1 25 130 41 96 5 10 90 132 43 98 131 44 99 33 38 94 35 45 100 101 46 102 131 44 99 34 47 142 36 48 33 11 49 36 100 50 15 94 51 18 153 52 19 135 53 103 136 54 104 101 46 102 135 53 103 61 55 105 137 56 111 61 55 105 96 57 112 146 4 28 138 58 20 62 59 24 139 60 53 126 61 8 28 62 9 125 63 34 126 61 8 56 64 74 141 19 75 141 19 75 56 64 74 16 65 114 0 66 113 143 67 116 65 68 148 32 39 37 91 69 38 17 70 39 66 71 40 144 72 41 39 73 42 144 72 41 66 71 40 68 12 1 108 74 43 110 75 44 68 12 1 145 76 45 56 64 74 53 77 46 109 78 47 23 79 48 110 75 44 23 79 48 70 80 49 71 81 50 107 82 51 102 83 52 70 80 49 70 80 49 102 83 52 71 81 50 12 84 54 80 8 55 44 85 56 140 86 121 72 5 29 146 4 28 138 58 20 111 87 57 72 5 58 148 29 59 120 28 60 75 88 61 147 89 62 44 85 56 149 90 63 112 91 64 149 90 63 44 85 56 26 92 65 30 35 132 13 15 0 149 90 63 150 93 66 152 94 69 76 95 79 152 94 69 150 93 66 13 15 0 63 96 81 114 16 3 114 16 3 63 96 81 14 97 82 63 96 81 128 98 84 14 97 82 78 99 85 48 100 86 154 101 101 106 102 72 50 21 183 118 23 32 50 21 183 39 73 42 156 103 92 117 104 146 158 105 107 7 106 143 148 29 59 74 7 35 79 107 127 156 103 92 81 108 161 159 6 17 122 32 7 82 109 190 20 110 163 160 111 76 19 13 77 121 112 78 161 113 80 52 14 23 19 13 77 82 109 190 83 33 12 121 112 78 122 32 7 54 114 83 83 33 12 2 115 108 28 62 9 124 116 109 53 77 46 29 117 166 123 30 110 25 118 129 85 119 130 86 120 131 30 35 132 86 120 131 160 111 76 84 121 168 128 98 84 8 36 14 84 121 168 127 122 106 128 98 84 163 123 133 16 65 114 162 124 115 15 125 135 3 126 136 104 127 137 165 128 138 65 68 148 90 129 139 0 66 113 21 130 140 143 67 116 134 131 141 34 47 142 7 106 143 104 127 137 93 132 144 15 125 135 94 51 158 93 132 144 166 133 165 168 134 170 167 42 97 131 44 99 133 135 173 134 131 141 96 57 112 133 135 173 97 37 93 36 48 33 92 136 117 99 137 188 98 138 187 7 106 143 140 86 121 134 131 141 92 136 117 11 49 36 99 137 188 94 51 158 42 139 174 18 140 175 168 134 170 101 46 102 18 140 175 18 140 119 151 141 120 78 99 85 12 84 54 139 60 53 157 24 122 139 60 162 62 59 164 158 105 107 102 83 52 41 142 176 164 9 31 107 82 51 43 143 118 67 144 126 23 79 48 109 78 47 70 80 49 24 145 123 45 146 124 113 17 4 14 97 82 47 147 125 115 148 152 47 147 125 49 149 153 48 100 86 22 150 87 129 151 88 3 126 136 8 36 14 83 33 12 84 121 168 10 152 67 88 153 89 89 154 68 95 155 177 60 0 16 6 2 26 60 0 16 59 40 95 57 1 25 140 86 121 7 106 143 62 59 178 50 21 183 66 71 40 39 73 42 11 49 36 67 144 126 105 156 128 52 14 23 144 72 41 68 12 1 23 79 48 71 81 50 145 76 45 72 5 58 44 85 56 147 89 62 128 98 84 2 115 108 49 149 153 159 6 17 79 107 127 74 7 35 81 108 161 148 29 59 79 107 127 86 120 131 85 119 130 161 113 80 89 154 68 88 153 89 163 123 133 31 157 134 129 151 88 89 154 68 129 151 88 22 150 87 89 154 68 41 142 176 90 129 139 57 1 25 90 129 139 64 158 179 57 1 25 38 159 150 33 38 94 21 130 140 167 42 97 95 155 177 21 130 140 167 42 97 21 130 140 33 38 94 133 135 173 96 57 112 37 160 180 17 70 39 98 138 187 97 37 93 140 86 121 96 57 112 134 131 141 78 99 85 153 52 19 18 140 119 153 52 19 94 51 18 18 140 119 1 11 91 103 161 145 102 83 52 105 156 128 106 102 72 118 23 32 67 144 126 43 143 118 106 102 72 107 82 51 108 74 43 43 143 118 107 82 51 109 78 47 108 74 43 70 80 49 109 78 47 107 82 51 145 76 45 16 65 114 56 64 74 162 124 115 16 65 114 71 81 50 74 7 154 75 88 61 24 145 123 12 84 54 44 85 56 111 87 57 24 145 123 25 118 129 45 146 124 25 118 129 26 92 65 45 146 124 45 146 124 26 92 65 13 15 0 45 146 124 13 15 0 113 17 4 14 97 82 49 149 153 47 147 125 49 149 153 155 20 11 48 100 86 154 101 101 22 150 155 3 126 156 48 100 86 22 150 155 154 101 101 48 100 86 10 152 157 22 150 155 2 115 108 27 18 5 155 20 11 116 162 171 105 156 128 117 104 146 116 162 171 117 104 146 7 106 143 50 21 183 159 6 17 40 22 30 118 23 32 40 22 30 117 104 146 119 26 2 120 28 60 4 27 151 121 112 78 83 33 12 30 35 132 20 110 163 123 30 110 122 32 7 123 30 110 29 117 166 55 31 6 122 32 7 55 31 6 54 114 83 54 114 83 55 31 6 125 63 34 29 117 166 56 64 74 126 61 8 28 62 9 27 18 167 124 116 109 124 116 109 27 18 167 2 115 108 16 65 114 88 153 89 155 20 22 41 142 176 57 1 25 5 10 90 58 163 181 93 132 144 94 51 158 59 40 95 166 133 165 5 10 90 95 155 177 167 42 97 60 0 16 167 42 97 94 51 158 59 40 95 57 1 25 59 40 95 130 41 96 132 43 98 35 45 100 131 44 99 35 45 100 9 164 182 101 46 102 9 164 182 35 45 100 133 135 173 35 45 100 132 43 98 133 135 173 34 47 142 134 131 141 36 48 33 9 164 182 135 53 103 101 46 102 135 53 103 73 3 27 136 54 104 101 46 102 136 54 104 152 94 184 73 3 27 135 53 103 137 56 111 135 53 103 9 164 182 61 55 105 137 56 111 61 55 105 146 4 28 61 55 105 9 164 182 37 160 180 61 55 105 37 160 180 96 57 112 12 84 54 138 58 20 139 60 53 138 58 185 140 86 121 62 59 178 63 96 81 46 34 13 8 36 14 27 18 167 126 61 8 141 19 75 142 165 147 0 66 113 65 68 148 65 68 148 143 67 116 64 158 179 69 166 149 38 159 150 0 66 113 32 39 37 38 159 150 91 69 38 50 21 183 106 102 72 66 71 40 39 73 42 144 72 41 4 27 151 11 49 36 92 136 117 67 144 126 106 102 72 105 156 128 67 144 126 105 156 128 34 47 142 11 49 36 52 14 23 4 27 151 144 72 41 68 12 1 66 71 40 106 102 72 106 102 72 43 143 118 68 12 1 43 143 118 108 74 43 68 12 1 108 74 43 109 78 47 110 75 44 68 12 1 110 75 44 53 77 46 0 66 113 142 165 147 69 166 149 107 82 51 67 144 126 69 166 149 107 82 51 69 166 149 102 83 52 69 166 149 142 165 147 102 83 52 110 75 44 145 76 45 53 77 46 110 75 44 23 79 48 145 76 45 103 161 145 1 11 91 104 127 137 71 81 50 16 65 114 145 76 45 103 161 145 104 127 137 71 81 50 71 81 50 104 127 137 162 124 115 44 85 56 80 8 55 112 91 64 140 86 121 138 58 185 72 5 29 138 58 20 12 84 54 111 87 57 72 5 58 111 87 57 44 85 56 73 3 27 137 56 111 146 4 28 24 145 123 112 91 64 74 7 154 112 91 64 80 8 55 74 7 154 74 7 154 148 29 59 75 88 61 75 88 61 120 28 60 25 118 129 75 88 61 25 118 129 24 145 123 73 3 191 72 5 58 149 90 63 72 5 58 147 89 62 149 90 63 112 91 64 24 145 123 113 17 4 13 15 0 30 35 132 46 34 13 73 3 27 149 90 186 136 54 104 136 54 104 149 90 186 152 94 184 113 17 4 150 93 66 149 90 63 149 90 63 112 91 64 113 17 4 150 93 66 113 17 4 77 167 159 113 17 4 114 16 3 77 167 159 151 141 120 76 95 79 150 93 66 150 93 66 77 167 159 151 141 120 115 148 152 114 16 3 14 97 82 13 15 0 46 34 13 63 96 81 115 148 152 77 167 159 114 16 3 63 96 81 8 36 14 128 98 84 151 141 120 77 167 159 78 99 85 77 167 159 115 148 152 78 99 85 100 50 15 153 52 19 15 125 160 78 99 85 115 148 152 47 147 125 78 99 85 47 147 125 48 100 86 153 52 19 78 99 85 154 101 101 14 97 82 128 98 84 49 149 153 49 149 153 2 115 108 155 20 11 3 126 156 15 125 160 153 52 19 3 126 156 153 52 19 154 101 101 155 20 11 10 152 157 48 100 86 117 104 146 40 22 30 51 25 73 34 47 142 105 156 128 116 162 171 105 156 128 118 23 32 117 104 146 156 103 92 39 73 42 4 27 151 117 104 146 51 25 73 158 105 107 51 25 73 157 24 71 158 105 107 40 22 30 159 6 17 80 8 70 50 21 183 156 103 92 159 6 17 156 103 92 4 27 151 81 108 161 159 6 17 81 108 161 79 107 127 81 108 161 4 27 151 148 29 59 20 110 163 82 109 190 19 13 77 68 12 1 53 77 46 19 13 77 53 77 46 20 110 163 19 13 77 53 77 46 56 64 74 29 117 166 30 35 132 160 111 76 121 112 78 160 111 76 161 113 80 19 13 77 19 13 77 82 109 190 121 112 78 82 109 190 122 32 7 83 33 12 83 33 12 54 114 83 84 121 168 125 63 34 84 121 168 54 114 83 2 115 108 127 122 106 28 62 9 127 122 106 84 121 168 28 62 9 28 62 9 84 121 168 125 63 34 20 110 163 53 77 46 123 30 110 27 18 167 28 62 9 126 61 8 126 61 8 125 63 34 55 31 6 126 61 8 55 31 6 29 117 166 25 118 129 120 28 60 85 119 130 85 119 130 120 28 60 119 26 2 30 35 132 26 92 65 86 120 131 160 111 76 86 120 131 161 113 80 26 92 65 25 118 129 86 120 131 161 113 80 85 119 130 119 26 2 161 113 80 119 26 2 52 14 23 128 98 84 127 122 106 2 115 108 155 20 22 141 19 21 87 168 169 155 20 22 87 168 169 16 65 114 87 168 169 141 19 75 16 65 114 10 152 67 155 20 22 88 153 89 163 123 133 162 124 115 31 157 134 163 123 133 31 157 134 89 154 68 163 123 133 88 153 89 16 65 114 3 126 136 31 157 134 104 127 137 104 127 137 31 157 134 162 124 115 89 154 68 22 150 87 10 152 67 31 157 134 3 126 136 129 151 88 164 9 31 41 142 176 5 10 90 41 142 176 165 128 138 90 129 139 165 128 138 142 165 147 65 68 148 90 129 139 65 68 148 64 158 179 57 1 25 64 158 179 6 2 26 6 2 26 64 158 179 21 130 140 64 158 179 143 67 116 21 130 140 0 66 113 38 159 150 21 130 140 38 159 150 32 39 37 33 38 94 67 144 126 91 69 38 69 166 149 67 144 126 92 136 117 91 69 38 92 136 117 17 70 39 91 69 38 69 166 149 91 69 38 38 159 150 7 106 143 34 47 142 116 162 171 104 127 137 1 11 91 93 132 144 15 125 135 93 132 144 58 163 181 1 11 91 5 10 90 166 133 165 166 133 165 93 132 144 1 11 91 167 42 97 42 139 174 94 51 158 59 40 95 94 51 158 166 133 165 6 2 26 21 130 140 95 155 177 18 140 175 42 139 174 167 42 97 101 46 102 168 134 170 131 44 99 131 44 99 167 42 97 33 38 94 168 134 170 18 140 175 167 42 97 9 164 182 133 135 173 37 160 180 96 57 112 140 86 121 146 4 28 134 131 141 133 135 173 36 48 33 133 135 173 132 43 98 97 37 93 132 43 98 33 38 94 97 37 93 97 37 93 32 39 37 17 70 39 17 70 39 92 136 117 98 138 187 97 37 93 98 138 187 36 48 33 99 137 188 11 49 36 36 48 33 98 138 187 99 137 188 36 48 33 100 50 15 15 125 160 58 163 172 58 163 172 94 51 18 100 50 15 18 140 175 101 46 102 76 95 189 18 140 119 76 95 79 151 141 120 76 95 189 101 46 102 152 94 184 80 8 55 12 84 54 157 24 122 157 24 71 139 60 162 158 105 107 158 105 107 62 59 164 7 106 143 102 83 52 103 161 145 71 81 50 102 83 52 142 165 147 165 128 138 102 83 52 165 128 138 41 142 176 164 9 31 1 11 91 102 83 52</p>
        </triangles>
      </mesh>
    </geometry>
    <geometry id="geom-ovalone100" name="ovalone100">
      <mesh>
        <source id="geom-ovalone100-positions">
          <float_array id="geom-ovalone100-positions-array" count="207">-2.596336 -1.583972 -0.2372571 3.810243 -1.763983 0.9101909 -2.494969 1.952699 0.6436908 2.50071 1.035823 -1.042287 -4.431968 0.5865599 0.775658 -0.4537836 2.199842 1.379575 4.290479 0.5752045 1.381965 -3.422997 -1.471282 0.9607376 -3.798647 0.7419176 -0.4184741 0.5684805 -0.6884409 2.027536 4.040086 0.4399018 -0.5641328 1.78827 -1.576803 0.2167512 -0.007092401 2.207181 -0.005120844 2.032555 1.496187 1.492229 0.5208303 -1.988932 1.325821 -1.582087 -0.6990457 -0.6112939 -4.671479 -0.4704089 0.8707125 3.061688 1.48773 -0.09112792 3.836092 -0.7988031 0.5633584 1.332576 -0.3751965 -0.7021738 -1.176356 1.723996 0.9336753 -3.039317 0.4788979 1.419459 4.555395 0.5354255 0.6417325 1.908048 1.497202 0.7683011 -2.604533 1.837411 -0.2671322 2.753436 -1.284342 1.715603 2.421141 -1.920271 0.1062066 -1.48159 1.815881 1.649125 -2.969497 -1.476466 -0.0104842 -0.01769806 0.5618913 -0.7927683 -0.7340176 -1.430732 0.8714396 1.163554 1.457323 -0.4719242 1.479499 1.70622 1.200395 3.600535 0.9608628 0.8495448 -1.767172 0.1668859 1.308979 -2.132667 2.312352 0.1936954 0.4149413 2.028466 1.563385 -3.341146 1.382066 1.294966 -0.5884297 -1.478064 0.1237818 -3.974673 -0.3717567 0.03486601 4.256967 -0.1637858 1.345794 3.50285 0.5563339 -0.7200078 -2.511493 0.3454678 -0.2778502 -1.624112 -1.8804 1.44227 4.419396 -0.4071785 0.251969 3.654523 1.133059 0.1046462 1.677622 -1.501021 0.7750403 2.374137 -1.794764 0.8636602 -2.187967 1.250165 -0.551699 3.573306 -1.68625 0.3533836 -3.140824 -1.534549 1.401992 -3.860755 0.8100936 0.3813692 -2.698546 -0.05375643 1.814703 -1.218651 1.912992 0.472761 2.571724 -1.322817 -0.3810257 -3.627154 -1.176837 0.1115634 0.8011459 1.817533 0.8762747 -0.6625716 -0.2445587 -0.6134136 -1.810574 1.809774 1.274395 4.114786 -0.6835573 0.9877884 1.19762 1.211248 1.626188 2.13255 1.667368 0.4244935 4.017749 0.1410089 -0.5987475 1.320296 -1.756048 0.2497992 -1.835558 1.596433 0.9851781 -1.633295 -1.614379 0.4395032 3.023624 -0.04041836 -0.493322 1.03304 -1.802416 1.395616 3.685263 -0.8096414 1.47536</float_array>
          <technique_common>
            <accessor source="#geom-ovalone100-positions-array" count="69" stride="3">
              <param name="X" type="float"/>
              <param name="Y" type="float"/>
              <param name="Z" type="float"/>
            </accessor>
          </technique_common>
        </source>
        <source id="geom-ovalone100-normals">
          <float_array id="geom-ovalone100-normals-array" count="207">0.007091819 0.7058741 -0.7083018 -0.1593189 0.2082275 -0.9650175 0.07896822 0.2213519 -0.9719914 0.1453644 -0.8651104 0.4800553 0.1812833 -0.3871267 0.9040294 -8.79821e-4 -0.1362856 0.9906693 0.08983659 -0.9596915 -0.266311 -0.04817221 -0.2486961 -0.9673829 0.01387558 -0.3855168 -0.9225965 0.3318309 0.9196638 0.2100161 0.9151021 0.4030059 0.01320237 0.3950022 0.9045971 -0.1602413 -0.6118785 -0.2124888 -0.7618749 -0.5575982 0.3044189 -0.772278 0.004827195 -0.2051343 -0.9787219 0.1522988 0.2889482 0.9451529 -0.1989845 0.589274 0.7830461 -0.3220992 0.9143175 0.2455109 -0.5461989 0.5725602 0.6114258 0.01079007 0.9308701 -0.3651908 0.3184052 0.9200917 0.2281432 0.7918109 -0.5346361 -0.2952956 0.6391928 0.3605068 -0.679314 0.6019151 0.4535991 0.6572261 -0.5327939 -0.6092843 -0.5872847 -0.3828152 -0.6969989 0.6063374 -0.9564187 -0.2097634 0.2031321 -0.01345238 -0.9378377 -0.3468132 0.04175514 -0.8782011 -0.4764654 -0.3409648 0.6573238 -0.6720627 -0.08495567 -0.7037233 0.7053765 -0.009534629 0.2376302 0.9713089 -0.1113708 -0.8816797 0.4585166 -0.2882087 0.1861256 0.9393046 0.1401314 -0.5776959 -0.8041335 0.6745552 -0.5851662 -0.4500621 0.6016037 -0.5437851 -0.5851246 -0.1544185 -0.9052671 -0.3957858 0.2029984 -0.258279 -0.9445018 -0.1210894 -0.9925056 0.01643389 0.7205549 -0.6669786 0.1895792 0.02570962 0.8277608 0.5604918 0.1749011 0.9839263 0.03603516 -0.05291416 0.008474945 -0.9985631 -0.1681066 0.9835414 -0.06623029 -0.1437899 0.9831045 -0.1132694 -0.05923055 0.9966137 0.05703323 0.0426347 -0.9854184 0.1647201 -0.1292807 -0.9750987 -0.1801918 -0.3234734 -0.7769943 -0.5400414 -0.8745071 0.4380561 0.2081928 0.2846018 0.2023589 -0.9370447 0.1807978 0.3522879 -0.9182622 0.5375479 0.8258467 -0.1703507 0.5563943 -0.2968886 0.7760686 0.329052 0.7802283 -0.5319477 0.1947325 0.9764961 -0.09238384 0.3184579 0.9476655 -0.02268874 0.7428243 -0.2378485 0.6258118 0.6868078 -0.7044995 0.178817 0.2481233 0.9361011 0.249298 0.2130049 0.7691404 0.6025379 0.3439715 0.5189456 0.7825465 -0.5408778 0.8288025 -0.1433095 -0.1450893 -0.8972103 -0.4170885 -0.1404213 -0.8829408 0.4479925 -0.3403889 -0.6862205 -0.642835 -0.8878032 -0.2636065 0.3772494 0.4790101 -0.3474889 -0.8061022</float_array>
          <technique_common>
            <accessor source="#geom-ovalone100-normals-array" count="69" stride="3">
              <param name="X" type="float"/>
              <param name="Y" type="float"/>
              <param name="Z" type="float"/>
            </accessor>
          </technique_common>
        </source>
        <source id="geom-ovalone100-map1">
          <float_array id="geom-ovalone100-map1-array" count="249">0.4502271 0.6225646 0 0.7051108 0.652722 0 0.5865299 0.3431292 0 0.5098658 0.3801231 0 0.4546829 0.2303987 0 0.65114 0.3120682 0 0.5997686 0.5311176 0 0.8477274 0.3907335 0 0.8064135 0.4194986 0 0.7776051 0.816931 0 0.3955175 0.264378 0 0.2230687 0.5369269 0 0.2617939 0.9018874 0 0.4787363 0.8455655 0 0.2494454 0.5016972 0 0.3331102 0.8190236 0 0.2801634 0.6873754 0 0.3250058 0.6647695 0 0.3090002 0.7130155 0 0.5026625 0.7479769 0 0.3998967 0.4380756 0 0.3824858 0.4916357 0 0.3573286 0.4221615 0 0.2676354 0.5229781 0 0.7556311 0.8149568 0 0.6565075 0.8274093 0 0.7332892 0.7597924 0 0.7855587 0.780921 0 0.5718867 0.7981786 0 0.8213301 0.7148541 0 0.5953404 0.683224 0 0.509981 0.8578384 0 0.4671065 0.8963278 0 0.5669004 0.6791731 0 0.5331922 0.6420338 0 0.8474975 0.6213033 0 0.5560528 0.7229947 0 0.5587755 0.5336096 0 0.7346772 0.4099251 0 0.2803819 0.2969948 0 0.229596 0.4980352 0 0.1958285 0.5378239 0 0.2705648 0.7267056 0 0.2531013 0.7461427 0 0.5863281 0.4173602 0 0.5699258 0.3882815 0 0.5202491 0.4898502 0 0.2689914 0.6245429 0 0.4238999 0.3208717 0 0.8814297 0.5565217 0 0.3009269 0.8543971 0 0.6999483 0.8577375 0 0.6326295 0.7321315 0 0.6609927 0.468871 0 0.5852081 0.7287643 0 0.5912338 0.6529649 0 0.3437581 0.3419181 0 0.3004793 0.3365443 0 0.2030805 0.390018 0 0.2862873 0.4138252 0 0.2412797 0.6562758 0 0.3749663 0.87633 0 0.2107792 0.4545003 0 0.4321584 0.8350372 0 0.255015 0.579714 0 0.7003857 0.5245204 0 0.754465 0.3273877 0 0.7677505 0.5619726 0 0.5466645 0.7956306 0 0.3840169 0.9310616 0 0.4974414 0.4035517 0 0.5428252 0.3406611 0 0.5647659 0.475792 0 0.3767957 0.8379867 0 0.8964093 0.4041523 0 0.1811577 0.618807 0 0.259841 0.8136236 0 0.1676629 0.4717117 0 0.4773906 0.8091724 0 0.2971437 0.9244585 0 0.2009507 0.8308169 0 0.1819424 0.727455 0 0.542287 0.6086138 0</float_array>
          <technique_common>
            <accessor source="#geom-ovalone100-map1-array" count="83" stride="3">
              <param name="S" type="float"/>
              <param name="T" type="float"/>
              <param name="P" type="float"/>
            </accessor>
          </technique_common>
        </source>
        <vertices id="geom-ovalone100-vertices">
          <input semantic="POSITION" source="#geom-ovalone100-positions"/>
        </vertices>
        <triangles material="greyrock" count="134">
          <input semantic="VERTEX" source="#geom-ovalone100-vertices" offset="0"/>
          <input semantic="NORMAL" source="#geom-ovalone100-normals" offset="1"/>
          <input semantic="TEXCOORD" source="#geom-ovalone100-map1" offset="2" set="1"/>
          <p>31 0 35 29 1 67 42 2 38 67 3 34 25 4 19 9 5 0 63 6 55 57 7 65 19 8 1 23 9 42 22 10 61 17 11 76 39 12 5 8 13 66 15 14 53 60 15 17 9 5 0 25 4 19 27 16 23 2 17 62 37 18 59 31 0 81 12 19 75 61 20 43 44 21 32 10 22 69 22 10 61 25 4 19 6 23 73 60 15 17 55 24 71 50 25 70 16 26 48 63 6 55 30 27 37 38 28 6 37 18 59 2 17 62 24 29 58 12 19 49 31 0 35 42 2 38 34 30 21 52 31 20 43 32 46 9 5 0 27 16 23 21 33 22 61 20 43 17 11 76 31 0 81 66 34 26 18 35 25 19 8 1 49 36 28 26 37 54 54 38 52 47 39 36 1 40 68 67 3 34 12 19 75 53 41 41 56 42 60 48 43 8 35 44 74 12 19 49 9 5 0 60 15 17 27 16 23 20 45 11 5 46 64 56 42 60 14 47 82 30 27 37 46 48 33 52 31 20 50 25 70 43 32 46 63 6 55 38 28 6 57 7 65 15 14 53 28 49 45 39 12 5 52 31 20 16 26 48 50 25 70 8 13 39 39 12 10 4 50 56 41 51 12 3 52 80 45 53 50 45 53 50 22 10 61 10 22 79 18 35 25 49 36 28 54 38 52 68 54 78 1 40 68 18 35 31 19 8 1 29 1 67 3 52 29 19 8 1 3 52 29 66 34 26 58 55 14 64 56 40 2 17 62 12 19 75 35 44 77 53 41 41 27 16 23 37 18 59 21 33 22 4 50 56 16 26 48 21 33 22 33 57 15 60 15 17 6 23 73 40 58 63 59 59 13 22 10 61 32 60 16 36 61 47 60 15 17 13 62 18 33 57 15 32 60 16 42 2 38 48 43 8 12 19 49 8 13 39 51 63 57 24 29 58 68 54 78 25 4 19 1 40 68 67 3 34 1 40 68 25 4 19 54 38 52 26 37 54 11 64 30 46 48 33 47 39 36 67 3 34 58 55 14 2 17 62 27 16 23 27 16 23 60 15 17 36 61 47 28 49 45 65 65 72 30 27 37 0 66 44 28 49 45 15 14 53 57 7 65 38 28 6 15 14 53 42 2 38 57 7 65 15 14 53 14 47 82 7 67 3 30 27 37 7 67 3 28 49 45 30 27 37 3 52 29 29 1 67 31 0 35 17 11 76 3 52 80 31 0 81 23 9 42 32 60 16 33 57 15 61 20 43 12 19 75 56 42 60 22 10 61 23 9 42 33 57 15 6 23 73 22 10 61 33 57 15 21 33 22 34 30 21 9 5 0 9 5 0 34 30 21 43 32 46 24 29 58 2 17 62 35 44 77 53 41 41 35 44 77 2 17 62 27 16 23 36 61 47 5 46 64 36 61 47 56 42 60 5 46 64 24 29 58 51 63 57 37 18 59 21 33 22 37 18 59 4 50 56 38 28 6 30 27 37 65 65 72 38 28 6 0 66 44 15 14 53 39 12 10 55 24 4 16 26 48 4 50 56 39 12 10 16 26 48 6 23 73 40 58 63 22 10 61 6 23 73 25 4 19 40 58 63 62 68 24 18 35 25 66 34 26 45 53 50 10 22 79 41 51 12 15 14 53 8 13 66 42 2 38 42 2 38 8 13 66 24 29 7 9 5 0 43 32 46 67 3 34 43 32 46 7 67 3 14 47 82 18 35 25 62 68 24 44 21 51 68 54 78 18 35 31 59 59 13 45 53 50 17 11 76 22 10 61 3 52 80 17 11 76 45 53 50 46 48 33 11 64 30 47 39 36 46 48 33 30 27 37 63 6 55 47 39 36 26 37 54 1 40 68 11 64 30 26 37 54 47 39 36 24 29 7 48 43 8 42 2 38 24 29 7 35 44 74 48 43 8 1 40 68 49 36 28 18 35 31 26 37 54 49 36 28 1 40 68 43 32 46 50 25 70 7 67 3 7 67 3 50 25 70 55 24 71 37 18 59 51 63 57 4 50 56 4 50 56 51 63 57 8 13 39 21 33 22 16 26 48 52 31 20 34 30 21 21 33 22 52 31 20 53 41 41 2 17 62 64 56 40 20 45 11 56 42 60 53 41 41 54 38 52 19 8 1 18 35 25 54 38 52 11 64 30 19 8 1 55 24 71 28 49 45 7 67 3 28 49 45 55 24 2 39 12 5 36 61 47 32 60 16 56 42 60 23 9 42 56 42 60 32 60 16 29 1 67 57 7 65 42 2 38 19 8 1 57 7 65 29 1 67 58 55 14 5 46 64 20 45 11 27 16 23 5 46 64 58 55 14 59 59 13 44 21 32 22 10 61 44 21 32 59 59 13 18 35 31 32 60 16 60 15 17 13 62 18 33 57 15 13 62 18 60 15 17 17 11 76 61 20 43 23 9 42 23 9 42 61 20 43 56 42 60 10 22 9 62 68 24 41 51 27 62 68 24 10 22 9 44 21 51 63 6 55 11 64 30 46 48 33 11 64 30 63 6 55 19 8 1 58 55 14 20 45 11 64 56 40 20 45 11 53 41 41 64 56 40 65 65 72 0 66 44 38 28 6 0 66 44 65 65 72 28 49 45 41 51 27 66 34 26 3 52 29 41 51 27 62 68 24 66 34 26 43 32 46 14 47 82 67 3 34 67 3 34 14 47 82 46 48 33 25 4 19 68 54 78 40 58 63 68 54 78 59 59 13 40 58 63</p>
        </triangles>
      </mesh>
    </geometry>
    <geometry id="geom-ovalone200" name="ovalone200">
      <mesh>
        <source id="geom-ovalone200-positions">
          <float_array id="geom-ovalone200-positions-array" count="336">-2.596336 -1.582967 -0.2372571 3.810243 -1.762978 0.9101908 -2.494969 1.953704 0.6436907 2.50071 1.036828 -1.042287 -4.431968 0.5875642 0.775658 -0.4537836 2.200847 1.379575 4.290479 0.5762103 1.381965 -3.422997 -1.470277 0.9607376 -3.798647 0.7429229 -0.4184742 0.5684805 -0.6874356 2.027537 4.040087 0.4409071 -0.5641328 1.78827 -1.575798 0.2167512 -0.007092401 2.208187 -0.005120844 2.032555 1.497192 1.492229 0.5208303 -1.987927 1.325821 -1.582087 -0.6980404 -0.6112939 -4.671479 -0.4694036 0.8707125 3.061688 1.488735 -0.09112791 3.836092 -0.7977978 0.5633584 1.332576 -0.3741912 -0.7021739 -1.176356 1.725002 0.9336753 -3.039317 0.4799032 1.419459 4.555395 0.5364308 0.6417325 1.908048 1.498207 0.7683011 -2.604533 1.838416 -0.2671322 2.753436 -1.283337 1.715603 2.421141 -1.919266 0.1062066 -1.48159 1.816886 1.649125 -2.969498 -1.47546 -0.0104842 -0.01769806 0.5628966 -0.7927684 -0.7340175 -1.429726 0.8714396 1.163553 1.458328 -0.4719242 1.479498 1.707226 1.200395 3.600535 0.9618685 0.8495448 -1.767172 0.1678912 1.308979 -2.132667 2.313358 0.1936954 0.4149413 2.029472 1.563385 -3.341146 1.383071 1.294966 -0.5884297 -1.477059 0.1237818 -3.974673 -0.3707514 0.03486601 4.256967 -0.1627805 1.345794 3.50285 0.5573392 -0.7200079 -2.511493 0.3464731 -0.2778502 -1.624112 -1.879395 1.44227 4.419396 -0.4061732 0.251969 3.654522 1.134064 0.1046462 1.677622 -1.500015 0.7750402 2.374137 -1.793758 0.8636601 -2.187968 1.25117 -0.551699 3.573306 -1.685245 0.3533836 -3.140824 -1.533544 1.401992 -3.860755 0.8110989 0.3813692 -2.698546 -0.05275114 1.814703 -1.218651 1.913997 0.4727609 2.571724 -1.321811 -0.3810257 -3.627154 -1.175832 0.1115634 0.801146 1.818538 0.8762746 -0.6625715 -0.2435534 -0.6134137 -1.810574 1.810779 1.274395 4.114786 -0.682552 0.9877883 1.19762 1.212253 1.626188 2.13255 1.668373 0.4244935 4.01775 0.1420141 -0.5987475 1.320296 -1.755043 0.2497992 -1.835558 1.597438 0.9851781 -1.633295 -1.613373 0.4395032 3.023624 -0.03941307 -0.493322 1.03304 -1.801411 1.395616 3.685263 -0.8086361 1.47536 -2.035592 0.8432266 1.678969 -4.095357 0.08294201 0.03535701 2.413078 1.633648 -0.2748684 -0.8292335 -0.7595409 -0.269867 2.774179 1.530476 1.173533 3.816138 -1.046017 0.8668731 3.463402 0.8264123 1.169408 -2.892378 -1.212223 -0.2472736 2.269195 -0.3499906 -0.4781068 3.365791 0.8436588 -0.2291002 0.2268363 1.979107 -0.2340321 0.3192242 -1.523964 0.6779796 2.399048 1.401623 -0.5815698 -2.347542 1.755328 1.096472 1.561957 1.504272 -0.3705859 -3.239526 1.452052 -0.2878243 -1.034089 -0.3538101 1.601818 -1.757428 -1.332959 -0.3351226 2.62822 1.155125 0.6488149 -3.811596 1.076163 -0.0631908 -0.4023873 2.017582 0.9803569 4.070579 0.8315394 1.185509 2.007612 0.7340773 1.561322 3.025566 0.9651951 -0.8405348 -1.043264 2.082572 1.599301 0.7707999 0.7693825 -0.717766 3.566816 -1.849713 1.041378 -3.933757 -1.069509 1.260327 3.839316 -1.385963 0.5862467 4.350476 0.2371794 -0.2909427 -2.983071 0.3792565 -0.4503154 1.030703 1.792518 1.49399 0.2264899 -0.4089323 1.900965 -4.232517 0.06396376 0.5781267 -2.222201 -0.7029424 -0.4284907 2.666799 1.213242 1.489775 -0.1423773 1.142486 1.60383 3.168072 -1.89476 0.4333442 -2.681702 -1.430852 0.3509643 -2.219172 -1.764791 1.021407 -2.174812 -1.391695 0.7835389 3.333216 1.291245 1.074848 2.019779 -1.586159 0.5154132</float_array>
          <technique_common>
            <accessor source="#geom-ovalone200-positions-array" count="112" stride="3">
              <param name="X" type="float"/>
              <param name="Y" type="float"/>
              <param name="Z" type="float"/>
            </accessor>
          </technique_common>
        </source>
        <source id="geom-ovalone200-normals">
          <float_array id="geom-ovalone200-normals-array" count="336">-0.03683923 0.5401085 -0.8407887 -0.1207241 0.2117901 -0.9698302 0.2158815 0.103411 -0.9709281 0.1401696 -0.8656539 0.4806203 0.1719189 -0.3416654 0.9239635 -0.02660278 -0.05822935 0.9979488 0.04551252 -0.9603046 -0.2752155 -0.05945606 -0.2696055 -0.9611336 -0.01526361 -0.3444811 -0.9386692 0.3689827 0.9277263 -0.05635313 0.9148025 0.4031942 0.02389129 0.4389649 0.8827387 -0.1675776 -0.5944706 -0.1545191 -0.7891315 -0.7915633 -0.09797914 -0.6031812 -0.0422818 -0.5831599 -0.8112563 0.1104487 0.0891116 0.9898789 -0.2386192 0.5087903 0.8271598 -0.06086196 0.9616495 0.2674436 -0.5343853 0.5691767 0.6248761 0.09253427 0.8673482 -0.489024 0.04849195 0.9822825 -0.1810236 0.371867 0.8949114 0.246675 0.7736403 -0.5779938 -0.2596225 0.856926 0.08713925 -0.5080203 0.5977634 0.3726003 0.7098225 -0.5297931 -0.665155 -0.5262016 -0.5975301 -0.5328329 0.5992053 -0.9756005 -0.1485062 0.1617078 -0.09169114 -0.980251 -0.1752162 0.05688668 -0.8287321 -0.556747 -0.2976392 0.9069409 0.2981092 -0.2741756 0.7349275 -0.6202494 0.05848998 0.5647806 -0.8231658 -0.1240058 0.1363125 0.9828741 -0.07464682 0.2466687 0.9662207 -0.1081904 -0.8159289 0.5679391 -0.1093068 0.1836488 0.9768957 -0.2122059 -0.1054232 0.9715219 0.1659224 0.9559091 -0.2422963 0.1406835 -0.5612856 -0.8155775 0.6583542 -0.5294983 -0.5349779 0.2877827 -0.2604234 -0.9216077 0.5889724 -0.5225042 -0.6165233 -0.1858637 -0.9006826 -0.3927156 0.1970255 -0.3571167 -0.9130437 -0.1796074 -0.9815138 -0.06612007 0.3370426 -0.8433171 0.4185912 0.0257096 0.8277608 0.5604917 0.1849401 0.9808494 0.06108663 0.05798366 0.08447864 -0.9947368 -0.1736173 0.9828145 -0.06271152 0.07976709 0.1297738 0.9883298 -0.04810402 0.6811093 -0.7305998 -0.01635503 0.9993882 0.03091442 0.05322815 -0.9722514 0.2278023 -0.1009924 -0.9843247 -0.1445868 -0.1730584 -0.1751862 -0.9692062 -0.2994952 -0.3774859 -0.876246 -0.8418289 -0.01337995 -0.5395787 -0.8871586 0.4348512 0.1544478 0.5183993 0.6007529 -0.6085706 0.1718268 0.782393 -0.5986124 0.2975523 0.758808 -0.579373 0.5040779 0.8327367 -0.2290306 0.5483719 0.4252247 -0.7200502 0.5312642 -0.2770693 0.8006191 0.7682727 -0.6230908 0.1466795 0.9681401 -0.231795 0.09474133 -0.04681509 0.1864725 -0.9813442 0.1280153 0.3031376 -0.9443092 -0.1563185 0.9617797 -0.2248211 0.03813924 0.9989902 -0.02374682 -0.2769464 0.1814142 0.9436045 0.2972555 0.6689144 0.681317 0.7428241 -0.2378485 0.6258117 0.7895552 -0.584402 0.1872885 0.1691295 0.9186623 0.3570082 0.3165139 0.6990163 0.6412449 0.06486495 0.1376857 0.9883497 0.3004628 0.2268506 0.9264238 0.587378 0.8075668 0.05313047 0.3653773 0.9262481 0.0925418 -0.5735918 0.1221869 -0.809977 -0.7388974 0.6732293 -0.02815883 -0.4779999 0.6470721 -0.5939813 -0.04878367 -0.8504922 -0.5237205 -0.1505256 -0.9870922 0.05468976 -0.01480742 -0.9950826 0.09793601 -0.0763492 -0.9451691 -0.3175315 0.1206292 -0.5516924 -0.8252782 0.08703225 -0.513723 -0.8535303 -0.1267376 -0.8708795 -0.4748753 -0.005399628 -0.9616229 -0.2743212 -0.4039515 -0.9120674 -0.07040191 0.3792259 0.9091836 -0.1719674 0.2876187 0.8756851 0.3878802 -0.06915745 0.05875167 0.9958742 0.2464305 0.7277884 0.6399969 -0.1775192 0.7891586 0.5879759 -0.7442792 0.6519123 -0.1451165 0.3659894 -0.3756324 -0.8514411 0.2937431 0.2328924 -0.9270794 0.08275351 0.1480795 -0.9855071 -0.3036829 -0.9486831 0.08818734 0.1817829 -0.9558287 -0.2309687 0.9243231 -0.1124638 -0.3646624 -0.2310894 -0.5107841 0.8280684 -0.182271 0.9693549 -0.1647066 0.3262781 0.9447985 0.02997404 0.1027362 0.6226529 0.7757246 -0.3400622 -0.7760841 -0.5310849 -0.003281978 -0.9446575 -0.3280418</float_array>
          <technique_common>
            <accessor source="#geom-ovalone200-normals-array" count="112" stride="3">
              <param name="X" type="float"/>
              <param name="Y" type="float"/>
              <param name="Z" type="float"/>
            </accessor>
          </technique_common>
        </source>
        <source id="geom-ovalone200-map1">
          <float_array id="geom-ovalone200-map1-array" count="390">0.4502271 0.6225646 0 0.7051108 0.652722 0 0.5865299 0.3431292 0 0.5296532 0.4506172 0 0.5098658 0.3801231 0 0.5604062 0.4061019 0 0.4546829 0.2303987 0 0.65114 0.3120682 0 0.5691131 0.5968938 0 0.5997686 0.5311176 0 0.8477274 0.3907335 0 0.5158739 0.8343614 0 0.8064135 0.4194986 0 0.7776051 0.816931 0 0.3955175 0.264378 0 0.2230687 0.5369269 0 0.2286891 0.8567826 0 0.2689272 0.866342 0 0.2617939 0.9018874 0 0.4787363 0.8455655 0 0.2494454 0.5016972 0 0.3331102 0.8190236 0 0.5490561 0.4415272 0 0.3514512 0.8022788 0 0.2801634 0.6873754 0 0.3250058 0.6647695 0 0.3090002 0.7130155 0 0.5026625 0.7479769 0 0.434537 0.6045712 0 0.4231384 0.5307911 0 0.3998967 0.4380756 0 0.3824858 0.4916357 0 0.332972 0.4802196 0 0.3573286 0.4221615 0 0.2676354 0.5229781 0 0.7593029 0.8408633 0 0.7556311 0.8149568 0 0.6565075 0.8274093 0 0.7332892 0.7597924 0 0.7855587 0.780921 0 0.5718867 0.7981786 0 0.5690408 0.7712163 0 0.8213301 0.7148541 0 0.7048415 0.7156444 0 0.5953404 0.683224 0 0.789282 0.6092558 0 0.3504318 0.2821591 0 0.509981 0.8578384 0 0.4671065 0.8963278 0 0.4725274 0.3582843 0 0.5669004 0.6791731 0 0.5331922 0.6420338 0 0.8474975 0.6213033 0 0.5560528 0.7229947 0 0.6557094 0.5157083 0 0.5587755 0.5336096 0 0.6113205 0.4607725 0 0.7346772 0.4099251 0 0.2803819 0.2969948 0 0.2720642 0.3280032 0 0.372157 0.3080964 0 0.229596 0.4980352 0 0.2418244 0.4679667 0 0.1958285 0.5378239 0 0.2705648 0.7267056 0 0.2531013 0.7461427 0 0.7317225 0.3798771 0 0.2000569 0.7438154 0 0.2205677 0.7998492 0 0.5863281 0.4173602 0 0.5981724 0.3885452 0 0.5699258 0.3882815 0 0.5202491 0.4898502 0 0.2689914 0.6245429 0 0.4238999 0.3208717 0 0.329264 0.7488741 0 0.8814297 0.5565217 0 0.3009269 0.8543971 0 0.6999483 0.8577375 0 0.6326295 0.7321315 0 0.6609927 0.468871 0 0.3595272 0.7126068 0 0.5520222 0.8206724 0 0.5852081 0.7287643 0 0.5755413 0.6956952 0 0.5912338 0.6529649 0 0.3437581 0.3419181 0 0.3004793 0.3365443 0 0.2030805 0.390018 0 0.2252665 0.3500687 0 0.2862873 0.4138252 0 0.2627853 0.5486211 0 0.2412797 0.6562758 0 0.3589998 0.8353626 0 0.3749663 0.87633 0 0.2107792 0.4545003 0 0.4321584 0.8350372 0 0.255015 0.579714 0 0.3294705 0.5897972 0 0.2793891 0.6566281 0 0.5444186 0.7907537 0 0.7003857 0.5245204 0 0.6500343 0.4257888 0 0.754465 0.3273877 0 0.8130686 0.3546648 0 0.6949242 0.303934 0 0.7677505 0.5619726 0 0.5466645 0.7956306 0 0.4136822 0.937225 0 0.3840169 0.9310616 0 0.4974414 0.4035517 0 0.5428252 0.3406611 0 0.5647659 0.475792 0 0.3767957 0.8379867 0 0.8964093 0.4041523 0 0.2941305 0.7778635 0 0.1811577 0.618807 0 0.1766293 0.6478461 0 0.2375745 0.5844429 0 0.259841 0.8136236 0 0.1676629 0.4717117 0 0.2344565 0.7840313 0 0.4773906 0.8091724 0 0.2971437 0.9244585 0 0.2009507 0.8308169 0 0.3152909 0.7549239 0 0.3319278 0.7887573 0 0.1819424 0.727455 0 0.542287 0.6086138 0 0.8165146 0.7496462 0</float_array>
          <technique_common>
            <accessor source="#geom-ovalone200-map1-array" count="130" stride="3">
              <param name="S" type="float"/>
              <param name="T" type="float"/>
              <param name="P" type="float"/>
            </accessor>
          </technique_common>
        </source>
        <vertices id="geom-ovalone200-vertices">
          <input semantic="POSITION" source="#geom-ovalone200-positions"/>
        </vertices>
        <triangles material="greyrock" count="220">
          <input semantic="VERTEX" source="#geom-ovalone200-vertices" offset="0"/>
          <input semantic="NORMAL" source="#geom-ovalone200-normals" offset="1"/>
          <input semantic="TEXCOORD" source="#geom-ovalone200-map1" offset="2" set="1"/>
          <p>31 0 52 29 1 106 42 2 57 67 3 51 25 4 27 9 5 0 63 6 85 57 7 101 19 8 1 87 9 115 22 10 94 17 11 119 39 12 7 70 13 105 15 14 80 91 15 81 9 5 0 25 4 27 27 16 34 82 17 62 37 18 90 83 19 67 12 20 116 61 21 65 44 22 48 98 23 108 22 10 94 25 4 27 6 24 113 91 15 81 55 25 111 96 26 49 16 27 74 63 6 85 80 28 8 38 29 9 37 18 90 2 30 95 24 31 88 79 32 76 31 0 52 42 2 57 85 33 29 52 34 30 43 35 72 101 36 28 27 16 34 69 37 32 61 21 65 71 38 121 83 19 67 66 39 38 18 40 37 77 41 43 49 42 40 26 43 83 54 44 79 47 45 53 95 46 100 67 3 51 12 20 116 53 47 63 56 48 92 48 49 12 35 50 114 79 32 76 101 36 28 91 15 81 105 51 98 89 52 118 5 53 97 56 48 92 14 54 128 80 28 8 46 55 50 52 34 30 96 26 49 43 35 72 63 6 85 38 29 9 57 7 101 103 56 102 76 57 70 39 12 7 52 34 30 16 27 74 96 26 49 70 13 46 102 58 60 4 59 86 92 60 16 81 61 68 78 62 17 45 63 77 22 10 94 10 64 123 18 40 37 49 42 40 54 44 79 68 65 122 1 66 107 74 67 11 19 8 1 94 68 45 3 69 42 77 41 43 3 69 42 66 39 38 58 70 20 64 71 61 82 17 62 12 20 116 35 50 120 53 47 63 27 16 34 37 18 90 21 72 33 4 59 86 16 27 74 21 72 33 75 73 23 91 15 81 6 24 113 40 74 96 59 75 19 22 10 94 32 76 24 100 77 99 60 78 25 104 79 75 110 80 126 73 81 125 42 2 57 48 49 12 79 32 76 8 82 58 88 83 59 84 84 89 68 65 122 25 4 27 95 46 100 67 3 51 95 46 100 25 4 27 54 44 79 26 43 83 11 85 44 46 55 50 47 45 53 67 3 51 58 70 20 82 17 62 27 16 34 105 51 98 60 78 25 100 77 99 107 86 5 65 87 112 109 88 22 86 89 56 76 57 70 103 56 102 57 7 101 38 29 9 72 90 54 42 2 57 57 7 101 15 14 80 14 54 128 108 91 3 30 92 55 7 93 4 107 86 5 109 88 22 3 69 42 94 68 45 31 0 52 71 38 121 81 61 68 83 19 67 87 9 115 73 81 125 33 94 21 61 21 65 12 20 116 56 48 92 22 10 94 87 9 115 33 94 21 90 95 93 22 10 94 33 94 21 69 37 32 34 96 31 101 36 28 9 5 0 85 33 29 43 35 72 24 31 88 2 30 95 35 50 120 53 47 63 35 50 120 2 30 95 27 16 34 36 97 73 93 98 91 36 97 73 56 48 92 5 53 97 84 84 89 51 99 87 37 18 90 21 72 33 37 18 90 4 59 86 38 29 9 80 28 8 65 87 112 38 29 9 86 89 56 72 90 54 39 12 14 55 25 6 16 27 74 4 59 86 102 58 60 16 27 74 6 24 113 40 74 96 22 10 94 6 24 113 25 4 27 40 74 96 62 100 36 18 40 37 66 39 38 45 63 77 10 64 123 41 101 18 15 14 80 8 82 103 99 102 66 99 102 66 8 82 103 84 84 104 9 5 0 43 35 72 67 3 51 43 35 72 108 91 3 14 54 128 18 40 37 62 100 36 44 22 78 68 65 122 74 67 11 59 75 19 45 63 77 17 11 119 22 10 94 81 61 68 17 11 119 78 62 17 46 55 50 111 103 84 47 45 53 46 55 50 80 28 8 63 6 85 47 45 53 106 104 41 95 46 100 111 103 84 26 43 83 47 45 53 84 84 104 48 49 12 99 102 66 24 31 10 35 50 114 48 49 12 1 66 107 49 42 40 97 105 82 106 104 41 49 42 40 95 46 100 43 35 72 50 106 110 108 91 3 7 93 4 96 26 49 55 25 111 37 18 90 51 99 87 4 59 86 4 59 86 51 99 87 70 13 46 21 72 33 16 27 74 52 34 30 34 96 31 21 72 33 52 34 30 53 47 63 2 30 95 64 71 61 20 107 15 56 48 92 53 47 63 54 44 79 77 41 43 18 40 37 54 44 79 11 85 44 19 8 1 55 25 111 107 86 5 7 93 4 76 57 70 55 25 2 39 12 7 100 77 99 32 76 24 56 48 92 23 108 64 56 48 92 73 81 125 29 1 106 57 7 101 42 2 57 19 8 1 57 7 101 29 1 106 58 70 20 5 53 97 89 52 118 27 16 34 93 98 91 58 70 20 59 75 19 44 22 48 22 10 94 44 22 48 59 75 19 18 40 47 32 76 24 60 78 25 13 109 26 75 73 23 104 79 75 91 15 81 71 38 121 61 21 65 87 9 115 23 108 64 61 21 65 56 48 92 10 64 13 62 100 36 41 101 39 62 100 36 98 23 35 44 22 78 63 6 85 111 103 84 46 55 50 11 85 44 63 6 85 19 8 1 58 70 20 20 107 15 64 71 61 20 107 15 53 47 63 64 71 61 65 87 112 86 89 56 38 29 9 0 110 69 65 87 112 107 86 5 41 101 39 66 39 38 3 69 42 41 101 39 62 100 36 66 39 38 43 35 72 14 54 128 67 3 51 67 3 51 14 54 128 46 55 50 25 4 27 68 65 122 40 74 96 68 65 122 59 75 19 40 74 96 34 96 31 69 37 32 21 72 33 69 37 32 27 16 34 21 72 33 88 83 59 8 82 58 70 13 46 15 14 80 70 13 105 8 82 103 81 61 68 71 38 121 17 11 119 71 38 121 87 9 115 17 11 119 72 90 54 15 14 80 57 7 101 72 90 54 86 89 56 103 56 102 73 81 125 56 48 92 32 76 24 73 81 125 32 76 24 13 109 26 59 75 19 74 67 11 18 40 47 49 42 40 18 40 47 97 105 82 104 79 75 75 73 23 110 80 126 90 95 93 33 94 21 75 73 23 76 57 70 0 110 69 107 86 5 28 111 71 55 25 111 76 57 70 3 69 42 77 41 43 19 8 1 77 41 43 54 44 79 19 8 1 17 11 119 45 63 77 78 62 17 45 63 77 41 101 18 78 62 17 35 50 120 12 20 116 79 32 117 83 19 67 79 32 117 12 20 116 14 54 128 30 92 55 80 28 8 80 28 8 30 92 55 65 87 112 81 61 68 3 69 124 83 19 67 81 61 68 92 60 16 3 69 124 37 18 90 82 17 62 2 30 95 82 17 62 64 71 61 2 30 95 83 19 67 3 69 124 31 0 127 79 32 117 83 19 67 31 0 127 84 84 104 24 31 10 48 49 12 24 31 88 84 84 89 37 18 90 85 33 29 34 96 31 52 34 30 101 36 28 34 96 31 85 33 29 65 87 112 0 110 69 86 89 56 86 89 56 0 110 69 76 57 70 61 21 65 23 108 64 87 9 115 87 9 115 23 108 64 73 81 125 51 99 87 84 84 89 88 83 59 51 99 87 88 83 59 70 13 46 58 70 20 89 52 118 20 107 15 20 107 15 89 52 118 56 48 92 22 10 94 90 95 93 6 24 113 6 24 113 90 95 93 75 73 23 91 15 81 60 78 25 105 51 98 91 15 81 104 79 75 60 78 25 92 60 129 41 101 39 3 69 42 92 60 16 78 62 17 41 101 18 93 98 91 36 97 73 5 53 97 93 98 91 5 53 97 58 70 20 94 68 45 29 1 106 31 0 52 94 68 45 19 8 1 29 1 106 1 66 107 95 46 100 49 42 40 68 65 122 95 46 100 1 66 107 50 106 110 96 26 49 7 93 4 43 35 72 96 26 49 50 106 110 74 67 11 97 105 82 18 40 47 74 67 11 1 66 107 97 105 82 98 23 108 10 64 109 22 10 94 62 100 36 10 64 13 98 23 35 42 2 57 15 14 80 99 102 66 48 49 12 42 2 57 99 102 66 36 97 73 100 77 99 56 48 92 105 51 98 100 77 99 36 97 73 101 36 28 9 5 0 91 15 81 101 36 28 85 33 29 9 5 0 16 27 74 102 58 60 39 12 14 70 13 46 39 12 14 102 58 60 103 56 102 39 12 7 15 14 80 72 90 54 103 56 102 15 14 80 13 109 26 104 79 75 73 81 125 104 79 75 13 109 26 60 78 25 101 36 28 105 51 98 27 16 34 105 51 98 36 97 73 27 16 34 26 43 83 106 104 41 47 45 53 49 42 40 106 104 41 26 43 83 76 57 70 107 86 5 28 111 71 107 86 5 55 25 111 28 111 71 7 93 4 108 91 3 50 106 110 7 93 4 109 88 22 108 91 3 30 92 55 108 91 3 109 88 22 109 88 22 65 87 112 30 92 55 73 81 125 110 80 126 33 94 21 110 80 126 75 73 23 33 94 21 63 6 85 11 85 44 111 103 84 11 85 44 26 43 83 111 103 84</p>
        </triangles>
      </mesh>
    </geometry>
    <geometry id="geom-bounds" name="bounds">
      <mesh>
        <source id="geom-bounds-positions">
          <float_array id="geom-bounds-positions-array" count="24">-4.718227 -2.019371 -1.057791 4.631277 -2.019371 -1.057791 -4.718227 2.325363 -1.057791 4.631277 2.325363 -1.057791 -4.718227 -2.019371 2.043041 4.631277 -2.019371 2.043041 -4.718227 2.325363 2.043041 4.631277 2.325363 2.043041</float_array>
          <technique_common>
            <accessor source="#geom-bounds-positions-array" count="8" stride="3">
              <param name="X" type="float"/>
              <param name="Y" type="float"/>
              <param name="Z" type="float"/>
            </accessor>
          </technique_common>
        </source>
        <source id="geom-bounds-normals">
          <float_array id="geom-bounds-normals-array" count="72">0 0 -1 0 0 -1 0 0 -1 0 0 -1 0 0 1 0 0 1 0 0 1 0 0 1 0 -1 0 0 -1 0 0 -1 0 0 -1 0 1 0 0 1 0 0 1 0 0 1 0 0 0 1 0 0 1 0 0 1 0 0 1 0 -1 0 0 -1 0 0 -1 0 0 -1 0 0</float_array>
          <technique_common>
            <accessor source="#geom-bounds-normals-array" count="24" stride="3">
              <param name="X" type="float"/>
              <param name="Y" type="float"/>
              <param name="Z" type="float"/>
            </accessor>
          </technique_common>
        </source>
        <vertices id="geom-bounds-vertices">
          <input semantic="POSITION" source="#geom-bounds-positions"/>
        </vertices>
        <triangles material="greyrock" count="12">
          <input semantic="VERTEX" source="#geom-bounds-vertices" offset="0"/>
          <input semantic="NORMAL" source="#geom-bounds-normals" offset="1"/>
          <p>0 0 2 1 3 2 3 2 1 3 0 0 4 4 5 5 7 6 7 6 6 7 4 4 0 8 1 9 5 10 5 10 4 11 0 8 1 12 3 13 7 14 7 14 5 15 1 12 3 16 2 17 6 18 6 18 7 19 3 16 2 20 0 21 4 22 4 22 6 23 2 20</p>
        </triangles>
      </mesh>
    </geometry>
    <geometry id="geom-col-1_2" name="col-1">
      <mesh>
        <source id="geom-col-1_2-positions">
          <float_array id="geom-col-1_2-positions-array" count="69">-3.7986 0.7332001 -0.4185 -2.1327 2.3036 0.1937 2.5007 1.0271 -1.0423 -4.6715 -0.4791 0.8707 -3.6272 -1.1856 0.1116 0.4149 2.0198 1.5634 0.5685 -0.6972001 2.0275 4.290501 0.5665 1.382 2.7534 -1.2931 1.7156 -1.6241 -1.8891 1.4423 3.8102 -1.7727 0.9102001 3.1681 -1.9045 0.4333 4.3505 0.2275 -0.2909 3.0617 1.479 -0.09109999 -2.5963 -1.5927 -0.2373 -2.6985 -0.0625 1.8147 -3.3411 1.3734 1.295 2.5717 -1.3315 -0.381 -4.432 0.5778 0.7757 -3.1408 -1.5433 1.402 -1.0433 2.0729 1.5993 4.5845 0.1856 0.4673 2.7742 1.5208 1.1735</float_array>
          <technique_common>
            <accessor source="#geom-col-1_2-positions-array" count="23" stride="3">
              <param name="X" type="float"/>
              <param name="Y" type="float"/>
              <param name="Z" type="float"/>
            </accessor>
          </technique_common>
        </source>
        <source id="geom-col-1_2-normals">
          <float_array id="geom-col-1_2-normals-array" count="378">-0.1087324 0.4590718 -0.8817201 -0.1087324 0.4590718 -0.8817201 -0.1087324 0.4590719 -0.8817201 -0.6747206 -0.2519293 -0.6937462 -0.6747206 -0.2519293 -0.6937462 -0.6747206 -0.2519293 -0.6937462 0.1108347 0.1734222 0.9785911 0.1108347 0.1734222 0.9785911 0.1108347 0.1734222 0.978591 0.005263867 -0.4485049 0.8937649 0.005263867 -0.4485049 0.8937649 0.005263867 -0.448505 0.8937649 0.1543492 0.04944038 0.9867786 0.1543492 0.04944038 0.9867785 0.1543492 0.04944038 0.9867786 0.5036099 -0.268992 0.8209875 0.5036099 -0.2689919 0.8209874 0.5036099 -0.2689919 0.8209874 0.04180767 -0.9760566 0.2134611 0.04180768 -0.9760566 0.2134611 0.04180767 -0.9760566 0.2134611 0.07419129 -0.8110194 0.5802958 0.07419129 -0.8110194 0.5802958 0.07419129 -0.8110194 0.5802958 0.5730202 -0.5301002 -0.6250133 0.5730202 -0.5301002 -0.6250133 0.5730202 -0.5301002 -0.6250133 0.1118821 0.8703849 -0.4794919 0.1118821 0.8703849 -0.4794919 0.1118821 0.8703849 -0.4794919 0.1520856 0.9852261 -0.07873695 0.1520856 0.9852262 -0.07873695 0.1520856 0.985226 -0.07873694 0.5101506 0.6204486 -0.5956426 0.5101505 0.6204485 -0.5956425 0.5101506 0.6204485 -0.5956426 -0.03553352 -0.9874795 -0.1536932 -0.03553352 -0.9874795 -0.1536932 -0.03553352 -0.9874795 -0.1536932 -0.4043671 -0.2769319 -0.8716628 -0.4043671 -0.2769319 -0.8716628 -0.4043671 -0.2769319 -0.8716628 -0.09202227 -0.1245337 -0.9879389 -0.09202225 -0.1245337 -0.9879389 -0.09202226 -0.1245337 -0.9879389 -0.4489385 0.1195898 0.8855239 -0.4489385 0.1195898 0.8855238 -0.4489385 0.1195898 0.8855239 0.02455974 -0.8090177 -0.5872709 0.02455974 -0.8090177 -0.5872709 0.02455974 -0.8090177 -0.5872709 -0.01310616 -0.2703101 -0.9626841 -0.01310616 -0.2703101 -0.9626841 -0.01310616 -0.2703101 -0.9626841 0.2684373 -0.2525588 -0.9295997 0.2684372 -0.2525587 -0.9295996 0.2684372 -0.2525587 -0.9295997 0.4827457 -0.509647 -0.7121913 0.4827457 -0.509647 -0.7121913 0.4827458 -0.509647 -0.7121913 -0.880566 0.1594254 -0.4463037 -0.8805659 0.1594254 -0.4463037 -0.880566 0.1594254 -0.4463037 -0.5338444 0.1949309 0.8228075 -0.5338444 0.1949309 0.8228075 -0.5338444 0.1949309 0.8228075 -0.596334 0.8023951 0.02340679 -0.596334 0.8023951 0.02340679 -0.596334 0.8023951 0.02340678 -0.6207954 0.7489166 -0.2318123 -0.6207954 0.7489166 -0.2318123 -0.6207955 0.7489166 -0.2318123 -0.09276721 -0.2960946 0.9506431 -0.0927672 -0.2960946 0.9506431 -0.0927672 -0.2960946 0.950643 -0.1088492 -0.2365726 0.9654974 -0.1088492 -0.2365727 0.9654974 -0.1088492 -0.2365726 0.9654974 -0.4052084 -0.1311288 0.9047715 -0.4052083 -0.1311288 0.9047715 -0.4052083 -0.1311288 0.9047714 -0.3955244 -0.9125625 -0.1038753 -0.3955244 -0.9125625 -0.1038753 -0.3955244 -0.9125625 -0.1038752 -0.2209625 -0.9742877 -0.04403373 -0.2209625 -0.9742877 -0.04403372 -0.2209625 -0.9742877 -0.04403373 -0.5674159 -0.8233065 -0.01434109 -0.5674159 -0.8233065 -0.01434109 -0.5674159 -0.8233065 -0.01434109 -0.2020708 0.2520915 0.9463705 -0.2020708 0.2520915 0.9463706 -0.2020708 0.2520915 0.9463705 0.03043881 0.1699684 0.9849793 0.03043881 0.1699684 0.9849793 0.03043881 0.1699684 0.9849793 -0.03921087 0.1303259 0.9906955 -0.03921087 0.1303259 0.9906955 -0.03921087 0.1303259 0.9906955 -0.3150596 0.866827 0.3864563 -0.3150596 0.866827 0.3864563 -0.3150596 0.8668269 0.3864563 0.03931928 0.9904577 0.1320889 0.03931928 0.9904578 0.132089 0.03931928 0.9904577 0.1320889 0.6732236 0.7201062 -0.167979 0.6732236 0.7201062 -0.167979 0.6732236 0.7201062 -0.167979 0.6644585 0.741249 -0.09510384 0.6644585 0.741249 -0.09510384 0.6644585 0.741249 -0.09510384 0.8823958 -0.2602403 0.3919855 0.8823957 -0.2602403 0.3919856 0.8823958 -0.2602403 0.3919856 0.8658367 -0.4078801 -0.2897595 0.8658367 -0.4078802 -0.2897595 0.8658367 -0.4078802 -0.2897595 0.2497482 0.5681455 0.7841151 0.2497482 0.5681455 0.7841152 0.2497482 0.5681455 0.7841151 0.5215185 0.8484248 0.09052033 0.5215185 0.8484248 0.09052032 0.5215184 0.8484247 0.09052031 0.2093162 0.9777288 0.01526888 0.2093162 0.9777288 0.01526888 0.2093162 0.9777288 0.01526888</float_array>
          <technique_common>
            <accessor source="#geom-col-1_2-normals-array" count="126" stride="3">
              <param name="X" type="float"/>
              <param name="Y" type="float"/>
              <param name="Z" type="float"/>
            </accessor>
          </technique_common>
        </source>
        <vertices id="geom-col-1_2-vertices">
          <input semantic="POSITION" source="#geom-col-1_2-positions"/>
        </vertices>
        <triangles material="ColorMaterial" count="42">
          <input semantic="VERTEX" source="#geom-col-1_2-vertices" offset="0"/>
          <input semantic="NORMAL" source="#geom-col-1_2-normals" offset="1"/>
          <p>0 0 1 1 2 2 3 3 0 4 4 5 5 6 6 7 7 8 8 9 6 10 9 11 8 12 7 13 6 14 10 15 7 16 8 17 10 18 9 19 11 20 10 21 8 22 9 23 10 24 11 25 12 26 13 27 2 28 1 29 13 30 1 31 5 32 13 33 12 34 2 35 14 36 11 37 9 38 14 39 4 40 0 41 14 42 0 43 2 44 15 45 16 46 3 47 17 48 11 49 14 50 17 51 14 52 2 53 17 54 2 55 12 56 17 57 12 58 11 59 18 60 0 61 3 62 18 63 3 64 16 65 18 66 16 67 1 68 18 69 1 70 0 71 19 72 9 73 6 74 19 75 6 76 15 77 19 78 15 79 3 80 19 81 4 82 14 83 19 84 14 85 9 86 19 87 3 88 4 89 20 90 16 91 15 92 20 93 6 94 5 95 20 96 15 97 6 98 20 99 1 100 16 101 20 102 5 103 1 104 21 105 12 106 13 107 21 108 13 109 7 110 21 111 7 112 10 113 21 114 10 115 12 116 22 117 5 118 7 119 22 120 7 121 13 122 22 123 13 124 5 125</p>
        </triangles>
      </mesh>
    </geometry>
  </library_geometries>
  <library_lights>
    <light id="EnvironmentAmbientLight" name="EnvironmentAmbientLight">
      <technique_common>
        <ambient>
          <color>0 0 0</color>
        </ambient>
      </technique_common>
    </light>
  </library_lights>
  <library_images>
    <image id="grayrock_diffuse_png">
      <init_from>file:///C:/Projects/ForestKitNew/art/shapes/rocks/grayrock_diffuse.png</init_from>
    </image>
    <image id="grayrock_diffuse_dds">
      <init_from>file:///E:/Projects/Pacific/game/art/shapes/rocks/grayrock_diffuse.dds</init_from>
    </image>
  </library_images>
  <library_visual_scenes>
    <visual_scene id="MaxScene">
      <node name="EnvironmentAmbientLight">
        <instance_light url="#EnvironmentAmbientLight"/>
      </node>
      <node id="node-base00" name="base00">
        <matrix>1 0 0 0 0 1 0 0 0 0 1 0 0 0 0 1</matrix>
        <node id="node-start00" name="start00">
          <matrix>1 0 0 0 0 1 0 0 0 0 1 0 0 0 0 1</matrix>
          <node id="node-ovalone400" name="ovalone400">
            <matrix>1 -8.74228e-8 8.74228e-8 0 8.74228e-8 1 -8.74228e-8 0 -8.74228e-8 8.74228e-8 1 0 0 0 0 1</matrix>
            <instance_geometry url="#geom-ovalone400">
              <bind_material>
                <technique_common>
                  <instance_material symbol="greyrock_1" target="#greyrock-material">
                    <bind_vertex_input semantic="CHANNEL1" input_semantic="TEXCOORD" input_set="1"/>
                    <bind_vertex_input semantic="CHANNEL1" input_semantic="TEXCOORD" input_set="1"/>
                  </instance_material>
                </technique_common>
              </bind_material>
            </instance_geometry>
          </node>
          <node id="node-ovalone100" name="ovalone100">
            <matrix>1 -8.74228e-8 8.74228e-8 0 8.74228e-8 1 -8.74228e-8 0 -8.74228e-8 8.74228e-8 1 0 0 0 0 1</matrix>
            <instance_geometry url="#geom-ovalone100">
              <bind_material>
                <technique_common>
                  <instance_material symbol="greyrock" target="#greyrock-material">
                    <bind_vertex_input semantic="CHANNEL1" input_semantic="TEXCOORD" input_set="1"/>
                    <bind_vertex_input semantic="CHANNEL1" input_semantic="TEXCOORD" input_set="1"/>
                  </instance_material>
                </technique_common>
              </bind_material>
            </instance_geometry>
          </node>
          <node id="node-ovalone200" name="ovalone200">
            <matrix>1 -8.74228e-8 8.74228e-8 0 8.74228e-8 1 -8.74228e-8 0 -8.74228e-8 8.74228e-8 1 0 0 0 0 1</matrix>
            <instance_geometry url="#geom-ovalone200">
              <bind_material>
                <technique_common>
                  <instance_material symbol="greyrock" target="#greyrock-material">
                    <bind_vertex_input semantic="CHANNEL1" input_semantic="TEXCOORD" input_set="1"/>
                    <bind_vertex_input semantic="CHANNEL1" input_semantic="TEXCOORD" input_set="1"/>
                  </instance_material>
                </technique_common>
              </bind_material>
            </instance_geometry>
          </node>
        </node>
        <node id="node-detail200" name="detail200">
          <matrix>1 0 0 0 0 1 0 0 0 0 1 0 0 0 0 1</matrix>
        </node>
        <node id="node-detail400" name="detail400">
          <matrix>1 0 0 0 0 1 0 0 0 0 1 0 0 0 0 1</matrix>
        </node>
        <node id="node-Collision-1" name="Collision-1">
          <matrix>1 0 0 0 0 1 0 0 0 0 1 0 0 0 0 1</matrix>
        </node>
        <node id="node-Collision-2" name="Collision-2">
          <matrix>1 0 0 0 0 1 0 0 0 0 1 0 0 0 0 1</matrix>
        </node>
        <node id="node-detail100" name="detail100">
          <matrix>1 0 0 0 0 1 0 0 0 0 1 0 0 0 0 1</matrix>
        </node>
        <node id="node-BB__detail30" name="BB__detail30">
          <matrix>1 0 0 0 0 1 0 0 0 0 1 0 0 0 0 1</matrix>
          <extra>
            <technique profile="OpenCOLLADA">
              <user_properties>BB:DIM=128
BB::EQUATOR_STEPS=16
BB::POLAR_STEPS=0
BB::POLAR_ANGLE=60
BB::INCLUDE_POLES=0
BB::DL=0</user_properties>
            </technique>
          </extra>
        </node>
      </node>
      <node id="node-bounds" name="bounds">
        <matrix>1 0 0 0 0 1 0 0 0 0 1 0 0 0 0 1</matrix>
        <instance_geometry url="#geom-bounds">
          <bind_material>
            <technique_common>
              <instance_material symbol="greyrock" target="#greyrock_1-material">
                <bind_vertex_input semantic="CHANNEL1" input_semantic="TEXCOORD" input_set="1"/>
              </instance_material>
            </technique_common>
          </bind_material>
        </instance_geometry>
      </node>
      <node id="node-col-1_2" name="col-1">
        <matrix>1 0 0 0 0 1 0 0 0 0 1 0 0 0 0 1</matrix>
        <instance_geometry url="#geom-col-1_2">
          <bind_material>
            <technique_common>
              <instance_material symbol="ColorMaterial" target="#ColorEffectR141G7B58-material"/>
            </technique_common>
          </bind_material>
        </instance_geometry>
      </node>
    </visual_scene>
  </library_visual_scenes>
  <scene>
    <instance_visual_scene url="#MaxScene"/>
  </scene>
</COLLADA>