<?xml version="1.0" encoding="utf-8"?>
<COLLADA xmlns="http://www.collada.org/2005/11/COLLADASchema" version="1.4.1">
  <asset>
    <contributor>
      <author>Russell</author>
      <authoring_tool>OpenCOLLADA for 3ds Max;  Version: 1.2.5;  Revision: 673;  Platform: x64;  Configuration: Release Max2010</authoring_tool>
      <source_data>file:///E:/Projects/Pacific_Art/06_Rocks/03_All%20Rocks%20V2/Allrocks_V2_01.max</source_data>
    </contributor>
    <created>2011-04-26T19:53:30</created>
    <modified>2011-04-26T19:53:30</modified>
    <unit name="meter" meter="1"/>
    <up_axis>Z_UP</up_axis>
  </asset>
  <library_effects>
    <effect id="greyrock">
      <profile_COMMON>
        <newparam sid="grayrock_diffuse_dds-surface">
          <surface type="2D">
            <init_from>grayrock_diffuse_dds</init_from>
          </surface>
        </newparam>
        <newparam sid="grayrock_diffuse_dds-sampler">
          <sampler2D>
            <source>grayrock_diffuse_dds-surface</source>
          </sampler2D>
        </newparam>
        <technique sid="common">
          <blinn>
            <emission>
              <color>0 0 0 1</color>
            </emission>
            <ambient>
              <texture texture="grayrock_diffuse_dds-sampler" texcoord="CHANNEL1"/>
            </ambient>
            <diffuse>
              <texture texture="grayrock_diffuse_dds-sampler" texcoord="CHANNEL1"/>
            </diffuse>
            <specular>
              <color>0.9 0.9 0.9 1</color>
            </specular>
            <shininess>
              <float>9.999999</float>
            </shininess>
            <reflective>
              <color>0 0 0 1</color>
            </reflective>
            <transparent opaque="A_ONE">
              <color>1 1 1 1</color>
            </transparent>
            <transparency>
              <float>1</float>
            </transparency>
          </blinn>
        </technique>
      </profile_COMMON>
      <extra>
        <technique profile="OpenCOLLADA3dsMax">
          <extended_shader>
            <apply_reflection_dimming>0</apply_reflection_dimming>
            <dim_level>0</dim_level>
            <falloff_type>0</falloff_type>
            <index_of_refraction>1.5</index_of_refraction>
            <opacity_type>0</opacity_type>
            <reflection_level>3</reflection_level>
            <wire_size>1</wire_size>
            <wire_units>0</wire_units>
          </extended_shader>
          <shader>
            <ambient_diffuse_lock>1</ambient_diffuse_lock>
            <ambient_diffuse_texture_lock>1</ambient_diffuse_texture_lock>
            <diffuse_specular_lock>0</diffuse_specular_lock>
            <soften>0.1</soften>
            <use_self_illum_color>0</use_self_illum_color>
          </shader>
        </technique>
      </extra>
    </effect>
    <effect id="greyrock_1">
      <profile_COMMON>
        <newparam sid="grayrock_diffuse_png-surface">
          <surface type="2D">
            <init_from>grayrock_diffuse_png</init_from>
          </surface>
        </newparam>
        <newparam sid="grayrock_diffuse_png-sampler">
          <sampler2D>
            <source>grayrock_diffuse_png-surface</source>
          </sampler2D>
        </newparam>
        <technique sid="common">
          <blinn>
            <emission>
              <color>0 0 0 1</color>
            </emission>
            <ambient>
              <color>0.588 0.588 0.588 1</color>
            </ambient>
            <diffuse>
              <texture texture="grayrock_diffuse_png-sampler" texcoord="CHANNEL1"/>
            </diffuse>
            <specular>
              <color>0.9 0.9 0.9 1</color>
            </specular>
            <shininess>
              <float>10</float>
            </shininess>
            <reflective>
              <color>0 0 0 1</color>
            </reflective>
            <transparent opaque="A_ONE">
              <color>1 1 1 1</color>
            </transparent>
            <transparency>
              <float>1</float>
            </transparency>
          </blinn>
        </technique>
      </profile_COMMON>
      <extra>
        <technique profile="OpenCOLLADA3dsMax">
          <extended_shader>
            <apply_reflection_dimming>0</apply_reflection_dimming>
            <dim_level>0</dim_level>
            <falloff_type>0</falloff_type>
            <index_of_refraction>1.5</index_of_refraction>
            <opacity_type>0</opacity_type>
            <reflection_level>3</reflection_level>
            <wire_size>1</wire_size>
            <wire_units>0</wire_units>
          </extended_shader>
          <shader>
            <ambient_diffuse_lock>1</ambient_diffuse_lock>
            <ambient_diffuse_texture_lock>1</ambient_diffuse_texture_lock>
            <diffuse_specular_lock>0</diffuse_specular_lock>
            <soften>0.1</soften>
            <use_self_illum_color>0</use_self_illum_color>
          </shader>
        </technique>
      </extra>
    </effect>
    <effect id="ColorEffectR87G224B143">
      <profile_COMMON>
        <technique sid="common">
          <phong>
            <ambient>
              <color>0.3411765 0.8784314 0.5607843 1</color>
            </ambient>
            <diffuse>
              <color>0.3411765 0.8784314 0.5607843 1</color>
            </diffuse>
            <specular>
              <color>1 1 1 1</color>
            </specular>
            <shininess>
              <float>10</float>
            </shininess>
            <reflective>
              <color>0 0 0 1</color>
            </reflective>
            <transparent>
              <color>1 1 1 1</color>
            </transparent>
            <transparency>
              <float>1</float>
            </transparency>
          </phong>
        </technique>
      </profile_COMMON>
      <extra>
        <technique profile="OpenCOLLADA3dsMax">
          <extended_shader>
            <apply_reflection_dimming>0</apply_reflection_dimming>
            <dim_level>0</dim_level>
            <falloff_type>0</falloff_type>
            <index_of_refraction>1.5</index_of_refraction>
            <opacity_type>0</opacity_type>
            <reflection_level>3</reflection_level>
            <wire_size>1</wire_size>
            <wire_units>0</wire_units>
          </extended_shader>
          <shader>
            <ambient_diffuse_lock>1</ambient_diffuse_lock>
            <ambient_diffuse_texture_lock>1</ambient_diffuse_texture_lock>
            <diffuse_specular_lock>0</diffuse_specular_lock>
            <soften>0.1</soften>
            <use_self_illum_color>0</use_self_illum_color>
          </shader>
        </technique>
      </extra>
    </effect>
  </library_effects>
  <library_materials>
    <material id="ColorEffectR87G224B143-material" name="ColorEffectR87G224B143-material">
      <instance_effect url="#ColorEffectR87G224B143"/>
    </material>
    <material id="greyrock-material" name="greyrock">
      <instance_effect url="#greyrock"/>
    </material>
    <material id="greyrock_1-material" name="greyrock">
      <instance_effect url="#greyrock_1"/>
    </material>
  </library_materials>
  <library_geometries>
    <geometry id="geom-ggrockthree400" name="ggrockthree400">
      <mesh>
        <source id="geom-ggrockthree400-positions">
          <float_array id="geom-ggrockthree400-positions-array" count="738">1.492867 0.3419865 1.212094 -1.410929 -0.7519249 0.5614092 -0.390157 1.601493 0.1935402 1.480052 0.192137 0.2878527 0.508062 0.9782903 -0.1584782 -0.1263942 -1.497575 0.2601572 0.4799703 1.579826 0.214497 1.247218 -1.007319 0.373962 -1.438897 0.5856584 0.7231582 -0.8568125 -0.3963588 -0.09456276 0.5914989 1.41786 0.7631708 -0.2741926 -1.083326 0.7989503 -0.03094482 0.1533156 1.25463 0.4713874 -0.3461329 -0.2021446 -0.8337111 0.8690869 -0.1085496 -1.617172 -0.04445219 0.3450327 1.006981 -0.1143344 1.123827 -1.547219 -0.3480996 0.7361161 1.343916 0.6632108 0.1876563 0.08284122 1.466002 0.4028305 0.7806566 0.2752506 1.221665 0.5828336 1.569885 0.5362288 -0.8562902 -0.945303 0.794426 -0.1347907 -1.545655 0.4213563 0.7131263 0.7042808 1.138394 0.991282 -0.4431784 0.8861713 1.062807 -1.176615 0.3797641 1.587871 0.2089894 0.9165496 -0.7024711 1.485556 0.2711931 -0.03676112 -1.438453 0.585166 1.300543 0.3440327 0.07033902 0.2781994 0.9979249 -0.1815155 0.7588603 1.288548 0.3213981 -1.098412 -0.4522703 0.03035479 -1.103796 1.091828 0.452273 -0.8634142 1.028923 0.6849013 -0.3552131 -1.15853 0.09854257 -1.62948 -0.3663622 0.5233099 -1.145497 -0.895946 0.6909329 1.20655 -1.008046 0.5493045 1.241982 0.374019 1.282958 0.9353674 1.03172 0.921509 0.4603224 -0.4481516 0.9264195 1.496602 0.4910539 1.089942 -0.1964956 0.8683344 -0.2130443 -0.3897158 -1.450169 0.4837964 -1.20727 0.8145194 0.7404327 0.5678469 -1.351044 0.4254036 1.499807 0.01774601 0.5085359 -0.1494007 -0.6342295 0.977489 -1.025306 0.2072413 -0.08330619 1.297246 -0.07792775 0.8427464 -0.5763318 1.548356 0.1915394 -0.4992968 0.1139754 1.151628 1.364953 -0.1957384 0.168121 0.6015325 1.583053 0.3380264 -0.725053 1.061659 -0.08887712 1.496041 0.1669582 1.084102 -1.544158 0.1921757 0.7328644 -1.261811 0.1052948 0.0409834 -0.06325978 -0.6536089 -0.1506748 1.135898 0.9808952 0.2296412 0.5755144 -1.078253 0.1307421 -1.621856 0.1552557 0.5452363 0.7731028 0.6012449 -0.1448759 -0.9076798 1.340357 0.2684949 0.8834091 1.204842 0.7274715 1.154216 -0.8615425 0.1821897 -0.4446009 -0.8455575 -0.04206062 1.237154 0.6516656 0.6217098 0.223258 0.5084658 -0.1319197 0.5123835 1.417274 0.09225719 0.6039004 1.005816 0.9370036 -0.165051 -1.271213 0.1089444 -0.7415742 -0.4280673 0.9934651 0.8387582 -0.03202689 -0.1280799 0.8140867 1.301703 0.506011 -0.8912634 1.144336 0.03759497 -0.8564041 -1.086727 0.6698453 -0.2671092 1.541693 0.07634281 0.199791 -1.499921 0.4007351 1.415586 0.4486772 1.229164 0.3642026 -0.798856 0.7899914 -0.3233185 -1.406749 0.601694 -1.191391 0.6231897 0.2775658 -1.586897 -0.3651009 0.4033017 -1.292133 -0.2003047 0.07503051 -0.3941738 -0.5463104 -0.1459564 -0.5961403 0.6922812 -0.1787006 -0.757457 -1.039043 0.3617257 0.5408201 0.3357311 1.257432 0.9254372 0.8411269 1.062804 -1.077969 -0.1680385 0.9515839 -1.509769 -0.6293734 0.608282 1.390252 -0.5978577 0.5140518 0.65109 0.0184954 1.218273 0.03737517 0.4116592 1.162721 1.369923 -0.7120866 0.3958895 0.2295611 1.585642 0.2457762 0.8890476 -0.7743135 0.7655792 -0.2664889 1.542533 0.3236346 0.6518407 0.4411559 -0.164131 -0.2553612 -1.501091 0.3583279 -0.4845183 -1.082594 0.7944993 0.1329383 1.189592 -0.1157808 -0.7246949 1.395996 0.09820565 0.2104064 -1.472094 0.3351519 1.414579 0.5071281 0.2784221 0.6897501 1.488052 0.6049184 0.5700461 1.501112 0.6695582 -0.4951177 1.5429 0.2981665 -1.069011 1.12348 0.3096927 -1.455789 -0.6454206 0.451893 1.267943 -0.2809792 0.7280499 -1.003691 0.3354082 0.957499 0.03897807 -0.3487049 1.089273 1.035115 1.081627 0.4738669 -1.289824 0.7733054 0.6365985 0.4644222 0.5976346 1.176644 -1.652456 -0.2118475 0.5516061 1.410998 0.2599144 1.223591 0.3382785 0.1628633 1.276919 0.948238 -1.205648 0.4829517 0.6966823 1.366433 0.786472 0.8075708 -0.6271098 -0.02774536 -1.004389 0.5028382 -0.06164866 -1.305545 -0.5362206 0.2254901 -0.8523861 -1.087597 0.5646871 1.529753 0.0936681 0.854161 1.15736 0.1416214 1.235439 0.8506577 0.9889876 0.0314958 0.6655306 1.178684 0.1071427 0.2743436 -1.457978 0.4726563 -1.334598 0.2310656 0.1461199 -0.7721009 -0.5387577 -0.07728443 -0.2089148 0.7933678 0.818491 1.138271 0.8635731 0.9881842 -1.496916 0.4357518 0.7265975 -1.232502 -0.8788518 0.5607345 1.414716 0.3041183 0.1682719 -0.09134744 1.577035 0.2166521 0.7554115 0.9209135 1.023716 -0.2734759 0.5850496 -0.2049554 -1.297423 -0.7445903 0.7119009 -0.4349048 1.40373 0.4452142 1.431409 -0.1800313 0.2627938 1.572681 0.2934076 1.102704 0.4070373 1.350933 0.01201022 -0.6440053 -0.9385486 0.1090804 -1.061846 1.07064 0.5548025 0.4289243 1.577405 0.4728365 -0.5864085 1.246725 -0.04057814 0.8527522 0.5374706 1.16538 1.270973 0.6286446 0.1044111 -0.3956017 -0.7450945 0.931508 -0.9221643 1.274529 0.1544672 0.8864355 0.08490956 1.207527 1.527976 0.3138923 0.8339624 0.4866466 -1.097913 0.6164535 1.13518 -0.7192866 0.7253618 -0.1992543 -1.300067 0.6879162 0.3261729 -1.317646 0.2539239 -1.079243 -0.2843543 -0.03538854 0.3335698 1.551001 0.1486925 0.7358824 -0.4224437 0.9303433 -0.04084206 0.82161 -0.2112588 -1.341691 0.7012525 0.7412696 -0.3011405 -0.7786416 -0.0975914 0.03800432 -0.4472679 -0.1849297 0.04867222 -0.8572749 -0.06256809 -0.3445905 -0.07264654 1.157555 -1.538849 0.3612615 0.5780693 -0.6927572 0.6362053 0.9035695 1.287802 -0.0585148 0.08878287 -0.9656838 0.8411499 -0.01214083 0.9499127 -0.3193695 -0.0435889 0.613953 0.1342112 -0.1901098 -0.5561413 -0.0272942 -0.1641776 0.3761288 0.7584872 -0.162964 -1.579829 -0.5086654 0.5886021 0.9307942 0.8012096 -0.01305892 -1.176969 0.09543924 0.9175386 0.3812654 0.3513386 1.26623 0.5534389 -0.8620976 0.008815329 0.1224287 0.2828892 1.257375 -0.6225806 -1.257916 0.6365874 0.3704025 1.605041 0.27927 -0.3809388 -1.344995 0.2708509 1.301325 -0.5246298 0.6508356 0.3802526 1.525273 0.5536602 -1.603055 0.03086285 0.6842132 -0.04801635 -0.006430071 -0.1502618 -0.6493556 1.363733 0.4581921 -0.05552712 -1.38243 0.1830933 0.5142509 -0.2143078 1.123883 -1.334463 0.5324172 0.7933962 0.04712005 -1.497821 0.4989818 -0.1706188 -1.465204 0.5684493 -0.9347512 0.5712299 0.9080671 -1.071217 -0.786267 0.2765543 0.1051065 -0.6415201 0.9085406 1.116153 0.5889822 1.203091 1.193246 0.7781078 0.4800467 0.1639629 -1.41947 0.5478281 1.328816 0.04069189 1.095203 -0.5219226 0.9526817 -0.1604687 0.7545615 1.264164 0.8258064 -0.5377182 -1.17846 0.7343282 -0.5131785 -0.4701663 0.9951689 -0.7836906 1.358148 0.4032609 -0.227546 1.593938 0.2334927 1.070802 0.3416313 -0.0435001 0.8449124 -0.3252167 0.9947205 -0.7520696 0.7428452 -0.1493451 0.7857203 1.089295 0.9490423 -1.012519 -0.440881 0.9185612 -0.04696111 1.246511 -0.09073478 0.008024022 -1.539017 0.4012998 0.4358564 1.455786 0.6543902 -0.1988827 0.9972534 -0.1839277 1.332743 0.5923706 0.3627535 0.8775794 -1.18937 0.3025902 1.009938 0.3210788 1.256699 -0.1438835 -1.515146 0.4984328 0.7295823 1.453907 0.5404262 0.8316897 0.6815376 -0.1055457 -1.457528 -0.3836011 0.2681924 1.275613 0.5813156 1.190354 0.5972553 0.2143482 1.255203 -1.296567 -0.8257736 0.6234596 0.08430147 -1.190918 0.1062405 0.7753918 0.1678252 -0.1597776 -0.07386454 -0.9988625 0.8032517 0.4690117 0.4877208 -0.1525355 -0.8916799 -0.6755648 0.04871093 0.09735039 0.9852769 -0.191184 0.1932046 0.7906408 -0.1718002 -1.329584 -0.0638903 0.08955809 -1.644109 -0.0322212 0.5877754 0.02043714 0.03038422 1.215745 1.025426 -0.2668083 0.9826772 -0.01129642 0.5444565 -0.1690223 -0.7623514 0.3476254 -0.1500449 1.297775 0.1398139 1.206092 0.9211054 1.21839 0.4427548 -0.3768752 -1.253009 0.1752462</float_array>
          <technique_common>
            <accessor source="#geom-ggrockthree400-positions-array" count="246" stride="3">
              <param name="X" type="float"/>
              <param name="Y" type="float"/>
              <param name="Z" type="float"/>
            </accessor>
          </technique_common>
        </source>
        <source id="geom-ggrockthree400-normals">
          <float_array id="geom-ggrockthree400-normals-array" count="738">0.1642949 -0.4794324 -0.8620625 0.08344568 -0.3921383 -0.9161137 0.1984241 -0.4170339 -0.8869671 -0.3639424 0.03988686 0.930567 -0.3095353 0.1724424 0.9351212 -0.3790562 0.2107453 0.9010566 0.2338088 -0.5671068 0.7897615 0.3379347 -0.9241424 0.1782163 0.17293 -0.4911028 0.8537642 0.7730719 0.6268939 -0.09676691 0.728331 0.6374273 0.2514366 0.8077872 0.5633712 0.1734723 -0.4422784 0.5061302 0.7404202 -0.3440764 0.7722159 0.5341292 -0.1906623 0.7242648 0.6626375 -0.02331786 0.1148513 -0.993109 -0.1512897 0.03643163 -0.9878178 -0.2477935 0.03960213 -0.9680032 -0.176226 -0.2699551 0.946609 -0.2296852 0.1210251 0.9657109 -0.3278725 -0.0934579 0.9400879 0.001394328 -0.2690513 -0.9631248 -0.1164345 -0.3377201 -0.9340173 -0.1159762 -0.1591823 -0.9804134 0.1996748 0.5199709 -0.8305181 0.04388414 0.4181854 -0.907301 -0.0325741 0.7397772 -0.6720629 0.7252179 0.6052407 -0.3282418 0.4479353 0.5199643 -0.7273177 0.5591431 0.5414318 -0.627862 0.3806842 -0.1621922 -0.9103699 0.5432388 -0.09332342 -0.8343754 0.5196233 -0.3837952 -0.7633432 0.9952793 -0.0921127 0.0305683 0.7081558 -0.2706312 0.6521305 0.6919599 -0.1883087 0.6969442 -0.04031826 0.4500353 0.8921002 -0.1974862 0.358626 0.9123523 -0.8088388 0.3522846 -0.4708242 -0.5552784 0.1711023 -0.8138735 -0.7218332 0.3140236 -0.616722 -0.9833249 0.0458679 0.175978 -0.9557027 0.2872134 -0.06434961 -0.8677868 0.0896268 -0.4887874 -0.4568555 -0.5708277 -0.6822308 -0.4716314 -0.6665167 -0.5773382 -0.5477085 -0.470382 -0.6919221 0.8708525 0.4802324 -0.1048458 0.8587219 0.4487118 0.2474964 -0.2726297 0.4892706 0.8284246 -0.299469 0.4645182 0.8333914 -0.1934469 -0.7316024 0.6537097 -0.4372888 -0.7603366 0.4802777 -0.4890746 -0.8699686 0.062934 0.326054 -0.8032327 0.4985038 0.08062609 -0.2959707 0.9517882 0.003419814 -0.1370293 0.9905611 0.03934551 -0.408824 0.9117647 -0.1848876 0.2706465 0.9447576 -0.01984318 0.2226943 0.9746864 -0.1238568 0.4436441 0.8876032 -0.05068646 -0.04905728 -0.9975091 -0.006736118 0.01481257 -0.9998676 0.2763482 -0.005902216 -0.9610395 0.2708753 0.09816467 -0.9575961 0.4174852 0.04780035 -0.9074255 -0.01167861 0.4390243 -0.8983993 -0.2084361 0.4475681 -0.869619 -0.8604674 0.4206201 -0.2875317 -0.6995364 0.5308447 -0.4783855 -0.6128819 0.3753546 -0.6953306 -0.6518676 -0.3087831 -0.6926194 -0.6891885 -0.5703898 -0.4468497 -0.3613802 0.01799417 -0.9322449 -0.5962068 0.06323103 -0.800337 0.6559361 -0.635027 0.4080302 0.8469854 -0.5268816 0.07079181 0.1233478 -0.04118042 0.9915087 -0.6692253 -0.1804581 0.7208137 -0.4737549 -0.4630974 0.7490642 -0.2940725 -0.2457941 0.9236377 -0.9623911 -0.2642655 -0.06298371 -0.8244513 -0.2998717 -0.4799552 0.4522434 0.3379452 -0.8253902 0.5542492 0.2801932 -0.7837726 0.04039722 0.993954 0.1020953 -0.1181793 0.9928706 0.01554967 -0.4227454 0.7337697 0.5318537 -0.49631 0.6838533 0.5348093 -0.1459144 0.5718197 0.8072987 0.323326 -0.4905642 0.8092015 0.06168 -0.3240334 0.9440327 0.2660179 -0.5595437 0.7849492 0.1014139 0.4935747 0.8637703 -0.0456226 0.3979561 0.9162694 0.2654389 0.55707 0.7869022 0.2580569 0.2815809 -0.9241855 0.4839091 0.5182505 -0.7051584 -0.1477653 0.948214 0.2811684 -0.05685852 -0.3233204 0.9445798 -0.09257679 -0.3186922 0.9433265 -0.1769032 -0.5537508 0.8136739 -0.2692947 -0.4608014 0.845661 -0.5498189 -0.6970196 -0.4602855 -0.5533659 -0.8009841 -0.2284963 0.2644599 -0.9639199 -0.03031909 0.2876289 -0.7826987 -0.5519533 -0.05882122 0.2628199 0.9630502 0.03939084 0.3650504 0.930154 0.4471333 -0.3365495 0.8287378 0.1074892 -0.5080889 0.854571 0.09466392 -0.5329657 0.8408248 0.2897945 -0.3031733 -0.9078023 0.210091 -0.5249591 -0.8247907 0.6133183 -0.5627642 0.5541996 0.1483702 -0.4502469 0.8804907 0.2980148 -0.7930922 0.5312174 0.6398976 -0.6040127 0.4750786 0.8090209 0.5572456 0.1869826 -0.4300312 0.6424021 -0.6343443 -0.1841388 0.848057 0.4968823 -0.002134505 0.7956952 0.6056933 0.09301289 0.9851448 0.1443552 0.1906234 -0.4059193 0.8938077 0.05575202 -0.4975013 0.8656698 0.1395604 -0.415027 0.8990414 0.8083351 0.07320622 -0.5841535 0.5595443 0.05754229 -0.8268005 0.9272423 -0.3120239 -0.2070332 0.9293387 -0.152302 -0.3363536 0.9776705 0.09296268 -0.1884632 0.02087108 -0.03876098 -0.9990305 0.06220874 0.03076737 -0.9975888 0.7961509 0.6046897 -0.0222335 0.5192407 0.8251852 -0.2223926 -0.4125842 -0.5186666 -0.7488386 -0.2797391 -0.3456001 -0.8957157 -0.5670583 -0.1561111 -0.8087486 -0.6010454 -0.008452472 -0.7991702 -0.4519854 0.5683208 0.6875469 -0.7336127 0.2276152 -0.6403153 -0.1255462 0.5392379 0.8327429 -0.03534769 0.617347 0.7858964 -0.1817042 0.6785072 0.7117665 -0.5434103 -0.6634326 -0.5143563 -0.4236946 -0.5831743 -0.6931021 -0.0911837 -0.7924099 -0.6031352 -0.08732892 -0.4986964 -0.8623663 -0.8422932 0.06791165 0.5347245 -0.9043563 -0.405754 0.1323004 -0.8021231 -0.5488537 0.2352832 0.5232768 -0.7986333 -0.2972645 0.7777074 -0.5693561 -0.2664674 0.9108115 -0.2366043 0.338291 0.0499125 0.08280443 0.9953151 0.04102736 -0.2245201 0.9736055 -0.0914584 0.4572347 0.8846309 0.159951 0.518797 0.8398007 -0.1354694 0.591978 0.7944873 0.5590467 0.7664457 0.3162719 0.333461 0.5865806 0.7380563 0.09998917 -0.5678909 0.817008 0.0651789 -0.5002182 0.8634428 0.3574603 -0.4082614 0.8399672 0.9332767 -0.06240772 0.3536948 0.9812796 -0.1420545 -0.1300416 0.4417253 0.3741417 0.815412 0.4607201 0.6970013 0.5494781 0.1300366 -0.09250915 -0.9871842 -0.05230783 0.2903867 -0.9554786 -0.1549479 -0.984602 0.08093223 -0.4101067 -0.8716149 -0.2685146 -0.1097407 -0.8951726 0.4319989 -0.07469499 -0.7479939 0.6594891 -0.8059604 0.5897898 -0.05075279 0.2842818 -0.6959243 -0.6594492 0.2615751 -0.6266652 -0.7340772 0.8426932 0.4077176 0.3516173 0.2071126 -0.419652 0.8837402 -0.0790106 -0.4348061 0.8970513 -0.0806963 -0.3271351 0.9415257 -0.4146515 -0.1599667 -0.8958095 -0.1119402 -0.04894802 -0.9925086 0.00500952 -0.04904982 -0.9987838 0.4732277 -0.5338749 0.7007377 0.4864663 -0.7227377 0.4909184 -0.1272318 0.9855757 -0.1115913 -0.3482978 0.9033591 -0.2502618 -0.1408432 -0.2530183 0.9571546 -0.1605599 0.01925181 0.9868383 0.7071062 -0.174806 -0.6851596 -0.0431824 0.9959154 -0.07929617 0.2152556 0.9357851 0.2792334 -0.1479 0.2268529 -0.9626336 -0.6803237 0.1165111 0.7235917 0.1254465 -0.1471164 -0.981132 -0.8747587 0.4327196 -0.2180618 -0.783468 0.2654395 0.5618895 0.4276126 0.2290111 -0.8744721 -0.0616329 0.02162285 -0.9978646 0.03616954 -0.05874347 -0.9976177 -0.4736743 0.862484 0.1781964 -0.6598247 0.75133 0.01159847 0.4543393 0.5995556 0.6588694 -0.2569008 -0.4139848 -0.8732803 -0.3064585 -0.4903392 -0.8158742 0.8887401 0.3355049 -0.312374 0.08364268 -0.09761859 -0.9917028 0.07698076 -0.004506585 -0.9970223 0.04386747 0.1833174 -0.9820746 0.2902724 0.8171206 -0.4980521 0.08120905 0.7808247 -0.6194496 0.670126 0.6093233 -0.4238588 0.6600673 0.7511854 0.005630961 -0.3011782 0.3484899 -0.8876072 -0.4139275 0.2096923 -0.8858291 -0.4695421 -0.6879645 0.5533851 -0.4837657 -0.779756 0.397431 -0.5215309 -0.8365961 -0.1676675 0.1318417 -0.9907543 -0.03199713 0.158698 -0.8462341 0.5086284 0.1317324 -0.6199588 0.773497 0.06656323 0.07223006 0.9951643 0.3846992 -0.3366013 0.8594801 0.619331 -9.32476e-4 0.7851295 -0.47454 -0.3728548 -0.7973651 -0.2682578 -0.184713 -0.9454728 -0.2127741 0.001954527 -0.9770995 0.1089842 0.1605012 0.9810004 -0.5753872 -0.7415838 0.3449391 -0.6763145 -0.7337318 -0.06508709 0.01685912 0.06094207 -0.9979989 0.04426294 -0.4180183 0.9073597 0.09010169 -0.3915063 0.9157535 0.0823782 0.1850216 -0.9792756 0.1370349 -0.5528572 -0.8219309 0.951376 0.2796876 0.1290683 0.8409442 0.4456981 -0.3068648 0.0457777 0.8162794 0.5758406 -0.7714251 0.6175557 0.1533896 -0.5936687 0.5472804 0.5899506 -0.8007025 0.4620504 0.3812937 -0.9904857 -0.07297192 0.1166756 0.3558677 -0.09053291 -0.9301409 -0.1407066 0.03664638 0.9893729 0.3759229 0.6454397 0.6648981</float_array>
          <technique_common>
            <accessor source="#geom-ggrockthree400-normals-array" count="246" stride="3">
              <param name="X" type="float"/>
              <param name="Y" type="float"/>
              <param name="Z" type="float"/>
            </accessor>
          </technique_common>
        </source>
        <source id="geom-ggrockthree400-map1">
          <float_array id="geom-ggrockthree400-map1-array" count="906">0.5262886 0.6072529 0 0.2689227 0.9022806 0 0.2813197 0.9649675 0 0.2114467 0.9399347 0 0.1351835 0.8844842 0 0.1631106 0.8780523 0 0.003475295 0.6337284 0 0.02694813 0.6905249 0 0.01421073 0.7331963 0 0.01470548 0.7613004 0 0.05049592 0.7423608 0 0.04708091 0.7835275 0 0.1994019 0.7632888 0 0.2378584 0.7614495 0 0.145216 0.9187438 0 0.2338093 0.8152298 0 0.1129919 0.5100015 0 0.03260061 0.7775669 0 0.6772885 0.6342974 0 0.6242382 0.6846343 0 0.6638159 0.7145584 0 0.598354 0.6424373 0 0.5518691 0.7150313 0 0.619307 0.7531823 0 0.6709942 0.7741936 0 0.787466 0.7139235 0 0.7637164 0.8077601 0 0.8643231 0.7671027 0 0.9001305 0.7685039 0 0.828756 0.698207 0 0.7774321 0.6365985 0 0.6191174 0.8009123 0 0.6773934 0.8220795 0 0.6872143 0.8749298 0 0.6062476 0.8891411 0 0.5803735 0.8428308 0 0.5436338 0.8266153 0 0.5477231 0.7949886 0 0.8310584 0.9127542 0 0.67564 0.9318695 0 0.1705801 0.4949996 0 0.4761158 0.6930838 0 0.4819329 0.7087498 0 0.4589481 0.7494326 0 0.5080583 0.7311548 0 0.5269979 0.7010348 0 0.1730472 0.6801135 0 0.2519959 0.6885324 0 0.1783137 0.7337798 0 0.3679843 0.4311275 0 0.3180494 0.4571401 0 0.2908756 0.4383189 0 0.2954443 0.7518162 0 0.2685336 0.7723876 0 0.04078255 0.6404671 0 0.4966334 0.6005436 0 0.519932 0.5734336 0 0.3225757 0.6533574 0 0.4320227 0.638088 0 0.08171344 0.5659248 0 0.07902479 0.6093394 0 0.06420593 0.5725351 0 0.1141334 0.4927872 0 0.3183585 0.5646063 0 0.3140211 0.6061867 0 0.2346573 0.6031092 0 0.3126553 0.6356774 0 0.3373748 0.6135471 0 0.09825422 0.485561 0 0.1435754 0.4625384 0 0.487916 0.5225356 0 0.5084405 0.5339485 0 0.4800676 0.4388647 0 0.06497759 0.5196956 0 0.3717764 0.6209107 0 0.04628594 0.5177705 0 0.05484045 0.5010853 0 0.169043 0.4202602 0 0.3427341 0.4708289 0 0.1040607 0.4591381 0 0.3786615 0.4649978 0 0.3362066 0.5839371 0 0.1223551 0.7744689 0 0.4782931 0.3596689 0 0.5053859 0.4121915 0 0.3427595 0.8690813 0 0.3802334 0.8863848 0 0.3702471 0.9125204 0 0.2418816 0.9875362 0 0.204908 0.9663301 0 0.09341231 0.7207105 0 0.1519744 0.708285 0 0.413996 0.8952664 0 0.1612379 0.9817739 0 0.1755176 0.9683774 0 0.3266635 0.9366215 0 0.1953399 0.8634443 0 0.4923936 0.7515828 0 0.4420443 0.8797491 0 0.06891068 0.6489189 0 0.3750972 0.831266 0 0.652827 0.6780427 0 0.6340229 0.6521332 0 0.5922164 0.6790445 0 0.6327443 0.720255 0 0.7984273 0.7521822 0 0.8203267 0.7700913 0 0.865838 0.7563236 0 0.8539822 0.7333584 0 0.820147 0.7149822 0 0.7721137 0.6621199 0 0.7312252 0.6899755 0 0.6907794 0.6636163 0 0.5968809 0.7580907 0 0.7069296 0.8388193 0 0.659641 0.8349854 0 0.6373717 0.8558605 0 0.5710298 0.8066367 0 0.7595972 0.8675648 0 0.8196599 0.829888 0 0.7302777 0.9082525 0 0.6553411 0.9003813 0 0.3193257 0.8346651 0 0.463469 0.8188347 0 0.4667158 0.7856274 0 0.5268323 0.7267858 0 0.325764 0.804323 0 0.3732831 0.5099233 0 0.3641928 0.5219406 0 0.3258838 0.5177459 0 0.4334051 0.5880432 0 0.4107074 0.5524364 0 0.4187645 0.5345039 0 0.4951492 0.7119379 0 0.2776901 0.6296366 0 0.1827417 0.6534235 0 0.09773874 0.6069142 0 0.1038996 0.6578519 0 0.3905986 0.5801128 0 0.4010967 0.6031029 0 0.2592553 0.4521575 0 0.1882922 0.3669341 0 0.2460333 0.5464187 0 0.2818088 0.5624933 0 0.2275523 0.4228998 0 0.5104443 0.4522759 0 0.5277912 0.6283841 0 0.4668538 0.3750944 0 0.1213258 0.4142446 0 0.2136272 0.3899752 0 0.06462567 0.4504201 0 0.4097262 0.4859501 0 0.2379839 0.4770735 0 0.4352541 0.4689505 0 0.5189411 0.7489974 0 0.420701 0.867267 0 0.4637037 0.8851705 0 0.4702503 0.9110653 0 0.5067685 0.6842244 0 0.1165935 0.9607911 0 0.1034481 0.9351143 0 0.03673966 0.5770706 0 0.02065653 0.5827708 0 0.09520762 0.9172095 0 0.03614648 0.5395316 0 -0.07434291 0.7627279 0 -0.03716735 0.7279355 0 -0.02306569 0.7573502 0 -0.01912311 0.7169188 0 0.5119349 0.6636307 0 0.1875051 0.4343515 0 0.1124643 0.9014562 0 0.5236126 0.666459 0 0.3868126 0.4879502 0 0.06822866 0.7514499 0 0.4199306 0.8184505 0 0.4381817 0.7938687 0 0.6476406 0.6610346 0 0.6127543 0.6633201 0 0.618664 0.7198496 0 0.591059 0.73815 0 0.637489 0.7383657 0 0.6676254 0.7459376 0 0.640309 0.766605 0 0.7277912 0.7477468 0 0.7757148 0.7603749 0 0.8125653 0.728476 0 0.8822274 0.7678034 0 0.7874441 0.6737051 0 0.6175117 0.7738715 0 0.6433973 0.7879248 0 0.672718 0.8014009 0 0.7109837 0.819748 0 0.7285649 0.8490812 0 0.6507198 0.8423214 0 0.6170341 0.8466835 0 0.5967013 0.8267869 0 0.5785657 0.7923433 0 0.5456786 0.8108019 0 0.7934784 0.8550035 0 0.8476908 0.8399284 0 0.6863484 0.9051594 0 0.7533492 0.9223118 0 0.6409437 0.9105053 0 0.4510049 0.7992154 0 0.1493106 0.5684223 0 0.1054765 0.5613247 0 0.1992217 0.5317746 0 0.2752546 0.8232682 0 0.3533443 0.7180201 0 0.4059898 0.796181 0 0.3836945 0.814509 0 0.1630329 0.8337014 0 0.1428559 0.8166595 0 0.1574496 0.810228 0 0.09421438 0.7738588 0 0.08654404 0.7546768 0 0.06112704 0.7679502 0 0.2230978 0.4012776 0 0.3550476 0.5694057 0 0.3406177 0.544769 0 0.43157 0.6123173 0 0.4548971 0.6194386 0 0.4809812 0.6667524 0 0.5062517 0.6598836 0 0.4832437 0.6477907 0 0.2888286 0.5162361 0 0.2688625 0.5195293 0 0.2836877 0.4889296 0 0.4085699 0.5152002 0 0.421387 0.5061929 0 0.4541519 0.5640356 0 0.07740396 0.5353436 0 0.08448786 0.5445309 0 0.2692578 0.8403246 0 0.5145985 0.5044951 0 0.5042245 0.3449681 0 0.2020869 0.5728008 0 0.1134222 0.6082146 0 0.1594491 0.6221321 0 0.3069555 0.4999941 0 0.3635882 0.4960786 0 0.4402774 0.8187194 0 0.2247193 0.361055 0 0.421122 0.8355007 0 0.241619 0.6612088 0 0.2885304 0.6423634 0 0.3926141 0.4666289 0 0.4487154 0.4803739 0 0.5486768 0.6023531 0 0.5572739 0.6414971 0 0.06841794 0.5246345 0 0.5437806 0.5510509 0 0.03803112 0.5328575 0 0.05632031 0.4808474 0 0.1952502 0.4150049 0 0.5293333 0.5920136 0 0.5205956 0.4893743 0 -0.01059683 0.678619 0 0.1805121 0.8141682 0 0.5364836 0.5066301 0 0.6378214 0.6383674 0 0.708786 0.6353418 0 0.7588579 0.6364923 0 0.8030941 0.6674026 0 0.8644437 0.7333555 0 0.2086652 0.8309996 0 0.5751112 0.6787344 0 0.3996707 0.8384848 0 0.3771969 0.8567603 0 0.4782482 0.6338547 0 0.08578211 0.6933461 0 0.05139778 0.553337 0 0.5285062 0.4635767 0 0.440981 0.4565367 0 0.5174716 0.4101516 0 0.0830791 0.6474487 0 0.06924778 0.7047316 0 0.09454077 0.5159493 0 0.09815365 0.5323014 0 0.3925188 0.5275108 0 0.3914459 0.5055095 0 0.4025862 0.5045354 0 0.3461271 0.5970934 0 0.07854366 0.7164239 0 0.2666566 0.3966942 0 0.2854551 0.4148121 0 0.1272899 0.5852777 0 0.1888536 0.6033749 0 0.4898356 0.6785566 0 0.2525382 0.8301162 0 0.1196073 0.8061025 0 0.374016 0.5487273 0 0.07027382 0.5269256 0 0.08121002 0.5110527 0 0.09982252 0.4931259 0 0.4637609 0.596195 0 0.3271201 0.8483956 0 0.2315769 0.8328779 0 0.102031 0.7942823 0 0.514109 0.6510028 0 0.07134627 0.732296 0</float_array>
          <technique_common>
            <accessor source="#geom-ggrockthree400-map1-array" count="302" stride="3">
              <param name="S" type="float"/>
              <param name="T" type="float"/>
              <param name="P" type="float"/>
            </accessor>
          </technique_common>
        </source>
        <vertices id="geom-ggrockthree400-vertices">
          <input semantic="POSITION" source="#geom-ggrockthree400-positions"/>
        </vertices>
        <triangles material="greyrock_1" count="488">
          <input semantic="VERTEX" source="#geom-ggrockthree400-vertices" offset="0"/>
          <input semantic="NORMAL" source="#geom-ggrockthree400-normals" offset="1"/>
          <input semantic="TEXCOORD" source="#geom-ggrockthree400-map1" offset="2" set="1"/>
          <p>230 0 27 169 1 106 183 2 119 181 3 12 114 4 13 195 5 15 203 6 16 47 7 69 158 8 40 76 9 0 66 10 55 116 11 56 218 12 41 189 13 42 19 14 43 44 15 104 88 16 101 213 17 177 74 18 46 53 19 47 92 20 48 60 21 105 167 22 186 87 23 25 147 24 197 104 25 113 79 26 22 61 27 34 130 28 195 131 29 196 175 30 118 173 31 120 67 32 38 48 33 49 113 34 50 188 35 51 53 19 47 172 36 52 198 37 53 84 38 1 125 39 2 133 40 3 238 41 4 63 42 5 15 43 14 148 44 6 199 45 7 126 46 8 66 10 55 69 47 70 202 48 71 96 49 57 72 50 58 19 14 43 83 51 59 185 52 60 45 53 61 203 6 16 132 54 62 47 7 69 95 55 63 121 56 64 115 57 65 184 58 66 182 59 67 118 60 74 168 61 185 87 23 25 191 62 184 231 63 114 64 64 115 211 65 33 216 66 180 151 67 103 79 26 22 111 68 85 155 69 86 77 70 87 226 71 9 126 46 8 112 72 10 125 39 2 50 73 88 59 74 89 51 75 78 48 33 49 128 76 80 228 77 81 121 56 64 95 55 63 17 78 82 143 79 90 215 80 91 37 81 11 85 82 17 112 72 10 202 48 71 69 47 70 48 33 72 180 83 116 153 84 121 211 65 33 140 85 124 19 14 43 98 86 97 209 87 100 149 88 122 35 89 126 243 90 127 129 91 128 16 92 129 91 93 130 201 94 131 227 95 132 131 29 196 4 96 31 71 97 117 98 86 97 19 14 43 150 98 133 115 57 65 239 99 134 208 100 135 207 101 136 22 102 137 185 52 60 89 103 54 45 53 61 127 104 99 80 105 295 106 106 68 47 7 69 152 107 138 91 93 130 24 108 139 218 12 41 19 14 43 72 50 58 159 109 140 188 35 51 113 34 50 115 57 65 42 110 142 194 111 143 124 112 199 67 32 38 62 113 200 39 114 144 99 115 152 122 116 170 51 75 78 128 76 80 57 117 173 66 10 55 43 118 230 69 47 70 77 70 87 155 69 86 105 119 92 110 120 175 100 121 176 210 122 204 185 52 60 83 51 59 207 101 136 232 123 205 160 124 206 82 125 207 139 126 39 30 127 201 153 84 121 97 128 83 145 129 84 3 130 145 4 96 31 104 25 113 147 24 197 70 131 24 176 132 192 168 61 185 76 9 0 224 133 146 66 10 55 131 29 196 71 97 117 55 134 36 148 44 29 234 135 264 134 136 188 86 137 93 237 138 94 50 73 88 149 88 122 46 139 208 35 89 126 111 68 85 174 140 95 84 38 1 172 36 52 135 141 209 19 14 43 144 142 210 192 143 211 35 89 126 187 144 161 245 145 162 5 146 164 73 147 107 167 22 186 60 21 105 63 42 212 238 41 213 190 148 214 17 78 82 179 149 215 93 150 216 17 78 82 93 150 216 143 79 90 199 45 7 89 103 54 127 104 99 26 151 255 7 152 218 39 114 144 48 33 72 94 153 147 97 128 83 20 154 219 156 155 220 129 91 128 152 107 138 201 94 131 91 93 130 141 156 221 214 157 222 10 158 223 108 159 224 123 160 225 66 10 55 158 8 40 122 116 170 99 115 152 212 161 226 164 162 227 25 163 228 43 118 230 146 164 151 27 165 153 81 166 229 43 118 230 136 167 231 241 168 182 191 62 184 87 23 25 151 67 103 216 66 180 219 169 179 23 170 73 102 171 75 5 146 76 45 53 61 223 172 232 197 173 233 46 139 208 195 5 15 114 4 13 117 174 234 46 139 208 149 88 122 221 175 77 47 7 69 161 176 79 39 114 144 122 116 170 26 151 255 220 177 235 48 33 72 3 130 145 3 130 145 48 33 72 97 128 83 200 178 237 232 123 205 82 125 207 22 102 137 103 179 238 154 180 239 50 73 165 162 181 166 86 137 167 177 182 111 142 183 20 87 23 25 16 92 129 240 184 240 51 75 78 51 75 78 204 185 241 16 92 129 151 67 103 105 119 267 79 26 22 110 120 175 2 186 242 52 187 244 118 60 74 96 49 57 184 58 66 53 19 47 170 188 245 12 189 246 30 127 201 139 126 39 54 190 202 211 65 33 173 31 120 175 30 118 186 191 44 150 98 133 55 134 45 123 160 225 108 159 224 21 192 158 77 70 21 105 119 267 151 67 103 213 17 177 205 193 19 44 15 104 16 92 129 204 185 241 243 90 127 27 165 247 146 164 151 57 117 173 195 5 15 58 194 259 181 3 12 17 78 82 190 148 214 238 41 213 84 38 1 133 40 3 15 43 14 86 137 93 15 43 14 237 138 94 183 2 119 169 1 106 13 195 26 87 23 25 168 61 185 60 21 105 48 33 72 220 177 235 202 48 71 61 27 34 153 84 121 180 83 116 67 32 141 221 175 77 62 113 148 161 176 79 62 113 148 221 175 77 15 43 14 171 196 96 84 38 1 190 148 214 137 197 266 63 42 212 211 65 33 225 198 194 180 83 116 233 199 191 178 200 190 4 96 31 28 201 268 65 202 269 149 88 122 52 187 98 65 202 269 28 201 155 123 160 225 206 203 270 66 10 55 136 167 231 43 118 230 66 10 55 221 175 77 67 32 141 7 152 149 145 129 84 97 128 83 67 32 236 134 136 188 68 204 109 148 44 29 36 205 108 167 22 186 73 147 107 157 206 248 48 33 72 69 47 70 43 118 230 157 206 248 69 47 70 236 207 183 165 208 181 235 209 23 233 199 191 70 131 24 178 200 190 71 97 117 6 210 198 55 134 36 79 26 22 163 211 37 147 24 197 96 49 57 118 60 74 72 50 58 10 158 223 72 50 58 141 156 221 62 113 148 161 176 79 230 0 150 36 205 108 73 147 107 5 146 28 215 80 91 143 79 90 22 102 137 170 188 245 208 100 135 239 99 134 13 195 26 176 132 192 231 63 114 67 32 38 124 112 199 175 30 118 76 9 0 32 212 249 55 134 250 61 27 252 32 212 249 244 213 256 125 39 2 84 38 1 174 140 95 77 70 21 56 214 178 14 215 102 38 216 271 78 217 276 22 102 137 78 217 276 38 216 271 138 218 277 52 187 98 2 186 156 79 26 157 79 26 123 140 85 124 98 86 97 5 146 76 217 219 294 23 170 73 223 172 232 196 220 278 29 221 279 81 166 229 40 222 280 120 223 281 43 118 230 81 166 229 0 224 282 164 162 227 82 125 207 99 115 152 82 125 207 42 110 142 200 178 237 160 124 206 207 101 136 83 51 59 29 221 279 197 173 233 223 172 232 84 38 1 117 174 234 111 68 85 84 38 1 171 196 96 117 174 234 15 43 14 86 137 93 226 71 159 15 43 14 85 82 160 37 81 163 86 137 167 162 181 166 33 225 168 126 46 8 226 71 9 86 137 167 134 136 188 87 23 25 68 204 109 87 23 25 9 226 110 177 182 111 9 226 110 50 73 262 177 182 111 242 227 112 50 73 262 125 39 18 199 45 7 148 44 6 89 103 54 89 103 54 148 44 6 187 144 161 20 154 219 228 77 81 156 155 220 24 108 139 90 228 283 20 154 219 227 95 132 136 167 231 91 93 130 10 158 223 214 157 222 206 203 270 181 3 12 58 194 259 17 78 82 215 80 91 92 20 48 17 78 82 143 79 90 93 150 216 229 229 284 1 230 301 93 150 174 179 149 217 97 128 285 94 153 286 39 114 144 188 35 51 159 109 140 39 114 144 115 57 65 194 111 143 95 55 63 129 91 128 156 155 220 16 92 129 96 49 57 53 19 47 12 189 246 19 14 43 135 141 209 96 49 57 7 152 149 67 32 141 97 128 243 39 114 144 7 152 218 97 128 285 55 134 45 6 210 125 186 191 44 98 86 97 163 211 154 79 26 123 25 163 228 164 162 227 99 115 152 39 114 144 159 109 140 99 115 152 100 121 176 19 14 43 140 85 124 19 14 43 144 142 210 172 36 52 64 64 115 101 231 32 4 96 31 64 64 115 231 63 114 176 132 192 223 172 251 45 53 253 102 171 75 89 103 54 187 144 161 45 53 61 103 179 238 11 232 287 49 233 288 207 101 136 160 124 206 11 232 287 4 96 31 31 234 189 104 25 113 235 209 23 219 169 179 216 66 180 52 187 98 79 26 157 105 119 92 65 202 269 52 187 98 105 119 92 217 219 294 5 146 76 106 106 68 230 0 150 161 176 79 193 235 254 107 236 257 18 237 260 61 27 252 139 126 273 18 237 260 107 236 257 55 134 45 21 192 158 108 159 169 55 134 250 224 133 146 76 9 0 19 14 43 189 13 42 150 98 133 21 192 158 109 238 289 123 160 225 52 187 244 28 201 268 110 120 175 35 89 126 192 143 211 209 87 100 111 68 85 34 239 297 65 202 269 111 68 85 117 174 234 34 239 297 179 149 217 112 72 10 1 230 301 127 104 99 138 218 277 199 45 7 113 34 50 48 33 49 51 75 78 25 163 228 113 34 50 51 75 78 92 20 48 53 19 47 114 4 13 198 37 53 114 4 13 53 19 47 200 178 237 42 110 142 115 57 65 208 100 135 154 180 239 115 57 65 244 213 256 116 11 56 61 27 252 220 177 235 61 27 252 116 11 56 117 174 234 166 240 290 46 139 208 171 196 96 8 241 298 117 174 234 141 156 221 72 50 58 118 60 74 118 60 74 90 228 283 24 108 139 37 81 163 119 242 171 15 43 14 179 149 215 17 78 82 119 242 291 0 224 282 120 223 281 57 117 173 120 223 281 0 224 282 81 166 229 121 56 64 182 59 67 184 58 66 115 57 65 121 56 64 239 99 134 26 151 255 122 116 170 47 7 69 122 116 170 158 8 40 47 7 69 10 158 223 206 203 270 123 160 225 123 160 225 109 238 289 10 158 223 124 112 199 13 195 26 75 243 193 13 195 26 124 112 199 183 2 119 125 39 18 213 17 177 88 16 101 125 39 18 174 140 261 14 215 102 126 46 8 234 135 258 148 44 6 86 137 167 33 225 168 126 46 8 127 104 99 45 53 61 78 217 276 138 218 277 127 104 99 78 217 276 128 76 274 48 33 72 157 206 248 57 117 173 128 76 80 27 165 247 120 223 281 40 222 280 129 91 128 129 91 128 40 222 280 222 244 292 225 198 194 4 96 31 130 28 195 130 28 195 4 96 31 131 29 196 131 29 196 32 212 35 61 27 34 55 134 36 32 212 35 131 29 196 23 170 293 217 219 294 196 220 278 47 7 69 132 54 62 80 105 295 59 74 89 133 40 3 125 39 2 237 138 94 15 43 14 133 40 3 9 226 110 134 136 188 33 225 30 9 226 110 87 23 25 134 136 188 53 19 47 135 141 209 172 36 52 96 49 57 135 141 209 53 19 47 41 245 296 91 93 130 136 167 231 66 10 55 41 245 296 136 167 231 195 5 15 137 197 266 58 194 259 63 42 5 137 197 266 8 241 298 229 229 284 138 218 277 38 216 271 138 218 277 1 230 301 112 72 10 139 126 273 3 130 145 145 129 84 107 236 257 3 130 145 139 126 273 210 122 204 140 85 124 79 26 123 140 85 124 210 122 204 100 121 176 118 60 74 24 108 139 141 156 221 24 108 139 91 93 130 141 156 221 165 208 181 236 207 183 241 168 182 88 16 101 44 15 104 142 183 20 229 229 284 38 216 271 143 79 90 38 216 271 22 102 137 143 79 90 144 142 210 100 121 176 110 120 175 144 142 210 19 14 43 100 121 176 145 129 84 54 190 275 139 126 273 67 32 236 54 190 275 145 129 84 57 117 173 146 164 151 0 224 282 0 224 282 146 164 151 43 118 230 71 97 117 4 96 31 147 24 197 71 97 117 147 24 197 163 211 37 36 205 108 148 44 29 68 204 109 148 44 6 245 145 162 187 144 161 149 88 122 65 202 269 34 239 297 149 88 122 34 239 297 117 174 234 109 238 289 21 192 158 150 98 133 21 192 158 55 134 45 150 98 133 219 169 179 205 193 19 151 67 103 151 67 103 56 214 178 77 70 21 20 154 219 152 107 138 24 108 139 152 107 138 222 244 292 40 222 280 61 27 34 18 237 203 153 84 121 153 84 121 18 237 203 139 126 39 49 233 288 115 57 65 154 180 239 154 180 239 103 179 238 49 233 288 65 202 269 155 69 86 111 68 85 105 119 92 155 69 86 65 202 269 156 155 220 95 55 63 16 92 129 95 55 63 156 155 220 228 77 81 157 206 248 27 165 153 128 76 274 27 165 153 157 206 248 43 118 230 82 125 207 160 124 206 158 8 40 99 115 152 82 125 207 158 8 40 99 115 152 159 109 140 25 163 228 113 34 50 25 163 228 159 109 140 197 173 233 29 221 279 160 124 206 160 124 206 203 6 16 158 8 40 106 106 68 193 235 254 161 176 79 161 176 79 47 7 69 106 106 68 33 225 30 162 181 263 9 226 110 9 226 110 162 181 263 50 73 262 186 191 44 6 210 125 163 211 154 163 211 37 6 210 198 71 97 117 164 162 227 212 161 226 42 110 142 164 162 227 42 110 142 82 125 207 219 169 179 235 209 23 165 208 181 44 15 104 165 208 181 142 183 20 166 240 290 117 174 234 8 241 298 8 241 298 137 197 266 195 5 15 87 23 25 167 22 186 68 204 109 167 22 186 36 205 108 68 204 109 168 61 185 13 195 26 60 21 105 168 61 185 176 132 192 13 195 26 60 21 105 169 1 106 73 147 107 169 1 106 60 21 105 13 195 26 208 100 135 170 188 245 74 18 46 53 19 47 74 18 46 170 188 245 8 241 298 171 196 96 63 42 5 15 43 14 63 42 5 171 196 96 144 142 210 35 89 126 172 36 52 198 37 53 172 36 52 35 89 126 54 190 202 173 31 120 30 127 201 173 31 120 54 190 202 67 32 38 14 215 102 174 140 261 77 70 21 174 140 95 111 68 85 77 70 87 75 243 193 175 30 118 124 112 199 175 30 118 75 243 193 211 65 33 70 131 24 233 199 191 176 132 192 176 132 192 101 231 32 64 64 115 242 227 112 177 182 111 50 73 262 88 16 101 142 183 20 177 182 111 31 234 189 4 96 31 178 200 190 178 200 190 236 207 183 235 209 23 119 242 291 37 81 299 179 149 215 112 72 10 179 149 217 37 81 11 180 83 116 130 28 195 61 27 34 130 28 195 180 83 116 225 198 194 114 4 13 181 3 12 92 20 48 17 78 82 92 20 48 181 3 12 90 228 283 182 59 67 121 56 64 118 60 74 182 59 67 90 228 283 62 113 200 183 2 119 124 112 199 183 2 119 62 113 200 230 0 27 184 58 66 12 189 246 121 56 64 12 189 246 184 58 66 96 49 57 45 53 61 185 52 60 78 217 276 185 52 60 22 102 137 78 217 276 163 211 154 98 86 97 186 191 44 150 98 133 186 191 44 98 86 97 102 171 272 45 53 61 187 144 161 5 146 164 102 171 272 187 144 161 39 114 144 94 153 286 188 35 51 188 35 51 94 153 286 48 33 49 109 238 289 189 13 42 218 12 41 150 98 133 189 13 42 109 238 289 190 148 214 17 78 82 58 194 259 137 197 266 190 148 214 58 194 259 241 168 182 70 131 24 191 62 184 168 61 185 191 62 184 70 131 24 110 120 175 192 143 211 144 142 210 209 87 100 192 143 211 110 120 175 73 147 107 193 235 187 5 146 28 193 235 254 106 106 68 5 146 76 194 111 143 16 92 129 95 55 63 42 110 142 16 92 129 194 111 143 166 240 290 195 5 15 46 139 208 195 5 15 166 240 290 8 241 298 196 220 278 132 54 62 203 6 16 80 105 295 132 54 62 196 220 278 160 124 206 83 51 59 197 173 233 197 173 233 83 51 59 45 53 61 114 4 13 198 37 53 46 139 208 35 89 126 46 139 208 198 37 53 199 45 7 138 218 277 112 72 10 199 45 7 112 72 10 126 46 8 115 57 65 49 233 288 200 178 237 200 178 237 49 233 288 232 123 205 40 222 280 201 94 131 152 107 138 227 95 132 201 94 131 40 222 280 202 48 71 116 11 56 66 10 55 116 11 56 202 48 71 220 177 235 203 6 16 160 124 206 29 221 279 203 6 16 29 221 279 196 220 278 57 117 173 204 185 241 51 75 78 243 90 127 204 185 241 57 117 173 151 67 103 205 193 19 56 214 178 56 214 178 205 193 19 213 17 177 41 245 296 66 10 55 206 203 270 91 93 130 41 245 296 206 203 270 22 102 137 207 101 136 103 179 238 11 232 287 103 179 238 207 101 136 74 18 46 22 102 137 208 100 135 22 102 137 154 180 239 208 100 135 149 88 122 209 87 100 28 201 268 110 120 175 28 201 268 209 87 100 79 26 123 2 186 242 210 122 204 210 122 204 2 186 242 110 120 175 30 127 201 211 65 33 153 84 121 211 65 33 30 127 201 173 31 120 212 161 226 240 184 240 16 92 129 16 92 129 42 110 142 212 161 226 14 215 102 213 17 177 125 39 18 213 17 177 14 215 102 56 214 178 91 93 130 214 157 222 141 156 221 206 203 270 214 157 222 91 93 130 92 20 48 215 80 91 74 18 46 22 102 137 74 18 46 215 80 91 104 25 113 216 66 180 79 26 22 216 66 180 104 25 113 31 234 189 106 106 68 80 105 295 217 219 294 196 220 278 217 219 294 80 105 295 10 158 223 218 12 41 72 50 58 218 12 41 10 158 223 109 238 289 205 193 19 219 169 179 44 15 104 165 208 181 44 15 104 219 169 179 61 27 252 220 177 235 107 236 257 3 130 145 107 236 257 220 177 235 47 7 69 221 175 77 26 151 255 7 152 149 26 151 255 221 175 77 129 91 128 222 244 292 20 154 219 152 107 138 20 154 219 222 244 292 102 171 75 23 170 73 223 172 251 196 220 278 223 172 232 23 170 293 66 10 55 224 133 300 108 159 224 108 159 169 224 133 172 55 134 45 225 198 194 211 65 33 64 64 115 4 96 31 225 198 194 64 64 115 226 71 159 85 82 160 15 43 14 112 72 10 85 82 17 226 71 9 136 167 231 227 95 132 81 166 229 40 222 280 81 166 229 227 95 132 228 77 81 20 154 219 90 228 283 121 56 64 228 77 81 90 228 283 93 150 216 1 230 301 229 229 284 138 218 277 229 229 284 1 230 301 230 0 27 193 235 187 73 147 107 230 0 27 73 147 107 169 1 106 231 63 114 75 243 193 13 195 26 211 65 33 75 243 193 231 63 114 232 123 205 11 232 287 160 124 206 232 123 205 49 233 288 11 232 287 4 96 31 101 231 32 233 199 191 233 199 191 101 231 32 176 132 192 33 225 168 234 135 258 126 46 8 134 136 188 234 135 264 33 225 30 235 209 23 31 234 189 178 200 190 31 234 189 235 209 23 216 66 180 70 131 24 241 168 182 236 207 183 70 131 24 236 207 183 178 200 190 50 73 88 237 138 94 59 74 89 133 40 3 59 74 89 237 138 94 15 43 14 119 242 171 238 41 4 238 41 213 119 242 291 17 78 82 239 99 134 121 56 64 12 189 246 12 189 246 170 188 245 239 99 134 51 75 78 240 184 240 25 163 228 25 163 228 240 184 240 212 161 226 241 168 182 142 183 20 165 208 181 87 23 25 142 183 20 241 168 182 125 39 18 88 16 101 242 227 112 177 182 111 242 227 112 88 16 101 57 117 173 120 223 281 243 90 127 129 91 128 243 90 127 120 223 281 116 11 56 244 213 256 76 9 0 32 212 249 76 9 0 244 213 256 5 146 28 245 145 265 36 205 108 36 205 108 245 145 265 148 44 29</p>
        </triangles>
      </mesh>
    </geometry>
    <geometry id="geom-ggrockthree100" name="ggrockthree100">
      <mesh>
        <source id="geom-ggrockthree100-positions">
          <float_array id="geom-ggrockthree100-positions-array" count="231">1.492867 0.3419865 1.212094 -0.390157 1.601493 0.1935402 0.508062 0.9782903 -0.1584782 -0.1263942 -1.497575 0.2601572 0.4799703 1.579826 0.214497 1.247218 -1.007319 0.373962 1.343916 0.6632108 0.1876563 -0.1347907 -1.545655 0.4213563 1.587871 0.2089894 0.9165496 -0.7024711 1.485556 0.2711931 0.7588603 1.288548 0.3213981 -1.098412 -0.4522703 0.03035479 -1.62948 -0.3663622 0.5233099 -0.3897158 -1.450169 0.4837964 1.499807 0.01774601 0.5085359 -1.025306 0.2072413 -0.08330619 -0.5763318 1.548356 0.1915394 1.364953 -0.1957384 0.168121 0.6015325 1.583053 0.3380264 1.135898 0.9808952 0.2296412 0.5755144 -1.078253 0.1307421 -1.621856 0.1552557 0.5452363 1.154216 -0.8615425 0.1821897 -0.8912634 1.144336 0.03759497 -0.2671092 1.541693 0.07634281 -1.586897 -0.3651009 0.4033017 -1.292133 -0.2003047 0.07503051 -1.509769 -0.6293734 0.608282 1.390252 -0.5978577 0.5140518 1.369923 -0.7120866 0.3958895 -0.2553612 -1.501091 0.3583279 -0.7246949 1.395996 0.09820565 0.6897501 1.488052 0.6049184 -1.652456 -0.2118475 0.5516061 -1.004389 0.5028382 -0.06164866 1.529753 0.0936681 0.854161 1.414716 0.3041183 0.1682719 -0.6440053 -0.9385486 0.1090804 -1.079243 -0.2843543 -0.03538854 0.3335698 1.551001 0.1486925 -0.9656838 0.8411499 -0.01214083 -1.579829 -0.5086654 0.5886021 -0.05552712 -1.38243 0.1830933 -0.1438835 -1.515146 0.4984328 0.7295823 1.453907 0.5404262 -1.457528 -0.3836011 0.2681924 0.08430147 -1.190918 0.1062405 -0.8916799 -0.6755648 0.04871093 -1.644109 -0.0322212 0.5877754 -0.3768752 -1.253009 0.1752462 -1.438897 0.5856584 0.7231582 -1.145497 -0.895946 0.6909329 0.199791 -1.499921 0.4007351 1.480052 0.192137 0.2878527 -0.3809388 -1.344995 0.2708509 -0.3941738 -0.5463104 -0.1459564 -1.617172 -0.04445219 0.3450327 0.5914989 1.41786 0.7631708 -0.03094482 0.1533156 1.25463 0.991282 -0.4431784 0.8861713 -0.7520696 0.7428452 -0.1493451 0.4713874 -0.3461329 -0.2021446 -0.227546 1.593938 0.2334927 0.8834091 1.204842 0.7274715 -1.547219 -0.3480996 0.7361161 1.20655 -1.008046 0.5493045 1.300543 0.3440327 0.07033902 -0.9076798 1.340357 0.2684949 -1.410929 -0.7519249 0.5614092 -0.03676112 -1.438453 0.585166 0.3812654 0.3513386 1.26623 1.527976 0.3138923 0.8339624 1.415586 0.4486772 1.229164 -1.20727 0.8145194 0.7404327 -0.5377182 -1.17846 0.7343282 0.03897807 -0.3487049 1.089273 1.062807 -1.176615 0.3797641</float_array>
          <technique_common>
            <accessor source="#geom-ggrockthree100-positions-array" count="77" stride="3">
              <param name="X" type="float"/>
              <param name="Y" type="float"/>
              <param name="Z" type="float"/>
            </accessor>
          </technique_common>
        </source>
        <source id="geom-ggrockthree100-normals">
          <float_array id="geom-ggrockthree100-normals-array" count="231">-0.9472453 0.08610027 0.3087282 -0.9310896 0.3564475 -0.0775713 -0.8578379 0.1153852 -0.5007997 -0.6169339 0.1846831 -0.7650391 -0.3961922 0.02040835 -0.9179407 0.3530103 -0.4124302 0.8398125 0.9964468 -0.08119228 0.02239773 0.8764859 -0.4608759 0.1391615 -0.9573177 -0.2806118 -0.06928029 -0.8112576 -0.3353623 -0.4789501 -0.656114 -0.7459818 -0.1141295 0.1498492 -0.1506823 -0.9771591 0.5117126 -0.3524957 -0.7835157 0.2061049 -0.5225681 -0.8273109 -0.630523 0.3780313 -0.6778888 -0.6675499 0.7402222 0.08030172 -0.4141498 0.5913504 -0.6919427 -0.4211133 -0.5482508 -0.7225543 -0.396574 -0.4866209 -0.7784145 -0.1191713 -0.2314474 -0.9655208 -0.5889342 -0.148919 -0.7943422 -0.5378757 -0.6633999 -0.5201828 -0.3356241 -0.5292176 -0.779285 -0.06610501 -0.7788241 -0.6237494 -0.8154393 0.4052604 0.413307 -0.6279402 -0.1602353 0.7615876 -0.902373 -0.4267191 0.06028213 -0.7811375 -0.5602303 0.2756199 0.8800864 -0.2175571 0.4220389 0.9274415 -0.2921928 -0.2334003 -0.1121892 -0.9906368 0.07779734 -0.4101067 -0.8716149 -0.2685146 -0.4788986 -0.8405586 0.2532139 -0.1226337 -0.8414881 0.5261737 0.1094021 -0.654026 0.7485194 0.9798133 0.133332 -0.148958 -0.3638413 -0.1734225 -0.9151744 -0.2213042 0.1582119 -0.9622856 -0.03641164 0.687172 -0.7255817 -0.08077144 0.9582165 0.2744031 -0.1864709 0.9743797 0.1257497 -0.3135887 0.935466 -0.1629895 0.5045977 0.07530024 -0.8600646 0.8119968 0.07986989 -0.5781714 0.8049502 -0.2445644 -0.5405955 0.4566265 -0.8739178 -0.1666135 -0.373888 0.616476 0.6929395 0.7917992 -0.5570434 -0.2505126 0.2396433 0.3008018 -0.9230869 0.3105381 0.8135856 -0.4915735 0.478045 0.8658935 -0.147314 0.1075533 0.7258795 -0.6793609 0.3615406 -0.9323463 -0.004324325 0.1214073 -0.4703557 -0.8740857 0.7206798 0.6540859 0.229766 0.7007083 0.5960912 -0.3920244 0.7557218 0.5705041 -0.3215737 -0.6913707 0.2523518 -0.6769972 -0.5111026 -0.449876 -0.7323837 -0.4854937 -0.4013227 -0.7766826 0.5797681 -0.5611832 0.5907134 0.07636645 -0.5297385 -0.8447161 0.8407272 0.4986155 -0.2110938 0.03809883 0.7124681 0.7006695 0.4136285 0.8434114 0.3428828 0.8515832 0.5054055 -0.1391807 -0.9904857 -0.07297192 0.1166756 0.8788108 0.410526 -0.2432281 0.6597929 0.01937655 0.7511977 0.9926907 -0.1206063 0.004396638 -0.4658593 -0.737753 0.4885648 0.5203803 0.3381575 0.7841262 -0.03793662 0.09297534 0.9949455 -0.4207327 0.5659141 0.7090311 -0.1177962 0.03586162 0.99239 -0.2803143 -0.7001132 0.6567079 0.02497007 -0.3460742 0.9378748</float_array>
          <technique_common>
            <accessor source="#geom-ggrockthree100-normals-array" count="77" stride="3">
              <param name="X" type="float"/>
              <param name="Y" type="float"/>
              <param name="Z" type="float"/>
            </accessor>
          </technique_common>
        </source>
        <source id="geom-ggrockthree100-map1">
          <float_array id="geom-ggrockthree100-map1-array" count="399">0.2813197 0.9649675 0 0.1351835 0.8844842 0 0.1631106 0.8780523 0 0.003475295 0.6337284 0 0.01470548 0.7613004 0 0.04708091 0.7835275 0 0.145216 0.9187438 0 0.03260061 0.7775669 0 0.6772885 0.6342974 0 0.598354 0.6424373 0 0.5518691 0.7150313 0 0.787466 0.7139235 0 0.7637164 0.8077601 0 0.8643231 0.7671027 0 0.9001305 0.7685039 0 0.828756 0.698207 0 0.7774321 0.6365985 0 0.6191174 0.8009123 0 0.6062476 0.8891411 0 0.5803735 0.8428308 0 0.5436338 0.8266153 0 0.5477231 0.7949886 0 0.8310584 0.9127542 0 0.67564 0.9318695 0 0.5269979 0.7010348 0 0.3679843 0.4311275 0 0.4966334 0.6005436 0 0.06420593 0.5725351 0 0.2346573 0.6031092 0 0.3373748 0.6135471 0 0.4800676 0.4388647 0 0.06497759 0.5196956 0 0.04628594 0.5177705 0 0.05484045 0.5010853 0 0.3786615 0.4649978 0 0.1223551 0.7744689 0 0.4782931 0.3596689 0 0.3702471 0.9125204 0 0.2418816 0.9875362 0 0.413996 0.8952664 0 0.1612379 0.9817739 0 0.3266635 0.9366215 0 0.4420443 0.8797491 0 0.463469 0.8188347 0 0.5268323 0.7267858 0 0.09773874 0.6069142 0 0.1882922 0.3669341 0 0.2275523 0.4228998 0 0.5104443 0.4522759 0 0.5277912 0.6283841 0 0.4668538 0.3750944 0 0.1213258 0.4142446 0 0.2136272 0.3899752 0 0.06462567 0.4504201 0 0.4352541 0.4689505 0 0.5189411 0.7489974 0 0.420701 0.867267 0 0.4637037 0.8851705 0 0.4702503 0.9110653 0 0.1165935 0.9607911 0 0.1034481 0.9351143 0 0.03673966 0.5770706 0 0.02065653 0.5827708 0 0.09520762 0.9172095 0 0.03614648 0.5395316 0 -0.07434291 0.7627279 0 -0.03716735 0.7279355 0 -0.02306569 0.7573502 0 -0.01912311 0.7169188 0 0.5119349 0.6636307 0 0.1124643 0.9014562 0 0.5236126 0.666459 0 0.06822866 0.7514499 0 0.6476406 0.6610346 0 0.8822274 0.7678034 0 0.5456786 0.8108019 0 0.8476908 0.8399284 0 0.6863484 0.9051594 0 0.7533492 0.9223118 0 0.6409437 0.9105053 0 0.4510049 0.7992154 0 0.2752546 0.8232682 0 0.1630329 0.8337014 0 0.1428559 0.8166595 0 0.09421438 0.7738588 0 0.08654404 0.7546768 0 0.06112704 0.7679502 0 0.2230978 0.4012776 0 0.4809812 0.6667524 0 0.5062517 0.6598836 0 0.2836877 0.4889296 0 0.4085699 0.5152002 0 0.07740396 0.5353436 0 0.5042245 0.3449681 0 0.4402774 0.8187194 0 0.2247193 0.361055 0 0.421122 0.8355007 0 0.2885304 0.6423634 0 0.3926141 0.4666289 0 0.4487154 0.4803739 0 0.5486768 0.6023531 0 0.5572739 0.6414971 0 0.06841794 0.5246345 0 0.5437806 0.5510509 0 0.03803112 0.5328575 0 0.05632031 0.4808474 0 0.1952502 0.4150049 0 -0.01059683 0.678619 0 0.5364836 0.5066301 0 0.6378214 0.6383674 0 0.708786 0.6353418 0 0.7588579 0.6364923 0 0.8030941 0.6674026 0 0.8644437 0.7333555 0 0.5751112 0.6787344 0 0.3996707 0.8384848 0 0.3771969 0.8567603 0 0.08578211 0.6933461 0 0.05139778 0.553337 0 0.5285062 0.4635767 0 0.440981 0.4565367 0 0.5174716 0.4101516 0 0.09815365 0.5323014 0 0.4025862 0.5045354 0 0.2666566 0.3966942 0 0.2854551 0.4148121 0 0.1196073 0.8061025 0 0.07027382 0.5269256 0 0.09982252 0.4931259 0 0.2315769 0.8328779 0 0.102031 0.7942823 0 0.514109 0.6510028 0 0.07134627 0.732296 0</float_array>
          <technique_common>
            <accessor source="#geom-ggrockthree100-map1-array" count="133" stride="3">
              <param name="S" type="float"/>
              <param name="T" type="float"/>
              <param name="P" type="float"/>
            </accessor>
          </technique_common>
        </source>
        <vertices id="geom-ggrockthree100-vertices">
          <input semantic="POSITION" source="#geom-ggrockthree100-positions"/>
        </vertices>
        <triangles material="greyrock" count="150">
          <input semantic="VERTEX" source="#geom-ggrockthree100-vertices" offset="0"/>
          <input semantic="NORMAL" source="#geom-ggrockthree100-normals" offset="1"/>
          <input semantic="TEXCOORD" source="#geom-ggrockthree100-map1" offset="2" set="1"/>
          <p>48 0 1 21 1 2 56 2 6 34 3 0 15 4 38 56 2 6 59 5 90 14 6 25 35 7 34 12 8 5 25 9 7 68 10 132 61 11 12 22 12 22 20 13 76 23 14 37 67 15 116 31 16 39 37 17 15 47 18 112 55 19 11 26 20 40 56 2 6 15 4 38 54 21 61 49 22 62 3 23 64 21 1 82 48 0 83 50 24 129 64 25 35 41 26 84 27 27 85 14 6 30 28 28 50 29 29 36 7 30 31 30 31 32 3 23 33 13 32 27 43 33 92 69 34 122 53 35 48 14 6 30 29 29 36 15 4 65 38 36 66 26 20 67 60 37 73 31 16 114 24 38 10 62 39 80 1 40 94 16 41 96 66 42 77 36 43 23 17 44 78 23 14 9 31 16 114 60 37 73 22 12 46 76 45 106 20 13 51 16 41 42 67 15 116 9 46 56 76 45 106 22 12 46 5 47 52 53 35 48 29 29 36 22 12 93 2 48 17 4 49 75 18 50 20 24 38 10 39 51 21 2 48 17 20 13 51 52 52 128 46 53 53 63 54 26 10 55 100 18 50 101 19 56 103 10 55 100 63 54 26 34 3 0 50 24 129 40 57 41 16 41 42 1 40 57 24 38 58 3 23 33 52 52 128 7 30 31 56 2 6 26 20 40 45 58 59 56 2 6 25 9 60 12 8 63 26 20 67 38 36 66 11 59 68 68 10 132 45 58 4 26 20 67 60 37 73 15 4 110 34 3 8 68 10 132 27 27 72 41 26 86 29 29 124 28 28 125 65 60 47 5 47 52 22 12 46 29 29 95 65 60 47 5 47 87 29 29 124 18 50 24 4 49 44 62 39 80 62 39 80 39 51 55 24 38 43 43 33 102 13 32 104 30 31 32 16 41 42 24 38 58 31 16 39 67 15 116 16 41 42 31 16 39 46 53 53 52 52 128 42 61 105 53 35 48 6 62 108 19 56 103 36 43 119 6 62 108 53 35 48 18 50 24 57 63 88 32 64 69 18 50 101 44 65 49 63 54 26 16 41 96 9 46 115 62 39 80 12 8 63 33 66 70 56 2 6 41 26 84 64 25 35 33 66 126 34 3 8 40 57 109 60 37 73 68 10 132 47 18 107 37 17 3 26 20 67 11 59 68 68 10 132 35 7 120 14 6 30 71 67 99 0 68 123 35 7 34 8 69 98 2 48 17 10 55 19 19 56 18 18 50 20 10 55 19 2 48 17 53 35 48 17 44 121 36 43 119 22 12 93 17 44 121 53 35 48 37 17 3 49 22 62 54 21 61 19 56 18 6 62 79 66 42 77 66 42 77 6 62 79 36 43 23 71 67 99 8 69 54 35 7 120 11 59 16 38 36 111 55 19 11 55 19 11 38 36 111 15 4 110 62 39 80 4 49 44 39 51 55 39 51 21 4 49 75 2 48 17 66 42 77 17 44 78 22 12 22 60 37 73 40 57 109 23 14 9 40 57 41 67 15 116 23 14 37 33 66 126 12 8 130 41 26 84 68 10 132 41 26 86 12 8 5 61 11 12 20 13 76 46 53 13 30 31 118 13 32 27 54 21 61 3 23 64 30 31 118 54 21 61 59 5 90 28 28 125 14 6 25 55 19 11 42 61 74 3 23 14 42 61 105 52 52 128 3 23 33 24 38 43 1 40 94 62 39 80 30 31 32 7 30 31 43 33 102 52 52 128 43 33 92 7 30 127 63 54 26 44 65 131 32 64 89 32 64 69 44 65 71 18 50 24 45 58 59 25 9 60 56 2 6 68 10 132 25 9 7 45 58 4 46 53 13 42 61 74 55 19 11 11 59 68 47 18 107 68 10 132 55 19 11 47 18 112 11 59 16 56 2 6 33 66 70 48 0 1 48 0 83 33 66 126 64 25 35 3 23 14 49 22 113 55 19 11 55 19 11 49 22 113 37 17 15 32 64 89 57 63 88 63 54 26 69 34 122 51 70 117 13 32 27 64 25 35 50 24 129 48 0 83 67 15 116 62 39 80 9 46 115 59 5 90 35 7 34 0 68 123 72 71 91 70 72 29 59 5 90 14 6 30 53 35 48 63 54 26 53 35 48 19 56 103 63 54 26 51 70 117 54 21 61 13 32 27 51 70 117 37 17 3 54 21 61 61 11 12 66 42 77 22 12 22 55 19 11 15 4 110 60 37 73 56 2 6 21 1 2 50 24 129 50 24 129 34 3 0 56 2 6 72 71 91 57 63 88 70 72 29 73 73 81 58 74 97 62 39 80 64 25 35 58 74 97 50 24 129 74 75 45 69 34 122 75 76 28 75 76 28 69 34 122 59 5 90 76 45 106 5 47 87 65 60 47 2 48 17 60 37 73 24 38 10 60 37 73 2 48 17 55 19 11 61 11 12 55 19 11 2 48 17 46 53 13 55 19 11 61 11 12 62 39 80 57 63 88 18 50 24 58 74 97 57 63 88 62 39 80 72 71 91 63 54 26 57 63 88 8 69 54 71 67 99 0 68 123 51 70 117 58 74 97 64 25 35 64 25 35 27 27 85 51 70 117 65 60 47 28 28 125 59 5 90 65 60 47 59 5 90 52 52 128 19 56 18 66 42 77 2 48 17 61 11 12 2 48 17 66 42 77 62 39 80 67 15 116 73 73 81 67 15 116 40 57 41 50 24 129 51 70 117 27 27 85 68 10 132 68 10 132 37 17 3 51 70 117 43 33 92 52 52 128 69 34 122 59 5 90 69 34 122 52 52 128 70 72 29 58 74 97 59 5 90 58 74 97 70 72 29 57 63 88 63 54 26 0 68 123 71 67 99 63 54 26 71 67 99 14 6 30 0 68 123 72 71 91 59 5 90 72 71 91 0 68 123 63 54 26 73 73 81 50 24 129 58 74 97 50 24 129 73 73 81 67 15 116 51 70 117 69 34 122 74 75 45 74 75 45 75 76 28 51 70 117 75 76 28 59 5 90 58 74 97 75 76 28 58 74 97 51 70 117 52 52 128 20 13 51 76 45 106 76 45 106 65 60 47 52 52 128</p>
        </triangles>
      </mesh>
    </geometry>
    <geometry id="geom-ggrockthree200" name="ggrockthree200">
      <mesh>
        <source id="geom-ggrockthree200-positions">
          <float_array id="geom-ggrockthree200-positions-array" count="369">1.492867 0.3419865 1.212094 -0.390157 1.601493 0.1935402 0.508062 0.9782903 -0.1584782 -0.1263942 -1.497575 0.2601572 0.4799703 1.579826 0.214497 1.247218 -1.007319 0.373962 1.343916 0.6632108 0.1876563 -0.1347907 -1.545655 0.4213563 1.587871 0.2089894 0.9165496 -0.7024711 1.485556 0.2711931 0.7588603 1.288548 0.3213981 -1.098412 -0.4522703 0.03035479 -1.62948 -0.3663622 0.5233099 -0.3897158 -1.450169 0.4837964 1.499807 0.01774601 0.5085359 -1.025306 0.2072413 -0.08330619 -0.5763318 1.548356 0.1915394 1.364953 -0.1957384 0.168121 0.6015325 1.583053 0.3380264 1.135898 0.9808952 0.2296412 0.5755144 -1.078253 0.1307421 -1.621856 0.1552557 0.5452363 1.154216 -0.8615425 0.1821897 -0.8912634 1.144336 0.03759497 -0.2671092 1.541693 0.07634281 -1.586897 -0.3651009 0.4033017 -1.292133 -0.2003047 0.07503051 -1.509769 -0.6293734 0.608282 1.390252 -0.5978577 0.5140518 1.369923 -0.7120866 0.3958895 -0.2553612 -1.501091 0.3583279 -0.7246949 1.395996 0.09820565 0.6897501 1.488052 0.6049184 -1.652456 -0.2118475 0.5516061 -1.004389 0.5028382 -0.06164866 1.529753 0.0936681 0.854161 1.414716 0.3041183 0.1682719 -0.6440053 -0.9385486 0.1090804 -1.079243 -0.2843543 -0.03538854 0.3335698 1.551001 0.1486925 -0.9656838 0.8411499 -0.01214083 -1.579829 -0.5086654 0.5886021 -0.05552712 -1.38243 0.1830933 -0.1438835 -1.515146 0.4984328 0.7295823 1.453907 0.5404262 -1.457528 -0.3836011 0.2681924 0.08430147 -1.190918 0.1062405 -0.8916799 -0.6755648 0.04871093 -1.644109 -0.0322212 0.5877754 -0.3768752 -1.253009 0.1752462 -1.438897 0.5856584 0.7231582 -1.145497 -0.895946 0.6909329 0.199791 -1.499921 0.4007351 1.480052 0.192137 0.2878527 -0.3809388 -1.344995 0.2708509 -0.3941738 -0.5463104 -0.1459564 -1.617172 -0.04445219 0.3450327 0.5914989 1.41786 0.7631708 -0.03094482 0.1533156 1.25463 0.991282 -0.4431784 0.8861713 -0.7520696 0.7428452 -0.1493451 0.4713874 -0.3461329 -0.2021446 -0.227546 1.593938 0.2334927 0.8834091 1.204842 0.7274715 -1.547219 -0.3480996 0.7361161 1.20655 -1.008046 0.5493045 1.300543 0.3440327 0.07033902 -0.9076798 1.340357 0.2684949 -1.410929 -0.7519249 0.5614092 -0.03676112 -1.438453 0.585166 0.3812654 0.3513386 1.26623 1.527976 0.3138923 0.8339624 1.415586 0.4486772 1.229164 -1.20727 0.8145194 0.7404327 -0.5377182 -1.17846 0.7343282 0.03897807 -0.3487049 1.089273 1.062807 -1.176615 0.3797641 0.9254372 0.8411269 1.062804 0.2781994 0.9979249 -0.1815155 -0.4951177 1.5429 0.2981665 1.006981 -0.1143344 1.123827 -0.165051 -1.271213 0.1089444 0.7806566 0.2752506 1.221665 -0.7415742 -0.4280673 0.9934651 0.5828336 1.569885 0.5362288 0.08284122 1.466002 0.4028305 -0.4992968 0.1139754 1.151628 1.496041 0.1669582 1.084102 1.297246 -0.07792775 0.8427464 0.7731028 0.6012449 -0.1448759 -0.725053 1.061659 -0.08887712 1.241982 0.374019 1.282958 0.8387582 -0.03202689 -0.1280799 -1.544158 0.1921757 0.7328644 -0.1964956 0.8683344 -0.2130443 -0.8568125 -0.3963588 -0.09456276 -1.455789 -0.6454206 0.451893 0.5123835 1.417274 0.09225719 1.496602 0.4910539 1.089942 0.5678469 -1.351044 0.4254036 0.8140867 1.301703 0.506011 0.3704025 1.605041 0.27927 1.414579 0.5071281 0.2784221 -1.261811 0.1052948 0.0409834 0.3382785 0.1628633 1.276919 0.8075708 -0.6271098 -0.02774536 -0.8523861 -1.087597 0.5646871 0.4603224 -0.4481516 0.9264195 -0.9221643 1.274529 0.1544672 0.223258 0.5084658 -0.1319197 1.237154 0.6516656 0.6217098 0.6039004 1.005816 0.9370036 -1.077969 -0.1680385 0.9515839 -1.289824 0.7733054 0.6365985 0.8890476 -0.7743135 0.7655792 1.267943 -0.2809792 0.7280499 -0.1706188 -1.465204 0.5684493 -0.8634142 1.028923 0.6849013 0.2104064 -1.472094 0.3351519 -0.06325978 -0.6536089 -0.1506748 0.6655306 1.178684 0.1071427 1.270973 0.6286446 0.1044111 -0.4446009 -0.8455575 -0.04206062</float_array>
          <technique_common>
            <accessor source="#geom-ggrockthree200-positions-array" count="123" stride="3">
              <param name="X" type="float"/>
              <param name="Y" type="float"/>
              <param name="Z" type="float"/>
            </accessor>
          </technique_common>
        </source>
        <source id="geom-ggrockthree200-normals">
          <float_array id="geom-ggrockthree200-normals-array" count="369">-0.9694807 0.05944025 0.237853 -0.928198 0.3540246 -0.1145208 -0.8650684 0.1079487 -0.4899017 -0.615527 0.2054833 -0.7608569 -0.352824 0.01424554 -0.9355813 -0.5948607 0.09649496 -0.798016 0.6537834 -0.6254202 0.4259306 0.9945945 -0.09768943 0.03519287 0.8469854 -0.5268817 0.07079181 -0.9623911 -0.2642655 -0.06298371 -0.8244513 -0.2998717 -0.4799552 -0.6713232 -0.5727077 -0.4704585 0.2892465 -0.2979766 -0.9096958 0.5223726 -0.3622991 -0.7719238 0.2050714 -0.5074837 -0.8369026 -0.6073338 0.3559196 -0.7102584 -0.7298939 0.5147194 -0.4497987 -0.4140438 0.6381829 -0.6490688 -0.4574735 -0.5716821 -0.6811002 -0.3848378 -0.5029492 -0.7739134 -0.255368 -0.2158565 -0.94244 -0.5778793 -0.1652678 -0.7992135 -0.5387906 -0.6626547 -0.5201859 -0.4119456 -0.5486107 -0.7275487 -0.08054796 -0.8013088 -0.5928037 -0.7049688 0.1482634 0.6935682 -0.6571312 -0.18677 0.7302709 -0.9043563 -0.405754 0.1323004 -0.7811375 -0.5602303 0.2756199 0.8907899 -0.2361548 0.3882323 0.9274415 -0.2921928 -0.2334003 -0.1121892 -0.9906368 0.07779734 -0.4101067 -0.8716149 -0.2685146 -0.4982453 -0.8501866 0.1701013 -0.07851925 -0.9000586 0.4286365 -0.09995146 -0.7145981 0.6923578 0.9693494 0.03962887 -0.242469 -0.4146515 -0.1599667 -0.8958095 -0.3038456 0.3178363 -0.8981413 -0.03352205 0.7113807 -0.7020071 -0.1892339 0.8140535 0.5490969 -0.1272318 0.9855757 -0.1115913 -0.3482978 0.9033591 -0.2502618 0.5410947 0.04686089 -0.839655 0.8086254 0.07211702 -0.5838872 0.8049502 -0.2445644 -0.5405955 0.4660439 -0.8675604 -0.1736148 -0.6521931 0.7505874 0.1061263 -0.4778369 0.7419946 0.4702298 0.7917992 -0.5570434 -0.2505126 0.4352771 0.5071852 -0.7438393 0.2902724 0.8171206 -0.4980521 0.5263895 0.8188981 -0.2287356 0.08680084 0.7420963 -0.6646494 0.259063 -0.7905416 -0.5549147 0.163644 -0.4651829 -0.8699572 0.7885656 0.604797 -0.1112875 0.6800109 0.6037869 -0.4159646 0.7169523 0.6172098 -0.3240854 -0.8157672 0.5752285 -0.06029818 -0.7038472 0.2261932 -0.6733764 0.2729324 -0.9555982 0.111085 -0.5508746 -0.38954 -0.7381029 -0.4918628 -0.3911486 -0.7778649 -0.2810143 0.1132038 -0.9530036 -0.6427659 -0.7646196 -0.04699991 0.5964037 -0.5664204 0.5687447 -0.06398299 0.997941 0.004470746 0.1465932 -0.5507758 -0.8216791 0.9452727 0.324017 0.03837284 0.8409442 0.4456981 -0.3068648 0.1275711 0.9305255 0.3432898 0.565143 0.748199 0.3475796 0.7961508 0.6046896 -0.0222335 -0.9904857 -0.07297192 0.1166756 0.8887401 0.3355049 -0.312374 0.6476625 -0.5550389 0.521982 0.9883182 -0.1249251 -0.08729711 0.5690941 0.5215283 -0.6357203 0.5425432 0.2748496 -0.7937913 0.7102696 -0.2972501 0.6380905 -0.09482118 -0.4872242 -0.8681137 0.01339699 0.9841778 0.1766766 0.7080062 0.6536219 0.2674056 -0.04690577 0.6399909 0.7669495 -0.4617832 -0.665908 0.5859376 0.06239696 0.03595101 0.9974037 0.04717972 0.01834818 0.9987178 0.2677884 -0.4991671 0.8240882 -0.5766057 -0.7197717 -0.3865936 0.3487488 -0.07505818 -0.9342059 -0.7966008 0.4506339 0.4029346 0.01114887 0.4456326 0.8951465 -0.2481315 0.4483435 0.858731 -0.06313513 0.2856787 0.9562435 -0.1765614 0.5996019 0.780579 -0.2160693 0.1365883 0.966777 -0.1681342 0.6772305 0.7163028 -0.3413226 -0.08307143 0.9362681 -0.2211476 -0.6018986 0.7673408 0.161546 -0.637037 0.7537154 0.03686623 -0.3975658 0.9168327 0.1385175 -0.5285831 0.837504 0.06648418 0.238496 -0.9688651 -0.03234152 0.1673174 -0.9853725 -0.1126717 -0.1638954 -0.9800222 0.113271 -0.1456331 -0.982833 0.08233211 -0.05058589 -0.9953203 0.007531422 -0.2736249 -0.9618071 -0.175684 0.1049583 0.9788355 0.4221046 0.4197006 0.8035417 0.8229978 0.5320186 0.1990745 -0.2059173 -0.2863029 0.9357504 0.1247074 -0.4582658 0.8800231 0.3067567 -0.8398198 0.4478874 0.2720829 0.3133992 -0.9098087 0.2855059 0.1360079 -0.9486772 0.02653856 -0.1438343 0.9892459 0.4763747 0.4222353 -0.7712228 0.6864525 -0.07121249 0.7236792 -0.4602886 0.5520245 0.6952721 0.3541144 -0.4359489 0.8273762 -0.2402091 -0.4101735 -0.8798052</float_array>
          <technique_common>
            <accessor source="#geom-ggrockthree200-normals-array" count="123" stride="3">
              <param name="X" type="float"/>
              <param name="Y" type="float"/>
              <param name="Z" type="float"/>
            </accessor>
          </technique_common>
        </source>
        <source id="geom-ggrockthree200-map1">
          <float_array id="geom-ggrockthree200-map1-array" count="537">0.5262886 0.6072529 0 0.2813197 0.9649675 0 0.1351835 0.8844842 0 0.1631106 0.8780523 0 0.003475295 0.6337284 0 0.01470548 0.7613004 0 0.05049592 0.7423608 0 0.04708091 0.7835275 0 0.145216 0.9187438 0 0.03260061 0.7775669 0 0.6772885 0.6342974 0 0.598354 0.6424373 0 0.5518691 0.7150313 0 0.6709942 0.7741936 0 0.787466 0.7139235 0 0.7637164 0.8077601 0 0.8643231 0.7671027 0 0.9001305 0.7685039 0 0.828756 0.698207 0 0.7774321 0.6365985 0 0.6191174 0.8009123 0 0.6062476 0.8891411 0 0.5803735 0.8428308 0 0.5436338 0.8266153 0 0.5477231 0.7949886 0 0.8310584 0.9127542 0 0.67564 0.9318695 0 0.4589481 0.7494326 0 0.5080583 0.7311548 0 0.5269979 0.7010348 0 0.1730472 0.6801135 0 0.2519959 0.6885324 0 0.1783137 0.7337798 0 0.3679843 0.4311275 0 0.3180494 0.4571401 0 0.4966334 0.6005436 0 0.4320227 0.638088 0 0.06420593 0.5725351 0 0.3140211 0.6061867 0 0.2346573 0.6031092 0 0.3373748 0.6135471 0 0.09825422 0.485561 0 0.1435754 0.4625384 0 0.487916 0.5225356 0 0.4800676 0.4388647 0 0.06497759 0.5196956 0 0.04628594 0.5177705 0 0.05484045 0.5010853 0 0.3427341 0.4708289 0 0.3786615 0.4649978 0 0.1223551 0.7744689 0 0.4782931 0.3596689 0 0.3802334 0.8863848 0 0.3702471 0.9125204 0 0.2418816 0.9875362 0 0.204908 0.9663301 0 0.413996 0.8952664 0 0.1612379 0.9817739 0 0.3266635 0.9366215 0 0.4420443 0.8797491 0 0.06891068 0.6489189 0 0.6327443 0.720255 0 0.7984273 0.7521822 0 0.865838 0.7563236 0 0.820147 0.7149822 0 0.7721137 0.6621199 0 0.659641 0.8349854 0 0.5710298 0.8066367 0 0.6553411 0.9003813 0 0.463469 0.8188347 0 0.5268323 0.7267858 0 0.325764 0.804323 0 0.3258838 0.5177459 0 0.4334051 0.5880432 0 0.09773874 0.6069142 0 0.1882922 0.3669341 0 0.2460333 0.5464187 0 0.2275523 0.4228998 0 0.5104443 0.4522759 0 0.5277912 0.6283841 0 0.4668538 0.3750944 0 0.1213258 0.4142446 0 0.2136272 0.3899752 0 0.06462567 0.4504201 0 0.2379839 0.4770735 0 0.4352541 0.4689505 0 0.5189411 0.7489974 0 0.420701 0.867267 0 0.4637037 0.8851705 0 0.4702503 0.9110653 0 0.5067685 0.6842244 0 0.1165935 0.9607911 0 0.1034481 0.9351143 0 0.03673966 0.5770706 0 0.02065653 0.5827708 0 0.09520762 0.9172095 0 0.03614648 0.5395316 0 -0.07434291 0.7627279 0 -0.03716735 0.7279355 0 -0.02306569 0.7573502 0 -0.01912311 0.7169188 0 0.5119349 0.6636307 0 0.1124643 0.9014562 0 0.5236126 0.666459 0 0.3868126 0.4879502 0 0.06822866 0.7514499 0 0.4199306 0.8184505 0 0.6476406 0.6610346 0 0.6127543 0.6633201 0 0.8822274 0.7678034 0 0.6175117 0.7738715 0 0.7285649 0.8490812 0 0.5967013 0.8267869 0 0.5456786 0.8108019 0 0.7934784 0.8550035 0 0.8476908 0.8399284 0 0.6863484 0.9051594 0 0.7533492 0.9223118 0 0.6409437 0.9105053 0 0.4510049 0.7992154 0 0.2752546 0.8232682 0 0.1630329 0.8337014 0 0.1428559 0.8166595 0 0.09421438 0.7738588 0 0.08654404 0.7546768 0 0.06112704 0.7679502 0 0.2230978 0.4012776 0 0.3550476 0.5694057 0 0.4809812 0.6667524 0 0.5062517 0.6598836 0 0.2836877 0.4889296 0 0.4085699 0.5152002 0 0.421387 0.5061929 0 0.07740396 0.5353436 0 0.08448786 0.5445309 0 0.2692578 0.8403246 0 0.5042245 0.3449681 0 0.4402774 0.8187194 0 0.2247193 0.361055 0 0.421122 0.8355007 0 0.2885304 0.6423634 0 0.3926141 0.4666289 0 0.4487154 0.4803739 0 0.5486768 0.6023531 0 0.5572739 0.6414971 0 0.06841794 0.5246345 0 0.5437806 0.5510509 0 0.03803112 0.5328575 0 0.05632031 0.4808474 0 0.1952502 0.4150049 0 0.5205956 0.4893743 0 -0.01059683 0.678619 0 0.1805121 0.8141682 0 0.5364836 0.5066301 0 0.6378214 0.6383674 0 0.708786 0.6353418 0 0.7588579 0.6364923 0 0.8030941 0.6674026 0 0.8644437 0.7333555 0 0.5751112 0.6787344 0 0.3996707 0.8384848 0 0.3771969 0.8567603 0 0.08578211 0.6933461 0 0.05139778 0.553337 0 0.5285062 0.4635767 0 0.440981 0.4565367 0 0.5174716 0.4101516 0 0.09815365 0.5323014 0 0.3925188 0.5275108 0 0.4025862 0.5045354 0 0.2666566 0.3966942 0 0.2854551 0.4148121 0 0.1196073 0.8061025 0 0.07027382 0.5269256 0 0.09982252 0.4931259 0 0.2315769 0.8328779 0 0.102031 0.7942823 0 0.514109 0.6510028 0 0.07134627 0.732296 0</float_array>
          <technique_common>
            <accessor source="#geom-ggrockthree200-map1-array" count="179" stride="3">
              <param name="S" type="float"/>
              <param name="T" type="float"/>
              <param name="P" type="float"/>
            </accessor>
          </technique_common>
        </source>
        <vertices id="geom-ggrockthree200-vertices">
          <input semantic="POSITION" source="#geom-ggrockthree200-positions"/>
        </vertices>
        <triangles material="greyrock" count="242">
          <input semantic="VERTEX" source="#geom-ggrockthree200-vertices" offset="0"/>
          <input semantic="NORMAL" source="#geom-ggrockthree200-normals" offset="1"/>
          <input semantic="TEXCOORD" source="#geom-ggrockthree200-map1" offset="2" set="1"/>
          <p>48 0 2 21 1 3 56 2 8 34 3 1 15 4 54 103 5 55 88 6 48 14 7 33 35 8 49 12 9 7 25 10 9 96 11 6 105 12 114 22 13 25 20 14 115 23 15 53 108 16 52 31 17 56 37 18 18 47 19 157 95 20 65 26 21 57 103 5 55 15 4 54 54 22 93 49 23 94 3 24 96 21 1 121 48 0 122 93 25 152 64 26 50 41 27 123 27 28 124 14 7 44 28 29 80 29 30 51 7 31 45 30 32 46 3 24 47 13 33 37 43 34 133 116 35 134 53 36 78 14 7 44 29 30 51 15 4 97 38 37 98 26 21 99 90 38 108 31 17 159 24 39 12 79 40 106 1 41 137 16 42 139 66 43 116 36 44 26 17 45 117 23 15 11 31 17 159 90 38 108 22 13 75 76 46 149 20 14 81 16 42 59 67 47 161 9 48 87 76 46 149 22 13 75 5 49 82 53 36 78 29 30 51 22 13 136 97 50 67 4 51 113 18 52 23 24 39 12 39 53 24 97 50 67 20 14 81 118 54 41 46 55 83 100 56 0 10 57 143 18 52 144 19 58 146 10 57 143 100 56 0 34 3 1 113 59 135 40 60 58 16 42 59 1 41 88 24 39 89 3 24 47 52 61 174 7 31 45 56 2 8 26 21 57 45 62 91 56 2 8 25 10 92 12 9 95 26 21 99 38 37 98 11 63 100 96 11 6 45 62 5 26 21 99 60 64 107 15 4 155 34 3 10 68 65 178 27 28 105 41 27 125 29 30 170 28 29 171 65 66 77 5 49 82 22 13 75 29 30 138 65 66 77 5 49 126 29 30 170 18 52 29 4 51 70 101 67 28 101 67 28 39 53 86 24 39 69 43 34 145 13 33 147 30 32 46 16 42 59 24 39 89 31 17 56 67 47 161 16 42 59 31 17 56 46 55 83 118 54 41 42 68 148 102 69 150 6 70 153 19 58 146 36 44 164 6 70 153 102 69 150 18 52 29 84 71 90 32 72 101 18 52 144 44 73 79 100 56 0 16 42 139 9 48 160 79 40 106 12 9 95 33 74 102 56 2 8 41 27 123 64 26 50 33 74 172 34 3 10 40 60 154 60 64 107 96 11 6 47 19 151 37 18 4 26 21 99 11 63 100 96 11 6 35 8 165 14 7 44 71 75 142 87 76 104 35 8 49 8 77 141 120 78 112 10 57 22 19 58 21 18 52 23 10 57 22 120 78 112 53 36 78 17 45 166 36 44 164 22 13 136 17 45 166 53 36 78 37 18 4 49 23 94 54 22 93 19 58 21 6 70 118 121 79 68 121 79 68 6 70 118 36 44 26 71 75 142 8 77 85 35 8 165 11 63 19 38 37 156 95 20 65 95 20 65 38 37 156 15 4 155 101 67 28 4 51 70 39 53 86 39 53 24 4 51 113 97 50 67 66 43 116 17 45 117 22 13 25 60 64 107 40 60 154 23 15 11 40 60 58 108 16 52 23 15 53 33 74 172 12 9 176 41 27 123 96 11 6 41 27 125 12 9 7 105 12 114 20 14 115 46 55 16 30 32 163 13 33 37 54 22 93 3 24 96 30 32 163 54 22 93 115 80 34 28 29 171 14 7 33 81 81 63 42 68 109 3 24 17 42 68 148 118 54 41 3 24 47 24 39 69 1 41 137 62 82 119 30 32 46 7 31 45 43 34 145 52 61 174 43 34 133 7 31 173 63 83 35 44 73 177 32 72 129 32 72 101 44 73 103 18 52 29 45 62 91 25 10 92 56 2 8 96 11 6 25 10 9 45 62 5 46 55 16 42 68 109 81 81 63 11 63 100 47 19 151 96 11 6 95 20 65 47 19 157 11 63 19 56 2 8 33 74 102 48 0 2 48 0 122 33 74 172 64 26 50 3 24 17 49 23 158 81 81 63 81 81 63 49 23 158 37 18 18 32 72 129 57 84 128 63 83 35 116 35 134 51 85 162 13 33 37 64 26 50 93 25 152 48 0 122 67 47 161 79 40 106 9 48 160 88 6 48 35 8 49 87 76 104 91 86 168 82 87 127 80 88 72 14 7 44 102 69 150 63 83 35 102 69 150 19 58 146 63 83 35 106 89 60 54 22 93 13 33 37 106 89 60 37 18 4 54 22 93 92 90 111 66 43 116 22 13 25 95 20 65 15 4 155 60 64 107 56 2 8 21 1 3 50 91 175 113 59 135 34 3 1 56 2 8 77 92 73 111 93 36 70 94 40 117 95 71 86 96 31 85 97 27 112 98 32 86 96 31 50 91 175 74 99 74 69 100 167 75 101 39 75 101 39 69 100 167 107 102 76 76 46 149 5 49 126 65 66 77 78 103 110 90 38 108 24 39 12 60 64 107 94 104 61 55 105 14 61 106 15 55 105 14 109 107 13 46 55 16 81 81 63 119 108 62 101 67 28 84 71 90 18 52 29 58 109 140 111 93 36 85 97 27 72 110 131 63 83 35 57 84 128 8 77 85 71 75 142 98 111 132 83 112 30 86 96 31 112 98 32 64 26 50 27 28 124 51 85 162 65 66 77 28 29 171 115 80 34 114 113 84 107 102 76 99 114 42 19 58 21 121 79 68 2 115 20 92 90 111 89 116 66 66 43 116 79 40 106 67 47 161 117 95 71 108 16 52 40 60 58 113 59 135 51 85 162 27 28 124 68 65 178 96 11 6 37 18 4 106 89 60 43 34 133 52 61 174 69 100 167 107 102 76 69 100 167 99 114 42 82 87 127 104 117 38 80 88 72 58 109 140 70 94 40 111 93 36 63 83 35 98 111 132 110 118 43 63 83 35 110 118 43 14 7 44 0 119 169 91 86 168 80 88 72 72 110 131 98 111 132 63 83 35 73 120 120 50 91 175 86 96 31 113 59 135 73 120 120 67 47 161 51 85 162 116 35 134 74 99 74 74 99 74 75 101 39 83 112 30 75 101 39 80 88 72 104 117 38 75 101 39 58 109 140 83 112 30 118 54 41 20 14 81 76 46 149 76 46 149 65 66 77 99 114 42 77 92 73 72 110 131 57 84 128 82 87 127 91 86 168 77 92 73 78 103 110 109 107 13 55 105 14 97 50 67 78 103 110 24 39 12 85 97 27 79 40 106 117 95 71 62 82 119 1 41 137 79 40 106 107 102 76 80 88 72 75 101 39 115 80 34 59 121 130 65 66 77 81 81 63 122 122 64 119 108 62 81 81 63 37 18 18 122 122 64 104 117 38 82 87 127 70 94 40 77 92 73 70 94 40 82 87 127 83 112 30 51 85 162 74 99 74 64 26 50 51 85 162 83 112 30 57 84 128 32 72 129 84 71 90 57 84 128 84 71 90 85 97 27 101 67 28 85 97 27 84 71 90 79 40 106 85 97 27 62 82 119 85 97 27 86 96 31 58 109 140 86 96 31 83 112 30 58 109 140 8 77 141 0 119 169 87 76 104 80 88 72 87 76 104 0 119 169 88 6 48 87 76 104 80 88 72 80 88 72 59 121 130 88 6 48 89 116 66 78 103 110 2 115 20 66 43 116 89 116 66 2 115 20 23 15 11 90 38 108 60 64 107 60 64 107 90 38 108 94 104 61 77 92 73 91 86 168 72 110 131 72 110 131 91 86 168 0 119 169 22 13 25 105 12 114 92 90 111 61 106 15 89 116 66 92 90 111 50 91 175 93 25 152 112 98 32 93 25 152 50 91 175 21 1 121 55 105 14 94 104 61 78 103 110 90 38 108 78 103 110 94 104 61 95 20 65 122 122 64 37 18 18 55 105 14 95 20 65 60 64 107 41 27 125 96 11 6 68 65 178 106 89 60 68 65 178 96 11 6 120 78 112 97 50 67 18 52 23 2 115 20 78 103 110 97 50 67 98 111 132 0 119 169 8 77 85 98 111 132 72 110 131 0 119 169 76 46 149 99 114 42 118 54 41 69 100 167 52 61 174 99 114 42 100 56 0 44 73 79 63 83 35 100 56 0 63 83 35 19 58 146 24 39 69 62 82 119 101 67 28 62 82 119 85 97 27 101 67 28 102 69 150 14 7 44 53 36 78 102 69 150 53 36 78 36 44 164 103 5 55 56 2 8 34 3 1 26 21 57 56 2 8 103 5 55 75 101 39 104 117 38 58 109 140 104 117 38 70 94 40 58 109 140 105 12 114 61 106 15 92 90 111 46 55 16 119 108 62 105 12 114 68 65 178 106 89 60 51 85 162 106 89 60 13 33 37 51 85 162 80 88 72 107 102 76 59 121 130 59 121 130 107 102 76 114 113 84 108 16 52 113 59 135 67 47 161 31 17 56 108 16 52 67 47 161 89 116 66 109 107 13 78 103 110 109 107 13 89 116 66 61 106 15 98 111 132 71 75 142 110 118 43 71 75 142 14 7 44 110 118 43 57 84 128 111 93 36 77 92 73 57 84 128 85 97 27 111 93 36 83 112 30 112 98 32 64 26 50 112 98 32 93 25 152 64 26 50 113 59 135 50 91 175 73 120 120 56 2 8 50 91 175 113 59 135 114 113 84 65 66 77 59 121 130 99 114 42 65 66 77 114 113 84 59 121 130 115 80 34 88 6 48 115 80 34 14 7 33 88 6 48 69 100 167 116 35 134 43 34 133 69 100 167 74 99 74 116 35 134 86 96 31 117 95 71 73 120 120 67 47 161 73 120 120 117 95 71 52 61 174 3 24 47 118 54 41 52 61 174 118 54 41 99 114 42 55 105 14 61 106 15 119 108 62 105 12 114 119 108 62 61 106 15 19 58 21 2 115 20 120 78 112 120 78 112 2 115 20 97 50 67 36 44 26 66 43 116 121 79 68 2 115 20 121 79 68 66 43 116 95 20 65 55 105 14 122 122 64 119 108 62 122 122 64 55 105 14</p>
        </triangles>
      </mesh>
    </geometry>
    <geometry id="geom-bounds_13" name="bounds">
      <mesh>
        <source id="geom-bounds_13-positions">
          <float_array id="geom-bounds_13-positions-array" count="24">-1.725209 -1.611069 -0.2625182 1.642085 -1.611069 -0.2625182 -1.725209 1.673328 -0.2625182 1.642085 1.673328 -0.2625182 -1.725209 -1.611069 1.36223 1.642085 -1.611069 1.36223 -1.725209 1.673328 1.36223 1.642085 1.673328 1.36223</float_array>
          <technique_common>
            <accessor source="#geom-bounds_13-positions-array" count="8" stride="3">
              <param name="X" type="float"/>
              <param name="Y" type="float"/>
              <param name="Z" type="float"/>
            </accessor>
          </technique_common>
        </source>
        <source id="geom-bounds_13-normals">
          <float_array id="geom-bounds_13-normals-array" count="72">0 0 -1 0 0 -1 0 0 -1 0 0 -1 0 0 1 0 0 1 0 0 1 0 0 1 0 -1 0 0 -1 0 0 -1 0 0 -1 0 1 0 0 1 0 0 1 0 0 1 0 0 0 1 0 0 1 0 0 1 0 0 1 0 -1 0 0 -1 0 0 -1 0 0 -1 0 0</float_array>
          <technique_common>
            <accessor source="#geom-bounds_13-normals-array" count="24" stride="3">
              <param name="X" type="float"/>
              <param name="Y" type="float"/>
              <param name="Z" type="float"/>
            </accessor>
          </technique_common>
        </source>
        <vertices id="geom-bounds_13-vertices">
          <input semantic="POSITION" source="#geom-bounds_13-positions"/>
        </vertices>
        <triangles material="greyrock" count="12">
          <input semantic="VERTEX" source="#geom-bounds_13-vertices" offset="0"/>
          <input semantic="NORMAL" source="#geom-bounds_13-normals" offset="1"/>
          <p>0 0 2 1 3 2 3 2 1 3 0 0 4 4 5 5 7 6 7 6 6 7 4 4 0 8 1 9 5 10 5 10 4 11 0 8 1 12 3 13 7 14 7 14 5 15 1 12 3 16 2 17 6 18 6 18 7 19 3 16 2 20 0 21 4 22 4 22 6 23 2 20</p>
        </triangles>
      </mesh>
    </geometry>
    <geometry id="geom-col-1_13" name="col-1">
      <mesh>
        <source id="geom-col-1_13-positions">
          <float_array id="geom-col-1_13-positions-array" count="69">-0.1312917 -1.555557 0.2702698 0.4896432 -0.3594941 -0.2099213 1.103931 -1.222134 0.3944982 1.649352 0.2170883 0.9519685 1.290066 0.3884738 1.332652 0.5277634 1.01616 -0.1646339 -0.4053008 1.663478 0.2009885 0.624778 1.644366 0.3510806 1.469449 0.3158687 0.1748132 -1.679786 -0.04622215 0.3583515 -1.607077 -0.3615715 0.764587 -1.254023 0.8460212 0.7690535 0.6143911 1.472773 0.7927359 -0.9578893 1.323823 0.1604791 -1.064979 0.2152187 -0.08652371 -1.512139 -0.6703769 0.4693885 -0.5032502 -1.124497 0.825247 -0.03209583 0.1592327 1.303153 -0.03822416 -1.49417 0.6078472 1.554518 0.5101056 1.132079 -0.8019803 -0.5596516 -0.08029151 -0.5420975 0.9895695 -0.1667113 1.422915 -0.7396583 0.4112213</float_array>
          <technique_common>
            <accessor source="#geom-col-1_13-positions-array" count="23" stride="3">
              <param name="X" type="float"/>
              <param name="Y" type="float"/>
              <param name="Z" type="float"/>
            </accessor>
          </technique_common>
        </source>
        <source id="geom-col-1_13-normals">
          <float_array id="geom-col-1_13-normals-array" count="378">0.2101156 -0.4562365 -0.8646963 0.2101156 -0.4562365 -0.8646963 0.2101156 -0.4562365 -0.8646963 0.524491 -0.4729847 0.7079511 0.524491 -0.4729847 0.7079511 0.524491 -0.4729847 0.7079511 0.1245724 0.6180047 -0.7762422 0.1245724 0.6180047 -0.7762422 0.1245724 0.6180047 -0.7762422 0.3528303 0.02101843 -0.9354512 0.3528303 0.02101843 -0.9354512 0.3528303 0.02101843 -0.9354512 0.5832595 0.4596978 -0.6696911 0.5832596 0.4596978 -0.6696911 0.5832595 0.4596978 -0.6696911 -0.8949847 0.2603197 0.3622649 -0.8949848 0.2603198 0.3622649 -0.8949848 0.2603198 0.3622649 -0.0353412 0.9318179 0.3612012 -0.0353412 0.9318179 0.3612012 -0.0353412 0.9318179 0.3612012 -0.2474548 0.7128959 0.6561597 -0.2474548 0.7128959 0.6561597 -0.2474548 0.7128959 0.6561597 -0.5066008 0.7805098 0.3662787 -0.5066008 0.7805098 0.3662787 -0.5066008 0.7805098 0.3662787 -0.8866496 0.4566571 -0.07291595 -0.8866496 0.4566571 -0.07291595 -0.8866496 0.4566571 -0.07291595 -0.6323294 0.2261697 -0.7409499 -0.6323294 0.2261697 -0.7409499 -0.6323293 0.2261697 -0.7409499 -0.963756 -0.2647349 -0.03301159 -0.963756 -0.2647349 -0.03301159 -0.963756 -0.2647349 -0.03301159 -0.4963723 -0.6747401 0.5462055 -0.4963723 -0.6747401 0.5462054 -0.4963723 -0.6747401 0.5462054 -0.08949221 0.3987047 0.9127024 -0.0894922 0.3987047 0.9127024 -0.0894922 0.3987047 0.9127024 -0.153038 0.4224661 0.8933654 -0.153038 0.4224661 0.8933654 -0.153038 0.4224661 0.8933654 -0.2331874 -0.262946 0.9362067 -0.2331874 -0.262946 0.9362067 -0.2331874 -0.262946 0.9362068 0.0420031 -0.3620823 0.9311993 0.0420031 -0.3620823 0.9311993 0.0420031 -0.3620823 0.9311993 -0.3511803 0.09922826 0.931035 -0.3511803 0.09922827 0.931035 -0.3511803 0.09922826 0.931035 -0.4830209 -0.8071764 0.339348 -0.4830209 -0.8071764 0.339348 -0.4830209 -0.8071764 0.339348 -0.4879407 -0.8251842 0.2845784 -0.4879408 -0.8251843 0.2845784 -0.4879407 -0.8251843 0.2845784 0.2491395 -0.9626094 0.106361 0.2491395 -0.9626094 0.106361 0.2491395 -0.9626094 0.106361 0.2735082 -0.5075375 0.8170673 0.2735082 -0.5075375 0.8170673 0.2735082 -0.5075375 0.8170673 0.09362917 -0.4145536 0.9051955 0.09362917 -0.4145536 0.9051955 0.09362917 -0.4145535 0.9051955 0.6299106 0.7188321 0.2940969 0.6299106 0.7188322 0.2940969 0.6299106 0.7188321 0.2940969 0.6532549 -0.2316537 0.7208291 0.6532549 -0.2316537 0.7208291 0.6532549 -0.2316537 0.7208291 0.3120937 0.5721433 0.7584521 0.3120937 0.5721433 0.7584521 0.3120937 0.5721433 0.7584521 0.8183954 0.5446566 -0.1832435 0.8183954 0.5446566 -0.1832435 0.8183954 0.5446566 -0.1832435 0.9061213 0.391599 -0.1599828 0.9061213 0.391599 -0.1599828 0.9061213 0.3915989 -0.1599828 -0.5235106 -0.1843751 -0.8318308 -0.5235106 -0.1843751 -0.8318308 -0.5235106 -0.1843751 -0.8318309 -0.5575987 -0.2882563 -0.7784549 -0.5575987 -0.2882563 -0.7784548 -0.5575987 -0.2882563 -0.7784549 -0.4547532 -0.5522151 -0.6987545 -0.4547533 -0.5522152 -0.6987545 -0.4547533 -0.5522152 -0.6987545 -0.03875036 -0.3549019 -0.9341001 -0.03875037 -0.3549019 -0.9341002 -0.03875037 -0.3549019 -0.9341002 -0.09367385 -0.03979499 -0.9948074 -0.09367385 -0.03979499 -0.9948073 -0.09367384 -0.03979498 -0.9948073 -0.4775229 0.2347712 -0.8466725 -0.4775229 0.2347712 -0.8466726 -0.4775229 0.2347712 -0.8466725 -0.01024078 0.4805418 -0.876912 -0.01024078 0.4805419 -0.8769121 -0.01024078 0.4805418 -0.8769121 -0.248028 0.5023135 -0.8283497 -0.248028 0.5023135 -0.8283498 -0.248028 0.5023136 -0.8283498 -0.09366472 -0.03976989 -0.9948092 -0.09366472 -0.03976989 -0.9948092 -0.09366472 -0.03976989 -0.9948092 0.001123697 0.03287161 -0.999459 0.001123697 0.03287161 -0.9994589 0.001123697 0.03287162 -0.999459 0.9670503 -0.09549025 -0.2359987 0.9670503 -0.09549025 -0.2359986 0.9670503 -0.09549025 -0.2359987 0.6876679 -0.4737154 0.5501878 0.6876678 -0.4737154 0.5501877 0.6876679 -0.4737154 0.5501878 0.4543861 -0.2710007 -0.8485823 0.4543861 -0.2710007 -0.8485823 0.4543861 -0.2710007 -0.8485823 0.4802284 -0.2118126 -0.8511851 0.4802284 -0.2118126 -0.8511851 0.4802284 -0.2118126 -0.8511851</float_array>
          <technique_common>
            <accessor source="#geom-col-1_13-normals-array" count="126" stride="3">
              <param name="X" type="float"/>
              <param name="Y" type="float"/>
              <param name="Z" type="float"/>
            </accessor>
          </technique_common>
        </source>
        <vertices id="geom-col-1_13-vertices">
          <input semantic="POSITION" source="#geom-col-1_13-positions"/>
        </vertices>
        <triangles material="ColorMaterial" count="42">
          <input semantic="VERTEX" source="#geom-col-1_13-vertices" offset="0"/>
          <input semantic="NORMAL" source="#geom-col-1_13-normals" offset="1"/>
          <p>0 0 1 1 2 2 3 3 4 4 2 5 5 6 6 7 7 8 5 9 8 10 1 11 5 12 7 13 8 14 9 15 10 16 11 17 12 18 7 19 6 20 12 21 6 22 11 23 13 24 11 25 6 26 13 27 9 28 11 29 13 30 14 31 9 32 15 33 10 34 9 35 15 36 16 37 10 38 17 39 4 40 12 41 17 42 12 43 11 44 17 45 10 46 16 47 17 48 16 49 4 50 17 51 11 52 10 53 18 54 16 55 15 56 18 57 15 58 0 59 18 60 0 61 2 62 18 63 2 64 4 65 18 66 4 67 16 68 19 69 7 70 12 71 19 72 4 73 3 74 19 75 12 76 4 77 19 78 8 79 7 80 19 81 3 82 8 83 20 84 9 85 14 86 20 87 15 88 9 89 20 90 0 91 15 92 20 93 1 94 0 95 20 96 14 97 1 98 21 99 14 100 13 101 21 102 6 103 5 104 21 105 13 106 6 107 21 108 1 109 14 110 21 111 5 112 1 113 22 114 8 115 3 116 22 117 3 118 2 119 22 120 2 121 1 122 22 123 1 124 8 125</p>
        </triangles>
      </mesh>
    </geometry>
  </library_geometries>
  <library_lights>
    <light id="EnvironmentAmbientLight" name="EnvironmentAmbientLight">
      <technique_common>
        <ambient>
          <color>0 0 0</color>
        </ambient>
      </technique_common>
    </light>
  </library_lights>
  <library_images>
    <image id="grayrock_diffuse_png">
      <init_from>file:///C:/Projects/ForestKitNew/art/shapes/rocks/grayrock_diffuse.png</init_from>
    </image>
    <image id="grayrock_diffuse_dds">
      <init_from>file:///E:/Projects/Pacific/game/art/shapes/rocks/grayrock_diffuse.dds</init_from>
    </image>
  </library_images>
  <library_visual_scenes>
    <visual_scene id="MaxScene">
      <node name="EnvironmentAmbientLight">
        <instance_light url="#EnvironmentAmbientLight"/>
      </node>
      <node id="node-base00" name="base00">
        <matrix>1 0 0 0 0 1 0 0 0 0 1 0 0 0 0 1</matrix>
        <node id="node-start00" name="start00">
          <matrix>1 0 0 0 0 1 0 0 0 0 1 0 0 0 0 1</matrix>
          <node id="node-ggrockthree400" name="ggrockthree400">
            <matrix>1 0 0 0 0 1 0 0 0 0 1 0 0 0 0 1</matrix>
            <instance_geometry url="#geom-ggrockthree400">
              <bind_material>
                <technique_common>
                  <instance_material symbol="greyrock_1" target="#greyrock-material">
                    <bind_vertex_input semantic="CHANNEL1" input_semantic="TEXCOORD" input_set="1"/>
                    <bind_vertex_input semantic="CHANNEL1" input_semantic="TEXCOORD" input_set="1"/>
                  </instance_material>
                </technique_common>
              </bind_material>
            </instance_geometry>
          </node>
          <node id="node-ggrockthree100" name="ggrockthree100">
            <matrix>1 0 0 0 0 1 0 0 0 0 1 0 0 0 0 1</matrix>
            <instance_geometry url="#geom-ggrockthree100">
              <bind_material>
                <technique_common>
                  <instance_material symbol="greyrock" target="#greyrock-material">
                    <bind_vertex_input semantic="CHANNEL1" input_semantic="TEXCOORD" input_set="1"/>
                    <bind_vertex_input semantic="CHANNEL1" input_semantic="TEXCOORD" input_set="1"/>
                  </instance_material>
                </technique_common>
              </bind_material>
            </instance_geometry>
          </node>
          <node id="node-ggrockthree200" name="ggrockthree200">
            <matrix>1 0 0 0 0 1 0 0 0 0 1 0 0 0 0 1</matrix>
            <instance_geometry url="#geom-ggrockthree200">
              <bind_material>
                <technique_common>
                  <instance_material symbol="greyrock" target="#greyrock-material">
                    <bind_vertex_input semantic="CHANNEL1" input_semantic="TEXCOORD" input_set="1"/>
                    <bind_vertex_input semantic="CHANNEL1" input_semantic="TEXCOORD" input_set="1"/>
                  </instance_material>
                </technique_common>
              </bind_material>
            </instance_geometry>
          </node>
        </node>
        <node id="node-detail200" name="detail200">
          <matrix>1 0 0 0 0 1 0 0 0 0 1 0 0 0 0 1</matrix>
        </node>
        <node id="node-detail400" name="detail400">
          <matrix>1 0 0 0 0 1 0 0 0 0 1 0 0 0 0 1</matrix>
        </node>
        <node id="node-Collision-1" name="Collision-1">
          <matrix>1 0 0 0 0 1 0 0 0 0 1 0 0 0 0 1</matrix>
        </node>
        <node id="node-Collision-2" name="Collision-2">
          <matrix>1 0 0 0 0 1 0 0 0 0 1 0 0 0 0 1</matrix>
        </node>
        <node id="node-detail100" name="detail100">
          <matrix>1 0 0 0 0 1 0 0 0 0 1 0 0 0 0 1</matrix>
        </node>
        <node id="node-BB__detail30" name="BB__detail30">
          <matrix>1 0 0 0 0 1 0 0 0 0 1 0 0 0 0 1</matrix>
          <extra>
            <technique profile="OpenCOLLADA">
              <user_properties>BB:DIM=128
BB::EQUATOR_STEPS=16
BB::POLAR_STEPS=0
BB::POLAR_ANGLE=60
BB::INCLUDE_POLES=0
BB::DL=0</user_properties>
            </technique>
          </extra>
        </node>
      </node>
      <node id="node-bounds_13" name="bounds">
        <matrix>1 0 0 0 0 1 0 0 0 0 1 0 0 0 0 1</matrix>
        <instance_geometry url="#geom-bounds_13">
          <bind_material>
            <technique_common>
              <instance_material symbol="greyrock" target="#greyrock_1-material">
                <bind_vertex_input semantic="CHANNEL1" input_semantic="TEXCOORD" input_set="1"/>
              </instance_material>
            </technique_common>
          </bind_material>
        </instance_geometry>
      </node>
      <node id="node-col-1_13" name="col-1">
        <matrix>1 0 0 0 0 1 0 0 0 0 1 0 0 0 0 1</matrix>
        <instance_geometry url="#geom-col-1_13">
          <bind_material>
            <technique_common>
              <instance_material symbol="ColorMaterial" target="#ColorEffectR87G224B143-material"/>
            </technique_common>
          </bind_material>
        </instance_geometry>
      </node>
    </visual_scene>
  </library_visual_scenes>
  <scene>
    <instance_visual_scene url="#MaxScene"/>
  </scene>
</COLLADA>