<?xml version="1.0" encoding="utf-8"?>
<COLLADA xmlns="http://www.collada.org/2005/11/COLLADASchema" version="1.4.1">
  <asset>
    <contributor>
      <author>Russell</author>
      <authoring_tool>OpenCOLLADA for 3ds Max;  Version: 1.2.5;  Revision: 673;  Platform: x64;  Configuration: Release Max2010</authoring_tool>
      <source_data>file:///E:/Projects/Pacific_Art/06_Rocks/03_All%20Rocks%20V2/Allrocks_V2_01.max</source_data>
    </contributor>
    <created>2011-04-26T19:54:55</created>
    <modified>2011-04-26T19:54:55</modified>
    <unit name="meter" meter="1"/>
    <up_axis>Z_UP</up_axis>
  </asset>
  <library_effects>
    <effect id="greyrock">
      <profile_COMMON>
        <newparam sid="grayrock_diffuse_dds-surface">
          <surface type="2D">
            <init_from>grayrock_diffuse_dds</init_from>
          </surface>
        </newparam>
        <newparam sid="grayrock_diffuse_dds-sampler">
          <sampler2D>
            <source>grayrock_diffuse_dds-surface</source>
          </sampler2D>
        </newparam>
        <technique sid="common">
          <blinn>
            <emission>
              <color>0 0 0 1</color>
            </emission>
            <ambient>
              <texture texture="grayrock_diffuse_dds-sampler" texcoord="CHANNEL1"/>
            </ambient>
            <diffuse>
              <texture texture="grayrock_diffuse_dds-sampler" texcoord="CHANNEL1"/>
            </diffuse>
            <specular>
              <color>0.9 0.9 0.9 1</color>
            </specular>
            <shininess>
              <float>9.999999</float>
            </shininess>
            <reflective>
              <color>0 0 0 1</color>
            </reflective>
            <transparent opaque="A_ONE">
              <color>1 1 1 1</color>
            </transparent>
            <transparency>
              <float>1</float>
            </transparency>
          </blinn>
        </technique>
      </profile_COMMON>
      <extra>
        <technique profile="OpenCOLLADA3dsMax">
          <extended_shader>
            <apply_reflection_dimming>0</apply_reflection_dimming>
            <dim_level>0</dim_level>
            <falloff_type>0</falloff_type>
            <index_of_refraction>1.5</index_of_refraction>
            <opacity_type>0</opacity_type>
            <reflection_level>3</reflection_level>
            <wire_size>1</wire_size>
            <wire_units>0</wire_units>
          </extended_shader>
          <shader>
            <ambient_diffuse_lock>1</ambient_diffuse_lock>
            <ambient_diffuse_texture_lock>1</ambient_diffuse_texture_lock>
            <diffuse_specular_lock>0</diffuse_specular_lock>
            <soften>0.1</soften>
            <use_self_illum_color>0</use_self_illum_color>
          </shader>
        </technique>
      </extra>
    </effect>
    <effect id="greyrock_1">
      <profile_COMMON>
        <newparam sid="grayrock_diffuse_png-surface">
          <surface type="2D">
            <init_from>grayrock_diffuse_png</init_from>
          </surface>
        </newparam>
        <newparam sid="grayrock_diffuse_png-sampler">
          <sampler2D>
            <source>grayrock_diffuse_png-surface</source>
          </sampler2D>
        </newparam>
        <technique sid="common">
          <blinn>
            <emission>
              <color>0 0 0 1</color>
            </emission>
            <ambient>
              <color>0.588 0.588 0.588 1</color>
            </ambient>
            <diffuse>
              <texture texture="grayrock_diffuse_png-sampler" texcoord="CHANNEL1"/>
            </diffuse>
            <specular>
              <color>0.9 0.9 0.9 1</color>
            </specular>
            <shininess>
              <float>10</float>
            </shininess>
            <reflective>
              <color>0 0 0 1</color>
            </reflective>
            <transparent opaque="A_ONE">
              <color>1 1 1 1</color>
            </transparent>
            <transparency>
              <float>1</float>
            </transparency>
          </blinn>
        </technique>
      </profile_COMMON>
      <extra>
        <technique profile="OpenCOLLADA3dsMax">
          <extended_shader>
            <apply_reflection_dimming>0</apply_reflection_dimming>
            <dim_level>0</dim_level>
            <falloff_type>0</falloff_type>
            <index_of_refraction>1.5</index_of_refraction>
            <opacity_type>0</opacity_type>
            <reflection_level>3</reflection_level>
            <wire_size>1</wire_size>
            <wire_units>0</wire_units>
          </extended_shader>
          <shader>
            <ambient_diffuse_lock>1</ambient_diffuse_lock>
            <ambient_diffuse_texture_lock>1</ambient_diffuse_texture_lock>
            <diffuse_specular_lock>0</diffuse_specular_lock>
            <soften>0.1</soften>
            <use_self_illum_color>0</use_self_illum_color>
          </shader>
        </technique>
      </extra>
    </effect>
    <effect id="ColorEffectR224G143B87">
      <profile_COMMON>
        <technique sid="common">
          <phong>
            <ambient>
              <color>0.8784314 0.5607843 0.3411765 1</color>
            </ambient>
            <diffuse>
              <color>0.8784314 0.5607843 0.3411765 1</color>
            </diffuse>
            <specular>
              <color>1 1 1 1</color>
            </specular>
            <shininess>
              <float>10</float>
            </shininess>
            <reflective>
              <color>0 0 0 1</color>
            </reflective>
            <transparent>
              <color>1 1 1 1</color>
            </transparent>
            <transparency>
              <float>1</float>
            </transparency>
          </phong>
        </technique>
      </profile_COMMON>
      <extra>
        <technique profile="OpenCOLLADA3dsMax">
          <extended_shader>
            <apply_reflection_dimming>0</apply_reflection_dimming>
            <dim_level>0</dim_level>
            <falloff_type>0</falloff_type>
            <index_of_refraction>1.5</index_of_refraction>
            <opacity_type>0</opacity_type>
            <reflection_level>3</reflection_level>
            <wire_size>1</wire_size>
            <wire_units>0</wire_units>
          </extended_shader>
          <shader>
            <ambient_diffuse_lock>1</ambient_diffuse_lock>
            <ambient_diffuse_texture_lock>1</ambient_diffuse_texture_lock>
            <diffuse_specular_lock>0</diffuse_specular_lock>
            <soften>0.1</soften>
            <use_self_illum_color>0</use_self_illum_color>
          </shader>
        </technique>
      </extra>
    </effect>
  </library_effects>
  <library_materials>
    <material id="ColorEffectR224G143B87-material" name="ColorEffectR224G143B87-material">
      <instance_effect url="#ColorEffectR224G143B87"/>
    </material>
    <material id="greyrock-material" name="greyrock">
      <instance_effect url="#greyrock"/>
    </material>
    <material id="greyrock_1-material" name="greyrock">
      <instance_effect url="#greyrock_1"/>
    </material>
  </library_materials>
  <library_geometries>
    <geometry id="geom-smallrockfive400" name="smallrockfive400">
      <mesh>
        <source id="geom-smallrockfive400-positions">
          <float_array id="geom-smallrockfive400-positions-array" count="708">-0.1465159 0.09496736 1.364345 0.09261961 0.1890586 1.367611 -0.1808445 0.4100823 1.295172 0.3812624 -0.5275802 1.173674 -0.1139772 0.6531423 1.09143 -0.6287758 -0.3590179 1.154235 -0.2352055 -0.6773192 1.171624 0.1294505 0.6231838 1.092698 -0.7505497 -0.6481668 0.9806597 -0.457376 -0.9036471 0.9659231 0.7575389 -0.2050384 0.9682016 0.4856244 0.5324143 0.9488732 -0.838794 -0.2319219 0.8525002 0.1267948 -0.9967641 0.8410261 0.6736582 0.5353729 0.7557842 -0.3613729 0.8964837 0.7474948 -0.6443591 0.751143 0.6597923 -0.8948824 -0.2955075 0.5977618 -0.7827214 -0.6503536 0.6687295 0.8735532 0.2795587 0.5049776 -0.3912399 1.023738 0.4661454 -0.8233033 -0.7248468 0.4229163 -0.6081119 -0.9569545 0.4882834 -0.1528354 -1.104835 0.460763 0.4599898 -1.014475 0.4214647 0.8697665 -0.686793 0.5065157 1.027295 -0.1837909 0.4635237 0.3934385 0.9465547 0.5253469 -0.420862 0.9782654 0.169664 -1.007142 0.2944453 0.234631 -1.08131 -0.2720747 0.2399076 -0.8008038 -0.9428286 0.1848426 0.8078279 -0.7570363 0.1358837 0.8326486 0.6833462 0.2223352 0.7408319 0.955799 0.2025869 0.4503955 1.138674 0.1612274 -1.006108 0.3099674 -0.01575801 -1.127468 -0.3495834 -0.05722885 -0.784234 -0.9150807 -0.1074452 0.1217329 -1.145987 -0.1091856 0.9338074 -0.3015313 -3.54646e-4 0.8974841 0.2474831 0.04280444 0.8125862 0.647046 -0.03834648 0.6983229 0.8781565 -0.08020695 0.4437183 1.007317 -0.1094233 0.05601382 1.050133 0.00594072 -0.8396524 0.2050593 -0.2181573 -0.8975714 -0.3606884 -0.2371063 -0.2195958 0.5087989 -0.2716561 0.5659074 0.2824206 -0.2270645 0.06120551 -0.6012326 -0.3688194 -0.121122 -0.08812523 1.338429 0.06513353 -0.3485231 1.287781 -0.06946222 0.3364461 1.405969 -0.3184426 -0.1196955 1.289251 0.4304524 -0.1802699 1.23311 0.0227783 0.4906914 1.28295 -0.2577429 0.6427226 1.067373 -0.5982336 0.147398 1.012843 -0.7999954 -0.4573622 1.027432 -0.5706998 -0.6887581 1.118876 0.1007609 -0.79342 1.090693 0.3760088 0.2906387 1.148777 -0.6280451 -0.8489701 0.8502065 -0.2039446 -0.9169747 1.014904 0.6507495 0.2776701 0.9421692 -0.3696904 0.8082988 0.8381642 -0.8241196 0.07407379 0.7028586 -0.8510132 -0.4799006 0.782065 -0.7228149 -0.7701027 0.7076333 0.8656748 0.0894165 0.7202689 -0.1071085 0.728422 1.007354 -0.534977 0.9618101 0.5923367 -0.9051687 0.0580713 0.4967945 -0.7871337 -0.6655032 0.5302563 -0.4368646 -1.013609 0.6425712 -0.1789972 -1.03184 0.7740783 0.1889682 -1.06935 0.5678338 0.5252905 -0.836684 0.7464818 0.7158889 -0.5221402 0.9045151 0.9566314 -0.3889755 0.6224821 0.5352758 0.7128778 0.7560138 0.3603392 0.7313166 0.8715093 -0.08658621 0.9155582 0.6802262 -0.9631327 0.2682943 0.3573798 -0.9461895 -0.5867479 0.3629257 -0.7686674 -0.8965633 0.354845 -0.3708679 -1.093606 0.2146775 0.1885191 -1.127521 0.2222761 0.6641676 -0.940334 0.2185533 1.01248 -0.49458 0.2687015 0.788486 0.6350511 0.4508611 0.6178904 0.9558291 0.3917416 0.01178965 1.086156 0.3012586 -0.5425315 0.9804491 0.4300244 -0.8243595 0.6284717 0.2522571 -1.131673 -0.01895297 0.07183331 -1.030824 -0.6829265 0.05963054 -0.5276875 -1.082226 -0.03311811 0.9912313 0.008661509 0.2664407 0.8743335 0.4855027 0.1928645 0.7972095 0.858752 0.04868519 0.6394657 1.07856 0.02229542 0.2059647 1.114471 0.03411909 -0.006493539 0.9521866 -0.0829206 -0.7019721 0.548988 -0.1083993 -1.064543 -0.02612901 -0.1566964 -1.039539 -0.5698779 -0.1381256 0.5727715 -0.7596008 -0.1117253 0.8517716 0.06199853 -0.08150818 0.7855746 0.4134754 -0.09961514 0.7101676 0.6412932 -0.1369076 0.5976564 0.768521 -0.1551542 0.2613859 0.644108 -0.2296346 -0.1999221 -0.9847955 -0.2448214 0.574833 -0.2605424 -0.2334787 -0.5387823 -0.04724002 -0.318683 -0.601498 -0.6826661 -0.2623977 0.1296738 0.0426712 -0.3392797 -0.06881382 0.1944738 1.400221 -0.2198818 -0.1866061 1.305214 -0.06452174 -0.2390926 1.301781 0.2424204 -0.1951031 1.306357 0.07117464 -0.6154352 1.204926 -0.168222 0.2379652 1.372753 -0.02345077 0.3952824 1.368113 -0.437621 0.02188101 1.21648 -0.4694824 -0.5055865 1.192334 0.4250798 0.02385165 1.199698 0.5902755 -0.379362 1.103711 -0.09039164 0.556074 1.221389 0.1541256 0.4133035 1.257074 0.01347553 0.6069717 1.159642 -0.3192366 0.7248563 0.9365589 -0.4065797 0.5267926 1.027132 -0.7453699 0.1878105 0.8008116 -0.7552052 -0.2593555 1.015834 -0.8352256 -0.4723517 0.9223462 -0.7145454 -0.5526728 1.101987 -0.3924892 -0.8240485 1.086911 -0.6231892 -0.769717 1.020844 0.3017573 -0.8041035 0.987612 -0.04960003 -0.8912018 1.023812 0.5782696 0.2147449 1.022371 0.3366312 0.549868 1.049622 -0.6795945 -0.817368 0.7633498 -0.5429127 -0.9412152 0.7460412 -0.1790202 -0.976447 0.9187226 0.5802531 0.5281871 0.8824744 0.7499036 0.1550589 0.8713003 -0.2348108 0.7810827 0.9232804 -0.502713 0.8959718 0.692796 -0.8752162 -0.2552229 0.7316526 -0.8222869 0.1654705 0.6218933 -0.7880373 -0.6386353 0.7940677 -0.8380765 -0.5282155 0.6401733 -0.7252496 -0.7753214 0.5753891 0.9398236 -0.1787756 0.6934676 0.9591037 0.05064875 0.5112555 0.7949678 0.3744193 0.6552715 -0.1280335 0.8045321 0.8839577 -0.5557203 0.9627993 0.5313941 -0.3949668 0.9813782 0.5956709 -0.9176437 0.2020321 0.4308816 -0.9800593 -0.2979372 0.4208037 -0.8727019 -0.5621461 0.487635 -0.7475442 -0.8141553 0.4394387 -0.334083 -1.020126 0.7270091 -0.4004272 -1.062883 0.4324756 -0.002600748 -1.075049 0.6522717 0.1902283 -1.086115 0.4156909 0.371254 -0.9938851 0.6453726 0.6428961 -0.6590136 0.8424373 0.6774106 -0.8843611 0.4594221 0.8556719 -0.4879222 0.7395293 1.005436 -0.4403229 0.4409593 0.4588785 0.7601221 0.7668985 0.5724838 0.8068697 0.6030132 0.221428 0.8152409 0.7906299 -0.02567554 1.02245 0.4635346 -0.880311 0.5142931 0.3698282 -1.084394 0.05423459 0.2086159 -0.8576839 -0.7918077 0.3364947 -1.001072 -0.6550832 0.2042253 -0.6503214 -0.9977688 0.2994327 -0.05101758 -1.148662 0.1668638 -0.3970128 -1.101485 0.0419039 0.4055242 -1.077968 0.1678327 0.8909769 -0.7380581 0.2827417 0.5933563 -0.9252111 0.02709697 1.041592 -0.2367301 0.2415591 0.8956342 -0.5886912 0.08978221 0.7124529 0.7934084 0.4569297 0.8433322 0.5195013 0.3655134 0.8034822 0.8151995 0.2132587 0.4144516 1.070637 0.3187125 0.6480371 1.074733 0.1791765 -0.3779274 1.042667 0.3386168 0.07320462 1.114292 0.1669396 -0.6239349 0.869654 0.3840069 -0.7725046 0.6327351 0.07080251 -1.031155 0.3134276 0.1198431 -1.120034 -0.02212271 -0.05069508 -1.130149 -0.3554708 0.06587876 -0.8309262 -0.9442136 0.03324584 -1.041596 -0.6584629 -0.05857944 -0.3597614 -1.079641 -0.1422938 0.9169581 0.247453 0.2734934 0.9571047 1.97273e-4 0.04809577 0.8416524 0.6976544 0.09458476 0.8616833 0.4708844 0.01159476 0.7326115 0.9814893 0.032233 0.7669953 0.7920146 -0.06174252 0.4773805 1.129657 0.02191119 0.6150481 0.9741944 -0.08658652 0.2370664 1.067001 -0.06117647 -0.01019052 1.049737 0.01411115 -0.3708086 0.777144 -0.0817745 0.1172878 0.818188 -0.1873709 -0.9499087 0.2778524 -0.1407288 -0.6212391 0.3360548 -0.250008 -1.082283 -0.3222684 -0.1559471 -0.8943943 -0.03361905 -0.2460619 -0.8893002 -0.6494243 -0.186122 0.1666626 -0.9205539 -0.2514001 0.5755513 -0.5144092 -0.1984162 0.7874326 0.2490295 -0.1051038 0.7598585 -0.06933148 -0.1430486 0.7274951 0.5076042 -0.1370128 0.6484967 0.653478 -0.1608078 0.4839367 0.6924902 -0.1877642 0.1671029 0.3794095 -0.2858812 -0.3958293 -0.8467184 -0.2589645 0.3465188 -0.1662124 -0.3169904 -0.1474964 -0.03310543 -0.3559566 -0.5128018 -0.4403343 -0.3207158</float_array>
          <technique_common>
            <accessor source="#geom-smallrockfive400-positions-array" count="236" stride="3">
              <param name="X" type="float"/>
              <param name="Y" type="float"/>
              <param name="Z" type="float"/>
            </accessor>
          </technique_common>
        </source>
        <source id="geom-smallrockfive400-normals">
          <float_array id="geom-smallrockfive400-normals-array" count="708">0.3535589 0.06160549 0.9333814 -0.03320059 -0.1192789 0.9923055 -0.01531868 -0.2076576 0.9780816 -0.0320854 -0.2138585 0.9763376 -0.283421 -0.1150624 0.9520679 -0.1590986 -0.2012833 0.9665261 -0.05733415 -0.4033188 0.9132617 0.3769491 -0.4268349 0.8220227 0.23911 -0.1210534 0.9634171 0.03160481 -0.2391008 0.9704803 0.1097221 -0.4241394 0.8989254 -0.4989206 0.4478876 0.7419401 -0.477517 0.1067625 0.872112 -0.09225512 0.3052914 0.9477796 0.2010325 0.5083136 0.8373788 -0.3572007 -0.05670743 0.9323046 -0.5913353 0.1776323 0.7866188 -0.5044832 0.03543191 0.8626941 -0.236618 -0.2174245 0.9469628 0.7512386 -2.22581e-4 0.6600306 0.5490121 0.1680443 0.8187472 0.479611 0.002755328 0.8774769 0.6072847 -0.2375525 0.7581386 -0.1162616 0.7660809 0.6321419 -0.1068771 0.7214101 0.684211 0.2832168 0.620626 0.7311714 0.1296682 0.7420656 0.6576661 0.4584084 0.4164369 0.7851382 0.2868474 0.727178 0.623643 -0.3391231 0.6816213 0.6483732 -0.6340559 0.3941382 0.6653031 -0.3901335 0.6380008 0.6638907 -0.762981 0.4400751 0.4734911 -0.7163105 0.2981861 0.63086 -0.8181322 0.2671884 0.5091858 -0.917057 0.1674062 0.3619137 -0.7744439 0.2274843 0.5903283 -0.8495073 -0.008767259 0.527504 -0.5793343 -0.2367928 0.7799365 -0.9604779 -0.1266236 0.2478882 -0.797642 -0.4811793 0.3636397 -0.3221945 -0.8193744 0.4741479 -0.1734982 -0.598046 0.7824574 -0.3249384 -0.4245641 0.8450801 -0.5424927 -0.6491523 0.5332007 0.2208486 -0.856197 0.4670682 0.3973511 -0.6614025 0.636128 0.2164203 -0.5978293 0.7718564 0.09482966 -0.7021123 0.7057235 0.5610808 0.3029015 0.77035 0.6107434 0.2511706 0.7509366 0.5335196 0.4632248 0.7076578 0.4568502 0.543999 0.7038133 -0.6524431 -0.7011788 0.2875174 -0.4656839 -0.8501688 0.2456653 -0.7640625 -0.6212067 0.1740997 -0.579415 -0.7889473 0.2045491 -0.01523292 -0.7440789 0.667918 -0.04550544 -0.8946107 0.4445232 0.7565703 0.4172108 0.5035241 0.61568 0.448215 0.648106 0.6799917 0.2926813 0.6722715 0.7811857 0.2400887 0.5762866 -0.1783499 0.7398578 0.6486924 -0.4138471 0.5836855 0.6985999 -0.1027692 0.8167006 0.5678368 -0.4811509 0.6107131 0.6289065 -0.949338 -0.05497798 0.3094104 -0.979634 0.04877511 0.1947774 -0.9293428 0.1872802 0.3181949 -0.9090046 0.2061799 0.3622162 -0.9108566 -0.4113255 0.03393532 -0.8993202 -0.4283474 0.08798733 -0.9769058 -0.2021213 0.06929713 -0.9393343 -0.3143459 0.1372507 -0.8417403 -0.5327027 0.08775587 -0.8529899 -0.5043189 0.1344273 0.8849328 0.05538621 0.4624137 0.8601046 0.2480902 0.4457256 0.9777781 0.07887506 0.1942385 0.9323706 0.2794069 0.2293837 0.9276369 0.2916489 0.233304 0.8631899 0.3097368 0.3987058 0.01435009 0.7998282 0.6000574 0.1087555 0.8562403 0.5049998 -0.1152057 0.9697316 0.2152864 -0.6538876 0.7348149 0.1802166 -0.6594819 0.6328484 0.4056924 -0.02790309 0.9176522 0.3964037 -0.8787314 0.1179275 0.4625195 -0.8885345 -0.0649846 0.4541843 -0.8406807 0.1316887 0.5252751 -0.9143074 -0.07207486 0.3985565 -0.8384774 -0.4598226 0.2924359 -0.8174509 -0.3669303 0.4440002 -0.6856444 -0.4569954 0.56661 -0.7022546 -0.5436072 0.4597062 -0.08271097 -0.9852709 0.1496665 -0.2143399 -0.9395996 0.2668537 -0.3239794 -0.9234505 0.2056123 -0.3043999 -0.9446227 0.1225915 0.04041406 -0.9706558 0.2370525 -0.08840571 -0.9474165 0.3075489 0.1899251 -0.9628448 0.1919849 0.3879667 -0.849599 0.3573003 0.167549 -0.9733195 0.1567687 0.3849036 -0.9030325 0.1907396 0.76015 -0.5586972 0.3317068 0.5783424 -0.6042961 0.5480386 0.5197943 -0.7052097 0.4821753 0.5725011 -0.7709534 0.279058 0.786549 -0.351571 0.5076794 0.679526 -0.4117932 0.6071826 0.884823 -0.2294345 0.405522 0.94144 -0.2595218 0.2152659 0.2341314 0.8300876 0.5060998 0.4467828 0.7085855 0.5461608 0.5543479 0.6102341 0.5659617 0.5134684 0.6629544 0.5448318 0.1348512 0.8252894 0.5483726 0.2705116 0.7034899 0.6572104 0.0817038 0.8771349 0.473243 0.03892763 0.9148966 0.401807 -0.8601389 0.4165348 0.2943805 -0.8594688 0.1908013 0.4742449 -0.9020315 0.2829126 0.3260362 -0.9137674 0.1434824 0.3800553 -0.6184253 -0.7613267 0.1947611 -0.8158286 -0.4636717 0.3455898 -0.8355368 -0.3186153 0.4476189 -0.8470194 -0.4023131 0.3474223 -0.4125696 -0.8807676 0.2324537 -0.534135 -0.6566665 0.5324368 0.1650262 -0.8638244 -0.4759976 -0.06833057 -0.9973887 0.02338575 -0.2165521 -0.972168 0.0894125 -0.1677852 -0.985094 0.03792207 0.3855473 -0.9219234 -0.03755634 0.164503 -0.9789373 0.1209151 0.7060648 -0.5724084 -0.4169186 0.7991412 -0.5989348 -0.05148241 0.5902273 -0.8040321 -0.07186216 0.5648588 -0.6663612 -0.4867212 0.7653873 -0.136823 -0.6288575 0.9880167 0.007088595 -0.1541838 0.9465289 -0.2997977 -0.1191826 0.7575216 -0.3803628 -0.5305517 0.8101714 0.5394844 0.2293007 0.7350693 0.4919553 0.466533 0.8780797 0.3270159 0.3493374 0.925114 0.3358925 0.1770321 0.9544165 0.2294447 0.1909038 0.9726809 0.1990896 0.1193942 0.1189947 0.9743023 0.1912466 0.1437804 0.8752933 0.4617239 0.4745414 0.7096699 0.5207485 0.5346255 0.8125065 0.2323978 -0.427826 0.8113387 -0.3983646 -0.2201838 0.9722358 -0.07922517 -0.07069538 0.9692799 0.2355814 -0.1528809 0.9882312 -0.005143337 -0.7754055 0.6281744 -0.06436872 -0.5839189 0.8091096 -0.06618489 -0.7894752 0.6133653 -0.02262791 -0.6539791 0.6637309 -0.3630052 -0.8156325 0.4800352 -0.3229705 -0.9092482 0.4159181 0.01672771 -0.9873009 0.1272012 0.09516792 -0.9413928 0.1802155 -0.285135 -0.9662164 -0.1174718 -0.2294039 -0.9734661 -0.1599458 0.1636485 -0.475179 -0.6422185 -0.6014651 -0.6411324 -0.7599873 -0.1066239 -0.8670353 -0.4865254 0.107438 -0.8152982 -0.4944399 -0.3013603 -0.3569632 -0.900412 -0.2486678 -0.186734 -0.7917587 -0.5815914 0.9215822 0.1670585 -0.3503963 0.9658387 0.2569917 0.03332995 0.9674386 0.250293 -0.03762963 0.9032249 0.1364228 -0.4069073 0.8613914 0.1291177 -0.4912571 0.9774607 0.1880581 -0.09594136 0.9826568 0.1845017 0.01856535 0.9231724 0.1458117 -0.3556569 0.5695689 0.3478291 -0.7447188 0.7857625 0.5513726 -0.2802954 0.9111519 0.3591656 -0.2019955 0.7361583 0.2679467 -0.6215106 0.1059688 0.5177867 -0.8489215 0.1455957 0.9200217 -0.3638158 0.5000885 0.7935815 -0.3466119 0.3687103 0.4786598 -0.7968296 -0.1463305 0.941103 -0.3048155 -0.1221382 0.7141008 -0.6893057 -0.1733971 0.6858772 -0.7067573 -0.2405298 0.8178706 -0.5227171 -0.1224957 0.3057313 -0.944205 -0.3203004 0.5871801 -0.743389 -0.2404981 0.5926534 -0.7687149 -0.07408064 0.3861945 -0.9194378 -0.3361648 0.2512758 -0.9076638 -0.6057522 0.4140408 -0.6794368 -0.4362428 0.5636911 -0.7013877 -0.2392971 0.2981067 -0.9240505 -0.3266165 -0.08277002 -0.9415258 -0.7043872 -0.05544744 -0.707647 -0.6995761 0.1564277 -0.6972257 -0.3411686 0.08504783 -0.9361469 -0.4027691 -0.3264088 -0.8551224 -0.6823224 -0.3123009 -0.6609874 0.5240831 -0.4014927 -0.7510929 0.4632497 -0.2074296 -0.8616105 0.252887 -0.4387154 -0.8623091 0.1015682 -0.1484562 -0.9836893 0.3299716 0.0726944 -0.9411877 0.6423271 0.07339666 -0.7629081 0.6792963 0.09542295 -0.7276338 0.5027534 -0.0232684 -0.8641166 0.580907 0.05842697 -0.8118702 0.6844026 0.07544974 -0.7251899 0.319243 0.1590098 -0.9342375 0.5203271 0.1482296 -0.841004 0.2581218 0.2255556 -0.9394135 0.1529231 0.187522 -0.9702835 0.08779479 0.2162346 -0.9723861 0.09206913 0.1572204 -0.9832625 -0.0164829 -0.5753896 -0.8177134 -0.194616 -0.3219128 -0.926551 0.2432213 0.01000746 -0.9699192 0.4167007 -0.05160395 -0.9075779 -0.1461599 0.06932714 -0.9868288 -0.02931878 0.07222012 -0.9969577 -0.1579216 -0.08491664 -0.9837936 -0.2281193 -0.2519723 -0.9404635 0.0950423 0.07767947 -0.9924378</float_array>
          <technique_common>
            <accessor source="#geom-smallrockfive400-normals-array" count="236" stride="3">
              <param name="X" type="float"/>
              <param name="Y" type="float"/>
              <param name="Z" type="float"/>
            </accessor>
          </technique_common>
        </source>
        <source id="geom-smallrockfive400-map1">
          <float_array id="geom-smallrockfive400-map1-array" count="795">0.1896508 0.6641923 0.1337591 0.1803843 0.5950302 0 0.1309249 0.6819907 0.04230805 0.3027856 0.6204372 0.06082689 0.09378444 0.8113745 0.04204751 0.165216 0.6462462 0.01855616 0.06466 0.8575931 0 0.3758503 0.6986949 0.04408678 0.08797966 0.6672351 0 0.1455204 0.6253518 0 0.06340335 0.7310736 0 0.1335087 0.5848777 0 0.03057568 0.8357959 0 0.03684054 0.6419837 0 0.1033932 0.5660484 0 0.341049 0.8237674 0.07285516 0.2924209 0.8646563 0.01150345 0.2466556 0.8639935 0.04662731 0.3740848 0.7693587 0.0994072 0.202059 0.9088901 0.03785912 0.2250582 0.8455459 0.1445322 0.4664044 0.5873332 0 0.09532212 0.9148518 0 0.1154852 0.8555402 0.1200059 0.4146602 0.7703514 0 0.5220956 0.7398444 0 0.3817483 0.8442556 0 0.2506679 0.9418215 0 0.2791091 0.9219664 0 0.2095338 0.9549693 0 0.09895466 0.9587913 0 0.3346453 0.8967941 0 0.3032853 0.9501599 0 0.2690496 0.9742101 0 0.2300514 0.9863422 0 0.1923128 0.9873394 0 0.4932033 0.8600709 0 0.3791381 0.9298075 0 -0.05472411 0.7982894 0 -0.05986179 0.8999171 0 -0.09060623 0.918941 0 -0.003257051 0.7193856 0 0.03533213 0.7220135 0 -0.03372456 0.6504886 0 -0.07839085 0.5738477 0 -0.1606026 0.8254302 0 -0.1242399 0.9160837 0 -0.1531068 0.8987195 0 -0.1815484 0.681722 0 -0.2599675 0.5856272 0 0.2524509 0.5845212 0 0.2651647 0.5167609 0 0.2981117 0.4835816 0 0.2085617 0.7868949 0.7687836 0.1987823 0.7686588 0.7590437 0.2346153 0.695179 0.6115183 0.2795317 0.74219 0.6556227 0.1786121 0.7961376 0.6943896 0.184244 0.7025345 0.6485212 0.296963 0.7905404 0.6020938 0.161577 0.8250076 0.4833397 0.1846891 0.831769 0.4924556 0.1473752 0.7001566 0.4701958 0.2367959 0.6519768 0.4546724 0.3005676 0.6816304 0.3433179 0.2090898 0.7530076 0.7358528 0.2372387 0.7394289 0.7127683 0.1913973 0.7936423 0.7868809 0.1979487 0.741111 0.7298263 0.2600726 0.7729706 0.7601432 0.1866666 0.8108736 0.6826352 0.1500323 0.8163648 0.4437833 0.150028 0.7517973 0.545296 0.1736206 0.6831946 0.4780012 0.2110266 0.6748434 0.4860639 0.2729054 0.7019956 0.5550382 0.2276065 0.8110955 0.5338529 0.2020038 0.6393638 0.194726 0.2584783 0.6727386 0.5021665 0.2552271 0.8293493 0.2454069 0.1224806 0.8368092 0.1947232 0.1223069 0.7300531 0.222674 0.1583761 0.6701379 0.1670055 0.1791207 0.6354887 0 0.2941055 0.8316662 0.1840551 0.1543784 0.8373441 0.3939817 0.08523141 0.8483624 0 0.1029464 0.7193697 0 0.154795 0.6371769 0 0.2581271 0.6159771 0.194726 0.276602 0.6479687 0.3041345 0.3285868 0.6705272 0.1094084 0.3395665 0.7290134 0.2677547 0.3227074 0.7657385 0.4930047 0.3456762 0.7952626 0.2454069 0.223147 0.8756517 0 0.2044365 0.8634979 0.1992586 0.1476709 0.8816741 0.1494439 0.07787095 0.7357708 0 0.1239998 0.6378886 0 0.1526461 0.603173 0 0.3186907 0.57438 0 0.3814298 0.6394728 0 0.4130794 0.7148291 0 0.3795366 0.8047826 0 0.2638395 0.8980169 0 0.2297568 0.922649 0 0.1555308 0.938454 0 0.06187682 0.838144 0 0.053569 0.7756831 0 0.05528586 0.684613 0 0.0911852 0.6108712 0 0.3432269 0.5292253 0 0.3348565 0.8554891 0 0.30039 0.9078914 0 0.2748801 0.9511155 0 0.2418184 0.9673234 0 0.185133 0.9724749 0 -0.04095282 0.8639278 0 0.008581802 0.7677211 0 0.01679657 0.6787776 0 -0.0196252 0.6183092 0 0.4503224 0.8042743 0 0.3630786 0.8893491 0 0.3388404 0.9265763 0 -0.1459832 0.8800779 0 -0.1251496 0.8868182 0 -0.09837593 0.8484762 0 -0.1733022 0.6137323 0 0.4161137 0.876119 0 -0.05905183 0.7114269 0 -0.09400965 0.6333234 0 -0.12869 0.7694032 0 0.1978458 0.7806147 0.784049 0.2083578 0.7400866 0.7179556 0.2208942 0.7421114 0.711033 0.243164 0.761868 0.75428 0.2552461 0.7167289 0.6511739 0.1906655 0.7807212 0.7689837 0.1905588 0.8006073 0.7545279 0.1783448 0.7477811 0.697071 0.2068636 0.6980667 0.6439919 0.2483571 0.7901753 0.707908 0.2905304 0.7662064 0.6830405 0.1741003 0.8138226 0.6144421 0.2003094 0.809353 0.6539198 0.1758853 0.8234497 0.5646405 0.1348287 0.8242877 0.305669 0.1434375 0.7985807 0.4340649 0.1267612 0.7477058 0.3589979 0.1625174 0.7040051 0.6143252 0.1676877 0.6774545 0.3282571 0.1902983 0.679923 0.4325117 0.234266 0.6713254 0.5416261 0.2096644 0.659317 0.316242 0.2987041 0.7134455 0.4734529 0.268908 0.684611 0.4948815 0.2515736 0.817346 0.3788701 0.2091797 0.8355852 0.3327218 0.188987 0.6346095 0.04868151 0.205786 0.6247679 0.2920891 0.2685359 0.6639271 0.4296761 0.2347955 0.8523026 0.06135172 0.2741067 0.8259909 0.2914206 0.1384764 0.8408846 0.2932186 0.09968649 0.8431665 0.04868079 0.1393024 0.6923269 0.2644253 0.111965 0.7379131 0.05566849 0.1736187 0.6542656 0.04175137 0.1519801 0.6578454 0.04175137 0.1692096 0.6276439 0 0.3220077 0.8104042 0.2914206 0.3145725 0.8427179 0.04601379 0.2715296 0.8604149 0.04601379 0.1471944 0.8520291 0.2853003 0.07554077 0.8412856 0 0.08264969 0.8620221 0 0.08936135 0.7330157 0 0.1113477 0.6735809 0 0.1387629 0.6464658 0 0.1579679 0.6162478 0 0.2641649 0.631839 0.2707597 0.2800028 0.5959458 0.04868151 0.3009519 0.651974 0.1854421 0.3469753 0.6602713 0.02735211 0.3407928 0.7005542 0.1763471 0.3313807 0.752032 0.3758882 0.3821421 0.7342805 0.06693867 0.3405094 0.778985 0.368658 0.3643421 0.8004984 0.06135172 0.2137011 0.8767489 0.04981464 0.2259395 0.8950388 0 0.1867072 0.8726415 0.2366195 0.1517892 0.9144315 0.03736098 0.06970488 0.7657218 0 0.06909387 0.7016631 0 0.1385501 0.6138876 0 0.1087317 0.6223792 0 0.1569466 0.589954 0 0.3643169 0.6025227 0 0.3483717 0.5519249 0 0.412014 0.6659539 0 0.3978468 0.7673535 0 0.4381979 0.6830179 0 0.3584421 0.8323999 0 0.4039625 0.8065597 0 0.2461945 0.9077724 0 0.2821018 0.8968881 0 0.2664762 0.9323059 0 0.2032833 0.9353188 0 0.2349373 0.9496785 0 0.09713833 0.9368216 0 0.1647078 0.9567865 0 0.05910395 0.8176666 0 0.03226171 0.773676 0 0.05054019 0.7265474 0 0.03750198 0.6788935 0 0.06857727 0.6470107 0 0.118451 0.5754631 0 0.07249932 0.601364 0 0.3822581 0.5354574 0 0.3138244 0.8790022 0 0.3520082 0.8707694 0 0.2891951 0.9344858 0 0.3191535 0.9210972 0 0.2586772 0.9609908 0 0.2861674 0.962185 0 0.2190538 0.9708921 0 0.2495505 0.9802762 0 0.2111822 0.9868408 0 0.1456338 0.9730655 0 -0.01142867 0.8171256 0 -0.06846346 0.8581007 0 0.01826207 0.7201325 0 -0.02075972 0.7496832 0 0.004171535 0.6445418 0 -0.01324876 0.6882831 0 -0.05352886 0.6174702 0 0.5076494 0.7999577 0 0.4339097 0.8447357 0 0.3537889 0.9113734 0 0.3835826 0.8834385 0 0.3412115 0.939984 0 -0.138994 0.8771027 0 -0.1186835 0.8699164 0 -0.1078968 0.8110918 0 -0.1318127 0.6256564 0 0.4361707 0.894939 0 -0.1033023 0.7409024 0 -0.08917482 0.6677182 0 0.2418193 0.6195134 0.2920891 0.09798084 0.8906515 0 0.258808 0.5506409 0 0.4660434 0.7592737 0 0.04761796 0.8466945 0 0.2816383 0.5001712 0 -0.01839311 0.6052637 0 -0.1691794 0.5797375 0 -0.1386734 0.9074016 0 -0.1074231 0.9175123 0 -0.07523389 0.909429 0 -0.01464297 0.8678564 0 -0.220758 0.6336747 0 -0.1568549 0.8620749 0 -0.1710754 0.7535761 0</float_array>
          <technique_common>
            <accessor source="#geom-smallrockfive400-map1-array" count="265" stride="3">
              <param name="S" type="float"/>
              <param name="T" type="float"/>
              <param name="P" type="float"/>
            </accessor>
          </technique_common>
        </source>
        <vertices id="geom-smallrockfive400-vertices">
          <input semantic="POSITION" source="#geom-smallrockfive400-positions"/>
        </vertices>
        <triangles material="greyrock_1" count="468">
          <input semantic="VERTEX" source="#geom-smallrockfive400-vertices" offset="0"/>
          <input semantic="NORMAL" source="#geom-smallrockfive400-normals" offset="1"/>
          <input semantic="TEXCOORD" source="#geom-smallrockfive400-map1" offset="2" set="1"/>
          <p>1 0 53 119 1 133 51 2 65 51 2 65 121 3 135 1 0 53 119 1 133 0 4 54 120 5 134 120 5 134 51 2 65 119 1 133 6 6 55 121 3 135 51 2 65 51 2 65 120 5 134 6 6 55 3 7 56 122 8 136 52 9 66 52 9 66 123 10 137 3 7 56 122 8 136 1 0 53 121 3 135 121 3 135 52 9 66 122 8 136 6 6 55 123 10 137 52 9 66 52 9 66 121 3 135 6 6 55 2 11 57 124 12 138 53 13 67 53 13 67 125 14 139 2 11 57 124 12 138 0 4 54 119 1 133 119 1 133 53 13 67 124 12 138 1 0 53 125 14 139 53 13 67 53 13 67 119 1 133 1 0 53 0 4 54 124 12 138 54 15 68 54 15 68 120 5 134 0 4 54 124 12 138 2 11 57 126 16 140 126 16 140 54 15 68 124 12 138 5 17 58 127 18 141 54 15 68 54 15 68 126 16 140 5 17 58 127 18 141 6 6 55 120 5 134 120 5 134 54 15 68 127 18 141 10 19 59 128 20 142 55 21 69 55 21 69 129 22 143 10 19 59 128 20 142 1 0 53 122 8 136 122 8 136 55 21 69 128 20 142 3 7 56 129 22 143 55 21 69 55 21 69 122 8 136 3 7 56 4 23 60 130 24 144 56 25 70 56 25 70 132 26 146 4 23 60 130 24 144 2 11 57 125 14 139 125 14 139 56 25 70 130 24 144 1 0 53 131 27 145 56 25 70 56 25 70 125 14 139 1 0 53 131 27 145 7 28 61 132 26 146 132 26 146 56 25 70 131 27 145 2 11 57 130 24 144 57 29 71 57 29 71 134 30 148 2 11 57 130 24 144 4 23 60 133 31 147 133 31 147 57 29 71 130 24 144 16 32 4 134 30 148 57 29 71 57 29 71 133 31 147 16 32 4 2 11 57 134 30 148 58 33 72 58 33 72 126 16 140 2 11 57 134 30 148 16 32 4 135 34 149 135 34 149 58 33 72 134 30 148 12 35 62 136 36 150 58 33 72 58 33 72 135 34 149 12 35 62 136 36 150 5 17 58 126 16 140 126 16 140 58 33 72 136 36 150 5 17 58 136 36 150 59 37 73 59 37 73 138 38 152 5 17 58 136 36 150 12 35 62 137 39 151 137 39 151 59 37 73 136 36 150 8 40 0 138 38 152 59 37 73 59 37 73 137 39 151 8 40 0 9 41 63 139 42 153 60 43 74 60 43 74 140 44 154 9 41 63 139 42 153 6 6 55 127 18 141 127 18 141 60 43 74 139 42 153 5 17 58 138 38 152 60 43 74 60 43 74 127 18 141 5 17 58 138 38 152 8 40 0 140 44 154 140 44 154 60 43 74 138 38 152 13 45 64 141 46 155 61 47 75 61 47 75 142 48 156 13 45 64 141 46 155 3 7 56 123 10 137 123 10 137 61 47 75 141 46 155 6 6 55 142 48 156 61 47 75 61 47 75 123 10 137 6 6 55 1 0 53 128 20 142 62 49 76 62 49 76 131 27 145 1 0 53 128 20 142 10 19 59 143 50 157 143 50 157 62 49 76 128 20 142 11 51 20 144 52 158 62 49 76 62 49 76 143 50 157 11 51 20 144 52 158 7 28 61 131 27 145 131 27 145 62 49 76 144 52 158 9 41 63 140 44 154 63 53 77 63 53 77 146 54 160 9 41 63 140 44 154 8 40 0 145 55 159 145 55 159 63 53 77 140 44 154 22 56 1 146 54 160 63 53 77 63 53 77 145 55 159 22 56 1 13 45 64 142 48 156 64 57 78 64 57 78 147 58 161 13 45 64 142 48 156 6 6 55 139 42 153 139 42 153 64 57 78 142 48 156 9 41 63 147 58 161 64 57 78 64 57 78 139 42 153 9 41 63 14 59 17 148 60 162 65 61 79 65 61 79 149 62 163 14 59 17 148 60 162 11 51 20 143 50 157 143 50 157 65 61 79 148 60 162 10 19 59 149 62 163 65 61 79 65 61 79 143 50 157 10 19 59 4 23 60 150 63 164 66 64 80 66 64 80 133 31 147 4 23 60 150 63 164 15 65 23 151 66 165 151 66 165 66 64 80 150 63 164 16 32 4 133 31 147 66 64 80 66 64 80 151 66 165 16 32 4 17 67 2 152 68 166 67 69 81 67 69 81 153 70 167 17 67 2 152 68 166 12 35 62 135 34 149 135 34 149 67 69 81 152 68 166 16 32 4 153 70 167 67 69 81 67 69 81 135 34 149 16 32 4 18 71 5 154 72 168 68 73 82 68 73 82 155 74 169 18 71 5 154 72 168 8 40 0 137 39 151 137 39 151 68 73 82 154 72 168 12 35 62 152 68 166 68 73 82 68 73 82 137 39 151 12 35 62 152 68 166 17 67 2 155 74 169 155 74 169 68 73 82 152 68 166 8 40 0 154 72 168 69 75 83 69 75 83 145 55 159 8 40 0 154 72 168 18 71 5 156 76 170 156 76 170 69 75 83 154 72 168 22 56 1 145 55 159 69 75 83 69 75 83 156 76 170 22 56 1 10 19 59 157 77 171 70 78 84 70 78 84 149 62 163 10 19 59 157 77 171 26 79 15 158 80 172 158 80 172 70 78 84 157 77 171 19 81 16 159 82 173 70 78 84 70 78 84 158 80 172 19 81 16 159 82 173 14 59 17 149 62 163 149 62 163 70 78 84 159 82 173 15 65 23 150 63 164 71 83 85 71 83 85 160 84 174 15 65 23 150 63 164 4 23 60 132 26 146 132 26 146 71 83 85 150 63 164 7 28 61 160 84 174 71 83 85 71 83 85 132 26 146 7 28 61 20 85 6 161 86 175 72 87 86 72 87 86 162 88 176 20 85 6 161 86 175 16 32 4 151 66 165 151 66 165 72 87 86 161 86 175 15 65 23 162 88 176 72 87 86 72 87 86 151 66 165 15 65 23 17 67 2 153 70 167 73 89 87 73 89 87 164 90 178 17 67 2 153 70 167 16 32 4 163 91 177 163 91 177 73 89 87 153 70 167 30 92 8 164 90 178 73 89 87 73 89 87 163 91 177 30 92 8 18 71 5 155 74 169 74 93 88 74 93 88 156 76 170 18 71 5 155 74 169 17 67 2 165 94 179 165 94 179 74 93 88 155 74 169 21 95 9 166 96 180 74 93 88 74 93 88 165 94 179 21 95 9 166 96 180 22 56 1 156 76 170 156 76 170 74 93 88 166 96 180 23 97 3 167 98 181 75 99 89 75 99 89 168 100 182 23 97 3 167 98 181 9 41 63 146 54 250 146 54 250 75 99 89 167 98 181 22 56 50 168 100 182 75 99 89 75 99 89 146 54 250 22 56 50 23 97 3 169 101 183 76 102 90 76 102 90 167 98 181 23 97 3 169 101 183 13 45 64 147 58 161 147 58 161 76 102 90 169 101 183 9 41 63 167 98 181 76 102 90 76 102 90 147 58 161 9 41 63 13 45 64 169 101 183 77 103 91 77 103 91 171 104 185 13 45 64 169 101 183 23 97 3 170 105 184 170 105 184 77 103 91 169 101 183 24 106 7 171 104 185 77 103 91 77 103 91 170 105 184 24 106 7 25 107 18 172 108 186 78 109 92 78 109 92 173 110 187 25 107 18 172 108 186 3 7 56 141 46 155 141 46 155 78 109 92 172 108 186 13 45 64 171 104 185 78 109 92 78 109 92 141 46 155 13 45 64 171 104 185 24 106 7 173 110 187 173 110 187 78 109 92 171 104 185 25 107 18 174 111 188 79 112 93 79 112 93 172 108 186 25 107 18 174 111 188 10 19 59 129 22 143 129 22 143 79 112 93 174 111 188 3 7 56 172 108 186 79 112 93 79 112 93 129 22 143 3 7 56 10 19 59 174 111 188 80 113 94 80 113 94 157 77 171 10 19 59 174 111 188 25 107 18 175 114 189 175 114 189 80 113 94 174 111 188 26 79 15 157 77 171 80 113 94 80 113 94 175 114 189 26 79 15 27 115 19 176 116 190 81 117 95 81 117 95 177 118 191 27 115 19 176 116 190 11 51 20 148 60 162 148 60 162 81 117 95 176 116 190 14 59 17 177 118 191 81 117 95 81 117 95 148 60 162 14 59 17 27 115 19 178 119 192 82 120 96 82 120 96 176 116 190 27 115 19 178 119 192 7 28 61 144 52 158 144 52 158 82 120 96 178 119 192 11 51 20 176 116 190 82 120 96 82 120 96 144 52 158 11 51 20 20 85 22 162 88 251 83 121 97 83 121 97 179 122 193 20 85 22 162 88 251 15 65 23 160 84 174 160 84 174 83 121 97 162 88 251 7 28 61 178 119 192 83 121 97 83 121 97 160 84 174 7 28 61 178 119 192 27 115 19 179 122 193 179 122 193 83 121 97 178 119 192 16 32 4 180 123 194 84 124 98 84 124 98 163 91 177 16 32 4 180 123 194 29 125 10 181 126 195 181 126 195 84 124 98 180 123 194 30 92 8 163 91 177 84 124 98 84 124 98 181 126 195 30 92 8 31 127 11 182 128 196 85 129 99 85 129 99 183 130 197 31 127 11 182 128 196 21 95 9 165 94 179 165 94 179 85 129 99 182 128 196 17 67 2 164 90 178 85 129 99 85 129 99 165 94 179 17 67 2 164 90 178 30 92 8 183 130 197 183 130 197 85 129 99 164 90 178 31 127 11 184 131 198 86 132 100 86 132 100 182 128 196 31 127 11 184 131 198 22 56 1 166 96 180 166 96 180 86 132 100 184 131 198 21 95 9 182 128 196 86 132 100 86 132 100 166 96 180 21 95 9 39 133 21 185 134 199 87 135 101 87 135 101 186 136 200 39 133 21 185 134 199 23 97 3 168 100 182 168 100 182 87 135 101 185 134 199 22 56 50 184 131 252 87 135 101 87 135 101 168 100 182 22 56 50 184 131 252 31 127 51 186 136 200 186 136 200 87 135 101 184 131 252 39 133 21 187 137 201 88 138 102 88 138 102 185 134 199 39 133 21 187 137 201 24 106 7 170 105 184 170 105 184 88 138 102 187 137 201 23 97 3 185 134 199 88 138 102 88 138 102 170 105 184 23 97 3 32 139 24 188 140 202 89 141 103 89 141 103 189 142 203 32 139 24 188 140 202 25 107 18 173 110 187 173 110 187 89 141 103 188 140 202 24 106 7 187 137 201 89 141 103 89 141 103 173 110 187 24 106 7 187 137 201 39 133 21 189 142 203 189 142 203 89 141 103 187 137 201 40 143 26 190 144 204 90 145 104 90 145 104 191 146 205 40 143 26 190 144 204 26 79 15 175 114 189 175 114 189 90 145 104 190 144 204 25 107 18 188 140 202 90 145 104 90 145 104 175 114 189 25 107 18 188 140 202 32 139 24 191 146 205 191 146 205 90 145 104 188 140 202 34 147 27 192 148 206 91 149 105 91 149 105 194 150 208 34 147 27 192 148 206 14 59 17 159 82 173 159 82 173 91 149 105 192 148 206 19 81 16 193 151 207 91 149 105 91 149 105 159 82 173 19 81 16 193 151 207 33 152 28 194 150 208 194 150 208 91 149 105 193 151 207 35 153 29 195 154 209 92 155 106 92 155 106 196 156 210 35 153 29 195 154 209 27 115 19 177 118 191 177 118 191 92 155 106 195 154 209 14 59 17 192 148 206 92 155 106 92 155 106 177 118 191 14 59 17 192 148 206 34 147 27 196 156 210 196 156 210 92 155 106 192 148 206 28 157 30 197 158 211 93 159 107 93 159 107 198 160 212 28 157 30 197 158 211 20 85 22 179 122 193 179 122 193 93 159 107 197 158 211 27 115 19 195 154 209 93 159 107 93 159 107 179 122 193 27 115 19 195 154 209 35 153 29 198 160 212 198 160 212 93 159 107 195 154 209 28 157 12 199 161 213 94 162 108 94 162 108 197 158 254 28 157 12 199 161 213 16 32 4 161 86 175 161 86 175 94 162 108 199 161 213 20 85 6 197 158 254 94 162 108 94 162 108 161 86 175 20 85 6 16 32 4 199 161 213 95 163 109 95 163 109 180 123 194 16 32 4 199 161 213 28 157 12 200 164 214 200 164 214 95 163 109 199 161 213 36 165 42 201 166 215 95 163 109 95 163 109 200 164 214 36 165 42 201 166 215 29 125 10 180 123 194 180 123 194 95 163 109 201 166 215 29 125 10 201 166 215 96 167 110 96 167 110 181 126 195 29 125 10 201 166 215 36 165 42 202 168 216 202 168 216 96 167 110 201 166 215 37 169 13 203 170 217 96 167 110 96 167 110 202 168 216 37 169 13 203 170 217 30 92 8 181 126 195 181 126 195 96 167 110 203 170 217 38 171 14 204 172 218 97 173 111 97 173 111 205 174 219 38 171 14 204 172 218 31 127 11 183 130 197 183 130 197 97 173 111 204 172 218 30 92 8 203 170 217 97 173 111 97 173 111 183 130 197 30 92 8 203 170 217 37 169 13 205 174 219 205 174 219 97 173 111 203 170 217 31 127 51 204 172 255 98 175 112 98 175 112 186 136 200 31 127 51 204 172 255 38 171 52 206 176 220 206 176 220 98 175 112 204 172 255 39 133 21 186 136 200 98 175 112 98 175 112 206 176 220 39 133 21 41 177 31 207 178 221 99 179 113 99 179 113 208 180 222 41 177 31 207 178 221 19 81 16 158 80 172 158 80 172 99 179 113 207 178 221 26 79 15 190 144 204 99 179 113 99 179 113 158 80 172 26 79 15 190 144 204 40 143 26 208 180 222 208 180 222 99 179 113 190 144 204 42 181 32 209 182 223 100 183 114 100 183 114 210 184 224 42 181 32 209 182 223 33 152 28 193 151 207 193 151 207 100 183 114 209 182 223 19 81 16 207 178 221 100 183 114 100 183 114 193 151 207 19 81 16 207 178 221 41 177 31 210 184 224 210 184 224 100 183 114 207 178 221 43 185 33 211 186 225 101 187 115 101 187 115 212 188 226 43 185 33 211 186 225 34 147 27 194 150 208 194 150 208 101 187 115 211 186 225 33 152 28 209 182 223 101 187 115 101 187 115 194 150 208 33 152 28 209 182 223 42 181 32 212 188 226 212 188 226 101 187 115 209 182 223 44 189 34 213 190 227 102 191 116 102 191 116 214 192 228 44 189 34 213 190 227 35 153 29 196 156 210 196 156 210 102 191 116 213 190 227 34 147 27 211 186 225 102 191 116 102 191 116 196 156 210 34 147 27 211 186 225 43 185 33 214 192 228 214 192 228 102 191 116 211 186 225 35 153 29 213 190 227 103 193 117 103 193 117 198 160 212 35 153 29 213 190 227 44 189 34 215 194 229 215 194 229 103 193 117 213 190 227 45 195 35 216 196 230 103 193 117 103 193 117 215 194 229 45 195 35 216 196 230 28 157 30 198 160 212 198 160 212 103 193 117 216 196 230 48 197 38 217 198 231 104 199 118 104 199 118 218 200 232 48 197 38 217 198 231 28 157 12 216 196 261 216 196 261 104 199 118 217 198 231 45 195 39 215 194 260 104 199 118 104 199 118 216 196 261 45 195 39 215 194 260 44 189 40 218 200 232 218 200 232 104 199 118 215 194 260 46 201 41 219 202 233 105 203 119 105 203 119 220 204 234 46 201 41 219 202 233 36 165 42 200 164 214 200 164 214 105 203 119 219 202 233 28 157 12 217 198 231 105 203 119 105 203 119 200 164 214 28 157 12 217 198 231 48 197 38 220 204 234 220 204 234 105 203 119 217 198 231 47 205 43 221 206 235 106 207 120 106 207 120 222 208 236 47 205 43 221 206 235 37 169 13 202 168 216 202 168 216 106 207 120 221 206 235 36 165 42 219 202 233 106 207 120 106 207 120 202 168 216 36 165 42 219 202 233 46 201 41 222 208 236 222 208 236 106 207 120 219 202 233 47 205 43 223 209 237 107 210 121 107 210 121 221 206 235 47 205 43 223 209 237 38 171 44 205 174 256 205 174 256 107 210 121 223 209 237 37 169 13 221 206 235 107 210 121 107 210 121 205 174 256 37 169 13 40 143 26 191 146 205 108 211 122 108 211 122 225 212 239 40 143 26 191 146 205 32 139 24 189 142 253 189 142 253 108 211 122 191 146 205 39 133 25 224 213 238 108 211 122 108 211 122 189 142 253 39 133 25 224 213 238 50 214 36 225 212 239 225 212 239 108 211 122 224 213 238 49 215 37 226 216 240 109 217 123 109 217 123 227 218 241 49 215 37 226 216 240 41 177 31 208 180 222 208 180 222 109 217 123 226 216 240 40 143 26 227 218 241 109 217 123 109 217 123 208 180 222 40 143 26 49 215 37 228 219 242 110 220 124 110 220 124 226 216 240 49 215 37 228 219 242 42 181 32 210 184 224 210 184 224 110 220 124 228 219 242 41 177 31 226 216 240 110 220 124 110 220 124 210 184 224 41 177 31 49 215 45 229 221 243 111 222 125 111 222 125 228 219 263 49 215 45 229 221 243 43 185 46 212 188 258 212 188 258 111 222 125 229 221 243 42 181 47 228 219 263 111 222 125 111 222 125 212 188 258 42 181 47 43 185 46 229 221 243 112 223 126 112 223 126 214 192 259 43 185 46 229 221 243 49 215 45 230 224 244 230 224 244 112 223 126 229 221 243 44 189 40 214 192 259 112 223 126 112 223 126 230 224 244 44 189 40 44 189 40 230 224 244 113 225 127 113 225 127 218 200 232 44 189 40 230 224 244 49 215 45 231 226 245 231 226 245 113 225 127 230 224 244 48 197 38 218 200 232 113 225 127 113 225 127 231 226 245 48 197 38 50 214 48 224 213 262 114 227 128 114 227 128 232 228 246 50 214 48 224 213 262 39 133 49 206 176 257 206 176 257 114 227 128 224 213 262 38 171 44 232 228 246 114 227 128 114 227 128 206 176 257 38 171 44 50 214 36 233 229 247 115 230 129 115 230 129 225 212 239 50 214 36 233 229 247 49 215 37 227 218 241 227 218 241 115 230 129 233 229 247 40 143 26 225 212 239 115 230 129 115 230 129 227 218 241 40 143 26 46 201 41 220 204 234 116 231 130 116 231 130 222 208 236 46 201 41 220 204 234 48 197 38 234 232 248 234 232 248 116 231 130 220 204 234 50 214 48 235 233 249 116 231 130 116 231 130 234 232 248 50 214 48 235 233 249 47 205 43 222 208 236 222 208 236 116 231 130 235 233 249 50 214 48 232 228 246 117 234 131 117 234 131 235 233 249 50 214 48 232 228 246 38 171 44 223 209 237 223 209 237 117 234 131 232 228 246 47 205 43 235 233 249 117 234 131 117 234 131 223 209 237 47 205 43 49 215 45 233 229 264 118 235 132 118 235 132 231 226 245 49 215 45 233 229 264 50 214 48 234 232 248 234 232 248 118 235 132 233 229 264 48 197 38 231 226 245 118 235 132 118 235 132 234 232 248 48 197 38</p>
        </triangles>
      </mesh>
    </geometry>
    <geometry id="geom-smallrockfive200" name="smallrockfive200">
      <mesh>
        <source id="geom-smallrockfive200-positions">
          <float_array id="geom-smallrockfive200-positions-array" count="357">0.1199 -1.145987 -0.1091856 -0.459209 -0.9036471 0.9659231 0.6462042 1.074733 0.1791765 -0.53681 0.9618101 0.5923367 -0.0712953 0.3364461 1.405969 -0.8327592 -0.9442136 0.03324584 -0.9517418 0.2778524 -0.1407288 0.7651622 0.7920146 -0.06174252 0.3794293 -0.5275802 1.173674 0.8891439 -0.7380581 0.2827417 -0.7163785 -0.5526728 1.101987 0.5784201 0.5281871 0.8824744 0.05937263 -0.6012326 -0.3688194 -1.086227 0.05423459 0.2086159 0.369421 -0.9938851 0.6453726 -1.041372 -0.5698779 -0.1381256 0.2041316 1.114471 0.03411909 1.025462 -0.1837909 0.4635237 0.9319744 -0.3015313 -3.54646e-4 0.7140557 -0.5221402 0.9045151 -0.7493771 -0.8141553 0.4394387 -0.7472029 0.1878105 0.8008116 -0.3615945 -1.079641 -0.1422938 0.3585062 0.7313166 0.8715093 0.4418852 1.007317 -0.1094233 -0.5443645 0.9804491 0.4300244 0.6623346 -0.940334 0.2185533 -0.8370586 -0.4723517 0.9223462 -0.6230722 0.3360548 -0.250008 1.039759 -0.2367301 0.2415591 0.8016493 0.8151995 0.2132587 0.2405874 -0.1951031 1.306357 0.3446858 -0.1662124 -0.3169904 0.01164242 0.6069717 1.159642 -1.032656 -0.6829265 0.05963054 -0.8967155 -0.2955075 0.5977618 -0.004433669 -1.075049 0.6522717 -0.2057777 -0.9169747 1.014904 0.7557058 -0.2050384 0.9682016 0.009956561 1.086156 0.3012586 -0.6521543 -0.9977688 0.2994327 0.5915233 -0.9252111 0.02709697 0.6376325 1.07856 0.02229542 0.8499386 0.06199853 -0.08150818 -0.422695 0.9782654 0.169664 -0.6033309 -0.6826661 -0.2623977 1.010647 -0.49458 0.2687015 -1.129301 -0.3495834 -0.05722885 -1.066375 -0.02612901 -0.1566964 0.8638417 0.0894165 0.7202689 -0.5295206 -1.082226 -0.03311811 0.1522925 0.4133035 1.257074 -0.6461921 0.751143 0.6597923 -0.9480227 -0.5867479 0.3629257 -0.3943222 -0.8240485 1.086911 0.5958235 0.768521 -0.1551542 -1.032988 0.3134276 0.1198431 -0.8962272 -0.03361905 -0.2460619 0.7953765 0.858752 0.04868519 -0.008326568 0.9521866 -0.0829206 0.5737182 -0.5144092 -0.1984162 0.09892794 -0.79342 1.090693 -0.8018284 -0.4573622 1.027432 -0.1493295 -0.03310543 -0.3559566 -0.3930729 1.023738 0.4661454 0.1648295 -0.9205539 -0.2514001 0.4485626 1.138674 0.1612274 -0.6250222 -0.769717 1.020844 0.9547984 -0.3889755 0.6224821 -0.840627 -0.2319219 0.8525002 -0.7860671 -0.9150807 -0.1074452 -0.882144 0.5142931 0.3698282 0.4286194 -0.1802699 1.23311 0.1249618 -0.9967641 0.8410261 0.8679335 -0.686793 0.5065157 0.9552717 1.97273e-4 0.04809577 0.5334427 0.7128778 0.7560138 -0.8399094 -0.5282155 0.6401733 0.9151251 0.247453 0.2734934 0.09078666 0.1890586 1.367611 -0.3210695 0.7248563 0.9365589 -1.084116 -0.3222684 -0.1559471 0.4036913 -1.077968 0.1678327 -1.083143 -0.2720747 0.2399076 0.02094527 0.4906914 1.28295 -0.0706468 0.1944738 1.400221 -0.2214289 0.5087989 -0.2716561 -0.05285052 -1.148662 0.1668638 0.8938012 -0.5886912 0.08978221 0.6489164 0.2776701 0.9421692 -0.6814275 -0.817368 0.7633498 -0.5725327 -0.6887581 1.118876 -0.08841924 0.9155582 0.6802262 0.7106199 0.7934084 0.4569297 -0.8241199 0.1654705 0.6218933 0.6132151 0.9741944 -0.08658652 -0.7743376 0.6327351 0.07080251 -0.4386976 -1.013609 0.6425712 0.2999243 -0.8041035 0.987612 -0.7523828 -0.6481668 0.9806597 0.5884425 -0.379362 1.103711 0.5640742 0.2824206 -0.2270645 -0.3632059 0.8964837 0.7474948 -0.372701 -1.093606 0.2146775 0.2352335 1.067001 -0.06117647 -0.7038053 0.548988 -0.1083993 -1.133506 -0.01895297 0.07183331 0.7837417 0.4134754 -0.09961514 0.8598503 0.4708844 0.01159476 0.6755776 -0.8843611 0.4594221 -0.1808532 -0.976447 0.9187226 -0.2017551 -0.9847955 -0.2448214 0.2595529 0.644108 -0.2296346 -0.6099449 -0.9569545 0.4882834 0.07137152 1.114292 0.1669396 0.1871352 -1.06935 0.5678338 0.9379906 -0.1787756 0.6934676 0.4126186 1.070637 0.3187125 0.4755475 1.129657 0.02191119</float_array>
          <technique_common>
            <accessor source="#geom-smallrockfive200-positions-array" count="119" stride="3">
              <param name="X" type="float"/>
              <param name="Y" type="float"/>
              <param name="Z" type="float"/>
            </accessor>
          </technique_common>
        </source>
        <source id="geom-smallrockfive200-normals">
          <float_array id="geom-smallrockfive200-normals-array" count="357">-0.2311188 -0.2165597 -0.9485178 -0.6784819 -0.07054092 -0.7312225 -0.314175 0.07184933 -0.9466423 0.8854864 -0.2374701 0.3994019 0.9514483 -0.2941211 -0.09076807 0.9773387 0.09196356 0.1906612 -0.1172148 0.3120112 -0.94282 0.07590602 0.2142727 -0.97382 -0.02984413 0.06920929 -0.9971557 0.08699931 0.743646 0.6628889 0.03844579 0.8681901 0.4947404 -0.1290859 0.9771616 0.1687956 -0.1128871 0.3300298 0.9371963 -0.7497911 0.4452775 0.4894294 -0.80404 0.2747123 0.5273071 0.7532064 -0.5563157 0.3509885 0.6865948 -0.4313155 0.5852815 0.4221279 -0.8331074 0.3574074 -0.5558861 -0.8027255 0.2159225 -0.1969528 -0.9748515 0.1042794 -0.3267564 -0.9183918 0.2231293 -0.9225352 -0.3043547 0.23727 -0.939176 -0.04660857 0.340259 -0.88076 -0.3163779 0.3523732 -0.8908733 0.2009959 0.407364 -0.9233897 0.136398 0.3588134 -0.3990298 0.8345866 -0.3797901 -0.2324336 0.6152765 -0.7532659 -0.4289431 0.5688182 -0.7017505 0.9887556 0.02072079 -0.148098 0.09226349 0.5147516 -0.8523604 0.3832812 0.1121446 0.9167982 0.5054619 0.003234048 0.8628429 0.4706604 0.4121292 0.7801464 -0.156731 -0.565605 0.8096458 0.1852713 -0.1897067 0.9642023 -0.1131202 -0.09246793 0.9892691 0.1977077 -0.9590046 0.2030319 -0.04725185 -0.998286 0.03452988 0.3706819 -0.9283835 -0.02643936 0.4820293 -0.2235506 -0.8471557 0.5725431 -0.6303135 -0.5243083 0.2618443 -0.4360178 -0.861003 -0.3032417 -0.4127937 0.8588631 -0.538435 -0.6690936 0.5122514 -0.8083235 -0.4812101 0.3391901 -0.7286276 -0.6529018 0.2069323 0.907068 0.3808756 0.1793356 0.9710788 0.2300024 0.06406929 0.8850878 0.4261386 -0.187151 -0.06578396 0.9642198 0.2568126 -0.4804313 -0.629349 -0.6108236 -0.02362825 -0.5675881 -0.8229736 0.0909682 -0.1442042 -0.9853578 -0.6461792 0.4261441 -0.63313 -0.8887901 0.455686 -0.04901497 -0.5814625 0.8131897 -0.02497902 -0.9948306 0.08273853 0.05887568 -0.7594097 0.1766371 -0.6261759 -0.9834898 -0.1168585 -0.1381732 0.1541652 -0.5706326 0.8066049 -0.01087092 -0.7520531 0.659013 0.2155558 -0.855173 0.4713967 0.002230427 -0.9707918 0.2399133 -0.8732693 -0.4804435 0.08108488 -0.7013264 -0.3341103 -0.6296917 0.1455957 0.9200216 -0.3638159 -0.1414456 0.6871604 -0.7126035 0.3261054 0.7293727 0.6013906 0.1402473 0.8672019 0.4777985 0.7103168 0.519644 0.4747844 0.6486389 0.4417733 0.6197612 0.8666852 0.2616114 0.4247544 0.6981114 0.2846949 0.6569546 0.7526801 -0.01052082 0.6583023 0.7088829 0.2626693 -0.6545914 0.6327047 0.09894741 -0.7680458 0.320035 0.0716609 -0.9446917 0.9152098 0.1311549 -0.3810371 0.9271387 0.1493524 -0.343668 0.4265923 -0.6703493 0.6071662 -0.6577954 -0.7518761 -0.04458024 -0.9376329 0.1305927 0.3221646 -0.8160741 -0.008757591 0.5778809 0.5873773 0.7770036 0.2263917 0.5765819 0.6173164 0.5352325 0.4144502 0.4692623 -0.7797589 0.5535924 0.7598909 -0.3407365 0.3048628 0.1949416 -0.932232 -0.04753244 0.8325305 0.5519363 -0.86629 0.4080274 0.288193 0.5548376 -0.7712336 0.3120159 0.754479 -0.1405414 -0.6411002 0.7235284 -0.3896351 -0.5698168 -0.5846552 -0.2063186 0.7846088 -0.2365637 0.2882887 -0.9278616 0.3449446 -0.4214965 0.838662 0.6121532 -0.2373503 0.7542766 0.2587563 0.02302679 -0.9656681 0.1837355 0.6306225 0.7540269 -0.3881873 0.6030867 0.6968481 -0.9336725 -0.09675934 0.3448093 -0.05686145 -0.906592 0.4181598 -0.3570674 -0.8245246 0.4389327 0.8861979 0.05936065 0.4594884 -0.1677334 0.9326618 -0.3193862 -0.1533486 0.9881527 -0.006194576 0.1106614 0.9774315 0.1799496 -0.4883553 -0.8358158 0.2508408 -0.7715916 -0.5698426 0.2827116 -0.3460376 -0.892764 -0.2884969 0.167482 -0.8700725 -0.4635987 0.5823549 -0.8105875 -0.06173083 0.7956204 -0.6019188 -0.06842446 0.6392784 0.03534319 -0.7681627 -0.8320184 0.5429378 -0.1138587 -0.1867339 -0.7917587 -0.5815914 -0.5240836 0.7651169 0.3740755 -0.9679821 -0.164031 0.1900123</float_array>
          <technique_common>
            <accessor source="#geom-smallrockfive200-normals-array" count="119" stride="3">
              <param name="X" type="float"/>
              <param name="Y" type="float"/>
              <param name="Z" type="float"/>
            </accessor>
          </technique_common>
        </source>
        <source id="geom-smallrockfive200-map1">
          <float_array id="geom-smallrockfive200-map1-array" count="429">0.1933802 0.6660029 0.1337591 0.1847957 0.5973874 0 0.1350326 0.6831323 0.04230805 0.09710936 0.8110231 0.04204751 0.06784904 0.856571 0 0.09260372 0.668139 0 0.03426209 0.8346764 0 0.04214612 0.6426741 0 0.108753 0.5680022 0 0.342027 0.8254417 0.07285516 0.375234 0.7718118 0.0994072 0.4682916 0.5922335 0 0.09773853 0.9135762 0 0.1182315 0.8549762 0.1200059 0.5221594 0.7438448 0 0.3821805 0.8460963 0 0.2105683 0.9543178 0 0.1009579 0.9571491 0 0.230629 0.9855841 0 0.492489 0.8627322 0 0.3788541 0.9308509 0 -0.04994053 0.7967721 0 -0.05591071 0.8974348 0 -0.08654108 0.9160204 0 -0.07145227 0.5741589 0 -0.155095 0.8227516 0 -0.1483009 0.8954417 0 -0.174608 0.680164 0 -0.2514859 0.5842612 0 0.2563005 0.5875965 0 0.3024204 0.4879662 0 0.2110587 0.7877575 0.7687836 0.2817724 0.7440714 0.6556227 0.2986276 0.7921347 0.6020938 0.1511766 0.7012758 0.4701958 0.2402039 0.654306 0.4546724 0.3031414 0.6842423 0.3433179 0.1939914 0.7942955 0.7868809 0.2622233 0.774405 0.7601432 0.1891546 0.8113298 0.6826352 0.1773307 0.6846945 0.4780012 0.2144703 0.6767423 0.4860639 0.2755537 0.7041838 0.5550382 0.2615105 0.6750669 0.5021665 0.2569343 0.8302312 0.2454069 0.2954403 0.8328633 0.1840551 0.08831394 0.8476019 0 0.2616533 0.6188167 0.194726 0.331003 0.6734819 0.1094084 0.3243533 0.7677802 0.4930047 0.346859 0.7972352 0.2454069 0.2247444 0.8758366 0 0.2063085 0.8636309 0.1992586 0.1499 0.8811516 0.1494439 0.1285513 0.63937 0 0.322028 0.5781202 0 0.4143472 0.7181132 0 0.3803301 0.8069618 0 0.1571974 0.9374854 0 0.06525934 0.8372739 0 0.06005593 0.6850769 0 0.09626761 0.6123135 0 0.3467325 0.5335866 0 0.2753562 0.951064 0 0.2424539 0.9668393 0 0.1862373 0.971454 0 -0.03686178 0.8619353 0 0.01305613 0.7670283 0 0.02196543 0.6789615 0 -0.01360344 0.6187259 0 0.3632899 0.8906199 0 0.3389495 0.9273003 0 -0.1204938 0.88389 0 -0.0936311 0.8461267 0 -0.1658489 0.6128615 0 -0.08744375 0.6329606 0 0.2004944 0.7814417 0.784049 0.245564 0.7632566 0.75428 0.2924637 0.7679653 0.6830405 0.202687 0.8099408 0.6539198 0.1783622 0.8236988 0.5646405 0.1376702 0.8241743 0.305669 0.130338 0.7482163 0.3589979 0.1715013 0.6789552 0.3282571 0.193886 0.6815968 0.4325117 0.2375298 0.6734571 0.5416261 0.2132546 0.6613451 0.316242 0.3010195 0.7157531 0.4734529 0.1929784 0.6366823 0.04868151 0.2097102 0.6270752 0.2920891 0.271553 0.6664224 0.4296761 0.2364893 0.8527995 0.06135172 0.1157605 0.7383842 0.05566849 0.1561057 0.6593879 0.04175137 0.3232737 0.8120351 0.2914206 0.1623989 0.6182187 0 0.3037786 0.654858 0.1854421 0.3428386 0.7033425 0.1763471 0.3835217 0.7371209 0.06693867 0.07364293 0.7655755 0 0.07359117 0.702092 0 0.1616141 0.5921544 0 0.3669974 0.6064026 0 0.4137138 0.6696718 0 0.3987983 0.77003 0 0.439513 0.6868076 0 0.3591878 0.8341465 0 0.4045193 0.808934 0 0.2473051 0.9078656 0 0.2671911 0.9323525 0 0.2045448 0.9347914 0 0.2357877 0.9492946 0 0.1661327 0.9557315 0 0.03647014 0.7731337 0 0.05499049 0.7265902 0 0.1235927 0.5774618 0 0.07783306 0.6027308 0 0.3853561 0.5400997 0 0.3145713 0.8799407 0 0.3524805 0.8721129 0 0.3194881 0.9217006 0 0.2864455 0.962131 0 0.2198646 0.9701785 0 0.2500038 0.9797417 0 0.2119264 0.9859151 0 0.02306028 0.7199545 0 -0.01586375 0.7488999 0 0.009751007 0.6449264 0 -0.007889912 0.6881211 0 0.5073243 0.8032886 0 0.4338653 0.8470235 0 0.4356715 0.8967915 0 -0.09758254 0.739485 0 0.2628929 0.5540784 0 0.4664466 0.7626133 0 0.2859526 0.5042633 0 -0.161469 0.5792102 0 -0.1340731 0.90417 0 -0.1031933 0.9144594 0 -0.07122593 0.9067276 0 -0.2130471 0.6322126 0 -0.1516978 0.8590966 0 -0.1648515 0.7514578 0</float_array>
          <technique_common>
            <accessor source="#geom-smallrockfive200-map1-array" count="143" stride="3">
              <param name="S" type="float"/>
              <param name="T" type="float"/>
              <param name="P" type="float"/>
            </accessor>
          </technique_common>
        </source>
        <vertices id="geom-smallrockfive200-vertices">
          <input semantic="POSITION" source="#geom-smallrockfive200-positions"/>
        </vertices>
        <triangles material="greyrock" count="234">
          <input semantic="VERTEX" source="#geom-smallrockfive200-vertices" offset="0"/>
          <input semantic="NORMAL" source="#geom-smallrockfive200-normals" offset="1"/>
          <input semantic="TEXCOORD" source="#geom-smallrockfive200-map1" offset="2" set="1"/>
          <p>45 0 75 81 1 127 57 2 128 68 3 50 46 4 57 17 5 9 86 6 21 112 7 73 63 8 132 33 9 80 92 10 53 64 11 12 4 12 37 52 13 3 21 14 82 74 15 10 19 16 49 14 17 97 113 18 29 103 19 55 97 20 47 77 21 93 35 22 2 53 23 54 94 24 92 52 13 3 13 25 100 44 26 6 59 27 66 105 28 67 29 29 106 17 5 9 46 4 57 59 27 66 24 30 23 86 6 21 79 31 31 72 32 38 51 33 79 54 34 85 31 35 77 85 36 76 115 37 48 87 38 102 82 39 103 60 40 130 41 41 134 65 42 129 91 43 41 54 34 85 85 36 76 67 44 86 99 45 0 90 46 88 30 47 109 78 48 118 58 49 63 92 10 53 39 50 58 64 11 12 70 51 24 45 0 75 111 52 74 65 42 129 12 53 19 60 40 130 6 54 125 56 55 114 25 56 59 106 57 60 48 58 68 47 59 7 61 60 42 37 61 43 73 62 36 97 20 47 103 19 55 36 63 96 34 64 61 53 23 54 35 22 2 45 0 75 70 51 24 15 65 69 118 66 122 24 30 18 104 67 124 23 68 52 117 69 110 39 50 58 93 70 108 11 71 91 49 72 45 49 72 45 89 73 44 38 74 33 7 75 137 107 76 141 101 77 25 78 48 118 75 78 119 108 79 120 98 80 87 14 17 97 19 16 49 72 32 38 38 74 33 89 73 44 67 44 86 90 46 88 113 18 1 53 23 54 34 64 61 5 81 115 35 22 2 69 82 34 94 24 92 21 14 82 62 83 40 4 12 37 12 53 27 65 42 140 111 52 74 87 38 102 36 63 96 103 19 55 23 68 52 33 9 80 51 33 79 2 84 111 76 85 51 11 71 91 95 86 123 42 87 64 58 49 63 101 77 25 55 88 72 7 75 137 64 11 12 102 89 13 33 9 80 25 56 59 71 90 99 52 13 3 14 17 97 109 91 98 74 15 10 18 92 15 88 93 107 41 41 134 69 82 34 62 83 40 21 14 82 10 94 84 99 45 0 67 44 86 48 58 68 57 2 128 81 1 127 28 95 126 105 28 67 59 27 66 18 92 15 29 29 106 46 4 57 107 76 71 108 79 120 75 78 119 30 47 109 58 49 63 42 87 64 11 71 91 93 70 108 2 84 111 8 96 32 100 97 78 72 32 38 54 34 85 61 60 42 31 35 77 57 2 128 63 8 132 12 53 27 12 53 19 32 98 131 60 40 130 79 31 31 51 33 79 84 99 39 4 12 37 84 99 39 80 100 81 34 64 61 15 65 116 70 51 8 81 1 127 47 59 7 48 58 68 94 24 92 13 25 100 83 101 5 47 59 7 83 101 5 13 25 100 36 63 96 73 62 36 110 102 90 82 39 103 14 17 97 115 37 48 1 103 35 54 34 85 91 43 41 110 102 90 97 20 47 36 63 96 68 3 50 116 104 94 38 74 33 19 16 49 100 97 78 8 96 32 16 105 65 44 26 17 114 106 112 16 105 65 114 106 112 66 107 16 5 81 115 40 108 101 20 109 95 40 108 133 5 81 135 50 110 62 82 39 103 0 111 11 41 41 105 26 112 56 41 41 105 9 113 104 42 87 64 2 84 111 30 47 109 66 107 16 118 66 122 16 105 65 43 114 70 60 40 130 32 98 131 43 114 70 75 78 119 18 92 15 44 26 17 64 11 12 39 50 58 25 56 59 96 115 113 6 54 125 12 53 27 45 0 75 57 2 128 111 52 74 45 0 75 12 53 27 68 3 50 74 15 10 46 4 57 46 4 57 88 93 107 18 92 15 15 65 116 34 64 61 47 59 7 83 101 5 47 59 7 34 64 61 57 2 128 48 58 68 6 54 125 56 55 114 6 54 125 48 58 68 38 74 33 116 104 94 49 72 45 78 48 118 30 47 109 49 72 45 50 110 62 22 116 117 0 111 11 22 116 117 50 110 62 5 81 135 89 73 44 51 33 79 72 32 38 23 68 52 51 33 79 11 71 91 25 56 59 52 13 3 3 117 46 80 100 81 52 13 3 4 12 37 20 109 95 53 23 54 5 81 115 53 23 54 20 109 95 77 21 93 37 61 43 54 34 85 1 103 35 54 34 85 37 61 43 61 60 42 86 6 21 24 30 23 112 7 73 55 88 72 95 86 138 7 75 137 48 58 68 106 57 60 56 55 114 71 90 99 25 56 59 56 55 114 6 54 125 28 95 126 57 2 128 63 8 132 57 2 128 28 95 126 58 49 63 7 75 121 95 86 123 108 79 120 58 49 63 78 48 118 59 27 66 44 26 6 16 105 22 24 30 23 59 27 66 104 67 139 60 40 130 43 114 70 18 92 15 41 41 134 60 40 130 18 92 15 19 16 49 8 96 32 98 80 87 31 35 77 61 60 42 8 96 32 85 36 76 62 83 40 10 94 84 99 45 0 10 94 84 62 83 40 32 98 142 12 53 27 63 8 132 63 8 132 112 7 73 101 77 25 25 56 59 64 11 4 44 26 6 25 56 59 3 117 46 64 11 4 0 111 14 65 42 129 41 41 134 65 42 140 0 111 28 22 116 136 76 85 51 2 84 111 117 69 110 118 66 122 66 107 16 2 84 111 91 43 41 67 44 86 1 103 35 113 18 1 97 20 89 67 44 86 100 97 78 19 16 49 68 3 50 74 15 10 68 3 50 19 16 49 62 83 40 69 82 34 27 118 83 69 82 34 35 22 2 77 21 93 70 51 8 5 81 115 34 64 61 5 81 135 70 51 30 22 116 117 52 13 3 71 90 99 13 25 100 56 55 114 13 25 100 71 90 99 72 32 38 31 35 77 8 96 32 72 32 38 79 31 31 31 35 77 14 17 97 98 80 87 73 62 36 115 37 48 14 17 97 73 62 36 74 15 10 9 113 104 46 4 57 9 113 104 74 15 10 109 91 98 75 78 119 78 48 118 29 29 106 29 29 106 18 92 15 75 78 119 11 71 91 76 85 51 23 68 52 23 68 52 76 85 51 117 69 110 77 21 93 27 118 83 69 82 34 99 45 0 77 21 93 90 46 88 17 5 9 29 29 106 78 48 118 78 48 118 49 72 45 17 5 9 84 99 39 4 12 37 79 31 31 85 36 76 31 35 77 79 31 31 84 99 39 102 89 13 80 100 81 80 100 81 3 117 46 52 13 3 47 59 7 81 1 127 15 65 69 45 0 75 15 65 69 81 1 127 14 17 97 82 39 103 26 112 56 41 41 105 26 112 56 82 39 103 83 101 5 35 22 2 94 24 92 35 22 2 83 101 5 34 64 61 102 89 13 84 99 39 33 9 80 33 9 80 84 99 39 51 33 79 4 12 37 85 36 76 79 31 31 62 83 40 85 36 76 4 12 37 59 27 66 86 6 21 28 95 126 28 95 126 86 6 21 63 8 132 0 111 11 82 39 103 87 38 102 0 111 11 87 38 102 103 19 55 88 93 107 9 113 104 41 41 134 88 93 107 46 4 57 9 113 104 49 72 45 11 71 91 89 73 44 51 33 79 89 73 44 11 71 91 20 109 95 90 46 88 77 21 93 20 109 95 113 18 1 90 46 88 67 44 86 91 43 41 10 94 84 10 94 84 91 43 41 85 36 76 33 9 80 23 68 52 92 10 53 39 50 58 92 10 53 23 68 52 49 72 45 30 47 109 93 70 108 93 70 108 30 47 109 2 84 111 94 24 92 21 14 82 52 13 3 21 14 82 94 24 92 69 82 34 42 87 64 95 86 123 24 30 18 24 30 23 95 86 138 55 88 72 25 56 59 44 26 6 96 115 113 105 28 67 96 115 113 44 26 6 1 103 35 97 20 47 110 102 90 67 44 86 97 20 89 1 103 35 73 62 36 98 80 87 61 60 42 98 80 87 8 96 32 61 60 42 62 83 40 27 118 83 99 45 0 77 21 93 99 45 0 27 118 83 68 3 50 38 74 33 100 97 78 72 32 38 100 97 78 38 74 33 32 98 131 101 77 20 43 114 70 101 77 25 32 98 142 63 8 132 102 89 13 64 11 4 3 117 46 3 117 46 80 100 81 102 89 13 103 19 55 50 110 62 0 111 11 50 110 62 103 19 55 40 108 133 16 105 22 104 67 139 59 27 66 104 67 124 16 105 65 118 66 122 28 95 126 6 54 125 105 28 67 96 115 113 105 28 67 6 54 125 13 25 100 106 57 60 47 59 7 13 25 100 56 55 114 106 57 60 75 78 119 43 114 70 107 76 71 101 77 20 107 76 71 43 114 70 108 79 26 107 76 141 7 75 137 58 49 63 108 79 120 7 75 121 26 112 56 109 91 98 14 17 97 109 91 98 26 112 56 9 113 104 1 103 35 110 102 90 37 61 43 37 61 43 110 102 90 73 62 36 111 52 74 22 116 136 70 51 24 22 116 136 111 52 74 65 42 140 55 88 72 101 77 25 112 7 73 24 30 23 55 88 72 112 7 73 113 18 29 40 108 133 103 19 55 40 108 101 113 18 1 20 109 95 39 50 58 114 106 112 44 26 17 114 106 112 39 50 58 117 69 110 87 38 102 115 37 48 36 63 96 73 62 36 36 63 96 115 37 48 17 5 9 49 72 45 116 104 94 17 5 9 116 104 94 68 3 50 117 69 110 66 107 16 114 106 112 66 107 16 117 69 110 2 84 111 24 30 18 118 66 122 42 87 64 2 84 111 42 87 64 118 66 122</p>
        </triangles>
      </mesh>
    </geometry>
    <geometry id="geom-smallrockfive100" name="smallrockfive100">
      <mesh>
        <source id="geom-smallrockfive100-positions">
          <float_array id="geom-smallrockfive100-positions-array" count="150">0.1213863 -1.145987 -0.1091856 -0.4577224 -0.9036471 0.9659231 0.6476905 1.074733 0.1791765 -0.5353234 0.9618101 0.5923367 -0.06980872 0.3364461 1.405969 -0.8312724 -0.9442136 0.03324584 -0.9502552 0.2778524 -0.1407288 0.766649 0.7920146 -0.06174252 0.3809159 -0.5275802 1.173674 0.8906305 -0.7380581 0.2827417 -0.7148917 -0.5526728 1.101987 0.5799067 0.5281871 0.8824744 0.06085896 -0.6012326 -0.3688194 -1.084741 0.05423459 0.2086159 0.3709075 -0.9938851 0.6453726 -1.039886 -0.5698779 -0.1381256 0.2056181 1.114471 0.03411909 1.026948 -0.1837909 0.4635237 0.933461 -0.3015313 -3.54646e-4 0.7155426 -0.5221402 0.9045151 -0.7478907 -0.8141553 0.4394387 -0.7457163 0.1878105 0.8008116 -0.3601077 -1.079641 -0.1422938 0.3599927 0.7313166 0.8715093 0.443372 1.007317 -0.1094233 -0.5428779 0.9804491 0.4300244 0.663821 -0.940334 0.2185533 -0.835572 -0.4723517 0.9223462 -0.6215856 0.3360548 -0.250008 1.041246 -0.2367301 0.2415591 0.8031356 0.8151995 0.2132587 0.2420738 -0.1951031 1.306357 0.3461726 -0.1662124 -0.3169904 0.013129 0.6069717 1.159642 -1.03117 -0.6829265 0.05963054 -0.8952286 -0.2955075 0.5977618 -0.002947092 -1.075049 0.6522717 -0.2042911 -0.9169747 1.014904 0.7571924 -0.2050384 0.9682016 0.01144338 1.086156 0.3012586 -0.6506679 -0.9977688 0.2994327 0.5930097 -0.9252111 0.02709697 0.6391194 1.07856 0.02229542 0.8514249 0.06199853 -0.08150818 -0.4212086 0.9782654 0.169664 -0.6018445 -0.6826661 -0.2623977 1.012133 -0.49458 0.2687015 -1.127815 -0.3495834 -0.05722885 -1.064889 -0.02612901 -0.1566964 0.8653286 0.0894165 0.7202689</float_array>
          <technique_common>
            <accessor source="#geom-smallrockfive100-positions-array" count="50" stride="3">
              <param name="X" type="float"/>
              <param name="Y" type="float"/>
              <param name="Z" type="float"/>
            </accessor>
          </technique_common>
        </source>
        <source id="geom-smallrockfive100-normals">
          <float_array id="geom-smallrockfive100-normals-array" count="150">-0.2670952 -0.2592839 -0.9281336 -0.674782 -0.3133856 -0.6681757 -0.2277362 0.3283625 -0.9166866 0.6969606 -0.4402629 0.5660517 0.9367619 -0.3425567 -0.07163788 0.9660739 0.01709722 0.2576993 0.09175875 0.5266392 -0.8451222 0.2475651 0.01304083 -0.9687835 0.1051566 0.7287767 0.6766289 0.3129983 0.7343365 0.6023139 -0.5017183 0.8621767 0.07021528 -0.06699585 0.2922204 0.9540014 -0.3127456 0.8824744 0.351325 -0.7924585 0.2697341 0.5470403 0.8098061 -0.5858242 -0.03199962 0.3741203 -0.8608878 0.3448277 -0.4095978 -0.886986 0.2132735 -0.2098259 -0.8213639 -0.5304099 -0.3883007 -0.7600901 0.5210429 -0.9128317 -0.1708168 0.3708906 -0.9460239 -0.075018 0.3152951 -0.7794797 -0.5358569 0.3244516 -0.9579332 0.2138466 0.1913992 -0.3998609 0.8016083 -0.4444494 -0.1259186 0.9113088 -0.3919958 -0.6909432 0.4544373 -0.5622138 0.9854406 0.03456587 -0.1664694 0.2509637 -0.1036924 0.9624267 0.642825 0.4212559 0.6397807 -0.006896798 -0.7019537 0.7121892 0.02270967 -0.9673572 0.2523974 0.1936459 -0.8517281 -0.4868887 0.5530561 -0.8330916 -0.009352644 0.7352044 -0.1544571 -0.6600133 0.5400651 -0.5812382 -0.6086804 -0.6111689 -0.3015816 0.7317932 0.9085217 0.3932121 0.1413254 0.7198606 0.2842326 -0.6332555 -0.07309245 0.9648743 0.2523391 -0.6019611 -0.7692626 -0.2141913 0.1387507 -0.1921778 -0.9715019 -0.7300014 0.1461524 -0.6676357 -0.9793925 -0.09403984 -0.1787368 0.3571245 -0.4333991 0.8274221 -0.8880829 -0.4466518 0.1086785 0.4971266 0.7849413 -0.3697732 0.515241 0.8258563 0.2291029 0.8534183 0.2381469 0.4636413 0.7335733 -0.003156058 0.6796029 0.685652 0.05493968 -0.7258533</float_array>
          <technique_common>
            <accessor source="#geom-smallrockfive100-normals-array" count="50" stride="3">
              <param name="X" type="float"/>
              <param name="Y" type="float"/>
              <param name="Z" type="float"/>
            </accessor>
          </technique_common>
        </source>
        <source id="geom-smallrockfive100-map1">
          <float_array id="geom-smallrockfive100-map1-array" count="198">0.1350326 0.6831323 0.04230805 0.03426209 0.8346764 0 0.04214612 0.6426741 0 0.342027 0.8254417 0.07285516 0.4682916 0.5922335 0 0.09773853 0.9135762 0 0.5221594 0.7438448 0 0.3821805 0.8460963 0 0.1009579 0.9571491 0 0.230629 0.9855841 0 0.492489 0.8627322 0 -0.05591071 0.8974348 0 -0.08654108 0.9160204 0 -0.07145227 0.5741589 0 -0.174608 0.680164 0 -0.2514859 0.5842612 0 0.2817724 0.7440714 0.6556227 0.2986276 0.7921347 0.6020938 0.2402039 0.654306 0.4546724 0.1939914 0.7942955 0.7868809 0.2615105 0.6750669 0.5021665 0.2954403 0.8328633 0.1840551 0.08831394 0.8476019 0 0.3243533 0.7677802 0.4930047 0.2063085 0.8636309 0.1992586 0.4143472 0.7181132 0 0.3803301 0.8069618 0 0.1571974 0.9374854 0 0.06525934 0.8372739 0 0.09626761 0.6123135 0 0.2424539 0.9668393 0 0.1862373 0.971454 0 0.02196543 0.6789615 0 -0.01360344 0.6187259 0 0.3632899 0.8906199 0 -0.08744375 0.6329606 0 0.245564 0.7632566 0.75428 0.1783622 0.8236988 0.5646405 0.130338 0.7482163 0.3589979 0.1715013 0.6789552 0.3282571 0.193886 0.6815968 0.4325117 0.2364893 0.8527995 0.06135172 0.1623989 0.6182187 0 0.3037786 0.654858 0.1854421 0.3428386 0.7033425 0.1763471 0.07359117 0.702092 0 0.1616141 0.5921544 0 0.3987983 0.77003 0 0.439513 0.6868076 0 0.3591878 0.8341465 0 0.2671911 0.9323525 0 0.2357877 0.9492946 0 0.1235927 0.5774618 0 0.07783306 0.6027308 0 0.3853561 0.5400997 0 0.2864455 0.962131 0 0.02306028 0.7199545 0 -0.01586375 0.7488999 0 0.4356715 0.8967915 0 0.2628929 0.5540784 0 0.4664466 0.7626133 0 0.2859526 0.5042633 0 -0.161469 0.5792102 0 -0.1340731 0.90417 0 -0.1516978 0.8590966 0 -0.1648515 0.7514578 0</float_array>
          <technique_common>
            <accessor source="#geom-smallrockfive100-map1-array" count="66" stride="3">
              <param name="S" type="float"/>
              <param name="T" type="float"/>
              <param name="P" type="float"/>
            </accessor>
          </technique_common>
        </source>
        <vertices id="geom-smallrockfive100-vertices">
          <input semantic="POSITION" source="#geom-smallrockfive100-positions"/>
        </vertices>
        <triangles material="greyrock" count="96">
          <input semantic="VERTEX" source="#geom-smallrockfive100-vertices" offset="0"/>
          <input semantic="NORMAL" source="#geom-smallrockfive100-normals" offset="1"/>
          <input semantic="TEXCOORD" source="#geom-smallrockfive100-map1" offset="2" set="1"/>
          <p>45 0 35 15 1 33 28 2 57 19 3 23 46 4 26 17 5 3 28 2 57 24 6 12 32 7 65 33 8 37 23 9 24 25 10 5 4 11 19 3 12 22 21 13 38 9 14 47 19 3 23 14 15 44 40 16 59 22 17 54 1 18 18 27 19 39 35 20 0 20 21 42 21 13 38 3 12 22 13 22 45 44 23 1 16 24 11 6 25 56 29 26 49 17 5 3 46 4 26 16 24 11 24 6 12 28 2 57 4 11 19 31 27 36 11 28 41 37 29 20 31 27 36 4 11 19 36 30 43 0 31 4 26 32 25 18 33 7 41 34 60 0 31 6 10 35 40 37 29 20 4 11 19 1 18 18 27 19 39 20 21 42 30 36 50 17 5 3 7 37 55 23 9 24 39 38 27 25 10 5 5 39 13 45 0 35 22 17 62 0 31 6 12 40 10 18 33 7 6 25 56 13 22 45 25 10 28 13 22 45 48 41 32 47 42 2 8 43 16 37 29 20 14 15 44 1 18 18 22 17 54 36 30 43 34 44 29 20 21 42 35 20 0 45 0 35 5 39 13 15 1 33 42 45 30 24 6 9 16 24 31 23 9 24 2 46 51 39 38 27 30 36 50 11 28 41 49 47 21 49 47 21 11 28 41 38 48 17 7 37 63 43 49 64 32 7 65 17 5 3 29 26 49 7 37 55 8 43 16 14 15 44 19 3 23 31 27 36 38 48 17 11 28 41 1 18 18 20 21 42 40 16 46 20 21 42 34 44 29 5 39 52 35 20 0 27 19 39 21 13 38 21 13 38 10 35 40 4 11 19 12 40 14 0 31 15 22 17 62 0 31 4 36 30 43 22 17 54 23 9 24 33 8 37 11 28 41 2 46 51 23 9 24 11 28 41 24 6 9 42 45 30 7 37 55 32 7 65 24 6 12 7 37 63 25 10 5 3 12 22 33 8 37 25 10 28 13 22 45 3 12 22 14 15 44 26 32 25 9 14 47 18 33 7 9 14 47 41 34 60 27 19 39 10 35 40 21 13 38 10 35 40 27 19 39 1 18 18 48 41 32 28 2 57 15 1 33 28 2 57 6 25 56 16 24 11 18 33 7 29 26 49 46 4 26 43 49 34 7 37 55 29 26 49 30 36 50 7 37 55 42 45 30 11 28 41 30 36 50 2 46 51 8 43 16 38 48 17 31 27 36 37 29 20 8 43 16 31 27 36 28 2 57 32 7 65 12 40 14 12 40 10 32 7 58 18 33 7 4 11 19 11 28 41 33 8 37 4 11 19 33 8 37 3 12 22 34 44 29 15 1 53 5 39 52 15 1 33 47 42 2 48 41 32 21 13 38 13 22 45 35 20 0 47 42 2 35 20 0 13 22 45 36 30 43 14 15 44 37 29 20 26 32 25 14 15 44 36 30 43 1 18 18 37 29 20 10 35 40 37 29 20 1 18 18 36 30 43 19 3 23 17 5 3 38 48 17 19 3 23 38 48 17 8 43 16 16 24 31 44 23 8 39 38 27 16 24 31 39 38 27 2 46 51 5 39 52 40 16 46 20 21 42 40 16 59 5 39 61 22 17 54 26 32 25 0 31 4 41 34 48 26 32 25 41 34 48 9 14 47 42 45 30 2 46 51 30 36 50 2 46 51 42 45 30 16 24 31 43 49 34 18 33 7 32 7 58 43 49 34 29 26 49 18 33 7 44 23 8 25 10 5 39 38 27 25 10 28 44 23 1 6 25 56 12 40 14 45 0 35 28 2 57 22 17 62 45 0 35 12 40 14 19 3 23 9 14 47 46 4 26 46 4 26 9 14 47 18 33 7 15 1 53 34 44 29 47 42 2 35 20 0 47 42 2 34 44 29 28 2 57 48 41 32 6 25 56 13 22 45 6 25 56 48 41 32 38 48 17 17 5 3 49 47 21 17 5 3 30 36 50 49 47 21</p>
        </triangles>
      </mesh>
    </geometry>
    <geometry id="geom-bounds_18" name="bounds">
      <mesh>
        <source id="geom-bounds_18-positions">
          <float_array id="geom-bounds_18-positions-array" count="24">-1.214182 -1.247394 -0.4527112 1.131455 -1.247394 -0.4527112 -1.214182 1.23655 -0.4527112 1.131455 1.23655 -0.4527112 -1.214182 -1.247394 1.443855 1.131455 -1.247394 1.443855 -1.214182 1.23655 1.443855 1.131455 1.23655 1.443855</float_array>
          <technique_common>
            <accessor source="#geom-bounds_18-positions-array" count="8" stride="3">
              <param name="X" type="float"/>
              <param name="Y" type="float"/>
              <param name="Z" type="float"/>
            </accessor>
          </technique_common>
        </source>
        <source id="geom-bounds_18-normals">
          <float_array id="geom-bounds_18-normals-array" count="72">0 0 -1 0 0 -1 0 0 -1 0 0 -1 0 0 1 0 0 1 0 0 1 0 0 1 0 -1 0 0 -1 0 0 -1 0 0 -1 0 1 0 0 1 0 0 1 0 0 1 0 0 0 1 0 0 1 0 0 1 0 0 1 0 -1 0 0 -1 0 0 -1 0 0 -1 0 0</float_array>
          <technique_common>
            <accessor source="#geom-bounds_18-normals-array" count="24" stride="3">
              <param name="X" type="float"/>
              <param name="Y" type="float"/>
              <param name="Z" type="float"/>
            </accessor>
          </technique_common>
        </source>
        <vertices id="geom-bounds_18-vertices">
          <input semantic="POSITION" source="#geom-bounds_18-positions"/>
        </vertices>
        <triangles material="greyrock" count="12">
          <input semantic="VERTEX" source="#geom-bounds_18-vertices" offset="0"/>
          <input semantic="NORMAL" source="#geom-bounds_18-normals" offset="1"/>
          <p>0 0 2 1 3 2 3 2 1 3 0 0 4 4 5 5 7 6 7 6 6 7 4 4 0 8 1 9 5 10 5 10 4 11 0 8 1 12 3 13 7 14 7 14 5 15 1 12 3 16 2 17 6 18 6 18 7 19 3 16 2 20 0 21 4 22 4 22 6 23 2 20</p>
        </triangles>
      </mesh>
    </geometry>
    <geometry id="geom-col-1_18" name="col-1">
      <mesh>
        <source id="geom-col-1_18-positions">
          <float_array id="geom-col-1_18-positions-array" count="69">-0.5557001 0.9628001 0.5314 -0.06950001 0.3364 1.406 0.6395 1.0786 0.0223 -0.8000001 -0.4574 1.0274 -1.12 -0.0221 -0.0507 -0.8309001 -0.9442 0.0332 0.1217 -1.146 -0.1092 -0.179 -0.9764 0.9187 -0.3708 0.7771001 -0.0818 0.5803 0.5282 0.8825 0.5903 -0.3794 1.1037 0.6773999 -0.8844001 0.4593999 1.0125 -0.4946 0.2687 0.8518001 0.062 -0.08149999 -0.8893 -0.6494 -0.1861 0.06120001 -0.6012 -0.3688 0.9398 -0.1788 0.6935 0.0712 -0.6154 1.2049 -0.6212 0.3361 -0.25 -0.6232 -0.7697 1.0208 0.206 1.1145 0.0341 0.5728 -0.7596 -0.1117 0.2614 0.6441 -0.2296</float_array>
          <technique_common>
            <accessor source="#geom-col-1_18-positions-array" count="23" stride="3">
              <param name="X" type="float"/>
              <param name="Y" type="float"/>
              <param name="Z" type="float"/>
            </accessor>
          </technique_common>
        </source>
        <source id="geom-col-1_18-normals">
          <float_array id="geom-col-1_18-normals-array" count="378">0.1414561 0.8403621 0.5232415 0.1414561 0.8403621 0.5232415 0.1414561 0.8403621 0.5232415 -0.9450365 -0.2810954 0.1670075 -0.9450365 -0.2810954 0.1670075 -0.9450364 -0.2810953 0.1670075 -0.6969622 0.3403351 0.6312018 -0.6969622 0.3403351 0.6312017 -0.6969622 0.3403351 0.6312018 -0.8822241 0.2831387 0.3761821 -0.8822242 0.2831388 0.3761822 -0.8822241 0.2831387 0.3761821 -0.1910264 -0.9759374 0.105144 -0.1910264 -0.9759374 0.105144 -0.1910264 -0.9759373 0.105144 -0.6785525 0.6208223 -0.3926143 -0.6785526 0.6208223 -0.3926144 -0.6785526 0.6208223 -0.3926144 0.1914318 0.8207162 0.5383109 0.1914318 0.8207162 0.5383109 0.1914318 0.8207162 0.5383109 0.5784788 0.1991587 0.7910109 0.5784788 0.1991587 0.7910109 0.5784788 0.1991587 0.7910109 0.7736021 -0.443731 0.4523743 0.7736021 -0.443731 0.4523743 0.7736021 -0.443731 0.4523743 0.2207316 -0.9498963 0.2213023 0.2207316 -0.9498962 0.2213023 0.2207316 -0.9498962 0.2213023 0.9711359 0.2136374 -0.1060849 0.9711359 0.2136374 -0.1060849 0.9711359 0.2136374 -0.1060849 -0.1481105 -0.4387769 -0.8863059 -0.1481105 -0.4387769 -0.8863059 -0.1481105 -0.4387769 -0.8863059 -0.2419747 -0.6095264 -0.7549343 -0.2419747 -0.6095264 -0.7549343 -0.2419747 -0.6095264 -0.7549343 -0.9366292 -0.308721 -0.1655807 -0.9366292 -0.308721 -0.1655807 -0.9366292 -0.308721 -0.1655807 0.7799727 -0.4309106 0.4538268 0.7799727 -0.4309106 0.4538268 0.7799727 -0.4309106 0.4538268 0.7054856 0.1751456 0.6867416 0.7054856 0.1751456 0.6867416 0.7054856 0.1751456 0.6867416 0.9731717 0.2300365 -0.004463038 0.9731718 0.2300365 -0.004463038 0.9731718 0.2300365 -0.004463038 0.8809816 0.3686944 0.2965398 0.8809816 0.3686944 0.2965398 0.8809816 0.3686944 0.2965398 0.3855052 -0.7223414 0.5741155 0.3855053 -0.7223414 0.5741156 0.3855052 -0.7223414 0.5741155 0.4261873 -0.6831259 0.5930459 0.4261873 -0.6831259 0.5930459 0.4261873 -0.6831259 0.5930459 0.2595702 -0.1627525 0.9519112 0.2595702 -0.1627525 0.9519112 0.2595702 -0.1627525 0.9519112 -0.1881334 -0.01249649 -0.982064 -0.1881333 -0.01249649 -0.982064 -0.1881333 -0.01249649 -0.982064 -0.4012423 0.04985209 -0.9146143 -0.4012423 0.0498521 -0.9146143 -0.4012423 0.0498521 -0.9146143 -0.6214687 0.5613202 -0.5465311 -0.6214687 0.5613203 -0.5465311 -0.6214687 0.5613203 -0.5465311 -0.08502696 -0.5821465 0.8086259 -0.08502698 -0.5821465 0.808626 -0.08502697 -0.5821465 0.8086259 -0.2882308 -0.1830375 0.9399044 -0.2882308 -0.1830375 0.9399044 -0.2882307 -0.1830375 0.9399044 -0.2010901 -0.230864 0.9519793 -0.2010901 -0.230864 0.9519793 -0.2010901 -0.230864 0.9519792 -0.3648937 -0.9006734 0.2358809 -0.3648937 -0.9006735 0.2358809 -0.3648937 -0.9006735 0.2358809 -0.8377007 -0.479756 0.2609437 -0.8377008 -0.479756 0.2609437 -0.8377007 -0.479756 0.2609437 0.08636129 0.9082827 0.4093462 0.08636129 0.9082827 0.4093462 0.08636129 0.9082828 0.4093462 -0.4106101 0.8309259 -0.3754482 -0.4106101 0.8309259 -0.3754481 -0.4106101 0.830926 -0.3754482 0.3193944 -0.3784955 -0.868751 0.3193944 -0.3784955 -0.868751 0.3193944 -0.3784955 -0.868751 0.4191437 -0.1092028 -0.9013287 0.4191437 -0.1092028 -0.9013286 0.4191437 -0.1092028 -0.9013286 0.7101086 -0.216513 -0.6699761 0.7101086 -0.216513 -0.6699761 0.7101086 -0.2165131 -0.6699761 0.6590428 -0.7005029 -0.2737851 0.6590428 -0.7005029 -0.2737851 0.6590428 -0.7005029 -0.2737851 0.6247332 -0.7311142 -0.2741904 0.6247332 -0.7311142 -0.2741904 0.6247333 -0.7311142 -0.2741904 -0.1236883 0.414166 -0.9017581 -0.1236883 0.414166 -0.9017581 -0.1236883 0.414166 -0.9017581 -0.1036785 0.4770391 -0.8727454 -0.1036785 0.477039 -0.8727454 -0.1036785 0.4770391 -0.8727454 0.01689775 0.4904366 -0.8713131 0.01689775 0.4904366 -0.8713131 0.01689775 0.4904366 -0.871313 -0.01672745 0.1137285 -0.993371 -0.01672745 0.1137285 -0.993371 -0.01672745 0.1137285 -0.993371 0.3985176 0.1751471 -0.9002817 0.3985176 0.1751471 -0.9002817 0.3985176 0.1751471 -0.9002818 0.297027 0.05878175 -0.9530581 0.297027 0.05878175 -0.9530581 0.297027 0.05878175 -0.9530581</float_array>
          <technique_common>
            <accessor source="#geom-col-1_18-normals-array" count="126" stride="3">
              <param name="X" type="float"/>
              <param name="Y" type="float"/>
              <param name="Z" type="float"/>
            </accessor>
          </technique_common>
        </source>
        <vertices id="geom-col-1_18-vertices">
          <input semantic="POSITION" source="#geom-col-1_18-positions"/>
        </vertices>
        <triangles material="ColorMaterial" count="42">
          <input semantic="VERTEX" source="#geom-col-1_18-vertices" offset="0"/>
          <input semantic="NORMAL" source="#geom-col-1_18-normals" offset="1"/>
          <p>0 0 1 1 2 2 3 3 4 4 5 5 3 6 1 7 0 8 3 9 0 10 4 11 6 12 7 13 5 14 8 15 4 16 0 17 9 18 2 19 1 20 9 21 1 22 10 23 11 24 12 25 10 26 11 27 7 28 6 29 13 30 2 31 12 32 14 33 15 34 6 35 14 36 6 37 5 38 14 39 5 40 4 41 16 42 10 43 12 44 16 45 9 46 10 47 16 48 12 49 2 50 16 51 2 52 9 53 17 54 7 55 11 56 17 57 11 58 10 59 17 60 10 61 1 62 18 63 15 64 14 65 18 66 14 67 4 68 18 69 4 70 8 71 19 72 7 73 17 74 19 75 1 76 3 77 19 78 17 79 1 80 19 81 5 82 7 83 19 84 3 85 5 86 20 87 0 88 2 89 20 90 8 91 0 92 21 93 6 94 15 95 21 96 15 97 13 98 21 99 13 100 12 101 21 102 12 103 11 104 21 105 11 106 6 107 22 108 18 109 8 110 22 111 8 112 20 113 22 114 20 115 2 116 22 117 15 118 18 119 22 120 2 121 13 122 22 123 13 124 15 125</p>
        </triangles>
      </mesh>
    </geometry>
  </library_geometries>
  <library_lights>
    <light id="EnvironmentAmbientLight" name="EnvironmentAmbientLight">
      <technique_common>
        <ambient>
          <color>0 0 0</color>
        </ambient>
      </technique_common>
    </light>
  </library_lights>
  <library_images>
    <image id="grayrock_diffuse_png">
      <init_from>file:///C:/Projects/ForestKitNew/art/shapes/rocks/grayrock_diffuse.png</init_from>
    </image>
    <image id="grayrock_diffuse_dds">
      <init_from>file:///E:/Projects/Pacific/game/art/shapes/rocks/grayrock_diffuse.dds</init_from>
    </image>
  </library_images>
  <library_visual_scenes>
    <visual_scene id="MaxScene">
      <node name="EnvironmentAmbientLight">
        <instance_light url="#EnvironmentAmbientLight"/>
      </node>
      <node id="node-base00" name="base00">
        <matrix>1 0 0 0 0 1 0 0 0 0 1 0 0 0 0 1</matrix>
        <node id="node-start00" name="start00">
          <matrix>1 0 0 0 0 1 0 0 0 0 1 0 0 0 0 1</matrix>
          <node id="node-smallrockfive400" name="smallrockfive400">
            <matrix>1 0 0 0 0 1 0 0 0 0 1 0 0 0 0 1</matrix>
            <instance_geometry url="#geom-smallrockfive400">
              <bind_material>
                <technique_common>
                  <instance_material symbol="greyrock_1" target="#greyrock-material">
                    <bind_vertex_input semantic="CHANNEL1" input_semantic="TEXCOORD" input_set="1"/>
                    <bind_vertex_input semantic="CHANNEL1" input_semantic="TEXCOORD" input_set="1"/>
                  </instance_material>
                </technique_common>
              </bind_material>
            </instance_geometry>
          </node>
          <node id="node-smallrockfive200" name="smallrockfive200">
            <matrix>1 0 0 0 0 1 0 0 0 0 1 0 0 0 0 1</matrix>
            <instance_geometry url="#geom-smallrockfive200">
              <bind_material>
                <technique_common>
                  <instance_material symbol="greyrock" target="#greyrock-material">
                    <bind_vertex_input semantic="CHANNEL1" input_semantic="TEXCOORD" input_set="1"/>
                    <bind_vertex_input semantic="CHANNEL1" input_semantic="TEXCOORD" input_set="1"/>
                  </instance_material>
                </technique_common>
              </bind_material>
            </instance_geometry>
          </node>
          <node id="node-smallrockfive100" name="smallrockfive100">
            <matrix>1 0 0 0 0 1 0 0 0 0 1 0 0 0 0 1</matrix>
            <instance_geometry url="#geom-smallrockfive100">
              <bind_material>
                <technique_common>
                  <instance_material symbol="greyrock" target="#greyrock-material">
                    <bind_vertex_input semantic="CHANNEL1" input_semantic="TEXCOORD" input_set="1"/>
                    <bind_vertex_input semantic="CHANNEL1" input_semantic="TEXCOORD" input_set="1"/>
                  </instance_material>
                </technique_common>
              </bind_material>
            </instance_geometry>
          </node>
        </node>
        <node id="node-detail200" name="detail200">
          <matrix>1 0 0 0 0 1 0 0 0 0 1 0 0 0 0 1</matrix>
        </node>
        <node id="node-detail400" name="detail400">
          <matrix>1 0 0 0 0 1 0 0 0 0 1 0 0 0 0 1</matrix>
        </node>
        <node id="node-Collision-1" name="Collision-1">
          <matrix>1 0 0 0 0 1 0 0 0 0 1 0 0 0 0 1</matrix>
        </node>
        <node id="node-Collision-2" name="Collision-2">
          <matrix>1 0 0 0 0 1 0 0 0 0 1 0 0 0 0 1</matrix>
        </node>
        <node id="node-detail100" name="detail100">
          <matrix>1 0 0 0 0 1 0 0 0 0 1 0 0 0 0 1</matrix>
        </node>
        <node id="node-BB__detail30" name="BB__detail30">
          <matrix>1 0 0 0 0 1 0 0 0 0 1 0 0 0 0 1</matrix>
          <extra>
            <technique profile="OpenCOLLADA">
              <user_properties>BB:DIM=128
BB::EQUATOR_STEPS=16
BB::POLAR_STEPS=0
BB::POLAR_ANGLE=60
BB::INCLUDE_POLES=0
BB::DL=0</user_properties>
            </technique>
          </extra>
        </node>
      </node>
      <node id="node-bounds_18" name="bounds">
        <matrix>1 0 0 0 0 1 0 0 0 0 1 0 0 0 0 1</matrix>
        <instance_geometry url="#geom-bounds_18">
          <bind_material>
            <technique_common>
              <instance_material symbol="greyrock" target="#greyrock_1-material">
                <bind_vertex_input semantic="CHANNEL1" input_semantic="TEXCOORD" input_set="1"/>
              </instance_material>
            </technique_common>
          </bind_material>
        </instance_geometry>
      </node>
      <node id="node-col-1_18" name="col-1">
        <matrix>1 0 0 0 0 1 0 0 0 0 1 0 0 0 0 1</matrix>
        <instance_geometry url="#geom-col-1_18">
          <bind_material>
            <technique_common>
              <instance_material symbol="ColorMaterial" target="#ColorEffectR224G143B87-material"/>
            </technique_common>
          </bind_material>
        </instance_geometry>
      </node>
    </visual_scene>
  </library_visual_scenes>
  <scene>
    <instance_visual_scene url="#MaxScene"/>
  </scene>
</COLLADA>