<?xml version="1.0" encoding="utf-8"?>
<COLLADA xmlns="http://www.collada.org/2005/11/COLLADASchema" version="1.4.1">
  <asset>
    <contributor>
      <author>Blender User</author>
      <authoring_tool>Blender 2.71.0 commit date:2014-06-25, commit time:18:36, hash:9337574</authoring_tool>
    </contributor>
    <created>2014-10-23T23:18:35</created>
    <modified>2014-10-23T23:18:35</modified>
    <unit name="meter" meter="1"/>
    <up_axis>Z_UP</up_axis>
  </asset>
  <library_cameras>
    <camera id="Camera-camera" name="Camera">
      <optics>
        <technique_common>
          <perspective>
            <xfov sid="xfov">49.13434</xfov>
            <aspect_ratio>1.777778</aspect_ratio>
            <znear sid="znear">0.1</znear>
            <zfar sid="zfar">100</zfar>
          </perspective>
        </technique_common>
      </optics>
      <extra>
        <technique profile="blender">
          <YF_dofdist>0</YF_dofdist>
          <shiftx>0</shiftx>
          <shifty>0</shifty>
        </technique>
      </extra>
    </camera>
  </library_cameras>
  <library_lights>
    <light id="Lamp-light" name="Lamp">
      <technique_common>
        <point>
          <color sid="color">1 1 1</color>
          <constant_attenuation>1</constant_attenuation>
          <linear_attenuation>0</linear_attenuation>
          <quadratic_attenuation>0.00111109</quadratic_attenuation>
        </point>
      </technique_common>
      <extra>
        <technique profile="blender">
          <adapt_thresh>0.000999987</adapt_thresh>
          <area_shape>0</area_shape>
          <area_size>1</area_size>
          <area_sizey>1</area_sizey>
          <area_sizez>1</area_sizez>
          <atm_distance_factor>1</atm_distance_factor>
          <atm_extinction_factor>1</atm_extinction_factor>
          <atm_turbidity>2</atm_turbidity>
          <att1>0</att1>
          <att2>1</att2>
          <backscattered_light>1</backscattered_light>
          <bias>1</bias>
          <blue>1</blue>
          <buffers>1</buffers>
          <bufflag>0</bufflag>
          <bufsize>2880</bufsize>
          <buftype>2</buftype>
          <clipend>30.002</clipend>
          <clipsta>1.000799</clipsta>
          <compressthresh>0.04999995</compressthresh>
          <dist sid="blender_dist">29.99998</dist>
          <energy sid="blender_energy">1</energy>
          <falloff_type>2</falloff_type>
          <filtertype>0</filtertype>
          <flag>0</flag>
          <gamma sid="blender_gamma">1</gamma>
          <green>1</green>
          <halo_intensity sid="blnder_halo_intensity">1</halo_intensity>
          <horizon_brightness>1</horizon_brightness>
          <mode>8192</mode>
          <ray_samp>1</ray_samp>
          <ray_samp_method>1</ray_samp_method>
          <ray_samp_type>0</ray_samp_type>
          <ray_sampy>1</ray_sampy>
          <ray_sampz>1</ray_sampz>
          <red>1</red>
          <samp>3</samp>
          <shadhalostep>0</shadhalostep>
          <shadow_b sid="blender_shadow_b">0</shadow_b>
          <shadow_g sid="blender_shadow_g">0</shadow_g>
          <shadow_r sid="blender_shadow_r">0</shadow_r>
          <sky_colorspace>0</sky_colorspace>
          <sky_exposure>1</sky_exposure>
          <skyblendfac>1</skyblendfac>
          <skyblendtype>1</skyblendtype>
          <soft>3</soft>
          <spotblend>0.15</spotblend>
          <spotsize>75</spotsize>
          <spread>1</spread>
          <sun_brightness>1</sun_brightness>
          <sun_effect_type>0</sun_effect_type>
          <sun_intensity>1</sun_intensity>
          <sun_size>1</sun_size>
          <type>0</type>
        </technique>
      </extra>
    </light>
  </library_lights>
  <library_images>
    <image id="Wood_jpg" name="Wood_jpg">
      <init_from>Wood.jpg</init_from>
    </image>
    <image id="untitled" name="untitled">
      <init_from>untitled.png</init_from>
    </image>
  </library_images>
  <library_effects>
    <effect id="Wood2-effect">
      <profile_COMMON>
        <newparam sid="Wood_jpg-surface">
          <surface type="2D">
            <init_from>Wood_jpg</init_from>
          </surface>
        </newparam>
        <newparam sid="Wood_jpg-sampler">
          <sampler2D>
            <source>Wood_jpg-surface</source>
          </sampler2D>
        </newparam>
        <technique sid="common">
          <phong>
            <emission>
              <color sid="emission">0 0 0 1</color>
            </emission>
            <ambient>
              <color sid="ambient">0 0 0 1</color>
            </ambient>
            <diffuse>
              <texture texture="Wood_jpg-sampler"/>
            </diffuse>
            <specular>
              <color sid="specular">0.02078331 0.02078331 0.02078331 1</color>
            </specular>
            <shininess>
              <float sid="shininess">100</float>
            </shininess>
            <index_of_refraction>
              <float sid="index_of_refraction">1</float>
            </index_of_refraction>
          </phong>
          <extra>
            <technique profile="FCOLLADA">
              <bump>
                <texture texture="Wood_jpg-sampler"/>
              </bump>
            </technique>
          </extra>
        </technique>
        <extra>
          <technique profile="GOOGLEEARTH">
            <double_sided>1</double_sided>
          </technique>
        </extra>
      </profile_COMMON>
      <extra><technique profile="MAX3D"><double_sided>1</double_sided></technique></extra>
    </effect>
    <effect id="Cabbage-effect">
      <profile_COMMON>
        <newparam sid="untitled-surface">
          <surface type="2D">
            <init_from>untitled</init_from>
          </surface>
        </newparam>
        <newparam sid="untitled-sampler">
          <sampler2D>
            <source>untitled-surface</source>
          </sampler2D>
        </newparam>
        <technique sid="common">
          <phong>
            <emission>
              <color sid="emission">0 0 0 1</color>
            </emission>
            <ambient>
              <color sid="ambient">0 0 0 1</color>
            </ambient>
            <diffuse>
              <texture texture="untitled-sampler"/>
            </diffuse>
            <specular>
              <color sid="specular">0.01 0.01 0.01 1</color>
            </specular>
            <shininess>
              <float sid="shininess">50</float>
            </shininess>
            <index_of_refraction>
              <float sid="index_of_refraction">1</float>
            </index_of_refraction>
          </phong>
        </technique>
        <extra>
          <technique profile="GOOGLEEARTH">
            <double_sided>1</double_sided>
          </technique>
        </extra>
      </profile_COMMON>
      <extra><technique profile="MAX3D"><double_sided>1</double_sided></technique></extra>
    </effect>
  </library_effects>
  <library_materials>
    <material id="Wood2-material" name="Wood2">
      <instance_effect url="#Wood2-effect"/>
    </material>
    <material id="Cabbage-material" name="Cabbage">
      <instance_effect url="#Cabbage-effect"/>
    </material>
  </library_materials>
  <library_geometries>
    <geometry id="Box_001-mesh" name="Box.001">
      <mesh>
        <source id="Box_001-mesh-positions">
          <float_array id="Box_001-mesh-positions-array" count="636">0.2436169 0.1000426 -0.07208389 0.2589048 0.05200648 -0.01926499 0.2451796 -0.01887589 -0.008388042 0.2104815 -0.07108289 -0.04582458 0.1509482 0.08841282 -0.09152281 0.1278514 0.03555953 -0.04675573 0.1525109 -0.03050571 -0.0278269 0.1735734 0.04488635 -0.1733406 0.1598483 -0.02599608 -0.1624637 0.1751362 -0.07403212 -0.1096448 0.2662421 0.05651611 -0.1539018 0.2909016 -0.00954914 -0.1349729 0.2678049 -0.06240236 -0.0902059 0.2082715 0.09709328 -0.1359041 0.02227312 0.09201627 0.1800482 0.02853369 0.01106554 0.1991285 0.006037354 -0.06017667 0.1620512 -0.03203773 -0.07997769 0.09053558 -0.08075255 0.1068233 0.1477751 -0.1171667 0.03200578 0.1534875 -0.09698837 -0.04536968 0.1297781 -0.04715204 0.1154546 0.04447168 -0.06964838 0.04421234 0.007394313 -0.06338781 -0.03673833 0.02647465 0.05587363 0.1006476 0.07674467 0.07605201 0.02327203 0.05303531 0.03963786 -0.05154538 0.05874764 -0.009076893 0.1352556 0.1159872 -0.1722138 0.1256971 0.1787544 -0.1411741 0.03578644 0.1942895 -0.1430594 -0.04656195 0.1442505 -0.1767652 -0.07310962 0.05794942 -0.2902926 0.1141665 0.136549 -0.3081628 0.01947963 0.1346021 -0.2611382 -0.05809265 0.1020451 -0.2517017 0.1439539 0.02044427 -0.2535869 0.06160545 -0.02959471 -0.2225472 -0.02830517 -0.01405954 -0.1336228 0.1554846 0.06264972 -0.08659827 0.07791227 0.03009271 -0.1044684 -0.01677447 0.02814579 -0.2179958 0.1705016 0.1067453 0.2351517 0.1156895 0.1340892 0.2682697 0.03772848 0.1514669 0.2463682 -0.04367721 0.1322283 0.1822769 -0.08084142 0.08764332 0.1246982 0.1076547 0.1564275 0.1120648 0.02636563 0.1830579 0.1359148 -0.05171197 0.1545665 0.1023231 0.1073729 0.04569 0.08042156 0.02596718 0.02645146 0.1135396 -0.05199372 0.04382908 0.2127764 0.1154077 0.02335172 0.2366263 0.03733003 -0.005139529 0.223993 -0.04395896 0.02149087 0.1664143 0.1445372 0.09027498 -0.03013092 0.1195791 -0.003028869 -0.05818367 0.02737414 -0.003136038 -0.03013092 -0.05234074 -0.04947495 0.03759449 -0.07286977 -0.1149009 -0.02021282 0.1523195 -0.124217 -0.04415738 0.07367593 -0.1745219 -0.02021282 -0.01960045 -0.1706631 0.10532 0.1497328 -0.1146422 0.1333728 0.07001775 -0.1609811 0.10532 -0.02218717 -0.1610882 0.09540188 0.1169924 0.006545901 0.1193465 0.02371597 0.0104047 0.09540188 -0.05492746 -0.03990012 0.03759449 0.1702618 -0.04921621 -0.2158529 0.1139402 -0.06219273 -0.2383515 0.04286611 -0.02250534 -0.2099763 -0.03667712 -0.02178519 -0.1473492 -0.07809424 -0.06045407 -0.2024888 0.08604472 -0.1681159 -0.2194519 0.003415882 -0.1723033 -0.1966123 -0.06457269 -0.1277083 -0.09303295 0.09349387 -0.1562679 -0.0646578 0.01395052 -0.1555477 -0.08715641 -0.05712354 -0.1158604 -0.1063969 0.1213894 -0.05034476 -0.08355736 0.05340081 -0.005749821 -0.1005204 -0.02922803 -0.009937226 -0.15566 0.134911 -0.117599 -0.3292432 0.02043634 0.2274908 -0.3292432 0.109261 0.2274908 -0.3292433 0.1092609 -0.2276413 -0.3292433 0.02043622 -0.2276412 -0.3086934 0.02043634 0.2274909 -0.3086934 0.109261 0.2274907 -0.3086934 0.1092609 -0.2276414 -0.3086934 0.02043622 -0.2276413 0.297342 0.02043634 0.2274909 0.297342 0.109261 0.2274909 0.297342 0.1092609 -0.2276413 0.297342 0.02043622 -0.2276412 0.3178918 0.02043634 0.227491 0.3178918 0.109261 0.2274907 0.3178918 0.1092609 -0.2276414 0.3178918 0.02043622 -0.2276413 0.2967413 0.02043628 -0.20366 0.2967413 0.1092609 -0.20366 -0.3080927 0.1092609 -0.20366 -0.3080925 0.02043622 -0.20366 0.2967414 0.02043628 -0.2242098 0.296741 0.1092609 -0.2242098 -0.3080928 0.1092609 -0.2242098 -0.3080927 0.02043622 -0.2242098 0.2967413 0.02043634 0.222481 0.2967413 0.109261 0.222481 -0.3080927 0.109261 0.222481 -0.3080925 0.02043628 0.222481 0.2967413 0.02043634 0.2019312 0.296741 0.109261 0.2019312 -0.3080928 0.109261 0.2019312 -0.3080927 0.02043628 0.2019312 -0.3292432 -0.1121408 0.2274908 -0.3292432 -0.0233162 0.2274908 -0.3292433 -0.02331626 -0.2276413 -0.3292433 -0.112141 -0.2276412 -0.3086934 -0.1121408 0.2274909 -0.3086934 -0.02331614 0.2274907 -0.3086934 -0.02331626 -0.2276414 -0.3086934 -0.112141 -0.2276413 0.297342 -0.1121408 0.2274909 0.297342 -0.02331614 0.2274909 0.297342 -0.02331626 -0.2276413 0.297342 -0.112141 -0.2276412 0.3178918 -0.1121408 0.227491 0.3178918 -0.02331614 0.2274907 0.3178918 -0.02331626 -0.2276414 0.3178918 -0.1121409 -0.2276413 0.2967413 -0.1121409 -0.20366 0.2967413 -0.02331626 -0.20366 -0.3080927 -0.02331626 -0.20366 -0.3080925 -0.112141 -0.20366 0.2967414 -0.1121409 -0.2242098 0.296741 -0.0233162 -0.2242098 -0.3080928 -0.02331626 -0.2242098 -0.3080927 -0.112141 -0.2242098 0.2967413 -0.1121408 0.222481 0.2967413 -0.02331614 0.222481 -0.3080927 -0.0233162 0.222481 -0.3080925 -0.1121409 0.222481 0.2967413 -0.1121408 0.2019312 0.296741 -0.02331614 0.2019312 -0.3080928 -0.0233162 0.2019312 -0.3080927 -0.1121408 0.2019312 0.2963678 -0.09379011 0.1571738 0.2963678 -0.09379011 0.2025108 0.2510308 -0.09379011 0.2025108 0.2510308 -0.09379011 0.1571738 0.2963678 0.1166158 0.1571738 0.2963678 0.1166158 0.2025108 0.2510308 0.1166158 0.2025108 0.2510308 0.1166158 0.1571738 -0.2623664 -0.09379011 0.1571739 -0.2623664 -0.09379011 0.202511 -0.3077035 -0.09379011 0.202511 -0.3077035 -0.09379011 0.1571739 -0.2623664 0.1166158 0.1571739 -0.2623664 0.1166158 0.202511 -0.3077035 0.1166158 0.202511 -0.3077035 0.1166158 0.1571739 0.2963678 -0.09379017 -0.2074135 0.2963678 -0.09379017 -0.1620765 0.2510308 -0.09379017 -0.1620765 0.2510308 -0.09379017 -0.2074135 0.2963678 0.1166158 -0.2074135 0.2963678 0.1166158 -0.1620765 0.2510308 0.1166158 -0.1620765 0.2510308 0.1166158 -0.2074135 -0.2623664 -0.09379017 -0.2074134 -0.2623664 -0.09379017 -0.1620763 -0.3077035 -0.09379017 -0.1620763 -0.3077035 -0.09379017 -0.2074134 -0.2623664 0.1166158 -0.2074134 -0.2623664 0.1166158 -0.1620764 -0.3077035 0.1166158 -0.1620764 -0.3077035 0.1166158 -0.2074134 0.2967413 -0.1055592 0.1133424 0.2967413 -0.1055592 0.2021671 -0.3080927 -0.1055592 0.2021671 -0.3080925 -0.1055592 0.1133424 0.2967414 -0.08500939 0.1133425 0.2967411 -0.08500939 0.2021671 -0.3080928 -0.08500939 0.202167 -0.3080927 -0.08500939 0.1133424 0.2967413 -0.1055592 0.006752789 0.2967413 -0.1055592 0.09557747 -0.3080927 -0.1055592 0.09557741 -0.3080925 -0.1055592 0.006752789 0.2967414 -0.08500939 0.006752789 0.2967411 -0.08500939 0.09557747 -0.3080928 -0.08500939 0.09557741 -0.3080927 -0.08500939 0.006752789 0.2967413 -0.1055592 -0.09983682 0.2967413 -0.1055592 -0.01101219 -0.3080927 -0.1055592 -0.01101219 -0.3080925 -0.1055592 -0.09983688 0.2967414 -0.08500945 -0.09983682 0.2967411 -0.08500939 -0.01101213 -0.3080928 -0.08500939 -0.01101219 -0.3080927 -0.08500945 -0.09983688 0.2967413 -0.1055592 -0.2064265 0.2967413 -0.1055592 -0.1176018 -0.3080927 -0.1055592 -0.1176018 -0.3080925 -0.1055592 -0.2064266 0.2967414 -0.08500945 -0.2064265 0.2967411 -0.08500945 -0.1176018 -0.3080928 -0.08500945 -0.1176019 -0.3080927 -0.08500945 -0.2064265</float_array>
          <technique_common>
            <accessor source="#Box_001-mesh-positions-array" count="212" stride="3">
              <param name="X" type="float"/>
              <param name="Y" type="float"/>
              <param name="Z" type="float"/>
            </accessor>
          </technique_common>
        </source>
        <source id="Box_001-mesh-normals">
          <float_array id="Box_001-mesh-normals-array" count="828">-0.8545793 0.2363963 0.4623554 -0.6573992 -0.3700979 0.6563616 0.4110843 -0.2359996 0.8804895 0.5191504 0.4088259 0.7505112 0.396527 0.8719748 0.2870266 -0.396527 -0.8719748 -0.2870266 -0.4110843 0.2359996 -0.8804895 -0.5191504 -0.4088259 -0.7505112 0.8545793 -0.2363963 -0.4623554 0.6719565 -0.7378765 -0.06286811 0.01156651 -0.8814356 0.4721213 -0.01156651 0.8814356 -0.4721213 -0.6719565 0.7378765 0.06286811 0.6573992 0.3700979 -0.6563616 -0.8865322 0.04007077 0.4608905 -0.7557604 -0.5894955 0.2850734 0.2841578 -0.7389752 0.6108585 0.4504837 -0.1520737 0.8797265 0.4165776 0.5023652 0.7576525 -0.4165776 -0.5023652 -0.7576525 -0.4504837 0.1520737 -0.8797265 -0.6233406 0.6518449 0.4318674 0.7557604 0.5894955 -0.2850734 0.8865322 -0.04007077 -0.4608905 0.6233406 -0.6518449 -0.4318674 -0.1053498 -0.9875485 -0.1167638 0.1053498 0.9875485 0.1167638 -0.2841578 0.7389752 -0.6108585 -0.5813776 -0.7883847 0.2009643 0.4500564 -0.6876736 0.5696585 0.4463332 -0.1025117 0.8889431 -0.7871639 0.4274728 0.4445326 -0.8797265 -0.2320017 0.4149602 -0.4463332 0.1025117 -0.8889431 -0.2442701 -0.5281838 -0.8131962 0.8797265 0.2320017 -0.4149602 -0.4500564 0.6876736 -0.5696585 0.7871639 -0.4274728 -0.4445326 0.1637012 -0.9672842 -0.1937315 -0.1637012 0.9672842 0.1937315 0.2442701 0.5281838 0.8131962 0.5813776 0.7883847 -0.2009643 -0.5512558 -0.04852437 0.8328806 -0.3846553 -0.6646321 0.640492 0.690756 -0.5864132 0.423017 0.8313547 0.05203402 0.5532701 0.6024964 0.6673788 0.4376659 -0.6024964 -0.6673788 -0.4376659 -0.690756 0.5864132 -0.423017 -0.8313547 -0.05203402 -0.5532701 0.5512558 0.04852437 -0.8328806 0.4728843 -0.5891599 -0.6551408 0.07019257 -0.9974365 -0.01162755 -0.07019257 0.9974365 0.01162755 -0.4728843 0.5891599 0.6551408 0.3846553 0.6646321 -0.640492 -0.6491897 0.1983703 -0.7342754 -0.5049593 -0.4524369 -0.7350383 -0.5915708 -0.7384259 0.3235572 -0.7605823 -0.1693167 0.6267281 -0.5915708 0.4750511 0.6513871 0.5915708 -0.4750511 -0.6513871 0.5915708 0.7384259 -0.3235572 0.7605823 0.1693167 -0.6267281 0.5049593 0.4524369 0.7350383 0.6491897 -0.1983703 0.7342754 0.5049593 -0.7610401 0.4071779 0 -0.9653615 -0.2607806 0 0.9653615 0.2607806 -0.5049593 0.7610401 -0.4071779 -0.6157414 -0.2264778 -0.7546617 -0.4552446 -0.7827693 -0.4242378 -0.5884884 -0.5046846 0.6316111 -0.7870113 0.1310159 0.6028321 -0.6358227 0.7085177 0.3061311 0.6358227 -0.7085177 -0.3061311 0.7870113 -0.1310159 -0.6028321 -0.5025788 0.430433 -0.7497177 0.6157414 0.2264778 0.7546617 0.5884884 0.5046846 -0.6316111 0.5025788 -0.430433 0.7497177 0.0376293 -0.9651479 0.258919 -0.0376293 0.9651479 -0.258919 0.4552446 0.7827693 0.4242378 -1 0 1.30961e-7 1 0 0 7.25124e-6 3.01967e-6 1 0 1 -2.61922e-7 -3.62562e-6 -1.00656e-6 -1 7.25124e-7 -1 2.29182e-7 -1 0 0 1 0 0 8.70151e-6 3.35518e-6 1 1.45025e-6 1 -3.27403e-7 -4.35076e-6 -1.00656e-6 -1 1.45025e-6 -1 1.96442e-7 0 1.67759e-7 1 0 -1.67759e-7 -1 1 4.02622e-6 -1.01517e-5 0 1 0 -1 -1.67759e-6 2.9005e-6 0 -1 -7.25124e-7 0 0 1 0 -3.35518e-7 -1 1 4.36173e-6 -1.45025e-5 0 1 0 -1 -1.00655e-6 2.90049e-6 0 -1 0 -1 0 1.30961e-7 1 0 0 5.80099e-6 2.68415e-6 1 0 1 -2.61922e-7 -3.62562e-6 -8.38796e-7 -1 7.25124e-7 -1 1.96442e-7 -1 0 0 1 0 0 8.70151e-6 3.01967e-6 1 7.25125e-7 1 -2.61922e-7 -3.62563e-6 -8.38796e-7 -1 1.45025e-6 -1 1.96442e-7 0 0 1 0 0 -1 1 4.02622e-6 -1.01517e-5 0 1 -7.25124e-7 -1 -1.67759e-6 2.9005e-6 0 -1 -7.25124e-7 0 0 1 0 0 -1 1 4.36174e-6 -1.45025e-5 0 1 0 -1 -1.00656e-6 2.9005e-6 0 -1 -1.45025e-6 1 0 0 0 0 1 -1 0 0 0 0 -1 0 -1 0 0 1 0 1 0 0 0 0 1 -1 0 0 0 0 -1 0 -1 0 0 1 0 1 0 0 0 0 1 -1 0 0 0 0 -1 0 -1 0 0 1 0 1 0 0 0 0 1 -1 0 0 0 0 -1 0 -1 0 0 1 0 0 -1 0 0 1 0 1 8.70149e-6 3.6907e-6 0 1.45025e-6 1 -1 -2.9005e-6 -1.00656e-6 0 1.45025e-6 -1 0 -1 2.51639e-7 0 1 -3.35519e-7 1 8.70148e-6 3.6907e-6 0 7.25124e-7 1 -1 -2.9005e-6 -1.00655e-6 0 1.08769e-6 -1 0 -1 1.67759e-7 0 1 -3.35519e-7 1 8.70149e-6 3.6907e-6 0 7.25124e-7 1 -1 -2.9005e-6 -1.00655e-6 0 7.25125e-7 -1 0 -1 0 0 1 0 1 -7.25125e-6 3.6907e-6 0 1.45025e-6 1 -1 -2.9005e-6 -1.00656e-6 0 0 -1 -1 0 1.30961e-7 1 0 0 -5.80099e-6 0 1 -1.45025e-6 1 -1.96442e-7 -4.35074e-6 -1.17431e-6 -1 7.25123e-7 -1 2.29182e-7 -1 0 0 1 0 0 -4.35076e-6 3.35519e-7 1 -2.90051e-6 1 -1.30961e-7 -3.62563e-6 -1.17431e-6 -1 7.25127e-7 -1 2.29182e-7 0 1.67759e-7 1 0 -1.67759e-7 -1 1 0 7.25124e-6 0 1 0 -1 -2.01311e-6 4.35074e-6 0 -1 -7.25124e-7 0 0 1 0 -3.35518e-7 -1 1 0 4.35074e-6 0 1 2.90049e-6 -1 -2.01311e-6 7.25124e-6 0 -1 -7.25125e-7 -1 0 1.30961e-7 1 0 0 -5.80099e-6 0 1 -1.45025e-6 1 -1.96442e-7 -4.35074e-6 -1.00656e-6 -1 1.45025e-6 -1 2.29182e-7 -1 0 0 1 0 0 -4.35076e-6 0 1 -7.25128e-7 1 -1.96442e-7 -4.35076e-6 -1.00656e-6 -1 1.08769e-6 -1 2.12812e-7 0 0 1 0 0 -1 1 0 7.25124e-6 0 1 7.25124e-7 -1 -2.01311e-6 4.35074e-6 0 -1 -1.08769e-6 0 0 1 0 0 -1 1 0 4.35075e-6 0 1 7.25125e-7 -1 -2.01311e-6 7.25124e-6 0 -1 -7.25125e-7 1 0 0 0 0 1 -1 0 0 0 0 -1 0 -1 0 0 1 0 1 0 0 0 0 1 -1 0 0 0 0 -1 0 -1 0 0 1 0 1 0 0 0 0 1 -1 0 0 0 0 -1 0 -1 0 0 1 0 1 0 0 0 0 1 -1 0 0 0 0 -1 0 -1 0 0 1 0 0 -1 0 0 1 0 1 -7.25124e-6 0 0 -1.45025e-6 1 -1 -7.25124e-6 -2.01311e-6 0 1.45025e-6 -1 0 -1 2.51639e-7 0 1 -3.35519e-7 1 -7.25124e-6 0 0 -7.25124e-7 1 -1 -7.25124e-6 -2.01311e-6 0 3.62562e-7 -1 0 -1 1.67759e-7 0 1 -3.35519e-7 1 -7.25125e-6 0 0 -1.08769e-6 1 -1 -7.25125e-6 -2.01311e-6 0 3.62563e-7 -1 0 -1 0 0 1 0 1 8.7015e-6 0 0 0 1 -1 -7.25124e-6 -2.01311e-6 0 2.9005e-6 -1</float_array>
          <technique_common>
            <accessor source="#Box_001-mesh-normals-array" count="276" stride="3">
              <param name="X" type="float"/>
              <param name="Y" type="float"/>
              <param name="Z" type="float"/>
            </accessor>
          </technique_common>
        </source>
        <source id="Box_001-mesh-map-0">
          <float_array id="Box_001-mesh-map-0-array" count="2016">0.7731007 0.7181746 0.8312857 0.728143 0.8448354 0.8183001 0.7731112 0.9720317 0.7731007 0.8456761 0.8380647 0.8675842 0.916794 0.09011989 0.9168205 0.1802763 0.8577905 0.1941881 0.7907558 0.08610284 0.8577529 0.0666877 0.8577905 0.1941881 0.3295375 0.7681301 0.3294823 0.8968486 0.2767095 0.8755412 0.9097008 0.3624321 0.8447399 0.3473315 0.8447473 0.2579846 0.8312857 0.728143 0.8895466 0.7655768 0.8448354 0.8183001 0.8844739 0.9072228 0.8380721 0.9569311 0.8380647 0.8675842 0.9002054 0.7183908 0.8895466 0.7655768 0.8312857 0.728143 0.2241051 0.8302848 0.2767095 0.8755412 0.202445 0.8786078 0.2241051 0.8302848 0.2767485 0.7845234 0.2767095 0.8755412 0.8447399 0.3473315 0.7983381 0.2976232 0.8447473 0.2579846 0.7536856 0.8442393 0.6635292 0.8442127 0.6456003 0.7772046 0.7536856 0.8442393 0.7027963 0.8799465 0.6635292 0.8442127 0.2241051 0.8302848 0.202484 0.78759 0.2767485 0.7845234 0.7496686 0.7182012 0.7731007 0.7772423 0.6456003 0.7772046 0.1455754 0.6167749 0.1245621 0.693535 0.02242273 0.6936426 0.1455754 0.6167749 0.001128494 0.616927 0.01407003 0.5524661 0.6691355 0.0666877 0.772379 0.06678676 0.7907557 0.1402294 0.6447473 0.1400893 0.7907557 0.1402294 0.7720437 0.2140684 0.4630869 0.5821661 0.503074 0.6501848 0.3664736 0.6901086 0.503074 0.6501848 0.4887799 0.7181106 0.3921889 0.7463411 0.1245621 0.693535 0.06547904 0.7376738 0.02242273 0.6936426 0.155409 0.9377822 0.09522813 0.9896407 0.09532177 0.8855316 0.09513443 0.8855316 0.03504723 0.9377822 0.001128494 0.8843717 0.155409 0.9377822 0.189234 0.9884808 0.09522813 0.9896407 0.3922426 0.5538991 0.4630869 0.5821661 0.3664959 0.6103966 0.09522813 0.9896407 0.03504723 0.9377822 0.09513443 0.8855316 0.6696531 0.5708929 0.7728967 0.5707939 0.7916087 0.6446329 0.001222133 0.9884808 0.03504723 0.9377822 0.09522813 0.9896407 0.155409 0.9377822 0.09532177 0.8855316 0.1893277 0.8843717 0.6699884 0.7181746 0.6456003 0.644773 0.7916087 0.6446329 0.1691101 0.4102923 0.1689487 0.5293427 0.08085119 0.5523585 0.001289904 0.4142266 0.08107948 0.3839959 0.08085119 0.5523585 0 0.07573044 0.03003108 0 0.14961 8.82977e-5 0 0.07573044 0.1691101 0.07585525 0.1445114 0.1644887 0.1691101 0.290167 0.336152 0.2903028 0.31215 0.3789151 0.1691101 0.290167 0.2023556 0.2140684 0.320472 0.2141644 0.7916087 0.5932294 0.8391014 0.6638983 0.7919222 0.7099946 0.8620659 0.5163093 0.794255 0.5707939 0.7942103 0.4540284 0.9067655 0.6014095 0.8391014 0.6638983 0.7916087 0.5932294 0.09022361 0.2140684 0.0249325 0.1644003 0.1445114 0.1644887 0.2625261 0.4280936 0.1940336 0.3788191 0.31215 0.3789151 0.9070792 0.7181746 0.8391014 0.6638983 0.9067655 0.6014095 0.1691101 0.1383379 0.1940427 0.04966789 0.3136215 0.04957962 0.1940427 0.04966789 0.2593337 0 0.3136215 0.04957962 0.8620659 0.5163093 0.7942103 0.4540284 0.9093416 0.445495 0.1691101 0.1383379 0.3382202 0.138213 0.3187201 0.21398 0.6447428 0.07291972 0.6447473 0.15556 0.5474936 0.1848315 0.6447428 0.07291972 0.5072054 0.1143159 0.5255353 0.04382848 0.5127041 0.5707939 0.6134854 0.5742782 0.6456003 0.6452054 0.5192525 0.7202543 0.503074 0.640278 0.6456003 0.6452054 0.1318856 0.7376738 0.1317649 0.8843717 0.05347603 0.8667295 0.6563425 0.3665484 0.5980254 0.3413873 0.5978959 0.2335675 0.6447473 0.15556 0.6227996 0.2140684 0.5474936 0.1848315 0.7082675 0.9337642 0.6458017 0.9877661 0.6456003 0.8799465 0.5978959 0.2335675 0.5353942 0.2875772 0.5051373 0.2366395 0.7082675 0.9337642 0.7385693 0.9905535 0.6458017 0.9877661 0.001128494 0.8053287 0.05356144 0.7629985 0.05347603 0.8667295 0.5980254 0.3413873 0.5353942 0.2875772 0.5978959 0.2335675 0.2031896 0.6186698 0.303971 0.6151856 0.3295375 0.6937186 0.5052667 0.3444592 0.5353942 0.2875772 0.5980254 0.3413873 0.7082675 0.9337642 0.6456003 0.8799465 0.738368 0.8827339 0.1966412 0.76813 0.1870112 0.6986461 0.3295375 0.6937186 0.336152 0.2967808 0.357013 0.2141376 0.4765036 0.2140684 0.336152 0.2967808 0.5051373 0.296683 0.4783543 0.3836327 0.5030122 0.4088419 0.503074 0.5291896 0.4245707 0.5538992 0.336152 0.4087195 0.4244832 0.3837019 0.4245707 0.5538992 0.3590812 0.2139992 0.3382202 0.131356 0.5072054 0.1314538 0.3382202 0.131356 0.3609319 0.0444349 0.4804225 0.0445041 0.9999751 0.8460165 0.9323322 0.9063844 0.8844739 0.8456761 0.584396 0.9333207 0.6322293 0.9929553 0.5167282 0.9932958 1 0.9663595 0.9323322 0.9063844 0.9999751 0.8460165 0.584396 0.9333207 0.6322543 0.8726124 0.6322293 0.9929553 0.584396 0.9333207 0.5167531 0.8729528 0.6322543 0.8726124 0.8844988 0.966019 0.9323322 0.9063844 1 0.9663595 0.08157658 0.2140684 0.1691101 0.2382153 0.1690291 0.3583723 0.8844739 0.8456761 0.9323322 0.9063844 0.8844988 0.966019 0.584396 0.9333207 0.5167282 0.9932958 0.5167531 0.8729528 0.08157658 0.2140684 0.08146208 0.3839959 1.66227e-4 0.3570531 0.336152 0.54684 0.3146387 0.6151798 0.2091802 0.6151856 0.336152 0.54684 0.1870112 0.5468482 0.2088983 0.4693521 0.7291086 0.3442144 0.7293533 0.2393054 0.798338 0.2140684 0.5028557 0.7463411 0.503074 0.8954856 0.4325268 0.8739003 0.6522148 0.4520476 0.503074 0.4520394 0.5252431 0.3837019 0.6522148 0.4520476 0.6304196 0.5295412 0.5249611 0.5295354 0.7293533 0.2393054 0.6704354 0.2899193 0.6563424 0.231352 0.2620204 0.4280936 0.3143568 0.4693463 0.2088983 0.4693521 0.7291086 0.3442144 0.6704354 0.2899193 0.7293533 0.2393054 0.3744855 0.8211637 0.4323726 0.7684391 0.4325268 0.8739003 0.7801173 0.4982811 0.7211995 0.4476672 0.7942103 0.4397139 0.6304196 0.5295412 0.5780831 0.5707939 0.5249611 0.5295354 0.503074 0.7237384 0.5759519 0.7471196 0.5760283 0.8523893 0.5759519 0.7471196 0.6322542 0.7982724 0.5760283 0.8523893 0.7801173 0.4982811 0.7214442 0.5525762 0.7211995 0.4476672 0.7214442 0.5525762 0.6525607 0.5707939 0.6522148 0.4224302 0.6320818 0.6924382 0.6310861 0.3678607 0.6944314 0.3676664 0.08503824 0.4439607 0.1483836 0.444155 0.1473878 0.7687324 0.3575663 0.7687771 0.3573719 0.8321223 0.3427168 0.8320774 0.9009737 0.7545617 0.899978 0.4299843 0.914633 0.4299394 0.5362006 0.8321224 0.5215455 0.8320774 0.5217399 0.7687321 0.955948 0.443811 0.9549523 0.1192336 0.9696075 0.1191886 0.3437126 0.7687321 0.3427168 0.4441547 0.4060621 0.4439604 0.4080536 0.4439604 0.471399 0.4441547 0.4704032 0.7687321 0.5215456 0.8321673 0.5213512 0.8955127 0.5066962 0.8954677 0.9402974 0.7684333 0.9393016 0.443856 0.9539567 0.443811 0.4237571 0.8954677 0.4239514 0.8321225 0.4386065 0.8321674 0.986254 0.7683886 0.9715989 0.7684334 0.9706033 0.443856 0.6332371 0.4786394 0.6319139 0.04730218 0.6952592 0.04710799 0.302818 0.4493789 0.2394726 0.4491847 0.2407959 0.01784753 0.600736 0.8321673 0.6005418 0.8955127 0.5858867 0.8954676 0.8610608 0.443811 0.8597375 0.01247388 0.8743927 0.01242893 0.034029 0.8321224 0.01937395 0.8320774 0.01956832 0.7687321 0.9223275 0.01242893 0.9236506 0.4437661 0.9089955 0.4438111 0.4083812 0.4439604 0.4070579 0.01262313 0.4704032 0.01242893 0.08239173 0.4439604 0.01904642 0.4437661 0.0203697 0.01242893 0.6972807 0.8321673 0.6970863 0.8955127 0.6824312 0.8954676 0.7977371 0.8371955 0.7964137 0.4058583 0.8110688 0.4058134 0.5195015 0.8321224 0.5048464 0.8320774 0.5050407 0.7687321 0.8916942 0.443856 0.9063493 0.443811 0.9076724 0.8751482 0.08906298 0.633267 0.08806723 0.3086896 0.1514126 0.3084953 0.6971642 0.4335566 0.7605095 0.4337509 0.7595138 0.7583284 0.586081 0.8321224 0.5858866 0.7687771 0.6005417 0.7687321 0.9246464 0.4438111 0.9236506 0.1192337 0.9383057 0.1191887 0.1335341 0.7687774 0.1481893 0.7687324 0.1483836 0.8320777 0.9559481 0.7684334 0.9549524 0.443856 0.9696076 0.443811 0.4782442 0.7634054 0.4772484 0.4388279 0.5405937 0.4386336 0.6332262 0.4421848 0.6965715 0.4423792 0.6955758 0.7669565 0.02141809 0.8955127 0.02122372 0.8321673 0.03587877 0.8321224 0.9402973 0.443811 0.9393014 0.1192337 0.9539565 0.1191887 0.03607308 0.8321673 0.05072814 0.8321224 0.05092251 0.8954676 0.9862539 0.4437661 0.9715988 0.443811 0.9706031 0.1192336 0.7317239 0.4439604 0.7304006 0.01262319 0.7937459 0.01242893 0.4585756 0.4602162 0.3952303 0.4600219 0.3965536 0.02868473 0.6813035 0.7687321 0.6814979 0.8320774 0.6668428 0.8321223 0.8610608 0.8751931 0.8597375 0.443856 0.8743927 0.443811 0.536395 0.8954676 0.5217399 0.8955127 0.5215455 0.8321673 0.9063493 0.01242893 0.9076724 0.4437661 0.8930174 0.4438111 0.6318222 0.4830229 0.630499 0.05168563 0.6938442 0.05149143 0.1483836 0.4437662 0.08503824 0.4439607 0.08371502 0.01262354 0.3740711 0.7687321 0.3742654 0.8320774 0.3596103 0.8321223 0.7963925 0.8753424 0.7950692 0.4440053 0.8097243 0.4439604 0.05092257 0.8320774 0.03626745 0.8321223 0.03607308 0.768777 0.9076725 0.443856 0.9223276 0.443811 0.9236507 0.8751482 0.9706033 0.9184844 0.9382712 0.9185836 0.9378109 0.7685326 0.504386 0.9188823 0.4720539 0.918783 0.4725143 0.7687321 0.4442579 0.9049115 0.4119258 0.9050107 0.4114655 0.7549597 0.1084135 0.7480238 0.1407456 0.7479246 0.141206 0.8979756 0.1483836 0.9078239 0.1484827 0.8754918 0.1808148 0.875591 0.2777208 0.875591 0.3100528 0.8754918 0.3101521 0.9078239 0.6875048 0.9015427 0.6551728 0.9014436 0.655633 0.7513926 0.633856 0.7688313 0.6661881 0.7687321 0.6666485 0.9187831 0.596242 0.9153152 0.5639099 0.9154144 0.5634496 0.7653634 0.8748801 0.8752924 0.9072121 0.8751932 0.9076725 1.025244 0.8276817 0.8753424 0.8277809 0.9076746 0.7954487 0.9077737 0.7679155 0.8684068 0.7680146 0.900739 0.7356826 0.9008381 0.8717322 0.2936142 0.8712719 0.1435632 0.9036042 0.1434639 0.986254 0.4439103 1.018586 0.443811 1.019046 0.5938621 0.9750825 0.4471797 0.9427505 0.4472789 0.9422903 0.2972279 0.4386065 0.7688313 0.4709385 0.7687321 0.471399 0.9187831 0.3424841 0.8754918 0.3425832 0.9078239 0.3102511 0.9079231 0.2452894 0.875591 0.2776215 0.8754918 0.2777208 0.907824 0.9536942 0.9011449 0.9541546 0.7510939 0.9864867 0.7511931 0.1163746 0.9188826 0.08404254 0.9187833 0.08450281 0.7687324 0.9108282 0.8376924 0.8784959 0.8377916 0.8780358 0.6877406 0.6972807 0.7688313 0.7296129 0.7687321 0.7300732 0.9187831 0.2131469 0.8754918 0.2132461 0.9078239 0.1809139 0.9079231 0.8330584 0.8753424 0.8331577 0.9076746 0.8008254 0.9077738 0.3034522 0.4335566 0.3047754 0.8648939 0.24143 0.8650881 0.4730497 0.01242893 0.536395 0.01262319 0.5350718 0.4439603 0.4386065 0.7687771 0.4384121 0.8321224 0.4237571 0.8320775 0.8291041 0.8753424 0.8277809 0.4440053 0.8424359 0.4439604 0.3429111 0.8321224 0.3575662 0.8321673 0.3573719 0.8955127 0.746379 0.4440053 0.761034 0.4439604 0.7623572 0.8752977 0.3826221 0.4315313 0.3839452 0.8628686 0.3205999 0.8630628 0.1733796 0.005493164 0.2367249 0.005687415 0.2354016 0.4370245 0.6826256 0.8321223 0.6824312 0.768777 0.6970863 0.7687321 0.8123708 0.8753424 0.8110476 0.4440053 0.8257026 0.4439604 0.1170293 0.7687324 0.1316844 0.7687773 0.1314901 0.8321226 0.7304006 0.4440053 0.7450557 0.4439604 0.746379 0.8752977 0.8482691 0.01589685 0.8495921 0.4472341 0.7862468 0.4474283 0.3196259 0.0367043 0.3829712 0.03689849 0.381648 0.4682356 0.4072522 0.8321224 0.4070579 0.7687771 0.4217129 0.7687321 0.8770391 0.8751931 0.875716 0.4438559 0.890371 0.443811 0.5693817 0.7687321 0.5840369 0.7687771 0.5838426 0.8321224 0.7631126 0.4440053 0.7777676 0.4439604 0.7790909 0.8752977 0.2286379 0.4231529 0.229961 0.8544902 0.1666157 0.8546844 0.5377183 0.01242893 0.6010636 0.01262319 0.5997403 0.4439604 0.6677762 0.8321224 0.6824313 0.8321673 0.682237 0.8955127 0.8770391 0.4438109 0.875716 0.01247382 0.890371 0.01242893 0.3596103 0.8321224 0.3742654 0.8321673 0.3740711 0.8955127 0.7790909 0.4440053 0.7937459 0.4439604 0.7950692 0.8752976 0.792263 0.8456761 0.7731007 0.7181746 0.8448354 0.8183001 0.8380721 0.9569311 0.7731112 0.9720317 0.8380647 0.8675842 0.8577529 0.0666877 0.916794 0.09011989 0.8577905 0.1941881 0.7907823 0.1762592 0.7907558 0.08610284 0.8577905 0.1941881 0.2767485 0.7845234 0.3295375 0.7681301 0.2767095 0.8755412 0.9097113 0.2360765 0.9097008 0.3624321 0.8447473 0.2579846 0.7731007 0.7772423 0.7536856 0.8442393 0.6456003 0.7772046 0.6595122 0.7181746 0.7496686 0.7182012 0.6456003 0.7772046 0.001128494 0.616927 0.1455754 0.6167749 0.02242273 0.6936426 0.1162095 0.5523585 0.1455754 0.6167749 0.01407003 0.5524661 0.6447473 0.1400893 0.6691355 0.0666877 0.7907557 0.1402294 0.6688001 0.2139694 0.6447473 0.1400893 0.7720437 0.2140684 0.3664959 0.6103966 0.4630869 0.5821661 0.3664736 0.6901086 0.3664736 0.6901086 0.503074 0.6501848 0.3921889 0.7463411 0.6456003 0.644773 0.6696531 0.5708929 0.7916087 0.6446329 0.773232 0.7180755 0.6699884 0.7181746 0.7916087 0.6446329 0.08107948 0.3839959 0.1691101 0.4102923 0.08085119 0.5523585 0.001128494 0.533277 0.001289904 0.4142266 0.08085119 0.5523585 0.1691101 0.07585525 0 0.07573044 0.14961 8.82977e-5 0.0249325 0.1644003 0 0.07573044 0.1445114 0.1644887 0.1940336 0.3788191 0.1691101 0.290167 0.31215 0.3789151 0.336152 0.2903028 0.1691101 0.290167 0.320472 0.2141644 0.3382202 0.138213 0.1691101 0.1383379 0.3136215 0.04957962 0.1991412 0.2140684 0.1691101 0.1383379 0.3187201 0.21398 0.5072054 0.1143159 0.6447428 0.07291972 0.5474936 0.1848315 0.6227889 0.014557 0.6447428 0.07291972 0.5255353 0.04382848 0.503074 0.640278 0.5127041 0.5707939 0.6456003 0.6452054 0.6200338 0.7237383 0.5192525 0.7202543 0.6456003 0.6452054 0.05356144 0.7629985 0.1318856 0.7376738 0.05347603 0.8667295 0.6561594 0.2140684 0.6563425 0.3665484 0.5978959 0.2335675 0.1870112 0.6986461 0.2031896 0.6186698 0.3295375 0.6937186 0.2974226 0.7646459 0.1966412 0.76813 0.3295375 0.6937186 0.5051373 0.296683 0.336152 0.2967808 0.4765036 0.2140684 0.3588637 0.3837019 0.336152 0.2967808 0.4783543 0.3836327 0.4244832 0.3837019 0.5030122 0.4088419 0.4245707 0.5538992 0.3362138 0.5290672 0.336152 0.4087195 0.4245707 0.5538992 0.4785718 0.2140684 0.3590812 0.2139992 0.5072054 0.1314538 0.5072054 0.1314538 0.3382202 0.131356 0.4804225 0.0445041 0.08146208 0.3839959 0.08157658 0.2140684 0.1690291 0.3583723 2.47233e-4 0.2368962 0.08157658 0.2140684 1.66227e-4 0.3570531 0.1870112 0.5468482 0.336152 0.54684 0.2091802 0.6151856 0.3143568 0.4693463 0.336152 0.54684 0.2088983 0.4693521 0.797992 0.3624321 0.7291086 0.3442144 0.798338 0.2140684 0.4323726 0.7684391 0.5028557 0.7463411 0.4325268 0.8739003 0.6307015 0.3837077 0.6522148 0.4520476 0.5252431 0.3837019 0.503074 0.4520394 0.6522148 0.4520476 0.5249611 0.5295354 0.5031821 0.8726123 0.503074 0.7237384 0.5760283 0.8523893 0.7211995 0.4476672 0.7214442 0.5525762 0.6522148 0.4224302 0.6954271 0.6922439 0.6320818 0.6924382 0.6944314 0.3676664 0.08404254 0.7685383 0.08503824 0.4439607 0.1473878 0.7687324 0.3429112 0.7687321 0.3575663 0.7687771 0.3427168 0.8320774 0.9156288 0.7545168 0.9009737 0.7545617 0.914633 0.4299394 0.536395 0.768777 0.5362006 0.8321224 0.5217399 0.7687321 0.9706031 0.4437661 0.955948 0.443811 0.9696075 0.1191886 0.4070579 0.7685378 0.3437126 0.7687321 0.4060621 0.4439604 0.4070579 0.768538 0.4080536 0.4439604 0.4704032 0.7687321 0.5068906 0.8321224 0.5215456 0.8321673 0.5066962 0.8954677 0.9549524 0.7683885 0.9402974 0.7684333 0.9539567 0.443811 0.4384121 0.8955128 0.4237571 0.8954677 0.4386065 0.8321674 0.9852584 0.443811 0.986254 0.7683886 0.9706033 0.443856 0.6965824 0.4784451 0.6332371 0.4786394 0.6952592 0.04710799 0.3041413 0.01804161 0.302818 0.4493789 0.2407959 0.01784753 0.586081 0.8321224 0.600736 0.8321673 0.5858867 0.8954676 0.875716 0.4437662 0.8610608 0.443811 0.8743927 0.01242893 0.03422337 0.7687771 0.034029 0.8321224 0.01956832 0.7687321 0.9076724 0.01247382 0.9223275 0.01242893 0.9089955 0.4438111 0.4717264 0.443766 0.4083812 0.4439604 0.4704032 0.01242893 0.08371502 0.01262307 0.08239173 0.4439604 0.0203697 0.01242893 0.6826255 0.8321224 0.6972807 0.8321673 0.6824312 0.8954676 0.812392 0.8371507 0.7977371 0.8371955 0.8110688 0.4058134 0.5196958 0.7687771 0.5195015 0.8321224 0.5050407 0.7687321 0.8930174 0.8751932 0.8916942 0.443856 0.9076724 0.8751482 0.1524083 0.6330727 0.08906298 0.633267 0.1514126 0.3084953 0.6961685 0.7581343 0.6971642 0.4335566 0.7595138 0.7583284 0.600736 0.8320775 0.586081 0.8321224 0.6005417 0.7687321 0.9393014 0.4437662 0.9246464 0.4438111 0.9383057 0.1191887 0.1337285 0.8321226 0.1335341 0.7687774 0.1483836 0.8320777 0.9706032 0.7683885 0.9559481 0.7684334 0.9696076 0.443811 0.5415895 0.7632111 0.4782442 0.7634054 0.5405937 0.4386336 0.6322305 0.7667624 0.6332262 0.4421848 0.6955758 0.7669565 0.03607308 0.8954677 0.02141809 0.8955127 0.03587877 0.8321224 0.9549523 0.4437662 0.9402973 0.443811 0.9539565 0.1191887 0.03626745 0.8955127 0.03607308 0.8321673 0.05092251 0.8954676 0.9852582 0.1191886 0.9862539 0.4437661 0.9706031 0.1192336 0.7950691 0.4437661 0.7317239 0.4439604 0.7937459 0.01242893 0.4598988 0.02887886 0.4585756 0.4602162 0.3965536 0.02868473 0.6666485 0.768777 0.6813035 0.7687321 0.6668428 0.8321223 0.875716 0.8751483 0.8610608 0.8751931 0.8743927 0.443811 0.5362006 0.8321224 0.536395 0.8954676 0.5215455 0.8321673 0.8916942 0.01247376 0.9063493 0.01242893 0.8930174 0.4438111 0.6951674 0.4828286 0.6318222 0.4830229 0.6938442 0.05149143 0.1470603 0.01242893 0.1483836 0.4437662 0.08371502 0.01262354 0.359416 0.768777 0.3740711 0.7687321 0.3596103 0.8321223 0.8110476 0.8752977 0.7963925 0.8753424 0.8097243 0.4439604 0.0507282 0.7687321 0.05092257 0.8320774 0.03607308 0.768777 0.9089956 0.8751933 0.9076725 0.443856 0.9236507 0.8751482 0.9701429 0.7684334 0.9706033 0.9184844 0.9378109 0.7685326 0.5048464 0.7688313 0.504386 0.9188823 0.4725143 0.7687321 0.4437976 0.7548605 0.4442579 0.9049115 0.4114655 0.7549597 0.1088739 0.8980748 0.1084135 0.7480238 0.141206 0.8979756 0.1807156 0.9079231 0.1483836 0.9078239 0.1808148 0.875591 0.2778199 0.9079231 0.2777208 0.875591 0.3101521 0.9078239 0.6879652 0.7514917 0.6875048 0.9015427 0.655633 0.7513926 0.6343163 0.9188823 0.633856 0.7688313 0.6666485 0.9187831 0.5957817 0.7652642 0.596242 0.9153152 0.5634496 0.7653634 0.8753404 1.025343 0.8748801 0.8752924 0.9076725 1.025244 0.7953495 0.8754416 0.8276817 0.8753424 0.7954487 0.9077737 0.7355833 0.868506 0.7679155 0.8684068 0.7356826 0.9008381 0.9040642 0.293515 0.8717322 0.2936142 0.9036042 0.1434639 0.9867143 0.5939612 0.986254 0.4439103 1.019046 0.5938621 0.9746224 0.2971287 0.9750825 0.4471797 0.9422903 0.2972279 0.4390668 0.9188823 0.4386065 0.7688313 0.471399 0.9187831 0.3101521 0.875591 0.3424841 0.8754918 0.3102511 0.9079231 0.2453886 0.9079231 0.2452894 0.875591 0.2777208 0.907824 0.9860264 0.9012442 0.9536942 0.9011449 0.9864867 0.7511931 0.1168349 0.7688316 0.1163746 0.9188826 0.08450281 0.7687324 0.9103679 0.6876415 0.9108282 0.8376924 0.8780358 0.6877406 0.697741 0.9188823 0.6972807 0.7688313 0.7300732 0.9187831 0.1808148 0.875591 0.2131469 0.8754918 0.1809139 0.9079231 0.8007263 0.8754417 0.8330584 0.8753424 0.8008254 0.9077738 0.2401069 0.4337509 0.3034522 0.4335566 0.24143 0.8650881 0.4717264 0.4437663 0.4730497 0.01242893 0.5350718 0.4439603 0.4239514 0.7687321 0.4386065 0.7687771 0.4237571 0.8320775 0.8437592 0.8752976 0.8291041 0.8753424 0.8424359 0.4439604 0.3427168 0.8954677 0.3429111 0.8321224 0.3573719 0.8955127 0.7477022 0.8753427 0.746379 0.4440053 0.7623572 0.8752977 0.3192768 0.4317256 0.3826221 0.4315313 0.3205999 0.8630628 0.1720563 0.4368305 0.1733796 0.005493164 0.2354016 0.4370245 0.6972807 0.8320774 0.6826256 0.8321223 0.6970863 0.7687321 0.8270258 0.8752976 0.8123708 0.8753424 0.8257026 0.4439604 0.1168349 0.8320777 0.1170293 0.7687324 0.1314901 0.8321226 0.7317239 0.8753427 0.7304006 0.4440053 0.746379 0.8752977 0.7849237 0.0160911 0.8482691 0.01589685 0.7862468 0.4474283 0.3183026 0.4680415 0.3196259 0.0367043 0.381648 0.4682356 0.4219073 0.8320775 0.4072522 0.8321224 0.4217129 0.7687321 0.8916942 0.8751482 0.8770391 0.8751931 0.890371 0.443811 0.5691875 0.8320775 0.5693817 0.7687321 0.5838426 0.8321224 0.7644358 0.8753426 0.7631126 0.4440053 0.7790909 0.8752977 0.1652927 0.4233472 0.2286379 0.4231529 0.1666157 0.8546844 0.536395 0.4437662 0.5377183 0.01242893 0.5997403 0.4439604 0.6675819 0.8954677 0.6677762 0.8321224 0.682237 0.8955127 0.8916942 0.4437662 0.8770391 0.4438109 0.890371 0.01242893 0.359416 0.8954677 0.3596103 0.8321224 0.3740711 0.8955127 0.7804141 0.8753427 0.7790909 0.4440053 0.7950692 0.8752976</float_array>
          <technique_common>
            <accessor source="#Box_001-mesh-map-0-array" count="1008" stride="2">
              <param name="S" type="float"/>
              <param name="T" type="float"/>
            </accessor>
          </technique_common>
        </source>
        <vertices id="Box_001-mesh-vertices">
          <input semantic="POSITION" source="#Box_001-mesh-positions"/>
        </vertices>
        <polylist material="Wood2-material" count="192">
          <input semantic="VERTEX" source="#Box_001-mesh-vertices" offset="0"/>
          <input semantic="NORMAL" source="#Box_001-mesh-normals" offset="1"/>
          <input semantic="TEXCOORD" source="#Box_001-mesh-map-0" offset="2" set="0"/>
          <vcount>3 3 3 3 3 3 3 3 3 3 3 3 3 3 3 3 3 3 3 3 3 3 3 3 3 3 3 3 3 3 3 3 3 3 3 3 3 3 3 3 3 3 3 3 3 3 3 3 3 3 3 3 3 3 3 3 3 3 3 3 3 3 3 3 3 3 3 3 3 3 3 3 3 3 3 3 3 3 3 3 3 3 3 3 3 3 3 3 3 3 3 3 3 3 3 3 3 3 3 3 3 3 3 3 3 3 3 3 3 3 3 3 3 3 3 3 3 3 3 3 3 3 3 3 3 3 3 3 3 3 3 3 3 3 3 3 3 3 3 3 3 3 3 3 3 3 3 3 3 3 3 3 3 3 3 3 3 3 3 3 3 3 3 3 3 3 3 3 3 3 3 3 3 3 3 3 3 3 3 3 3 3 3 3 3 3 3 3 3 3 3 3 </vcount>
          <p>85 84 288 86 84 289 87 84 290 91 85 291 90 85 292 89 85 293 88 86 294 89 86 295 85 86 296 89 87 297 90 87 298 86 87 299 86 88 300 90 88 301 91 88 302 84 89 303 87 89 304 91 89 305 93 90 306 94 90 307 95 90 308 99 91 309 98 91 310 97 91 311 96 92 312 97 92 313 93 92 314 97 93 315 98 93 316 94 93 317 98 94 318 99 94 319 95 94 320 96 95 321 92 95 322 95 95 323 101 96 324 102 96 325 103 96 326 107 97 327 106 97 328 105 97 329 104 98 330 105 98 331 101 98 332 105 99 333 106 99 334 102 99 335 102 100 336 106 100 337 107 100 338 100 101 339 103 101 340 107 101 341 109 102 342 110 102 343 111 102 344 115 103 345 114 103 346 113 103 347 112 104 348 113 104 349 109 104 350 113 105 351 114 105 352 110 105 353 110 106 354 114 106 355 115 106 356 112 107 357 108 107 358 111 107 359 117 108 360 118 108 361 119 108 362 123 109 363 122 109 364 121 109 365 120 110 366 121 110 367 117 110 368 121 111 369 122 111 370 118 111 371 118 112 372 122 112 373 123 112 374 116 113 375 119 113 376 123 113 377 125 114 378 126 114 379 127 114 380 131 115 381 130 115 382 129 115 383 128 116 384 129 116 385 125 116 386 129 117 387 130 117 388 126 117 389 126 118 390 130 118 391 131 118 392 128 119 393 124 119 394 127 119 395 133 120 396 134 120 397 135 120 398 139 121 399 138 121 400 137 121 401 136 122 402 137 122 403 133 122 404 137 123 405 138 123 406 134 123 407 134 124 408 138 124 409 139 124 410 132 125 411 135 125 412 139 125 413 141 126 414 142 126 415 143 126 416 147 127 417 146 127 418 145 127 419 144 128 420 145 128 421 141 128 422 145 129 423 146 129 424 142 129 425 142 130 426 146 130 427 147 130 428 144 131 429 140 131 430 143 131 431 152 132 432 153 132 433 149 132 434 153 133 435 154 133 436 150 133 437 154 134 438 155 134 439 151 134 440 155 135 441 152 135 442 148 135 443 148 136 444 149 136 445 150 136 446 155 137 447 154 137 448 153 137 449 160 138 450 161 138 451 157 138 452 161 139 453 162 139 454 158 139 455 162 140 456 163 140 457 159 140 458 163 141 459 160 141 460 156 141 461 156 142 462 157 142 463 158 142 464 163 143 465 162 143 466 161 143 467 169 144 468 165 144 469 164 144 470 169 145 471 170 145 472 166 145 473 170 146 474 171 146 475 167 146 476 171 147 477 168 147 478 164 147 479 164 148 480 165 148 481 166 148 482 171 149 483 170 149 484 169 149 485 177 150 486 173 150 487 172 150 488 177 151 489 178 151 490 174 151 491 178 152 492 179 152 493 175 152 494 179 153 495 176 153 496 172 153 497 172 154 498 173 154 499 174 154 500 179 155 501 178 155 502 177 155 503 181 156 504 182 156 505 183 156 506 187 157 507 186 157 508 185 157 509 184 158 510 185 158 511 181 158 512 185 159 513 186 159 514 182 159 515 182 160 516 186 160 517 187 160 518 184 161 519 180 161 520 183 161 521 189 162 522 190 162 523 191 162 524 195 163 525 194 163 526 193 163 527 192 164 528 193 164 529 189 164 530 193 165 531 194 165 532 190 165 533 190 166 534 194 166 535 195 166 536 192 167 537 188 167 538 191 167 539 197 168 540 198 168 541 199 168 542 203 169 543 202 169 544 201 169 545 200 170 546 201 170 547 197 170 548 201 171 549 202 171 550 198 171 551 198 172 552 202 172 553 203 172 554 200 173 555 196 173 556 199 173 557 205 174 558 206 174 559 207 174 560 211 175 561 210 175 562 209 175 563 204 176 564 208 176 565 209 176 566 209 177 567 210 177 568 206 177 569 206 178 570 210 178 571 211 178 572 208 179 573 204 179 574 207 179 575 84 180 720 85 180 721 87 180 722 88 181 723 91 181 724 89 181 725 84 182 726 88 182 727 85 182 728 85 183 729 89 183 730 86 183 731 87 184 732 86 184 733 91 184 734 88 185 735 84 185 736 91 185 737 92 186 738 93 186 739 95 186 740 96 187 741 99 187 742 97 187 743 92 188 744 96 188 745 93 188 746 93 189 747 97 189 748 94 189 749 94 190 750 98 190 751 95 190 752 99 191 753 96 191 754 95 191 755 100 192 756 101 192 757 103 192 758 104 193 759 107 193 760 105 193 761 100 194 762 104 194 763 101 194 764 101 195 765 105 195 766 102 195 767 103 196 768 102 196 769 107 196 770 104 197 771 100 197 772 107 197 773 108 198 774 109 198 775 111 198 776 112 199 777 115 199 778 113 199 779 108 200 780 112 200 781 109 200 782 109 201 783 113 201 784 110 201 785 111 202 786 110 202 787 115 202 788 115 203 789 112 203 790 111 203 791 116 204 792 117 204 793 119 204 794 120 205 795 123 205 796 121 205 797 116 206 798 120 206 799 117 206 800 117 207 801 121 207 802 118 207 803 119 208 804 118 208 805 123 208 806 120 209 807 116 209 808 123 209 809 124 210 810 125 210 811 127 210 812 128 211 813 131 211 814 129 211 815 124 212 816 128 212 817 125 212 818 125 213 819 129 213 820 126 213 821 127 214 822 126 214 823 131 214 824 131 215 825 128 215 826 127 215 827 132 216 828 133 216 829 135 216 830 136 217 831 139 217 832 137 217 833 132 218 834 136 218 835 133 218 836 133 219 837 137 219 838 134 219 839 135 220 840 134 220 841 139 220 842 136 221 843 132 221 844 139 221 845 140 222 846 141 222 847 143 222 848 144 223 849 147 223 850 145 223 851 140 224 852 144 224 853 141 224 854 141 225 855 145 225 856 142 225 857 143 226 858 142 226 859 147 226 860 147 227 861 144 227 862 143 227 863 148 228 864 152 228 865 149 228 866 149 229 867 153 229 868 150 229 869 150 230 870 154 230 871 151 230 872 151 231 873 155 231 874 148 231 875 151 232 876 148 232 877 150 232 878 152 233 879 155 233 880 153 233 881 156 234 882 160 234 883 157 234 884 157 235 885 161 235 886 158 235 887 158 236 888 162 236 889 159 236 890 159 237 891 163 237 892 156 237 893 159 238 894 156 238 895 158 238 896 160 239 897 163 239 898 161 239 899 168 240 900 169 240 901 164 240 902 165 241 903 169 241 904 166 241 905 166 242 906 170 242 907 167 242 908 167 243 909 171 243 910 164 243 911 167 244 912 164 244 913 166 244 914 168 245 915 171 245 916 169 245 917 176 246 918 177 246 919 172 246 920 173 247 921 177 247 922 174 247 923 174 248 924 178 248 925 175 248 926 175 249 927 179 249 928 172 249 929 175 250 930 172 250 931 174 250 932 176 251 933 179 251 934 177 251 935 180 252 936 181 252 937 183 252 938 184 253 939 187 253 940 185 253 941 180 254 942 184 254 943 181 254 944 181 255 945 185 255 946 182 255 947 183 256 948 182 256 949 187 256 950 187 257 951 184 257 952 183 257 953 188 258 954 189 258 955 191 258 956 192 259 957 195 259 958 193 259 959 188 260 960 192 260 961 189 260 962 189 261 963 193 261 964 190 261 965 191 262 966 190 262 967 195 262 968 195 263 969 192 263 970 191 263 971 196 264 972 197 264 973 199 264 974 200 265 975 203 265 976 201 265 977 196 266 978 200 266 979 197 266 980 197 267 981 201 267 982 198 267 983 199 268 984 198 268 985 203 268 986 203 269 987 200 269 988 199 269 989 204 270 990 205 270 991 207 270 992 208 271 993 211 271 994 209 271 995 205 272 996 204 272 997 209 272 998 205 273 999 209 273 1000 206 273 1001 207 274 1002 206 274 1003 211 274 1004 211 275 1005 208 275 1006 207 275 1007</p>
        </polylist>
        <polylist material="Cabbage-material" count="144">
          <input semantic="VERTEX" source="#Box_001-mesh-vertices" offset="0"/>
          <input semantic="NORMAL" source="#Box_001-mesh-normals" offset="1"/>
          <input semantic="TEXCOORD" source="#Box_001-mesh-map-0" offset="2" set="0"/>
          <vcount>3 3 3 3 3 3 3 3 3 3 3 3 3 3 3 3 3 3 3 3 3 3 3 3 3 3 3 3 3 3 3 3 3 3 3 3 3 3 3 3 3 3 3 3 3 3 3 3 3 3 3 3 3 3 3 3 3 3 3 3 3 3 3 3 3 3 3 3 3 3 3 3 3 3 3 3 3 3 3 3 3 3 3 3 3 3 3 3 3 3 3 3 3 3 3 3 3 3 3 3 3 3 3 3 3 3 3 3 3 3 3 3 3 3 3 3 3 3 3 3 3 3 3 3 3 3 3 3 3 3 3 3 3 3 3 3 3 3 3 3 3 3 3 3 </vcount>
          <p>5 0 0 6 1 1 2 2 2 5 0 3 1 3 4 0 4 5 9 5 6 6 1 7 5 0 8 7 6 9 8 7 10 5 0 11 11 8 12 8 7 13 7 6 14 11 8 15 12 9 16 9 5 17 6 1 18 3 10 19 2 2 20 13 11 21 4 12 22 0 4 23 9 5 24 3 10 25 6 1 26 13 11 27 7 6 28 4 12 29 13 11 30 10 13 31 7 6 32 12 9 33 3 10 34 9 5 35 2 2 36 12 9 37 11 8 38 2 2 39 3 10 40 12 9 41 13 11 42 0 4 43 10 13 44 0 4 45 1 3 46 11 8 47 19 14 48 20 15 49 16 16 50 19 14 51 15 17 52 14 18 53 23 19 54 20 15 55 19 14 56 22 20 57 19 14 58 18 21 59 24 22 60 25 23 61 22 20 62 25 23 63 26 24 64 23 19 65 20 15 66 17 25 67 16 16 68 27 26 69 18 21 70 14 18 71 23 19 72 17 25 73 20 15 74 27 26 75 21 27 76 18 21 77 27 26 78 24 22 79 21 27 80 26 24 81 17 25 82 23 19 83 16 16 84 26 24 85 25 23 86 16 16 87 17 25 88 26 24 89 27 26 90 14 18 91 24 22 92 14 18 93 15 17 94 25 23 95 34 28 96 30 29 97 29 30 98 32 31 99 33 32 100 29 30 101 36 33 102 37 34 103 34 28 104 36 33 105 33 32 106 32 31 107 39 35 108 36 33 109 35 36 110 39 35 111 40 37 112 37 34 113 34 28 114 31 38 115 30 29 116 41 39 117 32 31 118 28 40 119 37 34 120 31 38 121 34 28 122 41 39 123 35 36 124 32 31 125 41 39 126 38 41 127 35 36 128 40 37 129 31 38 130 37 34 131 29 30 132 30 29 133 40 37 134 30 29 135 31 38 136 40 37 137 41 39 138 28 40 139 38 41 140 29 30 141 39 35 142 38 41 143 47 42 144 48 43 145 44 44 146 47 42 147 43 45 148 42 46 149 51 47 150 48 43 151 47 42 152 49 48 153 50 49 154 47 42 155 53 50 156 50 49 157 49 48 158 53 50 159 54 51 160 51 47 161 48 43 162 45 52 163 44 44 164 55 53 165 46 54 166 42 46 167 51 47 168 45 52 169 48 43 170 55 53 171 49 48 172 46 54 173 55 53 174 52 55 175 49 48 176 54 51 177 45 52 178 51 47 179 44 44 180 54 51 181 53 50 182 44 44 183 45 52 184 54 51 185 55 53 186 42 46 187 52 55 188 42 46 189 43 45 190 53 50 191 61 56 192 62 57 193 58 58 194 61 56 195 57 59 196 56 60 197 65 61 198 62 57 199 61 56 200 63 62 201 64 63 202 61 56 203 66 64 204 67 65 205 64 63 206 67 65 207 68 66 208 65 61 209 62 57 210 59 67 211 58 58 212 69 68 213 60 69 214 56 60 215 65 61 216 59 67 217 62 57 218 69 68 219 63 62 220 60 69 221 69 68 222 66 64 223 63 62 224 68 66 225 59 67 226 65 61 227 57 59 228 58 58 229 68 66 230 58 58 231 59 67 232 68 66 233 69 68 234 56 60 235 66 64 236 57 59 237 67 65 238 66 64 239 75 70 240 76 71 241 72 72 242 75 70 243 71 73 244 70 74 245 79 75 246 76 71 247 75 70 248 78 76 249 75 70 250 74 77 251 81 78 252 78 76 253 77 79 254 81 78 255 82 80 256 79 75 257 76 71 258 73 81 259 72 72 260 83 82 261 74 77 262 70 74 263 79 75 264 73 81 265 76 71 266 83 82 267 77 79 268 74 77 269 83 82 270 80 83 271 77 79 272 82 80 273 73 81 274 79 75 275 71 73 276 72 72 277 82 80 278 72 72 279 73 81 280 82 80 281 83 82 282 70 74 283 80 83 284 70 74 285 71 73 286 81 78 287 1 3 576 5 0 577 2 2 578 4 12 579 5 0 580 0 4 581 8 7 582 9 5 583 5 0 584 4 12 585 7 6 586 5 0 587 10 13 588 11 8 589 7 6 590 8 7 591 11 8 592 9 5 593 1 3 594 2 2 595 11 8 596 10 13 597 0 4 598 11 8 599 15 17 600 19 14 601 16 16 602 18 21 603 19 14 604 14 18 605 22 20 606 23 19 607 19 14 608 21 27 609 22 20 610 18 21 611 21 27 612 24 22 613 22 20 614 22 20 615 25 23 616 23 19 617 15 17 618 16 16 619 25 23 620 24 22 621 14 18 622 25 23 623 33 32 624 34 28 625 29 30 626 28 40 627 32 31 628 29 30 629 33 32 630 36 33 631 34 28 632 35 36 633 36 33 634 32 31 635 38 41 636 39 35 637 35 36 638 36 33 639 39 35 640 37 34 641 39 35 642 29 30 643 40 37 644 28 40 645 29 30 646 38 41 647 43 45 648 47 42 649 44 44 650 46 54 651 47 42 652 42 46 653 50 49 654 51 47 655 47 42 656 46 54 657 49 48 658 47 42 659 52 55 660 53 50 661 49 48 662 50 49 663 53 50 664 51 47 665 43 45 666 44 44 667 53 50 668 52 55 669 42 46 670 53 50 671 57 59 672 61 56 673 58 58 674 60 69 675 61 56 676 56 60 677 64 63 678 65 61 679 61 56 680 60 69 681 63 62 682 61 56 683 63 62 684 66 64 685 64 63 686 64 63 687 67 65 688 65 61 689 67 65 690 57 59 691 68 66 692 56 60 693 57 59 694 66 64 695 71 73 696 75 70 697 72 72 698 74 77 699 75 70 700 70 74 701 78 76 702 79 75 703 75 70 704 77 79 705 78 76 706 74 77 707 80 83 708 81 78 709 77 79 710 78 76 711 81 78 712 79 75 713 81 78 714 71 73 715 82 80 716 80 83 717 70 74 718 81 78 719</p>
        </polylist>
      </mesh>
    </geometry>
  </library_geometries>
  <library_controllers/>
  <library_visual_scenes>
    <visual_scene id="Scene" name="Scene">
      <node id="Box_001" name="Box_001" type="NODE">
        <matrix sid="transform">1 0 0 0.005678359 0 7.54979e-8 -1 2.013567 0 1 7.54979e-8 -0.225707 0 0 0 1</matrix>
        <instance_geometry url="#Box_001-mesh">
          <bind_material>
            <technique_common>
              <instance_material symbol="Wood2-material" target="#Wood2-material"/>
              <instance_material symbol="Cabbage-material" target="#Cabbage-material"/>
            </technique_common>
          </bind_material>
        </instance_geometry>
      </node>
      <node id="Camera" name="Camera" type="NODE">
        <matrix sid="transform">0.2696217 -0.5057907 0.8194389 6.042857 0.9629666 0.1416167 -0.2294353 -0.8704965 1.97236e-8 0.8509529 0.5252423 3.456182 0 0 0 1</matrix>
        <instance_camera url="#Camera-camera"/>
      </node>
      <node id="Lamp" name="Lamp" type="NODE">
        <matrix sid="transform">-0.2908646 -0.7711008 0.5663932 4.076245 0.9551712 -0.1998834 0.2183912 1.005454 -0.05518906 0.6045247 0.7946723 5.903862 0 0 0 1</matrix>
        <instance_light url="#Lamp-light"/>
      </node>
    </visual_scene>
  </library_visual_scenes>
  <scene>
    <instance_visual_scene url="#Scene"/>
  </scene>
</COLLADA>