<?xml version="1.0" encoding="utf-8"?>
<COLLADA xmlns="http://www.collada.org/2005/11/COLLADASchema" version="1.4.1">
  <asset>
    <contributor>
      <author>Blender User</author>
      <authoring_tool>Blender 2.71.0 commit date:2014-06-25, commit time:18:36, hash:9337574</authoring_tool>
    </contributor>
    <created>2014-10-23T23:15:03</created>
    <modified>2014-10-23T23:15:03</modified>
    <unit name="meter" meter="1"/>
    <up_axis>Z_UP</up_axis>
  </asset>
  <library_cameras>
    <camera id="Camera-camera" name="Camera">
      <optics>
        <technique_common>
          <perspective>
            <xfov sid="xfov">49.13434</xfov>
            <aspect_ratio>1.777778</aspect_ratio>
            <znear sid="znear">0.1</znear>
            <zfar sid="zfar">100</zfar>
          </perspective>
        </technique_common>
      </optics>
      <extra>
        <technique profile="blender">
          <YF_dofdist>0</YF_dofdist>
          <shiftx>0</shiftx>
          <shifty>0</shifty>
        </technique>
      </extra>
    </camera>
  </library_cameras>
  <library_lights>
    <light id="Lamp-light" name="Lamp">
      <technique_common>
        <point>
          <color sid="color">1 1 1</color>
          <constant_attenuation>1</constant_attenuation>
          <linear_attenuation>0</linear_attenuation>
          <quadratic_attenuation>0.00111109</quadratic_attenuation>
        </point>
      </technique_common>
      <extra>
        <technique profile="blender">
          <adapt_thresh>0.000999987</adapt_thresh>
          <area_shape>0</area_shape>
          <area_size>1</area_size>
          <area_sizey>1</area_sizey>
          <area_sizez>1</area_sizez>
          <atm_distance_factor>1</atm_distance_factor>
          <atm_extinction_factor>1</atm_extinction_factor>
          <atm_turbidity>2</atm_turbidity>
          <att1>0</att1>
          <att2>1</att2>
          <backscattered_light>1</backscattered_light>
          <bias>1</bias>
          <blue>1</blue>
          <buffers>1</buffers>
          <bufflag>0</bufflag>
          <bufsize>2880</bufsize>
          <buftype>2</buftype>
          <clipend>30.002</clipend>
          <clipsta>1.000799</clipsta>
          <compressthresh>0.04999995</compressthresh>
          <dist sid="blender_dist">29.99998</dist>
          <energy sid="blender_energy">1</energy>
          <falloff_type>2</falloff_type>
          <filtertype>0</filtertype>
          <flag>0</flag>
          <gamma sid="blender_gamma">1</gamma>
          <green>1</green>
          <halo_intensity sid="blnder_halo_intensity">1</halo_intensity>
          <horizon_brightness>1</horizon_brightness>
          <mode>8192</mode>
          <ray_samp>1</ray_samp>
          <ray_samp_method>1</ray_samp_method>
          <ray_samp_type>0</ray_samp_type>
          <ray_sampy>1</ray_sampy>
          <ray_sampz>1</ray_sampz>
          <red>1</red>
          <samp>3</samp>
          <shadhalostep>0</shadhalostep>
          <shadow_b sid="blender_shadow_b">0</shadow_b>
          <shadow_g sid="blender_shadow_g">0</shadow_g>
          <shadow_r sid="blender_shadow_r">0</shadow_r>
          <sky_colorspace>0</sky_colorspace>
          <sky_exposure>1</sky_exposure>
          <skyblendfac>1</skyblendfac>
          <skyblendtype>1</skyblendtype>
          <soft>3</soft>
          <spotblend>0.15</spotblend>
          <spotsize>75</spotsize>
          <spread>1</spread>
          <sun_brightness>1</sun_brightness>
          <sun_effect_type>0</sun_effect_type>
          <sun_intensity>1</sun_intensity>
          <sun_size>1</sun_size>
          <type>0</type>
        </technique>
      </extra>
    </light>
  </library_lights>
  <library_images>
    <image id="ClothDark_jpg" name="ClothDark_jpg">
      <init_from>ClothDark.jpg</init_from>
    </image>
  </library_images>
  <library_effects>
    <effect id="ClothDark-effect">
      <profile_COMMON>
        <newparam sid="ClothDark_jpg-surface">
          <surface type="2D">
            <init_from>ClothDark_jpg</init_from>
          </surface>
        </newparam>
        <newparam sid="ClothDark_jpg-sampler">
          <sampler2D>
            <source>ClothDark_jpg-surface</source>
          </sampler2D>
        </newparam>
        <technique sid="common">
          <phong>
            <emission>
              <color sid="emission">0 0 0 1</color>
            </emission>
            <ambient>
              <color sid="ambient">0 0 0 1</color>
            </ambient>
            <diffuse>
              <texture texture="ClothDark_jpg-sampler"/>
            </diffuse>
            <specular>
              <color sid="specular">0.01 0.01 0.01 1</color>
            </specular>
            <shininess>
              <float sid="shininess">50</float>
            </shininess>
            <index_of_refraction>
              <float sid="index_of_refraction">1</float>
            </index_of_refraction>
          </phong>
          <extra>
            <technique profile="FCOLLADA">
              <bump>
                <texture texture="ClothDark_jpg-sampler"/>
              </bump>
            </technique>
          </extra>
        </technique>
        <extra>
          <technique profile="GOOGLEEARTH">
            <double_sided>1</double_sided>
          </technique>
        </extra>
      </profile_COMMON>
      <extra><technique profile="MAX3D"><double_sided>1</double_sided></technique></extra>
    </effect>
    <effect id="Grain-effect">
      <profile_COMMON>
        <newparam sid="Grain_png-surface">
          <surface type="2D">
            <init_from>Grain_png</init_from>
          </surface>
        </newparam>
        <newparam sid="Grain_png-sampler">
          <sampler2D>
            <source>Grain_png-surface</source>
          </sampler2D>
        </newparam>
        <technique sid="common">
          <phong>
            <emission>
              <color sid="emission">0 0 0 1</color>
            </emission>
            <ambient>
              <color sid="ambient">0 0 0 1</color>
            </ambient>
            <diffuse>
              <texture texture="Grain_png-sampler"/>
            </diffuse>
            <specular>
              <color sid="specular">0.02 0.02 0.02 1</color>
            </specular>
            <shininess>
              <float sid="shininess">50</float>
            </shininess>
            <index_of_refraction>
              <float sid="index_of_refraction">1</float>
            </index_of_refraction>
          </phong>
          <extra>
            <technique profile="FCOLLADA">
              <bump>
                <texture texture="Grain_png-sampler"/>
              </bump>
            </technique>
          </extra>
        </technique>
        <extra>
          <technique profile="GOOGLEEARTH">
            <double_sided>1</double_sided>
          </technique>
        </extra>
      </profile_COMMON>
      <extra><technique profile="MAX3D"><double_sided>1</double_sided></technique></extra>
    </effect>
  </library_effects>
  <library_materials>
    <material id="ClothDark-material" name="ClothDark">
      <instance_effect url="#ClothDark-effect"/>
    </material>
    <material id="Grain-material" name="Grain">
      <instance_effect url="#Grain-effect"/>
    </material>
  </library_materials>
  <library_geometries>
    <geometry id="BagWithGrain-mesh" name="BagWithGrain">
      <mesh>
        <source id="BagWithGrain-mesh-positions">
          <float_array id="BagWithGrain-mesh-positions-array" count="468">0 -0.229884 -0.3224296 0.00149399 0.1030552 -0.229884 0.1514394 -0.229884 -0.2818515 0.1160374 0.09349161 -0.1990854 0.2623008 -0.229884 -0.1514394 0.1998891 0.08649057 -0.114942 0.3028789 -0.229884 0 0.2305809 0.08392798 0 0.2623008 -0.229884 0.1514394 0.1998891 0.08649057 0.114942 0.1514394 -0.229884 0.2623008 0.1160374 0.09349161 0.1990854 0 -0.229884 0.3261258 0.00149399 0.1030552 0.229884 -0.1514393 -0.229884 0.2855477 -0.1130494 0.1126189 0.1990854 -0.2623007 -0.229884 0.1514395 -0.196901 0.1196199 0.114942 -0.3028789 -0.229884 1.40709e-7 -0.2275929 0.1221825 0 -0.2623009 -0.229884 -0.1514393 -0.1969012 0.11962 -0.1149419 -0.1514396 -0.229884 -0.2623007 -0.1130496 0.1126189 -0.1990854 0.006371617 0.1614745 -0.2377159 0.1248174 0.1515851 -0.2058681 0.2115258 0.1443455 -0.118858 0.2432633 0.1416956 0 0.2115258 0.1443455 0.1188579 0.1248174 0.1515851 0.205868 0.006371617 0.1614745 0.2377159 -0.1120741 0.171364 0.205868 -0.1987825 0.1786035 0.118858 -0.23052 0.1812534 0 -0.1987826 0.1786035 -0.1188579 -0.1120743 0.171364 -0.205868 0 -0.2935098 -0.3028789 0.1514394 -0.2935098 -0.2623008 0.2623008 -0.2935098 -0.1514394 0.3028789 -0.2935098 0 0.2623008 -0.2935098 0.1514394 0.1514394 -0.2935098 0.2623008 0 -0.2935098 0.3028789 -0.1514394 -0.2935098 0.2623008 -0.2623007 -0.2935098 0.1514395 -0.3028789 -0.2935098 1.4349e-7 -0.2623009 -0.2935098 -0.1514393 -0.1514396 -0.2935098 -0.2623007 0 -0.3418228 -0.2577617 0.1288808 -0.3418228 -0.2232282 0.2232282 -0.3418228 -0.1288808 0.2577617 -0.3418228 0 0.2232282 -0.3418228 0.1288809 0.1288808 -0.3418228 0.2232282 0 -0.3418228 0.2577617 -0.1288808 -0.3418228 0.2232282 -0.2232281 -0.3418228 0.1288809 -0.2577617 -0.3418228 1.30901e-7 -0.2232283 -0.3418228 -0.1288807 -0.128881 -0.3418228 -0.2232281 0.003367304 0.1254923 -0.2676119 0.1367093 0.1143592 -0.2317587 0.2343224 0.1062091 -0.1338059 0.2700513 0.07315677 0 0.2343224 0.1062091 0.1338059 0.1367093 0.1143592 0.2317587 0.003367364 0.1473582 0.2676119 -0.1299746 0.156275 0.2317587 -0.2275876 0.1708161 0.1338059 -0.2633166 0.1695913 0 -0.2275878 0.1447756 -0.1338058 -0.1299748 0.1366255 -0.2317586 0.00937587 0.1974567 -0.3065602 0.1621245 0.1847032 -0.2654889 0.2739443 0.175367 -0.1532801 0.3148731 0.1418805 0 0.2739443 0.175367 0.15328 0.1621245 0.1847032 0.2654889 0.009375929 0.2193225 0.3065602 -0.1433726 0.2298597 0.265489 -0.2551924 0.2455869 0.1532801 -0.2961214 0.2229637 0 -0.2551926 0.2195464 -0.15328 -0.1433728 0.2102102 -0.2654889 0.01238018 0.2334389 -0.2455533 0.1347311 0.2232233 -0.2126555 0.2242982 0.2157451 -0.1227767 0.2570821 0.1829387 0 0.2242982 0.2157451 0.1227766 0.1347311 0.2232234 0.2126554 0.01238018 0.2553047 0.2455534 -0.1099707 0.2633039 0.2126554 -0.1995378 0.2771732 0.1227767 -0.2323217 0.2538699 0 -0.1995379 0.2511327 -0.1227766 -0.1099709 0.2436544 -0.2126554 0.01307594 0.2417727 -0.2113918 0.1184054 0.2329783 -0.1830707 0.1955119 0.2265405 -0.1056959 0.2237348 0.1941148 0 0.1955119 0.2265405 0.1056959 0.1184054 0.2329783 0.1830706 0.013076 0.2636384 0.2113918 -0.09225338 0.2702165 0.1830707 -0.1693599 0.2830454 0.1056959 -0.1975828 0.2593613 0 -0.1693599 0.2570049 -0.1056958 -0.0922535 0.250567 -0.1830707 0.007310271 0.1727169 -0.2113918 0.1126397 0.1639226 -0.1830707 0.1897462 0.1574847 -0.1056959 0.2179691 0.1551283 0 0.1897462 0.1574847 0.1056959 0.1126397 0.1639226 0.1830707 0.00731033 0.1727169 0.2113918 -0.09801906 0.1815113 0.1830707 -0.1751255 0.2097818 0.1056959 -0.2033485 0.2121382 0 -0.1751256 0.2097818 -0.1056958 -0.09801918 0.1815112 -0.1830707 7.46999e-4 -0.06341433 -0.2434145 0.1337384 -0.06819617 -0.2181563 0.231095 -0.07169669 -0.1331907 0.2667299 -0.07297801 0 0.2310949 -0.07169669 0.1331907 0.1337385 -0.06819617 0.2306931 7.47041e-4 -0.06341433 0.2663814 -0.1516373 -0.05863255 0.2306931 -0.2489938 -0.05513203 0.1331908 -0.2846288 -0.05385071 0 -0.229601 -0.05513203 -0.1331906 -0.1322446 -0.05863255 -0.230693 0.007310271 0.2072682 -0.04552048 0.02999162 0.2053745 -0.03942191 0.04659551 0.2039881 -0.02276021 0.05267292 0.2034807 0 0.04659551 0.2039881 0.02276021 0.02999162 0.2053745 0.03942191 0.007310271 0.2072682 0.04552048 -0.01537102 0.209162 0.03942191 -0.03197491 0.2105483 0.02276027 -0.03805238 0.2110558 0 -0.03197491 0.2105483 -0.02276021 -0.01537102 0.209162 -0.03942185 0.135321 0.1793045 0 0.1181709 0.1807364 0.06422805 -0.1035503 0.2108072 -0.06422799 -0.0566951 0.1953366 -0.1112462 0.07131564 0.1846485 0.1112463 0.007310271 0.1899926 -0.1284561 0.007310271 0.1899926 0.1284561 -0.05669504 0.1953366 0.1112463 0.07131564 0.1846485 -0.1112463 -0.1035502 0.2095229 0.06422811 0.1181709 0.1807364 -0.06422805 -0.1207004 0.2122391 0</float_array>
          <technique_common>
            <accessor source="#BagWithGrain-mesh-positions-array" count="156" stride="3">
              <param name="X" type="float"/>
              <param name="Y" type="float"/>
              <param name="Z" type="float"/>
            </accessor>
          </technique_common>
        </source>
        <source id="BagWithGrain-mesh-normals">
          <float_array id="BagWithGrain-mesh-normals-array" count="468">0.01211583 0.2505264 -0.9680166 0.005645871 -0.001953184 -0.9999695 0.4737693 -0.01104766 -0.8805506 0.4799646 0.2576373 -0.8385876 0.8594318 0.005035519 -0.5111851 0.8426771 0.2330698 -0.4853358 0.999939 0.007812738 0 0.8644063 0.01235997 0.5026093 0.8465224 0.221839 0.4838709 0.4952849 0.02502512 0.8683432 0.509476 0.2335886 0.8281503 -8.85037e-4 0.04632705 0.9989013 0.03573715 0.2634358 0.9639882 -0.4902188 0.0844447 0.8674581 -0.5036165 0.249855 0.8269906 -0.8579363 0.1215552 0.4991302 -0.8547319 0.2147282 0.4725486 -0.9924619 0.1210364 -0.01828056 -0.8544267 0.08807641 -0.5120396 -0.8286691 0.2073122 -0.5198828 -0.04150515 -0.982696 0.1803339 -0.4628132 0.2265694 -0.8569903 -0.4854274 0.04531997 -0.8730735 0.4899442 0.07208472 -0.8687399 0.4735252 -0.4384594 -0.7638478 -0.01855522 -0.4524064 -0.8915982 -0.26957 -0.9621876 -0.03842276 -0.4036378 -0.911832 0.07480084 -0.4418165 -0.8943144 0.0705893 -0.03607285 -0.9993286 0 -0.03036588 -0.9955748 0.08859521 -0.02002012 -0.9938658 -0.1085848 -0.03036588 -0.9955748 -0.08859521 -0.08252203 -0.9886471 -0.12537 -0.4199652 -0.887753 0.1883907 -0.137669 -0.9479049 0.2871487 -0.2721641 -0.9121983 0.3062227 -0.145024 -0.9834285 -0.1085848 -0.4742882 -0.4537492 0.754387 -0.8088931 -0.3778802 0.4503616 -0.390759 -0.8923918 0.2255928 -0.8548235 0.09051787 -0.5109409 -0.5087435 0.09595018 -0.8555254 -0.4765465 -0.3835566 -0.7910398 -0.8761254 0.0374462 0.4806055 -0.9977416 0.06515699 -0.01483196 -0.9375897 -0.3476669 0 -0.4934538 0.005310177 0.8697165 0.02227848 -0.4710532 0.8818018 0.5311747 0.07919549 0.8435316 0.4779503 -0.390057 0.7870113 0.8119755 -0.3476669 0.4687948 0.8698691 0.09921562 -0.483169 0.9938658 0.1103854 0 0.9375897 -0.3476669 0 -0.01892143 0.07266455 -0.9971618 -0.8119755 -0.3476669 -0.4687948 0.04190188 0.02136296 0.9988708 0.8612018 0.109653 0.496231 0.8094119 -0.3733329 -0.4532304 0 -0.8923918 -0.4512162 0.2255928 -0.8923918 0.390759 0 -0.8923918 0.4512162 0.390759 -0.8923918 -0.2255928 -0.4512162 -0.8923918 0 0.4512162 -0.8923918 0 -0.390759 -0.8923918 -0.2255928 0.390759 -0.8923918 0.2255928 -0.2255928 -0.8923918 -0.390759 -0.2255928 -0.8923918 0.390759 0.2255928 -0.8923918 -0.390759 -0.08096557 -0.9699393 -0.2293771 -0.1952879 -0.960387 -0.1986449 -0.463271 0.2816248 -0.8402356 0.05478072 -0.9984741 0 0.06335639 -0.9807733 0.1845149 -0.3057954 -0.9487594 -0.07947015 -0.01007109 -0.9693289 0.2454298 -0.1286355 -0.9163182 0.3791925 -0.2849513 -0.8953825 0.342082 0.03329569 -0.9794915 -0.1986449 -0.4390088 -0.8703879 0.2227851 0.06335639 -0.9807733 -0.1845149 0.03781241 0.275399 0.9605701 0.1393475 0.915952 0.3762627 -0.1138035 0.9265419 0.3584704 0.512009 0.1669667 0.842555 -0.4629963 0.2685934 0.8446608 0.02014219 0.2412793 -0.9702445 0.5035859 0.2009033 -0.8402356 -0.820185 0.345317 0.4560686 -0.9655141 0.259682 -0.01718187 0.8603473 0.2157048 -0.461745 0.9976806 0.06805628 0 -0.8258919 0.2969756 -0.4792321 0.8603473 0.2157048 0.461745 0.07626575 0.9141209 -0.3981445 0.07089447 0.8496353 0.522538 -0.1894283 0.8713645 0.4525284 0.2746971 0.8975494 -0.3447981 0.4431898 0.890408 -0.1035798 -0.2738731 0.9534288 0.1263161 -0.3426618 0.9352092 -0.08905297 0.5217139 0.8531144 0 -0.2672811 0.9428083 -0.1990722 0.4431898 0.890408 0.1035798 -0.1220435 0.9306619 -0.3447981 0.3433027 0.8811304 0.3251442 0.3466597 0.8247322 -0.4467299 0.4419385 0.7011017 -0.5595263 0.7331461 0.5933409 -0.3322855 0.4696188 0.8229011 -0.3197729 0.621601 0.7766961 -0.1015655 -0.311594 0.8811609 0.3555406 -0.4747459 0.8800928 0 0.5278176 0.8050172 0.2707602 0.3301492 0.8265633 0.4558244 -0.311594 0.8811609 -0.3555406 -0.122959 0.8529618 -0.5072177 0.1488388 0.8458205 -0.5122532 0.2543718 0.9618824 0.1002533 0.2807397 0.9597766 0 0.1991943 0.9799494 0 -0.2878811 0.742729 0.6045107 -0.5361186 0.7670522 0.3523362 0.7956786 0.6056703 0.006012141 0.7374188 0.5859249 0.3359478 -0.6288949 0.777459 0 -0.5361186 0.7670522 -0.3523362 0.4467604 0.6978057 0.5598316 -0.2875149 0.7421796 -0.6053652 0.05807667 0.7146825 -0.6970123 0.05996882 0.7141942 0.6973479 0.9747307 0.2233344 0 -0.9777215 0.2073428 -0.03173923 0.1836909 0.9812006 0.05877864 0.05981624 0.9963683 -0.06042665 0.05410927 0.9964599 0.06387519 0.04882961 0.99176 -0.1182592 0.06372261 0.9913328 -0.1147496 0.1817377 0.9676809 0.1746574 0.05969417 0.9759514 -0.2095706 0.0821253 0.9894711 -0.1189306 0.08120971 0.9757378 0.2032227 0.1410565 0.9846797 0.1023285 0.05676442 0.976928 0.2057863 0.0821253 0.9894711 0.1189306 0.08120971 0.9757378 -0.2032227 0.1410565 0.9846797 -0.1023285 0.04782247 0.991699 0.1192969 0.05917537 0.99176 0.1135594 0.1817377 0.9676809 -0.1746574 0.1836909 0.9812006 -0.05877864 0.007202327 0.999939 0.004730343 0.2543718 0.9618824 -0.1002533 0.04187136 0.9990845 0.004608273</float_array>
          <technique_common>
            <accessor source="#BagWithGrain-mesh-normals-array" count="156" stride="3">
              <param name="X" type="float"/>
              <param name="Y" type="float"/>
              <param name="Z" type="float"/>
            </accessor>
          </technique_common>
        </source>
        <source id="BagWithGrain-mesh-map-0">
          <float_array id="BagWithGrain-mesh-map-0-array" count="1848">0.1572844 0.5758349 0.04619312 0.5826165 0.04628384 0.5068556 0.1536391 0.4878726 0.04628384 0.5068556 0.04373818 0.4529386 0.8571816 0.8741087 0.8401588 0.9805361 0.8054557 0.9839678 0.8054557 0.9839678 0.740095 0.9916329 0.7412313 0.8869674 0.9341846 0.6752689 0.855256 0.6807654 0.8495164 0.5741211 0.855256 0.6807654 0.7842317 0.6862397 0.767052 0.5762658 0.5541356 0.7173051 0.4452713 0.6957399 0.4354707 0.6349832 0.5461375 0.639452 0.4354707 0.6349832 0.4309818 0.5569094 0.5439888 0.5489632 0.4309818 0.5569094 0.4330073 0.4824383 0.4330073 0.4824383 0.4410046 0.4315243 0.5564149 0.4110949 0.7842317 0.6862397 0.855256 0.6807654 0.8570004 0.7197371 0.1593193 0.6647493 0.0434904 0.6599214 0.04619312 0.5826165 0.1570692 0.7320495 0.03889977 0.7180562 0.0434904 0.6599214 0.2628867 0.4677711 0.3042859 0.465609 0.3125518 0.56525 0.9238992 0.05682891 0.8481254 0.0797525 0.8352448 0.06100672 0.8054557 0.9839678 0.8142498 1.022187 0.7466624 1.030113 0.04628384 0.5068556 0.007635593 0.5032712 0.005003213 0.4475173 0.04628384 0.5068556 0.04619312 0.5826165 0.007541775 0.5816132 0.0434904 0.6599214 0.03889977 0.7180562 0 0.7216672 0.4330073 0.4824383 0.4309818 0.5569094 0.3915845 0.5576361 0.4452713 0.6957399 0.4063609 0.7011964 0.3962264 0.6383697 0.9341846 0.6752689 0.938618 0.7140533 0.8570004 0.7197371 0.8401588 0.9805361 0.8501352 1.018638 0.8142498 1.022187 0.04619312 0.5826165 0.0434904 0.6599214 0.004746973 0.6615518 0.4410046 0.4315243 0.4330073 0.4824383 0.393679 0.4806278 0.4309818 0.5569094 0.4354707 0.6349832 0.3962264 0.6383697 0.700657 0.6595111 0.7008486 0.5566072 0.7355337 0.5598242 0.2752386 0.7460427 0.2751482 0.6695773 0.3173764 0.6669253 0.6586198 0.555864 0.6635235 0.4577317 0.7057523 0.4584749 0.6574146 0.6714474 0.700657 0.6595111 0.7052286 0.7396136 0.8437768 0.4674767 0.8434541 0.4251108 0.947685 0.4240165 0.8742043 0.7676814 0.828694 0.7744447 0.8260334 0.7321612 0.2751482 0.6695773 0.2711527 0.5674121 0.3125518 0.56525 0.6635235 0.4577317 0.6718252 0.3906655 0.714054 0.3914087 0.6586198 0.555864 0.7008486 0.5566072 0.700657 0.6595111 0.8437768 0.4674767 0.7397069 0.4668537 0.7495495 0.4239258 0.828694 0.7744447 0.7423676 0.7823019 0.7397069 0.7400183 0.2525651 0.3973529 0.2947933 0.3947008 0.3042859 0.465609 0.6700564 0.0772612 0.5095447 0.3621793 0.4348577 0.3168298 0.7493019 0.1455833 0.7494155 0.2499149 0.7133296 0.243497 0.7008486 0.5566072 0.7057523 0.4584749 0.7397069 0.4763098 0.7494155 0.2499149 0.6988785 0.3396212 0.6703206 0.3198406 0.421891 0.05104434 0.5095373 0 0.5091838 0.0308097 0.6988785 0.3396212 0.6112322 0.3906655 0.5957302 0.3632813 0.5095373 0 0.6108081 0.001294851 0.5953692 0.03191167 0.8434541 0.4251108 0.8489497 0.391674 0.9376542 0.3907427 0.6985681 0.05458211 0.6700564 0.0772612 0.5953692 0.03191167 0.7495495 0.4239258 0.7690333 0.3906655 0.8489497 0.391674 0.7052286 0.7396136 0.700657 0.6595111 0.7353706 0.6473994 0.6985681 0.05458211 0.7493019 0.1455833 0.7132329 0.1547068 0.9980446 0.4920471 0.9979365 0.582094 0.9515101 0.5947949 0.3451847 0.6320371 0.3915845 0.643948 0.3612381 0.7023179 0.1977601 0.9146863 0.1739278 0.921072 0.1743059 0.8289682 0.8477903 0.3532704 0.9235122 0.3726602 0.9164484 0.3906655 0.198096 0.8328717 0.1743059 0.8289682 0.1740327 0.7460427 0.8477903 0.3532704 0.8312033 0.3688371 0.7725278 0.3053089 0.7722099 0.2182782 0.7924097 0.2967627 0.7725278 0.3053089 0.3455413 0.4742749 0.336565 0.4112724 0.3619335 0.3947008 0.7926032 0.1388469 0.7722099 0.2182782 0.7494155 0.2169454 0.3486964 0.5550804 0.3455413 0.4742749 0.3720388 0.4656267 0.8481254 0.0797525 0.7926032 0.1388469 0.7734463 0.1275498 0.3451847 0.6320371 0.3486964 0.5550804 0.3755906 0.5565945 0.05277007 0.05433428 0.08396428 0.08364367 0.04168045 0.156912 0.2069463 0.9274845 0.198096 0.8427639 0.2453843 0.8512583 0.999886 0.3631049 0.9513959 0.3873066 0.9373183 0.3067048 0.9951744 0.4038991 0.9980446 0.4920471 0.9516339 0.4916425 0.9755307 0.2021125 0.9877839 0.292741 0.9373183 0.3067048 0.2786149 0.8517435 0.2534233 0.7629262 0.2886087 0.7460427 0.9755307 0.2021125 0.9238992 0.2028781 0.9408372 0.1033054 0.2786149 0.8517435 0.3174667 0.8477866 0.289559 0.9521219 0.9780213 0.1153513 0.9408372 0.1033054 0.9494142 0.03511428 0.002252817 0.8351343 0 0.7549468 0.05096817 0.7460427 0.994879 0.6499115 0.9480077 0.6724826 0.9515101 0.5947949 0.2049669 0.7509159 0.2532551 0.7460427 0.2453843 0.8512583 0.3128657 0.3134906 0.2975081 0.2975574 0.3338435 0.2343754 0.3387289 0.3415897 0.3128657 0.3134906 0.3550731 0.2400982 5.87314e-5 0.2519183 0 0.1458367 0.04168045 0.156912 0.3914225 0.2499633 0.3550731 0.2400982 0.3552028 0.1554138 5.87314e-5 0.2519183 0.04177141 0.241954 0.08285456 0.3137826 0.3915845 0.1442394 0.3552028 0.1554138 0.3121817 0.08044606 0.05157232 0.3419543 0.08285456 0.3137826 0.1557003 0.3560323 0.2482275 0 0.338133 0.05106413 0.3121817 0.08044606 0.2476228 0.3945673 0.1425163 0.3947008 0.1557003 0.3560323 0.1431209 1.33472e-4 0.2482275 0 0.2403745 0.03987866 0.3387289 0.3415897 0.2476228 0.3945673 0.2398902 0.3559254 0.05277007 0.05433428 0.1431209 1.33472e-4 0.1561846 0.03998559 0.3322578 0.8985078 0.3913512 0.8966477 0.3809123 0.9475187 0.04177141 0.241954 0.04168045 0.156912 0.06414467 0.1629151 0.3552028 0.1554138 0.3550731 0.2400982 0.3338435 0.2343754 0.04177141 0.241954 0.06425368 0.2361757 0.09949624 0.2978088 0.3552028 0.1554138 0.3339552 0.1614723 0.2967748 0.09670013 0.08285456 0.3137826 0.09949624 0.2978088 0.1622076 0.3341806 0.2403745 0.03987866 0.3121817 0.08044606 0.2967748 0.09670013 0.1557003 0.3560323 0.1622076 0.3341806 0.234685 0.3340887 0.1561846 0.03998559 0.2403745 0.03987866 0.2351018 0.06201058 0.3128657 0.3134906 0.2398902 0.3559254 0.234685 0.3340887 0.08396428 0.08364367 0.1561846 0.03998559 0.1626245 0.06210261 0.08396428 0.08364367 0.1005566 0.09985715 0.06414467 0.1629151 0.8396463 -0.7938907 1.443409 -0.4458456 0.8136098 0.185168 0.8823586 0.7820999 0.9279659 0.7813989 0.930992 0.8532472 0.9670379 0.9269214 0.9810929 0.9611435 0.9322528 0.9575089 0.9024212 0.9230495 0.8853846 0.8539482 0.930992 0.8532472 0.9670379 0.9269214 0.9353833 0.9255949 0.9401957 0.8652718 0.9024212 0.9230495 0.9280792 0.9216912 0.920008 0.9683912 0.9770551 0.7940294 0.9718503 0.8665983 0.9401957 0.8652718 0.3430821 0.7564898 0.3454973 0.7029194 0.3915845 0.7023178 0.9812578 0.7286596 0.9770551 0.7940294 0.9309921 0.7907678 0.3430821 0.7564898 0.3891693 0.7558883 0.3890839 0.827018 0.3285235 0.82902 0.3890839 0.827018 0.3913512 0.8966477 0.8823586 0.7820999 0.8742044 0.7260989 0.9198117 0.725398 0.1572844 0.5758349 0.1536391 0.4878726 0.2628867 0.4677711 0.1536391 0.4878726 0.1481516 0.4251458 0.2525651 0.3973529 0.8742043 0.7676814 0.8571816 0.8741087 0.8170748 0.8792062 0.8170748 0.8792062 0.7412313 0.8869674 0.7423676 0.7823019 0.9410961 0.5708256 0.8495164 0.5741211 0.8437768 0.4674767 0.8437768 0.4674767 0.8495164 0.5741211 0.767052 0.5762658 0.5541356 0.7173051 0.5461375 0.639452 0.6574146 0.6714474 0.5461375 0.639452 0.5439888 0.5489632 0.6586198 0.555864 0.5439888 0.5489632 0.5474534 0.4626615 0.6635235 0.4577317 0.6635235 0.4577317 0.5474534 0.4626615 0.5564149 0.4110949 0.2751482 0.6695773 0.1593193 0.6647493 0.1572844 0.5758349 0.2752386 0.7460427 0.1570692 0.7320495 0.1593193 0.6647493 0.5996567 0.06183272 0.35411 0.9831793 0.01642948 0.646119 0.1358194 1.817069 0.35411 0.9831793 0.60096 0.9830777 0.14305 -0.7936035 0.8396463 -0.7938907 0.5996567 0.06183272 0.843324 1.805807 0.60096 0.9830777 0.8145639 0.8595662 -0.4597269 -0.4450619 0.14305 -0.7936035 0.3528068 0.06193435 -0.8071718 0.1583439 -0.4597269 -0.4450619 0.1392029 0.1854458 1.446102 1.457265 0.8145639 0.8595662 0.9376867 0.6457396 -0.8158823 0.8646864 -0.8071718 0.1583439 0.01608026 0.3992723 1.793547 0.8538599 0.9376867 0.6457396 0.9373371 0.3988928 -0.4679431 1.469024 -0.8158823 0.8646864 0.01642948 0.646119 1.792561 0.1572726 0.9373371 0.3988928 0.8136098 0.185168 -0.4679431 1.469024 0.1401569 0.8598439 0.35411 0.9831793 1.079636 -1.649614 2.073209 -1.076859 1.443409 -0.4458456 -0.08125901 2.64974 0.1358194 1.817069 0.843324 1.805807 -0.06670653 -1.649142 1.079636 -1.649614 0.8396463 -0.7938907 1.085688 2.628538 0.843324 1.805807 1.446102 1.457265 -1.058657 -1.075569 -0.06670653 -1.649142 0.14305 -0.7936035 -1.630423 -0.08258479 -1.058657 -1.075569 -0.4597269 -0.4450619 2.077639 2.054964 1.446102 1.457265 1.793547 0.8538599 -1.649406 1.084473 -1.630423 -0.08258479 -0.8071718 0.1583439 2.649406 1.06198 1.793547 0.8538599 1.792561 0.1572726 -1.074831 2.076985 -1.649406 1.084473 -0.8158823 0.8646864 2.647784 -0.08434754 1.792561 0.1572726 1.443409 -0.4458456 -1.074831 2.076985 -0.4679431 1.469024 0.1358194 1.817069 0.1536391 0.4878726 0.1572844 0.5758349 0.04628384 0.5068556 0.1481516 0.4251458 0.1536391 0.4878726 0.04373818 0.4529386 0.8170748 0.8792062 0.8571816 0.8741087 0.8054557 0.9839678 0.8170748 0.8792062 0.8054557 0.9839678 0.7412313 0.8869674 0.9410961 0.5708256 0.9341846 0.6752689 0.8495164 0.5741211 0.8495164 0.5741211 0.855256 0.6807654 0.767052 0.5762658 0.5461375 0.639452 0.5541356 0.7173051 0.4354707 0.6349832 0.5439888 0.5489632 0.5461375 0.639452 0.4309818 0.5569094 0.5474534 0.4626615 0.5439888 0.5489632 0.4330073 0.4824383 0.5474534 0.4626615 0.4330073 0.4824383 0.5564149 0.4110949 0.7835563 0.7253979 0.7842317 0.6862397 0.8570004 0.7197371 0.1572844 0.5758349 0.1593193 0.6647493 0.04619312 0.5826165 0.1593193 0.6647493 0.1570692 0.7320495 0.0434904 0.6599214 0.2711527 0.5674121 0.2628867 0.4677711 0.3125518 0.56525 0.916884 0.03511428 0.9238992 0.05682891 0.8352448 0.06100672 0.740095 0.9916329 0.8054557 0.9839678 0.7466624 1.030113 0.04373818 0.4529386 0.04628384 0.5068556 0.005003213 0.4475173 0.007635593 0.5032712 0.04628384 0.5068556 0.007541775 0.5816132 0.004746973 0.6615518 0.0434904 0.6599214 0 0.7216672 0.393679 0.4806278 0.4330073 0.4824383 0.3915845 0.5576361 0.4354707 0.6349832 0.4452713 0.6957399 0.3962264 0.6383697 0.855256 0.6807654 0.9341846 0.6752689 0.8570004 0.7197371 0.8054557 0.9839678 0.8401588 0.9805361 0.8142498 1.022187 0.007541775 0.5816132 0.04619312 0.5826165 0.004746973 0.6615518 0.4019488 0.4279792 0.4410046 0.4315243 0.393679 0.4806278 0.3915845 0.5576361 0.4309818 0.5569094 0.3962264 0.6383697 0.7353706 0.6473994 0.700657 0.6595111 0.7355337 0.5598242 0.3174667 0.7433906 0.2752386 0.7460427 0.3173764 0.6669253 0.7008486 0.5566072 0.6586198 0.555864 0.7057523 0.4584749 0.6619862 0.7515499 0.6574146 0.6714474 0.7052286 0.7396136 0.9480077 0.4663824 0.8437768 0.4674767 0.947685 0.4240165 0.8715437 0.725398 0.8742043 0.7676814 0.8260334 0.7321612 0.3173764 0.6669253 0.2751482 0.6695773 0.3125518 0.56525 0.7057523 0.4584749 0.6635235 0.4577317 0.714054 0.3914087 0.6574146 0.6714474 0.6586198 0.555864 0.700657 0.6595111 0.8434541 0.4251108 0.8437768 0.4674767 0.7495495 0.4239258 0.8260334 0.7321612 0.828694 0.7744447 0.7397069 0.7400183 0.2628867 0.4677711 0.2525651 0.3973529 0.3042859 0.465609 0.7132329 0.1547068 0.7493019 0.1455833 0.7133296 0.243497 0.6703206 0.3198406 0.6700564 0.0772612 0.7133296 0.243497 0.6703206 0.3198406 0.5957302 0.3632813 0.5095447 0.3621793 0.3916813 0.2393842 0.6700564 0.0772612 0.4348577 0.3168298 0.3916813 0.2393842 0.3915845 0.150594 0.4345934 0.07425045 0.5953692 0.03191167 0.6700564 0.0772612 0.5091838 0.0308097 0.6700564 0.0772612 0.3916813 0.2393842 0.4345934 0.07425045 0.6700564 0.0772612 0.4345934 0.07425045 0.5091838 0.0308097 0.6700564 0.0772612 0.7132329 0.1547068 0.7133296 0.243497 0.6700564 0.0772612 0.6703206 0.3198406 0.5095447 0.3621793 0.7355337 0.5598242 0.7008486 0.5566072 0.7397069 0.4763098 0.7133296 0.243497 0.7494155 0.2499149 0.6703206 0.3198406 0.4345934 0.07425045 0.421891 0.05104434 0.5091838 0.0308097 0.6703206 0.3198406 0.6988785 0.3396212 0.5957302 0.3632813 0.5091838 0.0308097 0.5095373 0 0.5953692 0.03191167 0.947685 0.4240165 0.8434541 0.4251108 0.9376542 0.3907427 0.6108081 0.001294851 0.6985681 0.05458211 0.5953692 0.03191167 0.8434541 0.4251108 0.7495495 0.4239258 0.8489497 0.391674 0.7392613 0.7155698 0.7052286 0.7396136 0.7353706 0.6473994 0.6700564 0.0772612 0.6985681 0.05458211 0.7132329 0.1547068 0.9516339 0.4916425 0.9980446 0.4920471 0.9515101 0.5947949 0.3359472 0.6845244 0.3451847 0.6320371 0.3612381 0.7023179 0.198096 0.8328717 0.1977601 0.9146863 0.1743059 0.8289682 0.8312033 0.3688371 0.8477903 0.3532704 0.9164484 0.3906655 0.1978533 0.7592102 0.198096 0.8328717 0.1740327 0.7460427 0.7924097 0.2967627 0.8477903 0.3532704 0.7725278 0.3053089 0.7494155 0.2169454 0.7722099 0.2182782 0.7725278 0.3053089 0.3720388 0.4656267 0.3455413 0.4742749 0.3619335 0.3947008 0.7734463 0.1275498 0.7926032 0.1388469 0.7494155 0.2169454 0.3755906 0.5565945 0.3486964 0.5550804 0.3720388 0.4656267 0.8352448 0.06100672 0.8481254 0.0797525 0.7734463 0.1275498 0.3915845 0.643948 0.3451847 0.6320371 0.3755906 0.5565945 0 0.1458367 0.05277007 0.05433428 0.04168045 0.156912 0.2534233 0.9480206 0.2069463 0.9274845 0.2453843 0.8512583 0.9877839 0.292741 0.999886 0.3631049 0.9373183 0.3067048 0.948346 0.3906655 0.9951744 0.4038991 0.9516339 0.4916425 0.9238992 0.2028781 0.9755307 0.2021125 0.9373183 0.3067048 0.3174667 0.8477866 0.2786149 0.8517435 0.2886087 0.7460427 0.9780213 0.1153513 0.9755307 0.2021125 0.9408372 0.1033054 0.2536913 0.943133 0.2786149 0.8517435 0.289559 0.9521219 1 0.05563426 0.9780213 0.1153513 0.9494142 0.03511428 0.0507465 0.8371016 0.002252817 0.8351343 0.05096817 0.7460427 0.9979365 0.582094 0.994879 0.6499115 0.9515101 0.5947949 0.198096 0.8427639 0.2049669 0.7509159 0.2453843 0.8512583 0.3550731 0.2400982 0.3128657 0.3134906 0.3338435 0.2343754 0.3914225 0.2499633 0.3387289 0.3415897 0.3550731 0.2400982 0.04177141 0.241954 5.87314e-5 0.2519183 0.04168045 0.156912 0.3915845 0.1442394 0.3914225 0.2499633 0.3552028 0.1554138 0.05157232 0.3419543 5.87314e-5 0.2519183 0.08285456 0.3137826 0.338133 0.05106413 0.3915845 0.1442394 0.3121817 0.08044606 0.1425163 0.3947008 0.05157232 0.3419543 0.1557003 0.3560323 0.2403745 0.03987866 0.2482275 0 0.3121817 0.08044606 0.2398902 0.3559254 0.2476228 0.3945673 0.1557003 0.3560323 0.1561846 0.03998559 0.1431209 1.33472e-4 0.2403745 0.03987866 0.3128657 0.3134906 0.3387289 0.3415897 0.2398902 0.3559254 0.08396428 0.08364367 0.05277007 0.05433428 0.1561846 0.03998559 0.3320399 0.9483897 0.3322578 0.8985078 0.3809123 0.9475187 0.06425368 0.2361757 0.04177141 0.241954 0.06414467 0.1629151 0.3339552 0.1614723 0.3552028 0.1554138 0.3338435 0.2343754 0.08285456 0.3137826 0.04177141 0.241954 0.09949624 0.2978088 0.3121817 0.08044606 0.3552028 0.1554138 0.2967748 0.09670013 0.1557003 0.3560323 0.08285456 0.3137826 0.1622076 0.3341806 0.2351018 0.06201058 0.2403745 0.03987866 0.2967748 0.09670013 0.2398902 0.3559254 0.1557003 0.3560323 0.234685 0.3340887 0.1626245 0.06210261 0.1561846 0.03998559 0.2351018 0.06201058 0.2975081 0.2975574 0.3128657 0.3134906 0.234685 0.3340887 0.1005566 0.09985715 0.08396428 0.08364367 0.1626245 0.06210261 0.04168045 0.156912 0.08396428 0.08364367 0.06414467 0.1629151 0.5996567 0.06183272 0.8396463 -0.7938907 0.8136098 0.185168 0.8853846 0.8539482 0.8823586 0.7820999 0.930992 0.8532472 0.9353833 0.9255949 0.9670379 0.9269214 0.9322528 0.9575089 0.9280792 0.9216912 0.9024212 0.9230495 0.930992 0.8532472 0.9718503 0.8665983 0.9670379 0.9269214 0.9401957 0.8652718 0.8744006 0.9690921 0.9024212 0.9230495 0.920008 0.9683912 0.9309921 0.7907678 0.9770551 0.7940294 0.9401957 0.8652718 0.3891693 0.7558883 0.3430821 0.7564898 0.3915845 0.7023178 0.9351946 0.725398 0.9812578 0.7286596 0.9309921 0.7907678 0.3285235 0.82902 0.3430821 0.7564898 0.3890839 0.827018 0.3322578 0.8985078 0.3285235 0.82902 0.3913512 0.8966477 0.9279659 0.7813989 0.8823586 0.7820999 0.9198117 0.725398 0.2711527 0.5674121 0.1572844 0.5758349 0.2628867 0.4677711 0.2628867 0.4677711 0.1536391 0.4878726 0.2525651 0.3973529 0.828694 0.7744447 0.8742043 0.7676814 0.8170748 0.8792062 0.828694 0.7744447 0.8170748 0.8792062 0.7423676 0.7823019 0.9480077 0.4663824 0.9410961 0.5708256 0.8437768 0.4674767 0.7397069 0.4668537 0.8437768 0.4674767 0.767052 0.5762658 0.6619862 0.7515499 0.5541356 0.7173051 0.6574146 0.6714474 0.6574146 0.6714474 0.5461375 0.639452 0.6586198 0.555864 0.6586198 0.555864 0.5439888 0.5489632 0.6635235 0.4577317 0.6718252 0.3906655 0.6635235 0.4577317 0.5564149 0.4110949 0.2711527 0.5674121 0.2751482 0.6695773 0.1572844 0.5758349 0.2751482 0.6695773 0.2752386 0.7460427 0.1593193 0.6647493 0.9373371 0.3988928 0.9376867 0.6457396 0.8145639 0.8595662 0.8145639 0.8595662 0.60096 0.9830777 0.35411 0.9831793 0.35411 0.9831793 0.1401569 0.8598439 0.01642948 0.646119 0.01642948 0.646119 0.01608026 0.3992723 0.1392029 0.1854458 0.1392029 0.1854458 0.3528068 0.06193435 0.5996567 0.06183272 0.5996567 0.06183272 0.8136098 0.185168 0.9373371 0.3988928 0.9373371 0.3988928 0.8145639 0.8595662 0.35411 0.9831793 0.1392029 0.1854458 0.5996567 0.06183272 0.01642948 0.646119 0.9373371 0.3988928 0.35411 0.9831793 0.5996567 0.06183272 0.843324 1.805807 0.1358194 1.817069 0.60096 0.9830777 0.3528068 0.06193435 0.14305 -0.7936035 0.5996567 0.06183272 1.446102 1.457265 0.843324 1.805807 0.8145639 0.8595662 0.1392029 0.1854458 -0.4597269 -0.4450619 0.3528068 0.06193435 0.01608026 0.3992723 -0.8071718 0.1583439 0.1392029 0.1854458 1.793547 0.8538599 1.446102 1.457265 0.9376867 0.6457396 0.01642948 0.646119 -0.8158823 0.8646864 0.01608026 0.3992723 1.792561 0.1572726 1.793547 0.8538599 0.9373371 0.3988928 0.1401569 0.8598439 -0.4679431 1.469024 0.01642948 0.646119 1.443409 -0.4458456 1.792561 0.1572726 0.8136098 0.185168 0.1358194 1.817069 -0.4679431 1.469024 0.35411 0.9831793 0.8396463 -0.7938907 1.079636 -1.649614 1.443409 -0.4458456 1.085688 2.628538 -0.08125901 2.64974 0.843324 1.805807 0.14305 -0.7936035 -0.06670653 -1.649142 0.8396463 -0.7938907 2.077639 2.054964 1.085688 2.628538 1.446102 1.457265 -0.4597269 -0.4450619 -1.058657 -1.075569 0.14305 -0.7936035 -0.8071718 0.1583439 -1.630423 -0.08258479 -0.4597269 -0.4450619 2.649406 1.06198 2.077639 2.054964 1.793547 0.8538599 -0.8158823 0.8646864 -1.649406 1.084473 -0.8071718 0.1583439 2.647784 -0.08434754 2.649406 1.06198 1.792561 0.1572726 -0.4679431 1.469024 -1.074831 2.076985 -0.8158823 0.8646864 2.073209 -1.076859 2.647784 -0.08434754 1.443409 -0.4458456 -0.08125901 2.64974 -1.074831 2.076985 0.1358194 1.817069</float_array>
          <technique_common>
            <accessor source="#BagWithGrain-mesh-map-0-array" count="924" stride="2">
              <param name="S" type="float"/>
              <param name="T" type="float"/>
            </accessor>
          </technique_common>
        </source>
        <vertices id="BagWithGrain-mesh-vertices">
          <input semantic="POSITION" source="#BagWithGrain-mesh-positions"/>
        </vertices>
        <polylist material="ClothDark-material" count="250">
          <input semantic="VERTEX" source="#BagWithGrain-mesh-vertices" offset="0"/>
          <input semantic="NORMAL" source="#BagWithGrain-mesh-normals" offset="1"/>
          <input semantic="TEXCOORD" source="#BagWithGrain-mesh-map-0" offset="2" set="0"/>
          <vcount>3 3 3 3 3 3 3 3 3 3 3 3 3 3 3 3 3 3 3 3 3 3 3 3 3 3 3 3 3 3 3 3 3 3 3 3 3 3 3 3 3 3 3 3 3 3 3 3 3 3 3 3 3 3 3 3 3 3 3 3 3 3 3 3 3 3 3 3 3 3 3 3 3 3 3 3 3 3 3 3 3 3 3 3 3 3 3 3 3 3 3 3 3 3 3 3 3 3 3 3 3 3 3 3 3 3 3 3 3 3 3 3 3 3 3 3 3 3 3 3 3 3 3 3 3 3 3 3 3 3 3 3 3 3 3 3 3 3 3 3 3 3 3 3 3 3 3 3 3 3 3 3 3 3 3 3 3 3 3 3 3 3 3 3 3 3 3 3 3 3 3 3 3 3 3 3 3 3 3 3 3 3 3 3 3 3 3 3 3 3 3 3 3 3 3 3 3 3 3 3 3 3 3 3 3 3 3 3 3 3 3 3 3 3 3 3 3 3 3 3 3 3 3 3 3 3 3 3 3 3 3 3 3 3 3 3 3 3 3 3 3 3 3 3 3 3 3 3 3 3 </vcount>
          <p>120 0 0 1 1 1 3 2 2 121 3 3 3 2 4 5 4 5 122 5 6 5 4 7 7 6 8 7 6 9 9 7 10 124 8 11 9 7 12 11 9 13 125 10 14 11 9 15 13 11 16 126 12 17 126 12 18 13 11 19 15 13 20 127 14 21 15 13 22 17 15 23 128 16 24 17 15 25 19 17 26 19 17 27 21 18 28 130 19 29 13 11 30 11 9 31 29 20 32 131 21 33 23 22 34 1 1 35 130 19 36 21 18 37 23 22 38 2 23 39 37 24 40 36 25 41 34 26 42 33 27 43 69 28 44 7 6 45 27 29 46 28 30 47 3 2 48 25 31 49 26 32 50 3 2 51 1 1 52 24 33 53 23 22 54 21 18 55 34 26 56 19 17 57 17 15 58 32 34 59 13 11 60 30 35 61 31 36 62 9 7 63 28 30 64 29 20 65 5 4 66 26 32 67 27 29 68 1 1 69 23 22 70 35 37 71 21 18 72 19 17 73 33 27 74 17 15 75 15 13 76 31 36 77 43 38 78 44 39 79 56 40 80 20 41 81 22 42 82 47 43 83 16 44 84 18 45 85 45 46 86 14 47 87 43 38 88 42 48 89 10 49 90 41 50 91 40 51 92 4 52 93 6 53 94 39 54 95 22 42 96 0 55 97 36 25 98 18 45 99 20 41 100 46 56 101 16 44 102 44 39 103 43 38 104 10 49 105 12 57 106 42 48 107 6 53 108 8 58 109 40 51 110 4 52 111 38 59 112 37 24 113 48 60 114 53 61 115 54 62 116 37 24 117 38 59 118 50 63 119 44 39 120 45 46 121 57 64 122 38 59 123 39 54 124 51 65 125 45 46 126 46 56 127 58 66 128 39 54 129 40 51 130 52 67 131 46 56 132 47 43 133 59 68 134 41 50 135 53 61 136 52 67 137 36 25 138 48 60 139 59 68 140 42 48 141 54 62 142 53 61 143 42 48 144 43 38 145 55 69 146 36 25 147 37 24 148 49 70 149 60 71 150 71 72 151 83 73 152 27 29 153 63 74 154 64 75 155 34 26 156 70 76 157 71 72 158 29 20 159 28 30 160 64 75 161 35 37 162 71 72 163 60 71 164 29 20 165 65 77 166 66 78 167 31 36 168 30 35 169 66 78 170 25 31 171 24 33 172 60 71 173 32 34 174 31 36 175 67 79 176 26 32 177 25 31 178 61 80 179 33 27 180 32 34 181 68 81 182 27 29 183 26 32 184 62 82 185 78 83 186 90 84 187 91 85 188 66 78 189 65 77 190 77 86 191 66 78 192 78 83 193 79 87 194 61 80 195 60 71 196 72 88 197 68 81 198 67 79 199 79 87 200 62 82 201 61 80 202 73 89 203 68 81 204 80 90 205 81 91 206 62 82 207 74 92 208 75 93 209 69 28 210 81 91 211 82 94 212 64 75 213 63 74 214 75 93 215 70 76 216 82 94 217 83 73 218 64 75 219 76 95 220 77 86 221 84 96 222 96 97 223 97 98 224 72 88 225 84 96 226 85 99 227 80 90 228 79 87 229 91 85 230 73 89 231 85 99 232 86 100 233 80 90 234 92 101 235 93 102 236 74 92 237 86 100 238 87 103 239 81 91 240 93 102 241 94 104 242 76 95 243 75 93 244 87 103 245 83 73 246 82 94 247 94 104 248 77 86 249 76 95 250 88 105 251 72 88 252 83 73 253 95 106 254 78 83 255 77 86 256 89 107 257 103 108 258 115 109 259 116 110 260 92 101 261 91 85 262 103 108 263 86 100 264 85 99 265 97 98 266 92 101 267 104 111 268 105 112 269 86 100 270 98 113 271 99 114 272 93 102 273 105 112 274 106 115 275 88 105 276 87 103 277 99 114 278 94 104 279 106 115 280 107 116 281 89 107 282 88 105 283 100 117 284 84 96 285 95 106 286 107 116 287 90 84 288 89 107 289 101 118 290 90 84 291 102 119 292 103 108 293 97 98 297 109 123 298 110 124 299 105 112 300 104 111 301 116 110 302 99 114 303 98 113 304 110 124 305 105 112 306 117 125 307 118 126 308 99 114 309 111 127 310 112 128 311 107 116 312 106 115 313 118 126 314 101 118 315 100 117 316 112 128 317 96 97 318 107 116 319 119 129 320 101 118 321 113 130 322 114 131 323 102 119 324 114 131 325 115 109 326 97 98 327 96 97 328 108 132 329 120 0 330 121 3 331 2 23 332 121 3 333 122 5 334 4 52 335 4 52 336 122 5 337 123 133 338 123 133 339 124 8 340 8 58 341 124 8 342 125 10 343 10 49 344 10 49 345 125 10 346 126 12 347 126 12 348 127 14 349 14 47 350 127 14 351 128 16 352 16 44 353 128 16 354 129 134 355 18 45 356 18 45 357 129 134 358 130 19 359 22 42 360 131 21 361 120 0 362 20 41 363 130 19 364 131 21 365 121 3 438 120 0 439 3 2 440 122 5 441 121 3 442 5 4 443 123 133 444 122 5 445 7 6 446 123 133 447 7 6 448 124 8 449 124 8 450 9 7 451 125 10 452 125 10 453 11 9 454 126 12 455 127 14 456 126 12 457 15 13 458 128 16 459 127 14 460 17 15 461 129 134 462 128 16 463 19 17 464 129 134 465 19 17 466 130 19 467 30 35 468 13 11 469 29 20 470 120 0 471 131 21 472 1 1 473 131 21 474 130 19 475 23 22 476 0 55 477 2 23 478 36 25 479 70 76 480 34 26 481 69 28 482 9 7 483 7 6 484 28 30 485 5 4 486 3 2 487 26 32 488 25 31 489 3 2 490 24 33 491 35 37 492 23 22 493 34 26 494 33 27 495 19 17 496 32 34 497 15 13 498 13 11 499 31 36 500 11 9 501 9 7 502 29 20 503 7 6 504 5 4 505 27 29 506 24 33 507 1 1 508 35 37 509 34 26 510 21 18 511 33 27 512 32 34 513 17 15 514 31 36 515 55 69 516 43 38 517 56 40 518 46 56 519 20 41 520 47 43 521 44 39 522 16 44 523 45 46 524 12 57 525 14 47 526 42 48 527 8 58 528 10 49 529 40 51 530 38 59 531 4 52 532 39 54 533 47 43 534 22 42 535 36 25 536 45 46 537 18 45 538 46 56 539 14 47 540 16 44 541 43 38 542 41 50 543 10 49 544 42 48 545 39 54 546 6 53 547 40 51 548 2 23 549 4 52 550 37 24 551 49 70 552 37 24 553 50 63 554 51 65 555 48 60 556 50 63 557 51 65 558 52 67 559 53 61 560 55 69 561 48 60 562 54 62 563 55 69 564 56 40 565 57 64 566 59 68 567 48 60 568 58 66 569 48 60 570 55 69 571 57 64 572 48 60 573 57 64 574 58 66 575 48 60 576 49 70 577 50 63 578 48 60 579 51 65 580 53 61 581 56 40 582 44 39 583 57 64 584 50 63 585 38 59 586 51 65 587 57 64 588 45 46 589 58 66 590 51 65 591 39 54 592 52 67 593 58 66 594 46 56 595 59 68 596 40 51 597 41 50 598 52 67 599 47 43 600 36 25 601 59 68 602 41 50 603 42 48 604 53 61 605 54 62 606 42 48 607 55 69 608 48 60 609 36 25 610 49 70 611 72 88 612 60 71 613 83 73 614 28 30 615 27 29 616 64 75 617 35 37 618 34 26 619 71 72 620 65 77 621 29 20 622 64 75 623 24 33 624 35 37 625 60 71 626 30 35 627 29 20 628 66 78 629 67 79 630 31 36 631 66 78 632 61 80 633 25 31 634 60 71 635 68 81 636 32 34 637 67 79 638 62 82 639 26 32 640 61 80 641 69 28 642 33 27 643 68 81 644 63 74 645 27 29 646 62 82 647 79 87 648 78 83 649 91 85 650 78 83 651 66 78 652 77 86 653 67 79 654 66 78 655 79 87 656 73 89 657 61 80 658 72 88 659 80 90 660 68 81 661 79 87 662 74 92 663 62 82 664 73 89 665 69 28 666 68 81 667 81 91 668 63 74 669 62 82 670 75 93 671 70 76 672 69 28 673 82 94 674 76 95 675 64 75 676 75 93 677 71 72 678 70 76 679 83 73 680 65 77 681 64 75 682 77 86 683 85 99 684 84 96 685 97 98 686 73 89 687 72 88 688 85 99 689 92 101 690 80 90 691 91 85 692 74 92 693 73 89 694 86 100 695 81 91 696 80 90 697 93 102 698 75 93 699 74 92 700 87 103 701 82 94 702 81 91 703 94 104 704 88 105 705 76 95 706 87 103 707 95 106 708 83 73 709 94 104 710 89 107 711 77 86 712 88 105 713 84 96 714 72 88 715 95 106 716 90 84 717 78 83 718 89 107 719 104 111 720 103 108 721 116 110 722 104 111 723 92 101 724 103 108 725 98 113 726 86 100 727 97 98 728 93 102 729 92 101 730 105 112 731 87 103 732 86 100 733 99 114 734 94 104 735 93 102 736 106 115 737 100 117 738 88 105 739 99 114 740 95 106 741 94 104 742 107 116 743 101 118 744 89 107 745 100 117 746 96 97 747 84 96 748 107 116 749 102 119 750 90 84 751 101 118 752 91 85 753 90 84 754 103 108 755 98 113 759 97 98 760 110 124 761 117 125 762 105 112 763 116 110 764 111 127 765 99 114 766 110 124 767 106 115 768 105 112 769 118 126 770 100 117 771 99 114 772 112 128 773 119 129 774 107 116 775 118 126 776 113 130 777 101 118 778 112 128 779 108 132 780 96 97 781 119 129 782 102 119 783 101 118 784 114 131 785 103 108 786 102 119 787 115 109 788 109 123 789 97 98 790 108 132 791 0 55 792 120 0 793 2 23 794 2 23 795 121 3 796 4 52 797 6 53 798 4 52 799 123 133 800 6 53 801 123 133 802 8 58 803 8 58 804 124 8 805 10 49 806 12 57 807 10 49 808 126 12 809 12 57 810 126 12 811 14 47 812 14 47 813 127 14 814 16 44 815 16 44 816 128 16 817 18 45 818 20 41 819 18 45 820 130 19 821 0 55 822 22 42 823 120 0 824 22 42 825 20 41 826 131 21 827</p>
        </polylist>
        <polylist material="Grain-material" count="58">
          <input semantic="VERTEX" source="#BagWithGrain-mesh-vertices" offset="0"/>
          <input semantic="NORMAL" source="#BagWithGrain-mesh-normals" offset="1"/>
          <input semantic="TEXCOORD" source="#BagWithGrain-mesh-map-0" offset="2" set="0"/>
          <vcount>3 3 3 3 3 3 3 3 3 3 3 3 3 3 3 3 3 3 3 3 3 3 3 3 3 3 3 3 3 3 3 3 3 3 3 3 3 3 3 3 3 3 3 3 3 3 3 3 3 3 3 3 3 3 3 3 3 3 </vcount>
          <p>145 120 294 144 121 295 135 122 296 136 135 366 142 136 367 140 137 368 146 138 369 142 136 370 143 139 371 148 140 372 145 120 373 136 135 374 147 141 375 143 139 376 132 142 377 150 143 378 148 140 379 137 144 380 151 145 381 150 143 382 138 146 383 149 147 384 132 142 385 133 148 386 153 149 387 151 145 388 139 150 389 152 151 390 133 148 391 134 152 392 155 153 393 153 149 394 140 137 395 154 154 396 134 152 397 135 122 398 155 153 399 141 155 400 142 136 401 112 128 402 111 127 403 144 121 404 118 126 405 146 138 406 147 141 407 113 130 408 112 128 409 145 120 410 119 129 411 147 141 412 149 147 413 114 131 414 113 130 415 148 140 416 115 109 417 114 131 418 150 143 419 108 132 420 149 147 421 152 151 422 116 110 423 115 109 424 151 145 425 109 123 426 152 151 427 154 154 428 117 125 429 116 110 430 153 149 431 110 124 432 154 154 433 144 121 434 117 125 435 155 153 436 146 138 437 136 135 756 145 120 757 135 122 758 134 152 828 133 148 829 132 142 830 132 142 831 143 139 832 142 136 833 142 136 834 141 155 835 140 137 836 140 137 837 139 150 838 138 146 839 138 146 840 137 144 841 136 135 842 136 135 843 135 122 844 134 152 845 134 152 846 132 142 847 142 136 848 138 146 849 136 135 850 140 137 851 134 152 852 142 136 853 136 135 854 147 141 855 146 138 856 143 139 857 137 144 858 148 140 859 136 135 860 149 147 861 147 141 862 132 142 863 138 146 864 150 143 865 137 144 866 139 150 867 151 145 868 138 146 869 152 151 870 149 147 871 133 148 872 140 137 873 153 149 874 139 150 875 154 154 876 152 151 877 134 152 878 141 155 879 155 153 880 140 137 881 144 121 882 154 154 883 135 122 884 146 138 885 155 153 886 142 136 887 145 120 888 112 128 889 144 121 890 119 129 891 118 126 892 147 141 893 148 140 894 113 130 895 145 120 896 108 132 897 119 129 898 149 147 899 150 143 900 114 131 901 148 140 902 151 145 903 115 109 904 150 143 905 109 123 906 108 132 907 152 151 908 153 149 909 116 110 910 151 145 911 110 124 912 109 123 913 154 154 914 155 153 915 117 125 916 153 149 917 111 127 918 110 124 919 144 121 920 118 126 921 117 125 922 146 138 923</p>
        </polylist>
      </mesh>
    </geometry>
  </library_geometries>
  <library_controllers/>
  <library_visual_scenes>
    <visual_scene id="Scene" name="Scene">
      <node id="BagWithGrain" name="BagWithGrain" type="NODE">
        <matrix sid="transform">1 0 0 0 0 7.54979e-8 -1 -0.765717 0 1 7.54979e-8 0 0 0 0 1</matrix>
        <instance_geometry url="#BagWithGrain-mesh">
          <bind_material>
            <technique_common>
              <instance_material symbol="ClothDark-material" target="#ClothDark-material"/>
              <instance_material symbol="Grain-material" target="#Grain-material"/>
            </technique_common>
          </bind_material>
        </instance_geometry>
      </node>
      <node id="Camera" name="Camera" type="NODE">
        <matrix sid="transform">0.2696217 -0.5057907 0.8194389 6.042857 0.9629666 0.1416167 -0.2294353 -0.8704965 1.97236e-8 0.8509529 0.5252423 3.456182 0 0 0 1</matrix>
        <instance_camera url="#Camera-camera"/>
      </node>
      <node id="Lamp" name="Lamp" type="NODE">
        <matrix sid="transform">-0.2908646 -0.7711008 0.5663932 4.076245 0.9551712 -0.1998834 0.2183912 1.005454 -0.05518906 0.6045247 0.7946723 5.903862 0 0 0 1</matrix>
        <instance_light url="#Lamp-light"/>
      </node>
    </visual_scene>
  </library_visual_scenes>
  <scene>
    <instance_visual_scene url="#Scene"/>
  </scene>
</COLLADA>