<?xml version="1.0" encoding="utf-8"?>
<COLLADA xmlns="http://www.collada.org/2005/11/COLLADASchema" version="1.4.1">
  <asset>
    <contributor>
      <author>Blender User</author>
      <authoring_tool>Blender 2.71.0 commit date:2014-06-25, commit time:18:36, hash:9337574</authoring_tool>
    </contributor>
    <created>2014-10-23T23:23:33</created>
    <modified>2014-10-23T23:23:33</modified>
    <unit name="meter" meter="1"/>
    <up_axis>Z_UP</up_axis>
  </asset>
  <library_cameras>
    <camera id="Camera-camera" name="Camera">
      <optics>
        <technique_common>
          <perspective>
            <xfov sid="xfov">49.13434</xfov>
            <aspect_ratio>1.777778</aspect_ratio>
            <znear sid="znear">0.1</znear>
            <zfar sid="zfar">100</zfar>
          </perspective>
        </technique_common>
      </optics>
      <extra>
        <technique profile="blender">
          <YF_dofdist>0</YF_dofdist>
          <shiftx>0</shiftx>
          <shifty>0</shifty>
        </technique>
      </extra>
    </camera>
  </library_cameras>
  <library_lights>
    <light id="Lamp-light" name="Lamp">
      <technique_common>
        <directional>
          <color sid="color">1 1 1</color>
        </directional>
      </technique_common>
      <extra>
        <technique profile="blender">
          <adapt_thresh>0.000999987</adapt_thresh>
          <area_shape>0</area_shape>
          <area_size>1</area_size>
          <area_sizey>1</area_sizey>
          <area_sizez>1</area_sizez>
          <atm_distance_factor>1</atm_distance_factor>
          <atm_extinction_factor>1</atm_extinction_factor>
          <atm_turbidity>2</atm_turbidity>
          <att1>0</att1>
          <att2>1</att2>
          <backscattered_light>1</backscattered_light>
          <bias>1</bias>
          <blue>1</blue>
          <buffers>1</buffers>
          <bufflag>0</bufflag>
          <bufsize>2880</bufsize>
          <buftype>2</buftype>
          <clipend>30.002</clipend>
          <clipsta>1.000799</clipsta>
          <compressthresh>0.04999995</compressthresh>
          <dist sid="blender_dist">29.99998</dist>
          <energy sid="blender_energy">1</energy>
          <falloff_type>2</falloff_type>
          <filtertype>0</filtertype>
          <flag>0</flag>
          <gamma sid="blender_gamma">1</gamma>
          <green>1</green>
          <halo_intensity sid="blnder_halo_intensity">1</halo_intensity>
          <horizon_brightness>1</horizon_brightness>
          <mode>8192</mode>
          <ray_samp>1</ray_samp>
          <ray_samp_method>1</ray_samp_method>
          <ray_samp_type>0</ray_samp_type>
          <ray_sampy>1</ray_sampy>
          <ray_sampz>1</ray_sampz>
          <red>1</red>
          <samp>3</samp>
          <shadhalostep>0</shadhalostep>
          <shadow_b sid="blender_shadow_b">0</shadow_b>
          <shadow_g sid="blender_shadow_g">0</shadow_g>
          <shadow_r sid="blender_shadow_r">0</shadow_r>
          <sky_colorspace>0</sky_colorspace>
          <sky_exposure>1</sky_exposure>
          <skyblendfac>1</skyblendfac>
          <skyblendtype>1</skyblendtype>
          <soft>3</soft>
          <spotblend>0.15</spotblend>
          <spotsize>75</spotsize>
          <spread>1</spread>
          <sun_brightness>1</sun_brightness>
          <sun_effect_type>0</sun_effect_type>
          <sun_intensity>1</sun_intensity>
          <sun_size>1</sun_size>
          <type>1</type>
        </technique>
      </extra>
    </light>
  </library_lights>
  <library_images>
    <image id="Wood_jpg" name="Wood_jpg">
      <init_from>Wood.jpg</init_from>
    </image>
  </library_images>
  <library_effects>
    <effect id="Wood2-effect">
      <profile_COMMON>
        <newparam sid="Wood_jpg-surface">
          <surface type="2D">
            <init_from>Wood_jpg</init_from>
          </surface>
        </newparam>
        <newparam sid="Wood_jpg-sampler">
          <sampler2D>
            <source>Wood_jpg-surface</source>
          </sampler2D>
        </newparam>
        <technique sid="common">
          <phong>
            <emission>
              <color sid="emission">0 0 0 1</color>
            </emission>
            <ambient>
              <color sid="ambient">0 0 0 1</color>
            </ambient>
            <diffuse>
              <texture texture="Wood_jpg-sampler"/>
            </diffuse>
            <specular>
              <color sid="specular">0.08 0.08 0.08 1</color>
            </specular>
            <shininess>
              <float sid="shininess">50</float>
            </shininess>
            <index_of_refraction>
              <float sid="index_of_refraction">1</float>
            </index_of_refraction>
          </phong>
          <extra>
            <technique profile="FCOLLADA">
              <bump>
                <texture texture="Wood_jpg-sampler"/>
              </bump>
            </technique>
          </extra>
        </technique>
        <extra>
          <technique profile="GOOGLEEARTH">
            <double_sided>1</double_sided>
          </technique>
        </extra>
      </profile_COMMON>
      <extra><technique profile="MAX3D"><double_sided>1</double_sided></technique></extra>
    </effect>
  </library_effects>
  <library_materials>
    <material id="Wood2-material" name="Wood2">
      <instance_effect url="#Wood2-effect"/>
    </material>
  </library_materials>
  <library_geometries>
    <geometry id="WheelBarrow-mesh" name="WheelBarrow">
      <mesh>
        <source id="WheelBarrow-mesh-positions">
          <float_array id="WheelBarrow-mesh-positions-array" count="708">0.1661567 -0.3394107 -0.2056336 0.1953637 -0.8696944 -0.2056335 0.1639841 -0.2999644 0.03618896 0.1974458 -0.9074969 0.03618901 0.1639841 -0.2999644 -0.03173869 0.1974458 -0.9074969 -0.03173863 0.1391656 -0.3013314 0.03618896 0.1413383 -0.3407777 -0.2056336 0.1726273 -0.9088638 0.03618901 0.1705452 -0.8710613 -0.2056335 0.1391656 -0.3013314 -0.03173869 0.1726273 -0.9088638 -0.03173863 0.1494086 -0.03533089 0.0361889 0.1494086 -0.03533089 -0.03173875 0.1245902 -0.03669786 0.0361889 0.1245902 -0.03669792 -0.03173875 0.2152165 -1.230145 0.03618907 0.2152165 -1.230145 -0.03173857 0.1903982 -1.231512 0.03618907 0.1903982 -1.231512 -0.03173857 0.1649426 -0.3173679 0.03618896 0.1671152 -0.356814 -0.2056336 0.1649426 -0.3173679 -0.03173869 0.1422969 -0.358181 -0.2056336 0.1401242 -0.3187348 0.03618896 0.1962482 -0.8857548 0.03618901 0.1714298 -0.8871218 0.03618901 0.1693478 -0.8493192 -0.2056335 0.1422969 -0.3581809 -0.1801178 0.1693478 -0.8493192 -0.1801177 0.1962482 -0.8857548 -0.03173863 0.1941661 -0.8479523 -0.2056335 0.221951 -1.247578 0.05194538 0.221951 -1.247578 -0.04749494 0.185619 -1.24958 0.05194538 0.185619 -1.24958 -0.04749494 0.2287946 -1.371832 0.05194538 0.2287946 -1.371832 -0.04749494 0.1924626 -1.373833 0.05194538 0.1924626 -1.373833 -0.04749494 0.2268923 -1.39172 0.04376554 0.2268923 -1.39172 -0.0393151 0.1965376 -1.393392 0.04376554 0.1965376 -1.393392 -0.0393151 -0.1661567 -0.3394107 -0.2056336 -0.1953637 -0.8696944 -0.2056335 -0.1639841 -0.2999644 0.03618896 -0.1974458 -0.9074969 0.03618901 -0.1639841 -0.2999644 -0.03173869 -0.1974458 -0.9074969 -0.03173863 -0.1391656 -0.3013314 0.03618896 -0.1413383 -0.3407777 -0.2056336 -0.1726273 -0.9088638 0.03618901 -0.1705452 -0.8710613 -0.2056335 -0.1391656 -0.3013314 -0.03173869 -0.1726273 -0.9088638 -0.03173863 -0.1494086 -0.03533089 0.0361889 -0.1494086 -0.03533089 -0.03173875 -0.1245902 -0.03669786 0.0361889 -0.1245902 -0.03669792 -0.03173875 -0.2152165 -1.230145 0.03618907 -0.2152165 -1.230145 -0.03173857 -0.1903982 -1.231512 0.03618907 -0.1903982 -1.231512 -0.03173857 -0.1649426 -0.3173679 0.03618896 -0.1671152 -0.356814 -0.2056336 -0.1649426 -0.3173679 -0.03173869 -0.1422969 -0.358181 -0.2056336 -0.1401242 -0.3187348 0.03618896 -0.1962482 -0.8857548 0.03618901 -0.1714298 -0.8871218 0.03618901 -0.1693478 -0.8493192 -0.2056335 -0.1422969 -0.3581809 -0.1801178 -0.1693478 -0.8493192 -0.1801177 -0.1962482 -0.8857548 -0.03173863 -0.1941661 -0.8479523 -0.2056335 0 -0.2998769 0.03618896 0 -0.339383 -0.2056336 0 -0.9083302 0.03618901 0 -0.8704703 -0.2056335 0 -0.2998769 -0.03173869 0 -0.9083302 -0.03173863 0 -0.3568127 -0.2056336 0 -0.3173067 0.03618896 0 -0.8865552 0.03618901 0 -0.8486953 -0.2056335 0 -0.8486953 -0.1801177 0 -0.3568127 -0.1801178 -0.221951 -1.247578 0.05194538 -0.221951 -1.247578 -0.04749494 -0.185619 -1.24958 0.05194538 -0.185619 -1.24958 -0.04749494 -0.2287946 -1.371832 0.05194538 -0.2287946 -1.371832 -0.04749494 -0.1924626 -1.373833 0.05194538 -0.1924626 -1.373833 -0.04749494 -0.2268923 -1.39172 0.04376554 -0.2268923 -1.39172 -0.0393151 -0.1965376 -1.393392 0.04376554 -0.1965376 -1.393392 -0.0393151 0.1426962 -0.08704835 0 -0.1426962 -0.08704841 0 0.1426962 -0.08134299 0.01377391 -0.1426962 -0.08134305 0.01377385 0.1426962 -0.06756913 0.01947921 -0.1426962 -0.06756919 0.01947915 0.1426962 -0.05379527 0.01377391 -0.1426962 -0.05379527 0.01377385 0.1426962 -0.04808992 0 -0.1426962 -0.04808998 0 0.1426962 -0.05379527 -0.01377379 -0.1426962 -0.05379527 -0.01377391 0.1426962 -0.06756913 -0.01947915 -0.1426962 -0.06756919 -0.01947921 0.1426962 -0.08134299 -0.01377379 -0.1426962 -0.08134305 -0.01377385 -0.04401147 -0.09858489 -0.03101569 -0.04401147 -0.03655344 -0.03101569 0.04401147 -0.03655344 -0.03101569 0.04401147 -0.09858489 -0.03101569 -0.04401147 -0.09858489 0.03101569 -0.04401147 -0.03655344 0.03101569 0.04401147 -0.03655344 0.03101569 0.04401147 -0.09858489 0.03101569 -0.04363417 0.1396988 0 0.04363423 0.1396989 0 -0.04363417 0.1119301 -0.103634 0.04363423 0.1119302 -0.1036339 -0.04363423 0.03606474 -0.1794994 0.04363417 0.0360648 -0.1794993 -0.04363423 -0.06756919 -0.207268 0.04363417 -0.06756913 -0.2072679 -0.04363423 -0.1712033 -0.1794994 0.04363417 -0.1712032 -0.1794993 -0.04363423 -0.2470686 -0.103634 0.04363417 -0.2470685 -0.1036339 -0.04363423 -0.2748372 0 0.04363417 -0.2748371 0 -0.04363423 -0.2470685 0.1036339 0.04363417 -0.2470685 0.103634 -0.04363417 -0.1712032 0.1794993 0.04363423 -0.1712032 0.1794994 -0.04363417 -0.06756925 0.2072679 0.04363423 -0.06756919 0.207268 -0.04363417 0.03606468 0.1794994 0.04363423 0.03606474 0.1794995 -0.04363417 0.1119301 0.1036341 0.04363423 0.1119301 0.1036342 -0.02509993 -0.2506589 -0.01119834 -0.02509987 0.1155205 -0.0111984 0.02509993 0.1155205 -0.0111984 0.02509987 -0.2506589 -0.01119834 -0.02509993 -0.2506589 0.0111984 -0.02509987 0.1155205 0.01119834 0.02509993 0.1155205 0.01119834 0.02509987 -0.2506589 0.0111984 -0.02509987 -0.2049516 0.1215456 -0.02509987 0.05397629 -0.1373824 0.02509987 0.05397629 -0.1373825 0.02509987 -0.2049516 0.1215455 -0.02509987 -0.1891146 0.1373825 -0.02509987 0.06981325 -0.1215455 0.02509987 0.06981325 -0.1215456 0.02509987 -0.1891146 0.1373825 -0.02509981 0.05397635 0.1373825 -0.02509993 -0.2049516 -0.1215454 0.02509981 -0.2049517 -0.1215455 0.02509993 0.05397629 0.1373824 -0.02509981 0.06981325 0.1215455 -0.02509993 -0.1891147 -0.1373824 0.02509981 -0.1891147 -0.1373824 0.02509993 0.06981325 0.1215455 -0.02509987 -0.07876759 0.1830897 -0.02509993 -0.07876759 -0.1830897 0.02509981 -0.07876759 -0.1830897 0.02509993 -0.07876753 0.1830897 -0.02509981 -0.05637073 0.1830897 -0.02509993 -0.05637073 -0.1830897 0.02509987 -0.05637073 -0.1830897 0.02509993 -0.05637073 0.1830897 -0.04363417 0.1078134 0 0.04363423 0.1078125 0 -0.04363417 0.08431583 -0.08769136 0.04363423 0.08431589 -0.0876913 -0.04363423 0.02012211 -0.1518851 0.04363417 0.02012217 -0.151885 -0.04363423 -0.06756919 -0.1753817 0.04363417 -0.06756913 -0.1753816 -0.04363423 -0.1552606 -0.151885 0.04363417 -0.1552605 -0.1518849 -0.04363423 -0.2194542 -0.08769136 0.04363417 -0.2194542 -0.08769124 -0.04363423 -0.2429509 0 0.04363417 -0.2429508 0 -0.04363423 -0.2194542 0.08769124 0.04363417 -0.2194542 0.08769136 -0.04363417 -0.1552606 0.151885 0.04363423 -0.1552605 0.1518851 -0.04363417 -0.06756925 0.1753816 0.04363423 -0.06756919 0.1753817 -0.04363417 0.02012199 0.151885 0.04363423 0.02012205 0.1518852 -0.04363417 0.08431577 0.08769136 0.04363423 0.08431583 0.08769148 -0.006690382 -0.2322494 0.007211148 -0.006690323 0.09711098 0.007211089 0.006690382 0.09711098 0.007211089 0.006690323 -0.2322493 0.007211148 -0.006690382 -0.2322494 -0.007211089 -0.006690323 0.09711098 -0.007211148 0.006690382 0.09711098 -0.007211148 0.006690323 -0.2322493 -0.007211089 -0.006690323 -0.1789167 0.1215456 -0.006690382 0.05397629 -0.1113475 0.006690323 0.05397629 -0.1113475 0.006690323 -0.1789166 0.1215455 -0.006690323 -0.1891146 0.1113476 -0.006690323 0.0437783 -0.1215455 0.006690323 0.0437783 -0.1215455 0.006690382 -0.1891146 0.1113475 -0.006690323 0.05397635 0.1113475 -0.006690382 -0.1789167 -0.1215454 0.006690263 -0.1789167 -0.1215455 0.006690382 0.05397629 0.1113475 -0.006690263 0.04377835 0.1215455 -0.006690382 -0.1891147 -0.1113474 0.006690323 -0.1891147 -0.1113474 0.006690382 0.0437783 0.1215455 -0.006690323 -0.06035804 0.1646802 -0.006690382 -0.06035804 -0.1646801 0.006690263 -0.06035804 -0.1646802 0.006690382 -0.06035798 0.1646801 -0.006690263 -0.07478028 0.1646802 -0.006690382 -0.07478028 -0.1646801 0.006690323 -0.07478028 -0.1646802 0.006690382 -0.07478028 0.1646801</float_array>
          <technique_common>
            <accessor source="#WheelBarrow-mesh-positions-array" count="236" stride="3">
              <param name="X" type="float"/>
              <param name="Y" type="float"/>
              <param name="Z" type="float"/>
            </accessor>
          </technique_common>
        </source>
        <source id="WheelBarrow-mesh-normals">
          <float_array id="WheelBarrow-mesh-normals-array" count="1008">-0.0536291 0.973676 -0.2215384 0.9984866 0.05499416 0 -5.98592e-7 0 -1 0 0 1 0.9984866 0.05499416 0 0.009623467 0.9752048 -0.2210949 0.05373215 -0.9756319 -0.2127328 0 0 -1 0 0 1 0 0 -1 0.01045078 0.9999454 0 0 1.26622e-7 1 -0.05499708 0.9984865 -1.64277e-7 0.9984867 0.05499458 0 -0.9984867 -0.05499464 0 -0.9667518 0.2557167 0 0 0 -1 0.9984866 0.05499458 0 -0.9984866 -0.05499458 0 0.9984867 0.054995 0 -5.91928e-7 -1.53962e-7 -1 0.9984866 0.05499476 0 0 -1.21177e-7 -1 1.4281e-7 1.32394e-7 1 -0.9984867 -0.05499464 0 0.9984867 0.05499458 0 0.9984866 0.05499458 0 -1.19718e-6 0 -1 0 0 1 0 0 -1 -0.003386199 -0.9771046 -0.2127325 0 0 1 -0.003090918 -0.9999952 0 0 1.21177e-7 1 0 0 1 0.003629148 0.9850193 0.1724067 -0.0100255 -0.9836781 0.1796573 0 -1.19562e-7 -1 0.9328195 0.3603439 0 -0.03647834 0.6622803 -0.7483676 -0.03647834 0.6622803 0.7483677 0.9954564 -0.09521943 0 0 1.49453e-7 1 -0.9984867 -0.05499452 0 0.9984867 0.05499452 0 0.05499565 -0.9984866 0 0.02104175 -0.3820226 -0.9239134 0.02104175 -0.3820226 0.9239134 -0.9789776 -0.2039678 0 0.05362921 0.9736758 -0.2215383 -0.9984866 0.05499416 0 5.98592e-7 0 -1 0 0 1 -0.9984866 0.05499416 0 -0.009623467 0.9752048 -0.2210949 -0.05373215 -0.9756319 -0.2127328 0 0 -1 0 0 1 0 0 -1 -0.01045078 0.9999454 0 0 1.26622e-7 1 0.05499708 0.9984865 -1.64277e-7 -0.9984867 0.05499458 0 0.9984867 -0.05499464 0 0.9667518 0.2557167 0 0 0 -1 -0.9984866 0.05499458 0 0.9984866 -0.05499458 0 -0.9984867 0.054995 0 5.91928e-7 -1.53962e-7 -1 -0.9984866 0.05499476 0 0 -1.21177e-7 -1 -1.4281e-7 1.32394e-7 1 0.9984867 -0.05499464 0 -0.9984867 0.05499458 0 -0.9984866 0.05499458 0 1.19718e-6 0 -1 0 0 1 0 0 -1 0.003386199 -0.9771046 -0.2127325 0 0 1 0.003090918 -0.9999952 0 0 1.21177e-7 1 0 0 1 -0.003629148 0.9850193 0.1724067 0.0100255 -0.9836781 0.1796573 0 -1.19562e-7 -1 -0.9328195 0.3603439 0 0.03647834 0.6622803 -0.7483676 0.03647834 0.6622803 0.7483677 -0.9954563 -0.09521943 0 0 1.49453e-7 1 0.9984867 -0.05499452 0 -0.9984867 0.05499452 0 -0.05499565 -0.9984866 0 -0.02104175 -0.3820226 -0.9239134 -0.02104175 -0.3820226 0.9239134 0.9789776 -0.2039678 0 0 0 -1 0 0 -1 0 -0.7070834 -0.7070834 0 -0.7070834 -0.7070834 0 -1 0 0 -1 0 0 -0.7070834 0.7070834 0 -0.7070834 0.7070834 0 0 1 0 0 1 0 0.7070834 0.7070834 0 0.7070834 0.7070834 0 1 0 0 0.7070834 -0.7070834 0 0.7070834 -0.7070834 0 1 0 -1 0 0 0 1 -1.2011e-7 1 0 0 0 -1 0 0 0 -1 0 0 1 -0.6532182 0 -0.7571337 0.6532182 0 -0.7571337 0.6532182 -0.3785516 -0.6557207 -0.6532182 -0.3785516 -0.6557207 0.6532182 -0.6557207 -0.3785516 -0.6532182 -0.6557207 -0.3785516 0.6532182 -0.7571337 0 -0.6532182 -0.7571337 0 0.6532182 -0.6557207 0.3785516 0.6532182 -0.3785516 0.6557207 -0.6532182 -0.3785516 0.6557207 0.6532182 0 0.7571337 -0.6532182 0 0.7571337 0.6532182 0.3785516 0.6557207 -0.6532182 0.3785516 0.6557207 0.6532182 0.6557207 0.3785516 -0.6532182 0.6557207 0.3785516 0.6532182 0.7571337 0 -0.6532182 0.7571337 0 0.6532182 0.6557207 -0.3785516 -0.6532182 0.6557207 -0.3785516 -0.6532182 0.3785516 -0.6557207 0.6532182 0.3785516 -0.6557207 -0.5773492 0.5773492 0.5773492 -0.5773492 0.5773492 -0.5773492 -0.5773492 -0.5773492 -0.5773492 0.5773492 0.5773492 -0.5773492 0.5773492 -0.5773492 -0.5773492 0.5773492 0.5773492 0.5773492 0.5773492 -0.5773492 0.5773492 -0.5773492 -0.5773492 0.5773492 -0.5773492 0.8164922 0 -0.5773492 0 -0.8164922 -0.5773492 -0.8164922 0 0.5773492 0 -0.8164922 0.5773492 -0.8164922 0 0.5773492 0.8164922 0 0.5773492 0 0.8164922 -0.5773492 0 0.8164922 -0.5773492 0 -0.8164922 -0.5773492 -0.8164922 0 -0.5773492 0 0.8164922 0.5773492 -0.8164922 0 0.5773492 0 0.8164922 0.5773492 0 -0.8164922 0.5773492 0.8164922 0 -0.5773492 0.8164922 0 -0.5773492 0.5773492 -0.5773492 -0.5773492 -0.5773492 -0.5773492 -0.5773492 -0.5773492 0.5773492 0.5773492 -0.5773492 -0.5773492 0.5773492 -0.5773492 0.5773492 0.5773492 0.5773492 -0.5773492 0.5773492 0.5773492 0.5773492 -0.5773492 0.5773492 0.5773492 -0.7702566 0.3188269 0.552263 0.7702566 0.3188269 0.552263 0.7702566 0 0.6376842 0.7702566 0.552263 0.3188269 0.7702566 0.6376842 0 -0.7702566 0.552263 0.3188269 0.7702566 0.552263 -0.3188269 -0.7702566 0.6376842 0 -0.7702566 0.3188269 -0.552263 0.7702566 0.3188269 -0.552263 -0.7702566 0 -0.6376842 0.7702566 0 -0.6376842 -0.7702566 -0.3188269 -0.552263 0.7702566 -0.3188269 -0.552263 -0.7702566 -0.552263 -0.3188269 0.7702566 -0.552263 -0.3188269 -0.7702566 -0.6376842 0 0.7702566 -0.6376842 0 -0.7702566 -0.552263 0.3188269 0.7702566 -0.552263 0.3188269 0.7702566 -0.3188269 0.552263 -0.7702566 -0.3188269 0.552263 -0.5773492 0.5773492 -0.5773492 -0.5773492 -0.5773492 -0.5773492 -0.5773187 -0.5773492 0.5773492 0.5773492 0.5773492 -0.5773492 0.5773492 -0.5773492 -0.5773492 0.5773492 0.5773492 0.5773187 0.5773492 -0.5773492 0.5773492 -0.5773492 0.5773492 0.5773492 -0.5773492 0 -0.8164922 -0.5773492 -0.8164922 0 -0.5773492 0 0.8164922 0.5773492 0 -0.8164922 0.5773492 -0.8164922 0 0.5773492 0.8164922 0 0.5773492 0 0.8164922 -0.5773492 0.8164922 0 -0.5773492 0 -0.8164922 -0.5773492 -0.8164922 0 -0.5773492 0 0.8164922 0.5773492 -0.8164922 0 0.5773492 0 0.8164922 0.5773492 0 -0.8164922 0.5773492 0.8164922 0 -0.5773492 0.8164922 0 -0.5773492 0.5773492 -0.5773492 -0.5773492 -0.5773492 -0.5773492 -0.5773492 -0.5773492 0.5773492 0.5773187 -0.5773492 -0.5773492 0.5773492 -0.5773492 0.5773492 0.5773492 0.5773492 -0.5773492 0.5773492 0.5773492 0.5773492 -0.5773187 0.5773492 0.5773492 -0.6532182 -0.6557207 0.3785516 -0.7702566 0 0.6376842 -0.7702566 0.552263 -0.3188269 -0.05362921 0.9736759 -0.2215384 0.9984866 0.054995 0 -5.98592e-7 0 -1 0 0 1 0.9984866 0.05499416 0 0.01019114 0.9751012 -0.2215265 0.0537365 -0.9756315 -0.2127334 0 0 -1 1.37893e-7 2.2165e-7 1 0 0 -1 0.01045078 0.9999454 0 0 1.26622e-7 1 -0.05499708 0.9984865 -1.64277e-7 0.9984866 0.05499458 0 -0.9984867 -0.05499464 0 -0.9667518 0.2557167 0 0 0 -1 0.9984866 0.05499458 0 -0.9984866 -0.05499458 0 0.9984868 0.05499476 0 -1.19219e-6 -1.56683e-7 -1 0.9984866 0.05499476 0 0 -1.21385e-7 -1 0 0 1 -0.9984866 -0.05499464 0 0.9984867 0.05499458 0 0.9984867 0.05499458 0 -1.19718e-6 0 -1 0 0 1 0 0 -1 -0.003020405 -0.9771803 -0.2123899 0 2.1271e-7 1 -0.003090918 -0.9999952 0 0 1.21385e-7 1 0 0 1 0.003255784 0.98507 0.1721231 -0.009459614 -0.9837484 0.1793031 0 -1.19562e-7 -1 0.9328196 0.3603439 0 -0.0364744 0.6622769 -0.748371 -0.03647434 0.6622768 0.748371 0.9954563 -0.09521943 0 0 1.49453e-7 1 -0.9984867 -0.05499452 0 0.9984867 0.05499452 0 0.05499565 -0.9984866 0 0.02104145 -0.3820231 -0.9239133 0.02104145 -0.3820231 0.9239133 -0.9789776 -0.2039678 0 0.05362904 0.9736759 -0.2215384 -0.9984866 0.054995 0 5.98592e-7 0 -1 0 0 1 -0.9984866 0.05499416 0 -0.01019114 0.9751012 -0.2215265 -0.0537365 -0.9756315 -0.2127334 0 0 -1 -1.37893e-7 2.2165e-7 1 0 0 -1 -0.01045078 0.9999454 0 0 1.26622e-7 1 0.05499708 0.9984865 -1.63755e-7 -0.9984867 0.05499458 0 0.9984866 -0.05499458 0 0.9667518 0.2557166 0 0 0 -1 -0.9984866 0.05499458 0 0.9984866 -0.05499458 0 -0.9984868 0.05499482 0 1.19219e-6 -1.56683e-7 -1 -0.9984866 0.05499476 0 0 -1.21385e-7 -1 0 0 1 0.9984867 -0.05499464 0 -0.9984866 0.05499458 0 -0.9984867 0.05499458 0 1.19718e-6 0 -1 0 0 1 0 0 -1 0.003020405 -0.9771803 -0.2123899 0 2.1271e-7 1 0.003090918 -0.9999952 0 0 1.21385e-7 1 0 0 1 -0.003255784 0.9850701 0.1721231 0.009459614 -0.9837484 0.1793032 0 -1.19562e-7 -1 -0.9328196 0.3603439 0 0.0364744 0.6622769 -0.7483709 0.0364744 0.6622768 0.748371 -0.9954564 -0.09521943 0 0 1.49453e-7 1 0.9984867 -0.05499452 0 -0.9984867 0.05499452 0 -0.05499565 -0.9984866 0 -0.02104145 -0.3820231 -0.9239133 -0.02104145 -0.3820231 0.9239133 0.9789776 -0.2039678 0 -1 0 0 0 1 -1.2011e-7 1 0 0 0 -1 0 0 0 -1 0 0 1</float_array>
          <technique_common>
            <accessor source="#WheelBarrow-mesh-normals-array" count="336" stride="3">
              <param name="X" type="float"/>
              <param name="Y" type="float"/>
              <param name="Z" type="float"/>
            </accessor>
          </technique_common>
        </source>
        <source id="WheelBarrow-mesh-map-0">
          <float_array id="WheelBarrow-mesh-map-0-array" count="2496">0.4005874 0.7118251 0.4006081 0.6990669 0.4905056 0.6982259 0.4545261 0.4374585 0.4543888 0.4486427 0.3652419 0.4281001 0.6675195 7.31036e-4 0.6802754 0 0.6807952 0.008807063 0.03162795 0.1364882 0.03870356 4.71004e-4 0.05146378 0.001134335 0.5275352 0.4574183 0.5273979 0.4686024 0.4924817 0.4681739 0.4005874 0.7118251 0.490485 0.710984 0.4902432 0.7836399 0.731622 0.2696251 0.731566 0.2568671 0.8213932 0.2555211 0.5948884 0.009069979 0.5948613 2.47908e-4 0.6675195 7.31036e-4 0.03116261 0.1454333 0.03162795 0.1364882 0.04438817 0.1371516 0.01286494 0.9788152 8.80914e-5 0.9788019 0 0.844648 0.3654417 0.783257 0.3656808 0.711718 0.4005874 0.7118251 0.01951754 0.6152487 0.006757259 0.6145855 0.01538401 0.4487499 0.8096085 0.5130015 0.7968504 0.5129809 0.7969574 0.4780742 0.4979876 0.01953119 0.5329038 0.01995974 0.5312333 0.1560873 0.8484482 0.8149926 0.883367 0.8148854 0.8837839 0.9507884 0.880834 0.186457 0.9157527 0.1863501 0.923881 0.1956501 0.3494494 0.9444571 0.349342 0.7808932 0.3621188 0.7809066 0.5273979 0.4686024 0.5253611 0.6345728 0.4904448 0.6341443 0.8803256 0.02076065 0.9152444 0.02065354 0.9157527 0.1863501 0.4581142 0.1450799 0.3684796 0.1642741 0.3685895 0.1553218 0.6827076 0.2580842 0.6680392 0.009538173 0.6807952 0.008807063 0.5312333 0.1560873 0.5311234 0.1650397 0.4962071 0.1646112 0.5956521 0.2580356 0.5948884 0.009069979 0.6680392 0.009538173 0.0159654 0.4375748 0.03116261 0.1454333 0.04392284 0.1460967 0.7019781 0.8148855 0.7010826 0.5229895 0.8123388 0.5429059 0.4545261 0.4374585 0.3653791 0.4169159 0.3684796 0.1642741 0.5311234 0.1650397 0.5275352 0.4574183 0.4926189 0.4569898 0.6833569 0.2690871 0.6827076 0.2580842 0.6954634 0.2573533 0.0159654 0.4375748 0.02872556 0.4382381 0.02814424 0.4494131 0.5956859 0.269057 0.5956521 0.2580356 0.6827076 0.2580842 0.7313003 0.1681267 0.8211315 0.1678511 0.8213932 0.2555211 0.04438817 0.1371516 0.115925 0.1361848 0.1159524 0.1451418 0.6966572 0.2569742 0.6963916 0.1682338 0.7313003 0.1681267 0.3000091 0.1966627 0.4388556 0.1949022 0.4403268 0.674722 0.02872556 0.4382381 0.1168494 0.4376767 0.1168838 0.4488669 0.3464092 0.6996356 0.3461337 0.78669 0.2354897 0.7863506 4.41972e-4 0.8438707 2.38516e-4 0.7718388 0.1109158 0.7714993 0.3651548 0.770498 0.3464505 0.7704785 0.3464092 0.707489 0.4904448 0.6341443 0.5253611 0.6345728 0.5333496 0.6436864 0.349342 0.7808932 0.3464505 0.7704785 0.3651548 0.770498 0.02200204 0.6243239 0.003322184 0.6233525 0.006757259 0.6145855 0.4814507 0.7069752 0.5325652 0.7076026 0.5282352 0.7177571 0 0.6872171 0.003322184 0.6233525 0.02200204 0.6243239 0.8727629 0.1958069 0.923881 0.1956501 0.9240767 0.259461 0.5333496 0.6436864 0.5325652 0.7076026 0.4814507 0.7069752 0.7967194 0.5207976 0.7811152 0.5207703 0.7812463 0.4780742 0.3651134 0.7075086 0.3464092 0.707489 0.3479006 0.6982259 0.001009523 0.6975393 0 0.6872171 0.01867979 0.6881881 0.8729587 0.2596179 0.9240767 0.259461 0.9199026 0.2694941 0.4900392 0.8562959 0.4899816 0.8690539 0.4000909 0.8676613 0.3652419 0.4281001 0.2760949 0.4486427 0.2759577 0.4374586 0.5089817 0.009334146 0.5094474 5.24014e-4 0.5222076 0.001176714 0.1795568 7.41621e-4 0.1923127 0 0.2002223 0.1359713 0.2759577 0.4374586 0.2760949 0.4486427 0.2411786 0.4490711 0.4902432 0.7836399 0.4900392 0.8562959 0.4001485 0.8549033 0.8208553 0.08018112 0.7310216 0.07938641 0.7309992 0.06662827 0.5222076 0.001176714 0.5948613 2.47908e-4 0.5948884 0.009069979 0.1874664 0.1367129 0.2002223 0.1359713 0.2007425 0.1449133 0.09825843 0.9788152 0.09834659 0.8446614 0.1111235 0.844648 0.4003483 0.7833641 0.4001485 0.8549033 0.3652419 0.8547962 0.2183808 0.4481274 0.2280245 0.6139071 0.2152686 0.6146486 0.791754 0.04828691 0.7916468 0.01338022 0.804405 0.0133596 0.2373434 0.1365561 0.2356727 4.2851e-4 0.270589 0 0.8131126 0.9507884 0.8135295 0.8148854 0.8484482 0.8149926 0.8216449 0.09462839 0.8727629 0.09447151 0.8646919 0.1038214 0.9408524 0.6865534 0.9280755 0.6865667 0.928183 0.5230029 0.2781318 0.614613 0.2432155 0.6150415 0.2411786 0.4490711 0.8646919 0.1038214 0.8652002 0.2695178 0.8302815 0.2696251 0.3618943 0.1553218 0.3620041 0.1642741 0.2723695 0.14508 0.5089817 0.009334146 0.5217418 0.009986937 0.5085987 0.2586184 0.2722596 0.1361277 0.2723695 0.14508 0.2374532 0.1455084 0.5217418 0.009986937 0.5948884 0.009069979 0.5956521 0.2580356 0.1879866 0.1456549 0.2007425 0.1449133 0.217731 0.4369561 0.8138864 0.5429059 0.9251426 0.5229895 0.924247 0.8148855 0.3620041 0.1642741 0.3651046 0.416916 0.2759577 0.4374586 0.2723695 0.14508 0.2759577 0.4374586 0.2410414 0.437887 0.4958385 0.2579657 0.5085987 0.2586184 0.5080169 0.2696251 0.2056249 0.4488688 0.2049751 0.4376977 0.217731 0.4369561 0.5085987 0.2586184 0.5956521 0.2580356 0.5956859 0.269057 0.8208553 0.08018112 0.8211315 0.1678511 0.7313003 0.1681267 0.1159524 0.1451418 0.115925 0.1361848 0.1874664 0.1367129 0.7310216 0.07938641 0.7313003 0.1681267 0.6963916 0.1682338 0.4403268 0.674722 0.4388556 0.1949022 0.5777103 0.1958112 0.1168838 0.4488669 0.1168494 0.4376767 0.2049751 0.4376977 0.2354897 0.7863506 0.3461337 0.78669 0.345875 0.8737444 0.1109158 0.7714993 2.38516e-4 0.7718388 0 0.699807 0.9251426 0.759971 0.925184 0.6969815 0.9438883 0.696962 0.2863416 0.6235277 0.2352271 0.6241551 0.2432155 0.6150415 0.9438883 0.696962 0.925184 0.6969815 0.9280755 0.6865667 0.2280245 0.6139071 0.2315133 0.622653 0.2128396 0.6237385 0.2830466 0.6977017 0.2403413 0.6982259 0.2360115 0.6880713 0.2128396 0.6237385 0.2315133 0.622653 0.2352271 0.6864959 0.8725672 0.03066056 0.8727629 0.09447151 0.8216449 0.09462839 0.2871259 0.687444 0.2360115 0.6880713 0.2352271 0.6241551 0.7811152 0.5207703 0.765511 0.5207976 0.7653801 0.4781016 0.9266341 0.7692342 0.9251426 0.759971 0.943847 0.7599515 0.2165535 0.6875815 0.2352271 0.6864959 0.2342808 0.696824 0.8256233 0.02078449 0.8683316 0.02065342 0.8725672 0.03066056 0.7609741 0.8149074 0.7605241 0.9616155 0.7533689 0.9615935 0.9724388 0.4861599 0.9728888 0.6328679 0.9654047 0.6328909 0.9649546 0.4861829 0.9654047 0.6328909 0.9589456 0.6329107 0.9443384 0.6329107 0.9438883 0.4862026 0.9510369 0.4861807 0.951487 0.6328887 0.9510369 0.4861807 0.9580454 0.4861592 0.9104626 0.9616369 0.9100128 0.8149288 0.9171644 0.814907 0.7679752 0.814929 0.7675251 0.9616369 0.7605241 0.9616155 0.9176142 0.961615 0.9171644 0.814907 0.9241694 0.8148854 0.7019683 0.2316095 0.7018705 0.1997218 0.7337542 0.199624 0.7013829 0.5206999 0.7015218 0.4754511 0.7333984 0.4755488 0.7652823 0.5207976 0.7333985 0.5206998 0.7334963 0.4888121 0.6695044 0.5207976 0.6693655 0.4755488 0.7012441 0.475451 0.7596652 0.0452488 0.7282681 0.04534512 0.7281293 9.63141e-5 0.7281293 0.0452488 0.6962516 0.04534655 0.6961128 9.77462e-5 0.7461058 0.8686538 0.7012448 0.8685162 0.7014094 0.8148855 0.4952567 0.728953 0.5401176 0.7288154 0.5402563 0.774029 0.4953954 0.7741667 0.5402563 0.774029 0.5404249 0.8289775 0.4955639 0.8291152 0.5404249 0.8289775 0.5405781 0.8789374 0.7010826 0.7289531 0.7009602 0.7688723 0.6560992 0.7687347 0.7009602 0.7688723 0.7007957 0.8224719 0.6559348 0.8223342 0.7007957 0.8224719 0.7006334 0.8753895 0.6557724 0.8752519 0.1903661 0.8829763 0.1902436 0.8430147 0.2351045 0.8428772 0.1902436 0.8430147 0.1900791 0.7894008 0.2349401 0.7892633 0.1900791 0.7894008 0.1899169 0.7365004 0.2347779 0.7363629 0.7459436 0.9215339 0.7010826 0.9213963 0.7012448 0.8685162 0.2347779 0.7363629 0.1899169 0.7365004 0.1898004 0.6984881 0.951999 0.9574837 0.9514216 0.7692695 0.9629348 0.7692342 0.8097156 0.5129662 0.8097947 0.4871606 0.821304 0.487196 0.9510282 0.208903 0.9504507 0.02068883 0.961964 0.02065354 0.8045121 0.01339489 0.816022 0.0133596 0.8161012 0.03916513 0.9240767 0.0207327 0.9498823 0.02065354 0.9504508 0.2059947 0.8757686 0.475451 0.8751915 0.2872726 0.9009971 0.2871935 0.954205 0.475451 0.9542165 0.2872245 0.9657291 0.2872238 0.8327984 0.5130016 0.8327193 0.487196 0.8421577 0.487167 0.974054 0.02067643 0.9740655 0.208903 0.9625529 0.2089022 0.9099872 0.9446209 0.9100128 0.9529629 0.8842072 0.953042 0.9443063 0.6329107 0.9701119 0.6329898 0.9696939 0.7692342 0.8841816 0.9447 0.8837838 0.8149646 0.9095894 0.8148854 0.9635237 0.9574607 0.9635122 0.7692342 0.9750248 0.7692349 0.8506492 0.487196 0.85057 0.5130015 0.8422368 0.512976 0.9772533 0.2872238 0.9772418 0.4754503 0.9657292 0.475451 0.9537624 0.3310478 0.9537868 0.3389829 0.9279812 0.339062 0.954205 0.4753718 0.9283995 0.475451 0.9279812 0.339062 0.9514215 0.9235482 0.9256159 0.9236273 0.9251426 0.7693133 0.5858193 0.9170525 0.5863968 0.7288154 0.5979086 0.7288507 0.8213831 0.5130016 0.821304 0.487196 0.8326401 0.4871612 0.6099444 0.7288154 0.6105218 0.9170525 0.59901 0.9170879 0.8045121 0.03923577 0.8160217 0.03920048 0.8161008 0.06500607 0.1639948 0.6983506 0.1898004 0.6984298 0.1892231 0.8866133 0.9273797 0.2871999 0.9279569 0.4753718 0.9021514 0.475451 0.5858193 0.8527243 0.5409583 0.8528618 0.5408209 0.8080848 0.1112272 0.7323018 0.1111235 0.6984881 0.1559845 0.6983506 0.1113663 0.777668 0.1112272 0.7323018 0.1560881 0.7321643 0.1115036 0.8224304 0.1113663 0.777668 0.1562272 0.7775305 0.1564632 0.854457 0.1116022 0.8545945 0.1115036 0.8224304 0.8129753 0.8597683 0.7681144 0.8596307 0.7682517 0.8148855 0.8128361 0.9051486 0.7679751 0.905011 0.7681144 0.8596307 0.6107941 0.8177227 0.6556551 0.817585 0.6557724 0.8558427 0.6106515 0.7712273 0.6555125 0.7710896 0.6556551 0.817585 0.6105218 0.728953 0.6553828 0.7288154 0.6555125 0.7710896 0.5408209 0.8080848 0.5406818 0.7627308 0.5855427 0.7625932 0.5406818 0.7627308 0.5405781 0.728953 0.5854391 0.7288154 0.9750362 0.769257 0.9824501 0.7692342 0.9829695 0.9385235 0.1565163 0.7057619 0.156539 0.6983506 0.1634175 0.6983717 0.9851865 0.3061617 0.9846671 0.475451 0.9772532 0.4754282 0.6961128 0.05921649 0.7029913 0.05919539 0.703014 0.06660717 0.9899407 0.1899858 0.9894217 0.02072864 0.9963001 0.02070754 0.9926102 0.30616 0.9994887 0.3061389 1 0.4728442 0.9820082 0.02070796 0.9894216 0.02070754 0.9894113 0.1900081 0.7030351 0.04534655 0.7091128 0.04536515 0.7090917 0.05224364 0.9882346 0.4861922 0.988245 0.6554927 0.9808316 0.6554923 0.9355691 0.3256761 0.9424475 0.325655 0.942464 0.3310267 0.9355691 0.3256761 0.9352113 0.2089854 0.9420897 0.2089643 0.9283328 0.2084816 0.9352113 0.2085027 0.9348353 0.3310478 0.9851968 0.4754395 0.9851865 0.3061389 0.9925999 0.3061394 0.1633964 0.712678 0.1580303 0.7126615 0.1580514 0.705783 0.9903829 0.9385347 0.9829695 0.9385352 0.9829798 0.7692347 0.0836839 0.8446692 0.09056234 0.844648 0.09057801 0.8497577 0.09783273 0.844648 0.09825843 0.9834459 0.09138 0.983467 0.09095424 0.9724329 0.0840758 0.972454 0.08369958 0.8497788 0.9740656 0.1899858 0.9745849 0.02067571 0.9819979 0.02069848 0.7098925 0.05277919 0.7099149 0.06007897 0.7030364 0.06010007 0.9803018 0.4861599 0.9808213 0.65547 0.9734083 0.6554927 0.7029913 0.04534655 0.703014 0.05275809 0.6961355 0.05277919 0.9972717 0.7692342 0.997791 0.9384856 0.9909125 0.9385067 0.9887642 0.4861917 0.9956427 0.4862128 0.9951235 0.6554746 0.7998598 0.2696251 0.8476194 0.2971972 0.8360288 0.3087877 0.4061091 0.6400336 0.3583461 0.6124557 0.3699352 0.6008666 0.3307648 0.5095428 0.3583369 0.4617831 0.3699274 0.4733736 0.3307648 0.5095428 0.3465969 0.5137861 0.3465997 0.5604514 0.5365874 0.5095554 0.5207558 0.5137968 0.4974204 0.4733814 0.4612464 0.4342144 0.5090095 0.4617923 0.4974204 0.4733814 0.7998598 0.2696251 0.7956165 0.2854571 0.7489511 0.28546 0.8751915 0.3449568 0.8751881 0.4001067 0.8593565 0.3958654 0.6693655 0.4001194 0.6693689 0.3449694 0.6852004 0.3492107 0.7998472 0.4754476 0.7446972 0.475451 0.7489405 0.459619 0.6693689 0.3449694 0.6969468 0.2972064 0.7085356 0.3087951 0.4612464 0.4342144 0.4570051 0.4500459 0.4103398 0.4500431 0.8751915 0.3449568 0.8593594 0.3492001 0.8360288 0.3087877 0.7446972 0.475451 0.6969376 0.447879 0.7085282 0.4362884 0.8751881 0.4001067 0.8476102 0.4478697 0.8360211 0.4362806 0.5365908 0.5647054 0.5207587 0.5604621 0.5207558 0.5137968 0.3307682 0.5646927 0.3465997 0.5604514 0.3699352 0.6008666 0.7447098 0.2696285 0.7489511 0.28546 0.7085356 0.3087951 0.6693655 0.4001194 0.6851975 0.3958761 0.7085282 0.4362884 0.4060965 0.434211 0.4103398 0.4500431 0.3699274 0.4733736 0.7998472 0.4754476 0.7956058 0.4596161 0.8360211 0.4362806 0.461259 0.640037 0.4570158 0.6242049 0.4974281 0.6008744 0.4061091 0.6400336 0.4103504 0.6242021 0.4570158 0.6242049 0.5365908 0.5647054 0.5090187 0.6124649 0.4974281 0.6008744 0.490485 0.710984 0.4005874 0.7118251 0.4905056 0.6982259 0.3653791 0.4169159 0.4545261 0.4374585 0.3652419 0.4281001 0.6680392 0.009538173 0.6675195 7.31036e-4 0.6807952 0.008807063 0.04438817 0.1371516 0.03162795 0.1364882 0.05146378 0.001134335 0.4926189 0.4569898 0.5275352 0.4574183 0.4924817 0.4681739 0.4003483 0.7833641 0.4005874 0.7118251 0.4902432 0.7836399 0.8214492 0.2682792 0.731622 0.2696251 0.8213932 0.2555211 0.6680392 0.009538173 0.5948884 0.009069979 0.6675195 7.31036e-4 0.04392284 0.1460967 0.03116261 0.1454333 0.04438817 0.1371516 0.01277685 0.8446614 0.01286494 0.9788152 0 0.844648 0.4003483 0.7833641 0.3654417 0.783257 0.4005874 0.7118251 0.02814424 0.4494131 0.01951754 0.6152487 0.01538401 0.4487499 0.8097156 0.4780949 0.8096085 0.5130015 0.7969574 0.4780742 0.496317 0.1556589 0.4979876 0.01953119 0.5312333 0.1560873 0.8488652 0.9508956 0.8484482 0.8149926 0.8837839 0.9507884 0.8727629 0.1958069 0.880834 0.186457 0.923881 0.1956501 0.3622263 0.9444705 0.3494494 0.9444571 0.3621188 0.7809066 0.4924817 0.4681739 0.5273979 0.4686024 0.4904448 0.6341443 0.880834 0.186457 0.8803256 0.02076065 0.9157527 0.1863501 0.4582241 0.1361277 0.4581142 0.1450799 0.3685895 0.1553218 0.6954634 0.2573533 0.6827076 0.2580842 0.6807952 0.008807063 0.496317 0.1556589 0.5312333 0.1560873 0.4962071 0.1646112 0.6827076 0.2580842 0.5956521 0.2580356 0.6680392 0.009538173 0.02872556 0.4382381 0.0159654 0.4375748 0.04392284 0.1460967 0.8131126 0.7951308 0.7019781 0.8148855 0.8123388 0.5429059 0.4581142 0.1450799 0.4545261 0.4374585 0.3684796 0.1642741 0.4962071 0.1646112 0.5311234 0.1650397 0.4926189 0.4569898 0.6961128 0.2683561 0.6833569 0.2690871 0.6954634 0.2573533 0.01538401 0.4487499 0.0159654 0.4375748 0.02814424 0.4494131 0.6833569 0.2690871 0.5956859 0.269057 0.6827076 0.2580842 0.731566 0.2568671 0.7313003 0.1681267 0.8213932 0.2555211 0.04392284 0.1460967 0.04438817 0.1371516 0.1159524 0.1451418 0.731566 0.2568671 0.6966572 0.2569742 0.7313003 0.1681267 0.2750824 0.6758373 0.3000091 0.1966627 0.4403268 0.674722 0.02814424 0.4494131 0.02872556 0.4382381 0.1168838 0.4488669 0.2357677 0.6982259 0.3464092 0.6996356 0.2354897 0.7863506 0.1111235 0.844648 4.41972e-4 0.8438707 0.1109158 0.7714993 0.3651134 0.7075086 0.3651548 0.770498 0.3464092 0.707489 0.4822351 0.643059 0.4904448 0.6341443 0.5333496 0.6436864 0.3621188 0.7809066 0.349342 0.7808932 0.3651548 0.770498 0.01951754 0.6152487 0.02200204 0.6243239 0.006757259 0.6145855 0.48553 0.717233 0.4814507 0.7069752 0.5282352 0.7177571 0.01867979 0.6881881 0 0.6872171 0.02200204 0.6243239 0.8729587 0.2596179 0.8727629 0.1958069 0.9240767 0.259461 0.4822351 0.643059 0.5333496 0.6436864 0.4814507 0.7069752 0.7968504 0.4781016 0.7967194 0.5207976 0.7812463 0.4780742 0.3635277 0.6982423 0.3651134 0.7075086 0.3479006 0.6982259 0.01661628 0.6983506 0.001009523 0.6975393 0.01867979 0.6881881 0.8771944 0.2696251 0.8729587 0.2596179 0.9199026 0.2694941 0.4001485 0.8549033 0.4900392 0.8562959 0.4000909 0.8676613 0.3651046 0.416916 0.3652419 0.4281001 0.2759577 0.4374586 0.5217418 0.009986937 0.5089817 0.009334146 0.5222076 0.001176714 0.1874664 0.1367129 0.1795568 7.41621e-4 0.2002223 0.1359713 0.2410414 0.437887 0.2759577 0.4374586 0.2411786 0.4490711 0.4003483 0.7833641 0.4902432 0.7836399 0.4001485 0.8549033 0.820833 0.06742298 0.8208553 0.08018112 0.7309992 0.06662827 0.5217418 0.009986937 0.5222076 0.001176714 0.5948884 0.009069979 0.1879866 0.1456549 0.1874664 0.1367129 0.2007425 0.1449133 0.1110353 0.9788019 0.09825843 0.9788152 0.1111235 0.844648 0.3654417 0.783257 0.4003483 0.7833641 0.3652419 0.8547962 0.2056249 0.4488688 0.2183808 0.4481274 0.2152686 0.6146486 0.8045121 0.04826623 0.791754 0.04828691 0.804405 0.0133596 0.2722596 0.1361277 0.2373434 0.1365561 0.270589 0 0.8480313 0.9508956 0.8131126 0.9507884 0.8484482 0.8149926 0.8297732 0.1039285 0.8216449 0.09462839 0.8646919 0.1038214 0.9409599 0.5229895 0.9408524 0.6865534 0.928183 0.5230029 0.2760949 0.4486427 0.2781318 0.614613 0.2411786 0.4490711 0.8297732 0.1039285 0.8646919 0.1038214 0.8302815 0.2696251 0.2722596 0.1361277 0.3618943 0.1553218 0.2723695 0.14508 0.4958385 0.2579657 0.5089817 0.009334146 0.5085987 0.2586184 0.2373434 0.1365561 0.2722596 0.1361277 0.2374532 0.1455084 0.5085987 0.2586184 0.5217418 0.009986937 0.5956521 0.2580356 0.2049751 0.4376977 0.1879866 0.1456549 0.217731 0.4369561 0.8131126 0.7951309 0.8138864 0.5429059 0.924247 0.8148855 0.2723695 0.14508 0.3620041 0.1642741 0.2759577 0.4374586 0.2374532 0.1455084 0.2723695 0.14508 0.2410414 0.437887 0.4952567 0.2689722 0.4958385 0.2579657 0.5080169 0.2696251 0.2183808 0.4481274 0.2056249 0.4488688 0.217731 0.4369561 0.5080169 0.2696251 0.5085987 0.2586184 0.5956859 0.269057 0.7310216 0.07938641 0.8208553 0.08018112 0.7313003 0.1681267 0.1879866 0.1456549 0.1159524 0.1451418 0.1874664 0.1367129 0.6961128 0.07949352 0.7310216 0.07938641 0.6963916 0.1682338 0.605575 0.6748239 0.4403268 0.674722 0.5777103 0.1958112 0.2056249 0.4488688 0.1168838 0.4488669 0.2049751 0.4376977 0.2352271 0.8744753 0.2354897 0.7863506 0.345875 0.8737444 0.1106747 0.6983506 0.1109158 0.7714993 0 0.699807 0.943847 0.7599515 0.9251426 0.759971 0.9438883 0.696962 0.2781318 0.614613 0.2863416 0.6235277 0.2432155 0.6150415 0.9408524 0.6865534 0.9438883 0.696962 0.9280755 0.6865667 0.2152686 0.6146486 0.2280245 0.6139071 0.2128396 0.6237385 0.2871259 0.687444 0.2830466 0.6977017 0.2360115 0.6880713 0.2165535 0.6875815 0.2128396 0.6237385 0.2352271 0.6864959 0.8214492 0.03081738 0.8725672 0.03066056 0.8216449 0.09462839 0.2863416 0.6235277 0.2871259 0.687444 0.2352271 0.6241551 0.7809842 0.4780742 0.7811152 0.5207703 0.7653801 0.4781016 0.9422612 0.7692179 0.9266341 0.7692342 0.943847 0.7599515 0.2186794 0.6977312 0.2165535 0.6875815 0.2342808 0.696824 0.8214492 0.03081738 0.8256233 0.02078449 0.8725672 0.03066056 0.7538189 0.8148855 0.7609741 0.8149074 0.7533689 0.9615935 0.9649546 0.4861829 0.9724388 0.4861599 0.9654047 0.6328909 0.9584955 0.4862027 0.9649546 0.4861829 0.9589456 0.6329107 0.951487 0.6328887 0.9443384 0.6329107 0.9510369 0.4861807 0.9584954 0.6328673 0.951487 0.6328887 0.9580454 0.4861592 0.9176142 0.961615 0.9104626 0.9616369 0.9171644 0.814907 0.7609741 0.8149074 0.7679752 0.814929 0.7605241 0.9616155 0.9246193 0.9615935 0.9176142 0.961615 0.9241694 0.8148854 0.733852 0.2315117 0.7019683 0.2316095 0.7337542 0.199624 0.7332596 0.5207977 0.7013829 0.5206999 0.7333984 0.4755488 0.7653801 0.4889099 0.7652823 0.5207976 0.7334963 0.4888121 0.7013829 0.5206998 0.6695044 0.5207976 0.7012441 0.475451 0.7595264 0 0.7596652 0.0452488 0.7281293 9.63141e-5 0.7279906 0 0.7281293 0.0452488 0.6961128 9.77462e-5 0.7462703 0.8150231 0.7461058 0.8686538 0.7014094 0.8148855 0.4953954 0.7741667 0.4952567 0.728953 0.5402563 0.774029 0.4955639 0.8291152 0.4953954 0.7741667 0.5404249 0.8289775 0.4957172 0.8790751 0.4955639 0.8291152 0.5405781 0.8789374 0.6562216 0.7288154 0.7010826 0.7289531 0.6560992 0.7687347 0.6560992 0.7687347 0.7009602 0.7688723 0.6559348 0.8223342 0.6559348 0.8223342 0.7007957 0.8224719 0.6557724 0.8752519 0.2352271 0.8828388 0.1903661 0.8829763 0.2351045 0.8428772 0.2351045 0.8428772 0.1902436 0.8430147 0.2349401 0.7892633 0.2349401 0.7892633 0.1900791 0.7894008 0.2347779 0.7363629 0.7461058 0.8686538 0.7459436 0.9215339 0.7012448 0.8685162 0.2346614 0.6983506 0.2347779 0.7363629 0.1898004 0.6984881 0.9635122 0.9574483 0.951999 0.9574837 0.9629348 0.7692342 0.8212248 0.5130015 0.8097156 0.5129662 0.821304 0.487196 0.9625414 0.2088677 0.9510282 0.208903 0.961964 0.02065354 0.8045912 0.03920048 0.8045121 0.01339489 0.8161012 0.03916513 0.9246453 0.2060739 0.9240767 0.0207327 0.9504508 0.2059947 0.9015741 0.4753719 0.8757686 0.475451 0.9009971 0.2871935 0.9657176 0.4754503 0.954205 0.475451 0.9657291 0.2872238 0.8422368 0.5129726 0.8327984 0.5130016 0.8421577 0.487167 0.9625414 0.02067571 0.974054 0.02067643 0.9625529 0.2089022 0.8841816 0.9447 0.9099872 0.9446209 0.8842072 0.953042 0.9438883 0.769155 0.9443063 0.6329107 0.9696939 0.7692342 0.9099872 0.9446209 0.8841816 0.9447 0.9095894 0.8148854 0.9750363 0.9574614 0.9635237 0.9574607 0.9750248 0.7692349 0.842316 0.4871704 0.8506492 0.487196 0.8422368 0.512976 0.9657406 0.2872245 0.9772533 0.2872238 0.9657292 0.475451 0.9279569 0.331127 0.9537624 0.3310478 0.9279812 0.339062 0.9537868 0.3389829 0.954205 0.4753718 0.9279812 0.339062 0.9509482 0.7692342 0.9514215 0.9235482 0.9251426 0.7693133 0.5973311 0.9170878 0.5858193 0.9170525 0.5979086 0.7288507 0.8327193 0.5129668 0.8213831 0.5130016 0.8326401 0.4871612 0.5984325 0.7288507 0.6099444 0.7288154 0.59901 0.9170879 0.8045912 0.06504136 0.8045121 0.03923577 0.8161008 0.06500607 0.1634175 0.8865341 0.1639948 0.6983506 0.1892231 0.8866133 0.9015741 0.287279 0.9273797 0.2871999 0.9021514 0.475451 0.5856819 0.8079472 0.5858193 0.8527243 0.5408209 0.8080848 0.1560881 0.7321643 0.1112272 0.7323018 0.1559845 0.6983506 0.1562272 0.7775305 0.1113663 0.777668 0.1560881 0.7321643 0.1563645 0.8222929 0.1115036 0.8224304 0.1562272 0.7775305 0.1563645 0.8222929 0.1564632 0.854457 0.1115036 0.8224304 0.8131126 0.8150231 0.8129753 0.8597683 0.7682517 0.8148855 0.8129753 0.8597683 0.8128361 0.9051486 0.7681144 0.8596307 0.6109114 0.8559803 0.6107941 0.8177227 0.6557724 0.8558427 0.6107941 0.8177227 0.6106515 0.7712273 0.6556551 0.817585 0.6106515 0.7712273 0.6105218 0.728953 0.6555125 0.7710896 0.5856819 0.8079472 0.5408209 0.8080848 0.5855427 0.7625932 0.5855427 0.7625932 0.5406818 0.7627308 0.5854391 0.7288154 0.9755556 0.9385462 0.9750362 0.769257 0.9829695 0.9385235 0.1633948 0.705783 0.1565163 0.7057619 0.1634175 0.6983717 0.9777725 0.3061389 0.9851865 0.3061617 0.9772532 0.4754282 0.6961355 0.06662827 0.6961128 0.05921649 0.703014 0.06660717 0.9968191 0.1899647 0.9899407 0.1899858 0.9963001 0.02070754 0.9931215 0.4728653 0.9926102 0.30616 1 0.4728442 0.9819979 0.1900085 0.9820082 0.02070796 0.9894113 0.1900081 0.703014 0.05222499 0.7030351 0.04534655 0.7090917 0.05224364 0.9808212 0.4861917 0.9882346 0.4861922 0.9808316 0.6554923 0.9355855 0.3310478 0.9355691 0.3256761 0.942464 0.3310267 0.9424475 0.325655 0.9355691 0.3256761 0.9420897 0.2089643 0.9279569 0.3310268 0.9283328 0.2084816 0.9348353 0.3310478 0.9926102 0.4754399 0.9851968 0.4754395 0.9925999 0.3061394 0.1634175 0.7057995 0.1633964 0.712678 0.1580514 0.705783 0.9903932 0.7692342 0.9903829 0.9385347 0.9829798 0.7692347 0.08369958 0.8497788 0.0836839 0.8446692 0.09057801 0.8497577 0.09095424 0.8446691 0.09783273 0.844648 0.09138 0.983467 0.09057801 0.8497577 0.09095424 0.9724329 0.08369958 0.8497788 0.9814785 0.1900085 0.9740656 0.1899858 0.9819979 0.02069848 0.703014 0.05280029 0.7098925 0.05277919 0.7030364 0.06010007 0.9728888 0.4861826 0.9803018 0.4861599 0.9734083 0.6554927 0.6961128 0.04536759 0.7029913 0.04534655 0.6961355 0.05277919 0.9903933 0.7692553 0.9972717 0.7692342 0.9909125 0.9385067 0.988245 0.6554535 0.9887642 0.4861917 0.9951235 0.6554746 0.7956165 0.2854571 0.7998598 0.2696251 0.8360288 0.3087877 0.4103504 0.6242021 0.4061091 0.6400336 0.3699352 0.6008666 0.3465969 0.5137861 0.3307648 0.5095428 0.3699274 0.4733736 0.3307682 0.5646927 0.3307648 0.5095428 0.3465997 0.5604514 0.5090095 0.4617923 0.5365874 0.5095554 0.4974204 0.4733814 0.4570051 0.4500459 0.4612464 0.4342144 0.4974204 0.4733814 0.7447098 0.2696285 0.7998598 0.2696251 0.7489511 0.28546 0.8593594 0.3492001 0.8751915 0.3449568 0.8593565 0.3958654 0.6851975 0.3958761 0.6693655 0.4001194 0.6852004 0.3492107 0.7956058 0.4596161 0.7998472 0.4754476 0.7489405 0.459619 0.6852004 0.3492107 0.6693689 0.3449694 0.7085356 0.3087951 0.4060965 0.434211 0.4612464 0.4342144 0.4103398 0.4500431 0.8476194 0.2971972 0.8751915 0.3449568 0.8360288 0.3087877 0.7489405 0.459619 0.7446972 0.475451 0.7085282 0.4362884 0.8593565 0.3958654 0.8751881 0.4001067 0.8360211 0.4362806 0.5365874 0.5095554 0.5365908 0.5647054 0.5207558 0.5137968 0.3583461 0.6124557 0.3307682 0.5646927 0.3699352 0.6008666 0.6969468 0.2972064 0.7447098 0.2696285 0.7085356 0.3087951 0.6969376 0.447879 0.6693655 0.4001194 0.7085282 0.4362884 0.3583369 0.4617831 0.4060965 0.434211 0.3699274 0.4733736 0.8476102 0.4478697 0.7998472 0.4754476 0.8360211 0.4362806 0.5090187 0.6124649 0.461259 0.640037 0.4974281 0.6008744 0.461259 0.640037 0.4061091 0.6400336 0.4570158 0.6242049 0.5207587 0.5604621 0.5365908 0.5647054 0.4974281 0.6008744</float_array>
          <technique_common>
            <accessor source="#WheelBarrow-mesh-map-0-array" count="1248" stride="2">
              <param name="S" type="float"/>
              <param name="T" type="float"/>
            </accessor>
          </technique_common>
        </source>
        <vertices id="WheelBarrow-mesh-vertices">
          <input semantic="POSITION" source="#WheelBarrow-mesh-positions"/>
        </vertices>
        <polylist material="Wood2-material" count="416">
          <input semantic="VERTEX" source="#WheelBarrow-mesh-vertices" offset="0"/>
          <input semantic="NORMAL" source="#WheelBarrow-mesh-normals" offset="1"/>
          <input semantic="TEXCOORD" source="#WheelBarrow-mesh-map-0" offset="2" set="0"/>
          <vcount>3 3 3 3 3 3 3 3 3 3 3 3 3 3 3 3 3 3 3 3 3 3 3 3 3 3 3 3 3 3 3 3 3 3 3 3 3 3 3 3 3 3 3 3 3 3 3 3 3 3 3 3 3 3 3 3 3 3 3 3 3 3 3 3 3 3 3 3 3 3 3 3 3 3 3 3 3 3 3 3 3 3 3 3 3 3 3 3 3 3 3 3 3 3 3 3 3 3 3 3 3 3 3 3 3 3 3 3 3 3 3 3 3 3 3 3 3 3 3 3 3 3 3 3 3 3 3 3 3 3 3 3 3 3 3 3 3 3 3 3 3 3 3 3 3 3 3 3 3 3 3 3 3 3 3 3 3 3 3 3 3 3 3 3 3 3 3 3 3 3 3 3 3 3 3 3 3 3 3 3 3 3 3 3 3 3 3 3 3 3 3 3 3 3 3 3 3 3 3 3 3 3 3 3 3 3 3 3 3 3 3 3 3 3 3 3 3 3 3 3 3 3 3 3 3 3 3 3 3 3 3 3 3 3 3 3 3 3 3 3 3 3 3 3 3 3 3 3 3 3 3 3 3 3 3 3 3 3 3 3 3 3 3 3 3 3 3 3 3 3 3 3 3 3 3 3 3 3 3 3 3 3 3 3 3 3 3 3 3 3 3 3 3 3 3 3 3 3 3 3 3 3 3 3 3 3 3 3 3 3 3 3 3 3 3 3 3 3 3 3 3 3 3 3 3 3 3 3 3 3 3 3 3 3 3 3 3 3 3 3 3 3 3 3 3 3 3 3 3 3 3 3 3 3 3 3 3 3 3 3 3 3 3 3 3 3 3 3 3 3 3 3 3 3 3 3 3 3 3 3 3 3 3 3 3 3 3 3 3 3 3 3 3 3 3 3 3 3 3 3 3 3 3 3 3 3 3 3 3 3 3 3 3 3 3 3 </vcount>
          <p>10 0 0 4 0 1 0 0 2 30 1 3 5 1 4 1 1 5 7 2 6 0 2 7 21 2 8 2 3 9 12 3 10 14 3 11 25 4 12 3 4 13 5 4 14 10 5 15 7 5 16 77 5 17 5 6 18 11 6 19 9 6 20 82 7 21 77 7 22 7 7 23 20 8 24 2 8 25 6 8 26 15 9 27 13 9 28 4 9 29 76 10 30 6 10 31 10 10 32 18 11 33 16 11 34 3 11 35 14 12 36 12 12 37 13 12 38 13 13 39 12 13 40 2 13 41 14 14 42 15 14 43 10 14 44 18 15 45 19 15 46 35 15 47 5 16 48 17 16 49 19 16 50 3 17 51 16 17 52 17 17 53 8 18 54 11 18 55 19 18 56 22 19 57 21 19 58 0 19 59 27 20 60 23 20 61 21 20 62 2 21 63 20 21 64 22 21 65 85 22 66 82 22 67 23 22 68 25 23 69 20 23 70 24 23 71 26 24 72 24 24 73 28 24 74 30 25 75 31 25 76 21 25 77 20 26 78 25 26 79 30 26 80 9 27 81 27 27 82 31 27 83 25 28 84 26 28 85 8 28 86 79 29 87 85 29 88 27 29 89 81 30 90 79 30 91 9 30 92 6 31 93 76 31 94 83 31 95 8 32 96 78 32 97 81 32 98 28 33 99 87 33 100 86 33 101 26 34 102 84 34 103 78 34 104 29 35 105 86 35 106 84 35 107 24 36 108 83 36 109 87 36 110 35 37 111 33 37 112 37 37 113 17 38 114 16 38 115 32 38 116 17 39 117 33 39 118 35 39 119 34 40 120 32 40 121 16 40 122 37 41 123 36 41 124 40 41 125 36 42 126 32 42 127 34 42 128 34 43 129 35 43 130 39 43 131 32 44 132 36 44 133 37 44 134 40 45 135 42 45 136 43 45 137 39 46 138 37 46 139 41 46 140 40 47 141 36 47 142 38 47 143 38 48 144 39 48 145 43 48 146 51 49 147 44 49 148 48 49 149 45 50 150 49 50 151 74 50 152 65 51 153 44 51 154 51 51 155 58 52 156 56 52 157 46 52 158 74 53 159 49 53 160 47 53 161 77 54 162 51 54 163 54 54 164 53 55 165 55 55 166 49 55 167 51 56 168 77 56 169 82 56 170 50 57 171 46 57 172 64 57 173 48 58 174 57 58 175 59 58 176 80 59 177 54 59 178 50 59 179 47 60 180 60 60 181 62 60 182 57 61 183 56 61 184 58 61 185 46 62 186 56 62 187 57 62 188 54 63 189 59 63 190 58 63 191 90 64 192 91 64 193 63 64 194 63 65 195 61 65 196 49 65 197 61 66 198 60 66 199 47 66 200 63 67 201 55 67 202 52 67 203 44 68 204 65 68 205 66 68 206 65 69 207 67 69 208 71 69 209 48 70 210 66 70 211 64 70 212 67 71 213 82 71 214 85 71 215 68 72 216 64 72 217 69 72 218 72 73 219 68 73 220 70 73 221 65 74 222 75 74 223 74 74 224 66 75 225 74 75 226 69 75 227 75 76 228 71 76 229 53 76 230 52 77 231 70 77 232 69 77 233 71 78 234 85 78 235 79 78 236 53 79 237 79 79 238 81 79 239 83 80 240 76 80 241 50 80 242 55 81 243 81 81 244 78 81 245 86 82 246 87 82 247 72 82 248 78 83 249 84 83 250 70 83 251 84 84 252 86 84 253 73 84 254 87 85 255 83 85 256 68 85 257 93 86 258 89 86 259 91 86 260 89 87 261 88 87 262 60 87 263 91 88 264 89 88 265 61 88 266 60 89 267 88 89 268 90 89 269 97 90 270 96 90 271 92 90 272 90 91 273 88 91 274 92 91 275 95 92 276 91 92 277 90 92 278 93 93 279 92 93 280 88 93 281 97 94 282 99 94 283 98 94 284 97 95 285 93 95 286 95 95 287 94 96 288 92 96 289 96 96 290 98 97 291 99 97 292 95 97 293 100 98 294 101 99 295 103 100 296 102 101 297 103 100 298 105 102 299 104 103 300 105 102 301 107 104 302 106 105 303 107 104 304 109 106 305 108 107 306 109 106 307 111 108 308 110 109 309 111 108 310 113 110 311 114 111 312 115 112 313 101 99 314 112 113 315 113 110 316 115 112 317 121 114 318 117 114 319 116 114 320 121 115 321 122 115 322 118 115 323 122 116 324 123 116 325 119 116 326 123 117 327 120 117 328 116 117 329 116 118 330 117 118 331 118 118 332 123 119 333 122 119 334 121 119 335 124 120 336 125 121 337 127 122 338 126 123 339 127 122 340 129 124 341 128 125 342 129 124 343 131 126 344 130 127 345 131 126 346 133 128 347 133 128 348 135 129 349 134 130 350 135 129 351 137 131 352 136 132 353 137 131 354 139 133 355 138 134 356 139 133 357 141 135 358 140 136 359 141 135 360 143 137 361 142 138 362 143 137 363 145 139 364 144 140 365 146 141 366 147 142 367 125 121 368 144 140 369 145 139 370 147 142 371 152 143 372 153 144 373 149 145 374 153 144 375 154 146 376 150 147 377 154 146 378 155 148 379 151 149 380 152 143 381 148 150 382 151 149 383 149 145 384 150 147 385 151 149 386 155 148 387 154 146 388 153 144 389 160 151 390 161 152 391 157 153 392 161 152 393 162 154 394 158 155 395 162 154 396 163 156 397 159 157 398 160 151 399 156 158 400 159 157 401 157 153 402 158 155 403 159 157 404 163 156 405 162 154 406 161 152 407 168 159 408 169 160 409 165 161 410 169 160 411 170 162 412 166 163 413 170 162 414 171 164 415 167 165 416 168 159 417 164 166 418 167 165 419 165 161 420 166 163 421 167 165 422 170 162 423 169 160 424 168 159 425 176 167 426 177 168 427 173 169 428 177 168 429 178 170 430 174 171 431 178 170 432 179 172 433 175 173 434 176 167 435 172 174 436 175 173 437 173 169 438 174 171 439 175 173 440 179 172 441 178 170 442 177 168 443 182 175 444 183 176 445 181 177 446 185 178 447 183 176 448 182 175 449 187 179 450 185 178 451 184 180 452 189 181 453 187 179 454 186 182 455 190 183 456 191 184 457 189 181 458 192 185 459 193 186 460 191 184 461 194 187 462 195 188 463 193 186 464 196 189 465 197 190 466 195 188 467 198 191 468 199 192 469 197 190 470 200 193 471 201 194 472 199 192 473 181 177 474 203 195 475 202 196 476 203 195 477 201 194 478 200 193 479 205 197 480 209 198 481 208 199 482 206 200 483 210 201 484 209 198 485 206 200 486 207 202 487 211 203 488 207 202 489 204 204 490 208 199 491 207 202 492 206 200 493 205 197 494 209 198 495 210 201 496 211 203 497 213 205 498 217 206 499 216 207 500 214 208 501 218 209 502 217 206 503 214 208 504 215 210 505 219 211 506 215 210 507 212 212 508 216 207 509 215 210 510 214 208 511 213 205 512 217 206 513 218 209 514 219 211 515 220 213 516 221 214 517 225 215 518 222 216 519 226 217 520 225 215 521 223 218 522 227 219 523 226 217 524 223 218 525 220 213 526 224 220 527 223 218 528 222 216 529 221 214 530 225 215 531 226 217 532 227 219 533 228 221 534 229 222 535 233 223 536 230 224 537 234 225 538 233 223 539 230 224 540 231 226 541 235 227 542 228 221 543 232 228 544 235 227 545 231 226 546 230 224 547 229 222 548 233 223 549 234 225 550 235 227 551 128 125 552 130 127 553 186 182 554 139 133 555 137 131 556 193 186 557 133 128 558 131 126 559 187 179 560 133 128 561 189 181 562 191 184 563 147 142 564 203 195 565 181 177 566 127 122 567 125 121 568 181 177 569 128 125 570 184 180 571 182 175 572 132 229 573 134 130 574 190 183 575 144 140 576 146 141 577 202 196 578 138 134 579 140 136 580 196 189 581 146 141 582 124 120 583 180 230 584 127 122 585 183 176 586 185 178 587 132 229 588 188 231 589 186 182 590 140 136 591 142 138 592 198 191 593 134 130 594 136 132 595 192 185 596 145 139 597 201 194 598 203 195 599 135 129 600 191 184 601 193 186 602 126 123 603 182 175 604 180 230 605 144 140 606 200 193 607 198 191 608 129 124 609 185 178 610 187 179 611 138 134 612 194 187 613 192 185 614 141 135 615 197 190 616 199 192 617 139 133 618 195 188 619 197 190 620 145 139 621 143 137 622 199 192 623 7 232 624 10 232 625 0 232 626 31 233 627 30 233 628 1 233 629 23 234 630 7 234 631 21 234 632 6 235 633 2 235 634 14 235 635 30 236 636 25 236 637 5 236 638 80 237 639 10 237 640 77 237 641 1 238 642 5 238 643 9 238 644 23 239 645 82 239 646 7 239 647 24 240 648 20 240 649 6 240 650 10 241 651 15 241 652 4 241 653 80 242 654 76 242 655 10 242 656 8 243 657 18 243 658 3 243 659 15 244 660 14 244 661 13 244 662 4 245 663 13 245 664 2 245 665 6 246 666 14 246 667 10 246 668 34 247 669 18 247 670 35 247 671 11 248 672 5 248 673 19 248 674 5 249 675 3 249 676 17 249 677 18 250 678 8 250 679 19 250 680 4 251 681 22 251 682 0 251 683 31 252 684 27 252 685 21 252 686 4 253 687 2 253 688 22 253 689 27 254 690 85 254 691 23 254 692 26 255 693 25 255 694 24 255 695 29 256 696 26 256 697 28 256 698 22 257 699 30 257 700 21 257 701 22 258 702 20 258 703 30 258 704 1 259 705 9 259 706 31 259 707 3 260 708 25 260 709 8 260 710 9 261 711 79 261 712 27 261 713 11 262 714 81 262 715 9 262 716 24 263 717 6 263 718 83 263 719 11 264 720 8 264 721 81 264 722 29 265 723 28 265 724 86 265 725 8 266 726 26 266 727 78 266 728 26 267 729 29 267 730 84 267 731 28 268 732 24 268 733 87 268 734 39 269 735 35 269 736 37 269 737 33 270 738 17 270 739 32 270 740 19 271 741 17 271 742 35 271 743 18 272 744 34 272 745 16 272 746 41 273 747 37 273 748 40 273 749 38 274 750 36 274 751 34 274 752 38 275 753 34 275 754 39 275 755 33 276 756 32 276 757 37 276 758 41 277 759 40 277 760 43 277 761 43 278 762 39 278 763 41 278 764 42 279 765 40 279 766 38 279 767 42 280 768 38 280 769 43 280 770 54 281 771 51 281 772 48 281 773 75 282 774 45 282 775 74 282 776 67 283 777 65 283 778 51 283 779 50 284 780 58 284 781 46 284 782 69 285 783 74 285 784 47 285 785 80 286 786 77 286 787 54 286 788 45 287 789 53 287 790 49 287 791 67 288 792 51 288 793 82 288 794 68 289 795 50 289 796 64 289 797 54 290 798 48 290 799 59 290 800 76 291 801 80 291 802 50 291 803 52 292 804 47 292 805 62 292 806 59 293 807 57 293 808 58 293 809 48 294 810 46 294 811 57 294 812 50 295 813 54 295 814 58 295 815 62 296 816 90 296 817 63 296 818 55 297 819 63 297 820 49 297 821 49 298 822 61 298 823 47 298 824 62 299 825 63 299 826 52 299 827 48 300 828 44 300 829 66 300 830 75 301 831 65 301 832 71 301 833 46 302 834 48 302 835 64 302 836 71 303 837 67 303 838 85 303 839 70 304 840 68 304 841 69 304 842 73 305 843 72 305 844 70 305 845 66 306 846 65 306 847 74 306 848 64 307 849 66 307 850 69 307 851 45 308 852 75 308 853 53 308 854 47 309 855 52 309 856 69 309 857 53 310 858 71 310 859 79 310 860 55 311 861 53 311 862 81 311 863 68 312 864 83 312 865 50 312 866 52 313 867 55 313 868 78 313 869 73 314 870 86 314 871 72 314 872 52 315 873 78 315 874 70 315 875 70 316 876 84 316 877 73 316 878 72 317 879 87 317 880 68 317 881 95 318 882 93 318 883 91 318 884 61 319 885 89 319 886 60 319 887 63 320 888 91 320 889 61 320 890 62 321 891 60 321 892 90 321 893 93 322 894 97 322 895 92 322 896 94 323 897 90 323 898 92 323 899 94 324 900 95 324 901 90 324 902 89 325 903 93 325 904 88 325 905 96 326 906 97 326 907 98 326 908 99 327 909 97 327 910 95 327 911 98 328 912 94 328 913 96 328 914 94 329 915 98 329 916 95 329 917 102 101 918 100 98 919 103 100 920 104 103 921 102 101 922 105 102 923 106 105 924 104 103 925 107 104 926 108 107 927 106 105 928 109 106 929 110 109 930 108 107 931 111 108 932 112 113 933 110 109 934 113 110 935 100 98 936 114 111 937 101 99 938 114 111 939 112 113 940 115 112 941 120 330 942 121 330 943 116 330 944 117 331 945 121 331 946 118 331 947 118 332 948 122 332 949 119 332 950 119 333 951 123 333 952 116 333 953 119 334 954 116 334 955 118 334 956 120 335 957 123 335 958 121 335 959 126 123 960 124 120 961 127 122 962 128 125 963 126 123 964 129 124 965 130 127 966 128 125 967 131 126 968 132 229 969 130 127 970 133 128 971 132 229 972 133 128 973 134 130 974 134 130 975 135 129 976 136 132 977 136 132 978 137 131 979 138 134 980 138 134 981 139 133 982 140 136 983 140 136 984 141 135 985 142 138 986 142 138 987 143 137 988 144 140 989 124 120 990 146 141 991 125 121 992 146 141 993 144 140 994 147 142 995 148 150 996 152 143 997 149 145 998 149 145 999 153 144 1000 150 147 1001 150 147 1002 154 146 1003 151 149 1004 155 148 1005 152 143 1006 151 149 1007 148 150 1008 149 145 1009 151 149 1010 152 143 1011 155 148 1012 153 144 1013 156 158 1014 160 151 1015 157 153 1016 157 153 1017 161 152 1018 158 155 1019 158 155 1020 162 154 1021 159 157 1022 163 156 1023 160 151 1024 159 157 1025 156 158 1026 157 153 1027 159 157 1028 160 151 1029 163 156 1030 161 152 1031 164 166 1032 168 159 1033 165 161 1034 165 161 1035 169 160 1036 166 163 1037 166 163 1038 170 162 1039 167 165 1040 171 164 1041 168 159 1042 167 165 1043 164 166 1044 165 161 1045 167 165 1046 171 164 1047 170 162 1048 168 159 1049 172 174 1050 176 167 1051 173 169 1052 173 169 1053 177 168 1054 174 171 1055 174 171 1056 178 170 1057 175 173 1058 179 172 1059 176 167 1060 175 173 1061 172 174 1062 173 169 1063 175 173 1064 176 167 1065 179 172 1066 177 168 1067 180 230 1068 182 175 1069 181 177 1070 184 180 1071 185 178 1072 182 175 1073 186 182 1074 187 179 1075 184 180 1076 188 231 1077 189 181 1078 186 182 1079 188 231 1080 190 183 1081 189 181 1082 190 183 1083 192 185 1084 191 184 1085 192 185 1086 194 187 1087 193 186 1088 194 187 1089 196 189 1090 195 188 1091 196 189 1092 198 191 1093 197 190 1094 198 191 1095 200 193 1096 199 192 1097 180 230 1098 181 177 1099 202 196 1100 202 196 1101 203 195 1102 200 193 1103 204 204 1104 205 197 1105 208 199 1106 205 197 1107 206 200 1108 209 198 1109 210 201 1110 206 200 1111 211 203 1112 211 203 1113 207 202 1114 208 199 1115 204 204 1116 207 202 1117 205 197 1118 208 199 1119 209 198 1120 211 203 1121 212 212 1122 213 205 1123 216 207 1124 213 205 1125 214 208 1126 217 206 1127 218 209 1128 214 208 1129 219 211 1130 219 211 1131 215 210 1132 216 207 1133 212 212 1134 215 210 1135 213 205 1136 216 207 1137 217 206 1138 219 211 1139 224 220 1140 220 213 1141 225 215 1142 221 214 1143 222 216 1144 225 215 1145 222 216 1146 223 218 1147 226 217 1148 227 219 1149 223 218 1150 224 220 1151 220 213 1152 223 218 1153 221 214 1154 224 220 1155 225 215 1156 227 219 1157 232 228 1158 228 221 1159 233 223 1160 229 222 1161 230 224 1162 233 223 1163 234 225 1164 230 224 1165 235 227 1166 231 226 1167 228 221 1168 235 227 1169 228 221 1170 231 226 1171 229 222 1172 232 228 1173 233 223 1174 235 227 1175 184 180 1176 128 125 1177 186 182 1178 195 188 1179 139 133 1180 193 186 1181 189 181 1182 133 128 1183 187 179 1184 135 129 1185 133 128 1186 191 184 1187 125 121 1188 147 142 1189 181 177 1190 183 176 1191 127 122 1192 181 177 1193 126 123 1194 128 125 1195 182 175 1196 188 231 1197 132 229 1198 190 183 1199 200 193 1200 144 140 1201 202 196 1202 194 187 1203 138 134 1204 196 189 1205 202 196 1206 146 141 1207 180 230 1208 129 124 1209 127 122 1210 185 178 1211 130 127 1212 132 229 1213 186 182 1214 196 189 1215 140 136 1216 198 191 1217 190 183 1218 134 130 1219 192 185 1220 147 142 1221 145 139 1222 203 195 1223 137 131 1224 135 129 1225 193 186 1226 124 120 1227 126 123 1228 180 230 1229 142 138 1230 144 140 1231 198 191 1232 131 126 1233 129 124 1234 187 179 1235 136 132 1236 138 134 1237 192 185 1238 143 137 1239 141 135 1240 199 192 1241 141 135 1242 139 133 1243 197 190 1244 201 194 1245 145 139 1246 199 192 1247</p>
        </polylist>
      </mesh>
    </geometry>
  </library_geometries>
  <library_controllers/>
  <library_visual_scenes>
    <visual_scene id="Scene" name="Scene">
      <node id="WheelBarrow" name="WheelBarrow" type="NODE">
        <matrix sid="transform">1 0 0 1.047486 0 1 0 0.4636499 0 0 1 0.2038318 0 0 0 1</matrix>
        <instance_geometry url="#WheelBarrow-mesh">
          <bind_material>
            <technique_common>
              <instance_material symbol="Wood2-material" target="#Wood2-material"/>
            </technique_common>
          </bind_material>
        </instance_geometry>
      </node>
      <node id="Camera" name="Camera" type="NODE">
        <matrix sid="transform">0.6858805 -0.3173701 0.6548619 8.789702 0.7276338 0.3124686 -0.6106656 -8.404783 -0.01081678 0.8953432 0.4452454 7.616721 0 0 0 1</matrix>
        <instance_camera url="#Camera-camera"/>
      </node>
      <node id="Lamp" name="Lamp" type="NODE">
        <matrix sid="transform">-0.2908646 -0.7711008 0.5663932 4.076245 0.9551712 -0.1998834 0.2183912 1.005454 -0.05518906 0.6045247 0.7946723 5.903862 0 0 0 1</matrix>
        <instance_light url="#Lamp-light"/>
      </node>
    </visual_scene>
  </library_visual_scenes>
  <scene>
    <instance_visual_scene url="#Scene"/>
  </scene>
</COLLADA>